{
  "soils": [
    {
      "soil_id": "XY01234567",
      "sl_loc_3": "Generic",
      "soil_long": "-99",
      "smke": "SA001",
      "sldp": "-99",
      "classification": "Orthic Luvisol ()",
      "sldr": "0.400",
      "salb": "0.13",
      "slu1": "9.600",
      "slro": "73.00",
      "slpf": "1.00",
      "soil_name": "HWSD DATABASE, SOIL 6705",
      "slnf": "1.00",
      "sl_loc_1": "Generic",
      "smpx": "SA001",
      "soilLayer": [
        {
          "slbs": "88.00",
          "slrgf": "1.000",
          "sldul": "0.250",
          "slbdm": "1.410",
          "slna": "0.110",
          "caco3": "0.000",
          "slsil": "32.00",
          "slll": "0.115",
          "slcly": "21.00",
          "slcec": "11.00",
          "slcf": "4.000",
          "sloc": "0.820",
          "sksat": "2.010",
          "slphw": "6.200",
          "slsat": "0.427",
          "sllb": "5"
        },
        {
          "slbs": "88.00",
          "slrgf": "1.000",
          "sldul": "0.250",
          "slbdm": "1.410",
          "slna": "0.110",
          "caco3": "0.000",
          "slsil": "32.00",
          "slll": "0.115",
          "slcly": "21.00",
          "slcec": "11.00",
          "slcf": "4.000",
          "sloc": "0.820",
          "sksat": "2.010",
          "slphw": "6.200",
          "slsat": "0.427",
          "sllb": "15"
        },
        {
          "slbs": "88.00",
          "slrgf": "0.941",
          "sldul": "0.250",
          "slbdm": "1.410",
          "slna": "0.110",
          "caco3": "0.000",
          "slsil": "32.00",
          "slll": "0.115",
          "slcly": "21.00",
          "slcec": "11.00",
          "slcf": "4.000",
          "sloc": "0.820",
          "sksat": "2.010",
          "slphw": "6.200",
          "slsat": "0.427",
          "sllb": "30"
        },
        {
          "slbs": "87.00",
          "slrgf": "0.333",
          "sldul": "0.299",
          "slbdm": "1.340",
          "slna": "0.120",
          "caco3": "0.000",
          "slsil": "29.00",
          "slll": "0.206",
          "slcly": "31.00",
          "slcec": "12.00",
          "slcf": "5.000",
          "sloc": "0.390",
          "sksat": "0.925",
          "slphw": "6.200",
          "slsat": "0.448",
          "sllb": "100"
        },
        {
          "slbs": "87.00",
          "slrgf": "0.042",
          "sldul": "0.299",
          "slbdm": "1.340",
          "slna": "0.120",
          "caco3": "0.000",
          "slsil": "29.00",
          "slll": "0.206",
          "slcly": "31.00",
          "slcec": "12.00",
          "slcf": "5.000",
          "sloc": "0.390",
          "sksat": "0.925",
          "slphw": "6.200",
          "slsat": "0.448",
          "sllb": "200"
        }
      ],
      "smhb": "SA001",
      "soil_lat": "-99",
      "sltx": "L",
      "sl_source": "HWSD"
    }
  ]
}