local  date /bin/date null null null
beagle date /bin/date null null null
uc3    date /bin/date null null null
mcs    date /bin/date null null null
midway date /bin/date null null null
communicado date /bin/date null null null
bridled date /bin/date null null null