{
  "soils": [
    {
      "soil_id": "XY01234567",
      "sl_loc_3": "Generic",
      "soil_long": "-99",
      "smke": "SA001",
      "sldp": "-99",
      "classification": "Chromic Cambisols (CMx)",
      "sldr": "0.400",
      "salb": "0.12",
      "slu1": "10.60",
      "slro": "73.00",
      "slpf": "1.00",
      "soil_name": "HWSD DATABASE, SOIL 27884",
      "slnf": "1.00",
      "sl_loc_1": "Generic",
      "smpx": "SA001",
      "soilLayer": [
        {
          "slbs": "90.00",
          "slrgf": "1.000",
          "sldul": "0.285",
          "slbdm": "1.340",
          "slna": "0.140",
          "caco3": "0.300",
          "slsil": "26.00",
          "slll": "0.178",
          "slcly": "32.00",
          "slcec": "14.00",
          "slcf": "1.000",
          "sloc": "0.930",
          "sksat": "1.070",
          "slphw": "6.700",
          "slsat": "0.439",
          "sllb": "5"
        },
        {
          "slbs": "90.00",
          "slrgf": "1.000",
          "sldul": "0.285",
          "slbdm": "1.340",
          "slna": "0.140",
          "caco3": "0.300",
          "slsil": "26.00",
          "slll": "0.178",
          "slcly": "32.00",
          "slcec": "14.00",
          "slcf": "1.000",
          "sloc": "0.930",
          "sksat": "1.070",
          "slphw": "6.700",
          "slsat": "0.439",
          "sllb": "15"
        },
        {
          "slbs": "90.00",
          "slrgf": "0.941",
          "sldul": "0.285",
          "slbdm": "1.340",
          "slna": "0.140",
          "caco3": "0.300",
          "slsil": "26.00",
          "slll": "0.178",
          "slcly": "32.00",
          "slcec": "14.00",
          "slcf": "1.000",
          "sloc": "0.930",
          "sksat": "1.070",
          "slphw": "6.700",
          "slsat": "0.439",
          "sllb": "30"
        },
        {
          "slbs": "97.00",
          "slrgf": "0.333",
          "sldul": "0.325",
          "slbdm": "1.330",
          "slna": "0.140",
          "caco3": "0.400",
          "slsil": "25.00",
          "slll": "0.210",
          "slcly": "34.00",
          "slcec": "14.00",
          "slcf": "1.000",
          "sloc": "0.380",
          "sksat": "0.370",
          "slphw": "6.900",
          "slsat": "0.415",
          "sllb": "100"
        },
        {
          "slbs": "97.00",
          "slrgf": "0.042",
          "sldul": "0.325",
          "slbdm": "1.330",
          "slna": "0.140",
          "caco3": "0.400",
          "slsil": "25.00",
          "slll": "0.210",
          "slcly": "34.00",
          "slcec": "14.00",
          "slcf": "1.000",
          "sloc": "0.380",
          "sksat": "0.370",
          "slphw": "6.900",
          "slsat": "0.415",
          "sllb": "200"
        }
      ],
      "smhb": "SA001",
      "soil_lat": "-99",
      "sltx": "CL",
      "sl_source": "HWSD"
    }
  ]
}