{
  "soils": [
    {
      "soil_id": "XY01234567",
      "sl_loc_3": "Generic",
      "soil_long": "-99",
      "smke": "SA001",
      "sldp": "-99",
      "classification": "Haplic Arenosols (ARh)",
      "sldr": "0.750",
      "salb": "0.15",
      "slu1": "6.650",
      "slro": "61.00",
      "slpf": "1.00",
      "soil_name": "HWSD DATABASE, SOIL 27859",
      "slnf": "1.00",
      "sl_loc_1": "Generic",
      "smpx": "SA001",
      "soilLayer": [
        {
          "slbs": "91.00",
          "slrgf": "1.000",
          "sldul": "0.087",
          "slbdm": "1.700",
          "slna": "0.090",
          "caco3": "0.000",
          "slsil": "6.000",
          "slll": "0.021",
          "slcly": "5.000",
          "slcec": "3.000",
          "slcf": "1.000",
          "sloc": "0.230",
          "sksat": "44.10",
          "slphw": "6.100",
          "slsat": "0.383",
          "sllb": "5"
        },
        {
          "slbs": "91.00",
          "slrgf": "1.000",
          "sldul": "0.087",
          "slbdm": "1.700",
          "slna": "0.090",
          "caco3": "0.000",
          "slsil": "6.000",
          "slll": "0.021",
          "slcly": "5.000",
          "slcec": "3.000",
          "slcf": "1.000",
          "sloc": "0.230",
          "sksat": "44.10",
          "slphw": "6.100",
          "slsat": "0.383",
          "sllb": "15"
        },
        {
          "slbs": "91.00",
          "slrgf": "0.941",
          "sldul": "0.087",
          "slbdm": "1.700",
          "slna": "0.090",
          "caco3": "0.000",
          "slsil": "6.000",
          "slll": "0.021",
          "slcly": "5.000",
          "slcec": "3.000",
          "slcf": "1.000",
          "sloc": "0.230",
          "sksat": "44.10",
          "slphw": "6.100",
          "slsat": "0.383",
          "sllb": "30"
        },
        {
          "slbs": "98.00",
          "slrgf": "0.333",
          "sldul": "0.094",
          "slbdm": "1.700",
          "slna": "0.060",
          "caco3": "0.000",
          "slsil": "5.000",
          "slll": "0.026",
          "slcly": "5.000",
          "slcec": "2.000",
          "slcf": "1.000",
          "sloc": "0.110",
          "sksat": "29.40",
          "slphw": "6.100",
          "slsat": "0.341",
          "sllb": "100"
        },
        {
          "slbs": "98.00",
          "slrgf": "0.042",
          "sldul": "0.094",
          "slbdm": "1.700",
          "slna": "0.060",
          "caco3": "0.000",
          "slsil": "5.000",
          "slll": "0.026",
          "slcly": "5.000",
          "slcec": "2.000",
          "slcf": "1.000",
          "sloc": "0.110",
          "sksat": "29.40",
          "slphw": "6.100",
          "slsat": "0.341",
          "sllb": "200"
        }
      ],
      "smhb": "SA001",
      "soil_lat": "-99",
      "sltx": "S",
      "sl_source": "HWSD"
    }
  ]
}