local  date /bin/date null null null
beagle date /bin/date null null null
uc3    date /bin/date null null null
mcs    date /bin/date null null null
midway date /bin/date null null null
blues  date /bin/date null null null
fusion date /bin/date null null null
