{
  "soils": [
    {
      "soil_id": "XY01234567",
      "sl_loc_3": "Generic",
      "soil_long": "-99",
      "smke": "SA001",
      "sldp": "-99",
      "classification": "Chromic Luvisol ()",
      "sldr": "0.400",
      "salb": "0.13",
      "slu1": "9.880",
      "slro": "73.00",
      "slpf": "1.00",
      "soil_name": "HWSD DATABASE, SOIL 4876",
      "slnf": "1.00",
      "sl_loc_1": "Generic",
      "smpx": "SA001",
      "soilLayer": [
        {
          "slbs": "89.00",
          "slrgf": "1.000",
          "sldul": "0.282",
          "slbdm": "1.390",
          "slna": "0.120",
          "caco3": "0.000",
          "slsil": "29.00",
          "slll": "0.147",
          "slcly": "24.00",
          "slcec": "12.00",
          "slcf": "9.000",
          "sloc": "0.860",
          "sksat": "0.625",
          "slphw": "6.400",
          "slsat": "0.378",
          "sllb": "5"
        },
        {
          "slbs": "89.00",
          "slrgf": "1.000",
          "sldul": "0.282",
          "slbdm": "1.390",
          "slna": "0.120",
          "caco3": "0.000",
          "slsil": "29.00",
          "slll": "0.147",
          "slcly": "24.00",
          "slcec": "12.00",
          "slcf": "9.000",
          "sloc": "0.860",
          "sksat": "0.625",
          "slphw": "6.400",
          "slsat": "0.378",
          "sllb": "15"
        },
        {
          "slbs": "89.00",
          "slrgf": "0.941",
          "sldul": "0.282",
          "slbdm": "1.390",
          "slna": "0.120",
          "caco3": "0.000",
          "slsil": "29.00",
          "slll": "0.147",
          "slcly": "24.00",
          "slcec": "12.00",
          "slcf": "9.000",
          "sloc": "0.860",
          "sksat": "0.625",
          "slphw": "6.400",
          "slsat": "0.378",
          "sllb": "30"
        },
        {
          "slbs": "93.00",
          "slrgf": "0.333",
          "sldul": "0.312",
          "slbdm": "1.330",
          "slna": "0.150",
          "caco3": "0.000",
          "slsil": "27.00",
          "slll": "0.206",
          "slcly": "34.00",
          "slcec": "15.00",
          "slcf": "8.000",
          "sloc": "0.380",
          "sksat": "0.597",
          "slphw": "6.300",
          "slsat": "0.413",
          "sllb": "100"
        },
        {
          "slbs": "93.00",
          "slrgf": "0.042",
          "sldul": "0.312",
          "slbdm": "1.330",
          "slna": "0.150",
          "caco3": "0.000",
          "slsil": "27.00",
          "slll": "0.206",
          "slcly": "34.00",
          "slcec": "15.00",
          "slcf": "8.000",
          "sloc": "0.380",
          "sksat": "0.597",
          "slphw": "6.300",
          "slsat": "0.413",
          "sllb": "200"
        }
      ],
      "smhb": "SA001",
      "soil_lat": "-99",
      "sltx": "L",
      "sl_source": "HWSD"
    }
  ]
}