{
  "soils": [
    {
      "soil_id": "XY01234567",
      "sl_loc_3": "Generic",
      "soil_long": "-99",
      "smke": "SA001",
      "sldp": "-99",
      "classification": "Vertic Cambisols (CMv)",
      "sldr": "0.400",
      "salb": "0.13",
      "slu1": "10.00",
      "slro": "73.00",
      "slpf": "1.00",
      "soil_name": "HWSD DATABASE, SOIL 9824",
      "slnf": "1.00",
      "sl_loc_1": "Generic",
      "smpx": "SA001",
      "soilLayer": [
        {
          "slbs": "82.00",
          "slrgf": "1.000",
          "sldul": "0.341",
          "slbdm": "1.380",
          "slna": "0.190",
          "caco3": "0.100",
          "slsil": "29.00",
          "slll": "0.162",
          "slcly": "26.00",
          "slcec": "19.00",
          "slcf": "7.000",
          "sloc": "0.770",
          "sksat": "0.240",
          "slphw": "6.900",
          "slsat": "0.414",
          "sllb": "5"
        },
        {
          "slbs": "82.00",
          "slrgf": "1.000",
          "sldul": "0.341",
          "slbdm": "1.380",
          "slna": "0.190",
          "caco3": "0.100",
          "slsil": "29.00",
          "slll": "0.162",
          "slcly": "26.00",
          "slcec": "19.00",
          "slcf": "7.000",
          "sloc": "0.770",
          "sksat": "0.240",
          "slphw": "6.900",
          "slsat": "0.414",
          "sllb": "15"
        },
        {
          "slbs": "82.00",
          "slrgf": "0.941",
          "sldul": "0.341",
          "slbdm": "1.380",
          "slna": "0.190",
          "caco3": "0.100",
          "slsil": "29.00",
          "slll": "0.162",
          "slcly": "26.00",
          "slcec": "19.00",
          "slcf": "7.000",
          "sloc": "0.770",
          "sksat": "0.240",
          "slphw": "6.900",
          "slsat": "0.414",
          "sllb": "30"
        },
        {
          "slbs": "90.00",
          "slrgf": "0.333",
          "sldul": "0.330",
          "slbdm": "1.300",
          "slna": "0.000",
          "caco3": "0.800",
          "slsil": "28.00",
          "slll": "0.217",
          "slcly": "37.00",
          "slcec": "25.00",
          "slcf": "10.00",
          "sloc": "0.380",
          "sksat": "1.080",
          "slphw": "7.300",
          "slsat": "0.484",
          "sllb": "100"
        },
        {
          "slbs": "90.00",
          "slrgf": "0.042",
          "sldul": "0.330",
          "slbdm": "1.300",
          "slna": "0.000",
          "caco3": "0.800",
          "slsil": "28.00",
          "slll": "0.217",
          "slcly": "37.00",
          "slcec": "25.00",
          "slcf": "10.00",
          "sloc": "0.380",
          "sksat": "1.080",
          "slphw": "7.300",
          "slsat": "0.484",
          "sllb": "200"
        }
      ],
      "smhb": "SA001",
      "soil_lat": "-99",
      "sltx": "L",
      "sl_source": "HWSD"
    }
  ]
}