{
  "soils": [
    {
      "soil_id": "XY01234567",
      "sl_loc_3": "Generic",
      "soil_long": "-99",
      "smke": "SA001",
      "sldp": "-99",
      "classification": "Dystric Cambisol ()",
      "sldr": "0.400",
      "salb": "0.13",
      "slu1": "9.600",
      "slro": "73.00",
      "slpf": "1.00",
      "soil_name": "HWSD DATABASE, SOIL 4290",
      "slnf": "1.00",
      "sl_loc_1": "Generic",
      "smpx": "SA001",
      "soilLayer": [
        {
          "slbs": "37.00",
          "slrgf": "1.000",
          "sldul": "0.340",
          "slbdm": "1.410",
          "slna": "0.120",
          "caco3": "0.000",
          "slsil": "39.00",
          "slll": "0.090",
          "slcly": "20.00",
          "slcec": "12.00",
          "slcf": "10.00",
          "sloc": "1.450",
          "sksat": "2.150",
          "slphw": "5.100",
          "slsat": "0.540",
          "sllb": "5"
        },
        {
          "slbs": "37.00",
          "slrgf": "1.000",
          "sldul": "0.340",
          "slbdm": "1.410",
          "slna": "0.120",
          "caco3": "0.000",
          "slsil": "39.00",
          "slll": "0.090",
          "slcly": "20.00",
          "slcec": "12.00",
          "slcf": "10.00",
          "sloc": "1.450",
          "sksat": "2.150",
          "slphw": "5.100",
          "slsat": "0.540",
          "sllb": "15"
        },
        {
          "slbs": "37.00",
          "slrgf": "0.941",
          "sldul": "0.340",
          "slbdm": "1.410",
          "slna": "0.120",
          "caco3": "0.000",
          "slsil": "39.00",
          "slll": "0.090",
          "slcly": "20.00",
          "slcec": "12.00",
          "slcf": "10.00",
          "sloc": "1.450",
          "sksat": "2.150",
          "slphw": "5.100",
          "slsat": "0.540",
          "sllb": "30"
        },
        {
          "slbs": "33.00",
          "slrgf": "0.333",
          "sldul": "0.240",
          "slbdm": "1.420",
          "slna": "0.090",
          "caco3": "0.000",
          "slsil": "35.00",
          "slll": "0.089",
          "slcly": "20.00",
          "slcec": "9.000",
          "slcf": "20.00",
          "sloc": "0.500",
          "sksat": "1.660",
          "slphw": "5.200",
          "slsat": "0.394",
          "sllb": "100"
        },
        {
          "slbs": "33.00",
          "slrgf": "0.042",
          "sldul": "0.240",
          "slbdm": "1.420",
          "slna": "0.090",
          "caco3": "0.000",
          "slsil": "35.00",
          "slll": "0.089",
          "slcly": "20.00",
          "slcec": "9.000",
          "slcf": "20.00",
          "sloc": "0.500",
          "sksat": "1.660",
          "slphw": "5.200",
          "slsat": "0.394",
          "sllb": "200"
        }
      ],
      "smhb": "SA001",
      "soil_lat": "-99",
      "sltx": "L",
      "sl_source": "HWSD"
    }
  ]
}