crank  bash /bin/bash null null null
churn  bash /bin/bash null null null
crush  bash /bin/bash null null null
grind  bash /bin/bash null null null
steamroller bash /bin/bash null null null
stomp  bash /bin/bash null null null
thrash bash /bin/bash null null null
thwomp bash /bin/bash null null null
trounce bash /bin/bash null null null
vanquish bash /bin/bash null null null
