{
  "soils": [
    {
      "soil_id": "XY01234567",
      "sl_loc_3": "Generic",
      "soil_long": "-99",
      "smke": "SA001",
      "sldp": "-99",
      "classification": "Haplic Phaeozem ()",
      "sldr": "0.400",
      "salb": "0.13",
      "slu1": "9.880",
      "slro": "73.00",
      "slpf": "1.00",
      "soil_name": "HWSD DATABASE, SOIL 4729",
      "slnf": "1.00",
      "sl_loc_1": "Generic",
      "smpx": "SA001",
      "soilLayer": [
        {
          "slbs": "87.00",
          "slrgf": "1.000",
          "sldul": "0.261",
          "slbdm": "1.380",
          "slna": "0.180",
          "caco3": "0.000",
          "slsil": "38.00",
          "slll": "0.110",
          "slcly": "23.00",
          "slcec": "18.00",
          "slcf": "7.000",
          "sloc": "1.830",
          "sksat": "2.370",
          "slphw": "6.400",
          "slsat": "0.464",
          "sllb": "5"
        },
        {
          "slbs": "87.00",
          "slrgf": "1.000",
          "sldul": "0.261",
          "slbdm": "1.380",
          "slna": "0.180",
          "caco3": "0.000",
          "slsil": "38.00",
          "slll": "0.110",
          "slcly": "23.00",
          "slcec": "18.00",
          "slcf": "7.000",
          "sloc": "1.830",
          "sksat": "2.370",
          "slphw": "6.400",
          "slsat": "0.464",
          "sllb": "15"
        },
        {
          "slbs": "87.00",
          "slrgf": "0.941",
          "sldul": "0.261",
          "slbdm": "1.380",
          "slna": "0.180",
          "caco3": "0.000",
          "slsil": "38.00",
          "slll": "0.110",
          "slcly": "23.00",
          "slcec": "18.00",
          "slcf": "7.000",
          "sloc": "1.830",
          "sksat": "2.370",
          "slphw": "6.400",
          "slsat": "0.464",
          "sllb": "30"
        },
        {
          "slbs": "92.00",
          "slrgf": "0.333",
          "sldul": "0.352",
          "slbdm": "1.400",
          "slna": "0.160",
          "caco3": "0.000",
          "slsil": "35.00",
          "slll": "0.179",
          "slcly": "22.00",
          "slcec": "16.00",
          "slcf": "3.000",
          "sloc": "0.640",
          "sksat": "0.330",
          "slphw": "6.800",
          "slsat": "0.443",
          "sllb": "100"
        },
        {
          "slbs": "92.00",
          "slrgf": "0.042",
          "sldul": "0.352",
          "slbdm": "1.400",
          "slna": "0.160",
          "caco3": "0.000",
          "slsil": "35.00",
          "slll": "0.179",
          "slcly": "22.00",
          "slcec": "16.00",
          "slcf": "3.000",
          "sloc": "0.640",
          "sksat": "0.330",
          "slphw": "6.800",
          "slsat": "0.443",
          "sllb": "200"
        }
      ],
      "smhb": "SA001",
      "soil_lat": "-99",
      "sltx": "L",
      "sl_source": "HWSD"
    }
  ]
}