<?xml version="1.0" encoding="utf-8"  standalone="no"?>
<!DOCTYPE svg PUBLIC "-//W3C//DTD SVG 1.1//EN" 
 "http://www.w3.org/Graphics/SVG/1.1/DTD/svg11.dtd">
<svg width="2000" height="800" viewBox="0 0 2000 800"
 xmlns="http://www.w3.org/2000/svg"
 xmlns:xlink="http://www.w3.org/1999/xlink"
>

<desc>Produced by GNUPLOT 4.4 patchlevel 3 </desc>

<defs>

	<circle id='gpDot' r='0.5' stroke-width='0.5'/>
	<path id='gpPt0' stroke-width='0.222' stroke='currentColor' d='M-1,0 h2 M0,-1 v2'/>
	<path id='gpPt1' stroke-width='0.222' stroke='currentColor' d='M-1,-1 L1,1 M1,-1 L-1,1'/>
	<path id='gpPt2' stroke-width='0.222' stroke='currentColor' d='M-1,0 L1,0 M0,-1 L0,1 M-1,-1 L1,1 M-1,1 L1,-1'/>
	<rect id='gpPt3' stroke-width='0.222' stroke='currentColor' x='-1' y='-1' width='2' height='2'/>
	<rect id='gpPt4' stroke-width='0.222' stroke='currentColor' fill='currentColor' x='-1' y='-1' width='2' height='2'/>
	<circle id='gpPt5' stroke-width='0.222' stroke='currentColor' cx='0' cy='0' r='1'/>
	<use xlink:href='#gpPt5' id='gpPt6' fill='currentColor' stroke='none'/>
	<path id='gpPt7' stroke-width='0.222' stroke='currentColor' d='M0,-1.33 L-1.33,0.67 L1.33,0.67 z'/>
	<use xlink:href='#gpPt7' id='gpPt8' fill='currentColor' stroke='none'/>
	<use xlink:href='#gpPt7' id='gpPt9' stroke='currentColor' transform='rotate(180)'/>
	<use xlink:href='#gpPt9' id='gpPt10' fill='currentColor' stroke='none'/>
	<use xlink:href='#gpPt3' id='gpPt11' stroke='currentColor' transform='rotate(45)'/>
	<use xlink:href='#gpPt11' id='gpPt12' fill='currentColor' stroke='none'/>
</defs>
<g style="fill:none; color:white; stroke:currentColor; stroke-width:1.00; stroke-linecap:butt; stroke-linejoin:miter">
</g>
<g style="fill:none; color:black; stroke:currentColor; stroke-width:1.00; stroke-linecap:butt; stroke-linejoin:miter">
	<path  d='M63.6,742.4 L72.6,742.4 M1975.0,742.4 L1966.0,742.4 '></path>
	<g transform="translate(55.3,746.9)" style="stroke:none; fill:black; font-family:Arial; font-size:12.00pt; text-anchor:end">
		<text><tspan>50</tspan>
		</text>
	</g>
	<path  d='M63.6,604.5 L72.6,604.5 M1975.0,604.5 L1966.0,604.5 '></path>
	<g transform="translate(55.3,609.0)" style="stroke:none; fill:black; font-family:Arial; font-size:12.00pt; text-anchor:end">
		<text><tspan>60</tspan>
		</text>
	</g>
	<path  d='M63.6,466.5 L72.6,466.5 M1975.0,466.5 L1966.0,466.5 '></path>
	<g transform="translate(55.3,471.0)" style="stroke:none; fill:black; font-family:Arial; font-size:12.00pt; text-anchor:end">
		<text><tspan>70</tspan>
		</text>
	</g>
	<path  d='M63.6,328.6 L72.6,328.6 M1975.0,328.6 L1966.0,328.6 '></path>
	<g transform="translate(55.3,333.1)" style="stroke:none; fill:black; font-family:Arial; font-size:12.00pt; text-anchor:end">
		<text><tspan>80</tspan>
		</text>
	</g>
	<path  d='M63.6,190.6 L72.6,190.6 M1975.0,190.6 L1966.0,190.6 '></path>
	<g transform="translate(55.3,195.1)" style="stroke:none; fill:black; font-family:Arial; font-size:12.00pt; text-anchor:end">
		<text><tspan>90</tspan>
		</text>
	</g>
	<path  d='M63.6,52.7 L72.6,52.7 M1975.0,52.7 L1966.0,52.7 '></path>
	<g transform="translate(55.3,57.2)" style="stroke:none; fill:black; font-family:Arial; font-size:12.00pt; text-anchor:end">
		<text><tspan>100</tspan>
		</text>
	</g>
	<path  d='M63.6,742.4 L63.6,733.4 M63.6,52.7 L63.6,61.7 '></path>
	<g transform="translate(63.6,764.9)" style="stroke:none; fill:black; font-family:Arial; font-size:12.00pt; text-anchor:middle">
		<text><tspan> 2000</tspan>
		</text>
	</g>
	<path  d='M276.0,742.4 L276.0,733.4 M276.0,52.7 L276.0,61.7 '></path>
	<g transform="translate(276.0,764.9)" style="stroke:none; fill:black; font-family:Arial; font-size:12.00pt; text-anchor:middle">
		<text><tspan> 4000</tspan>
		</text>
	</g>
	<path  d='M488.4,742.4 L488.4,733.4 M488.4,52.7 L488.4,61.7 '></path>
	<g transform="translate(488.4,764.9)" style="stroke:none; fill:black; font-family:Arial; font-size:12.00pt; text-anchor:middle">
		<text><tspan> 6000</tspan>
		</text>
	</g>
	<path  d='M700.7,742.4 L700.7,733.4 M700.7,52.7 L700.7,61.7 '></path>
	<g transform="translate(700.7,764.9)" style="stroke:none; fill:black; font-family:Arial; font-size:12.00pt; text-anchor:middle">
		<text><tspan> 8000</tspan>
		</text>
	</g>
	<path  d='M913.1,742.4 L913.1,733.4 M913.1,52.7 L913.1,61.7 '></path>
	<g transform="translate(913.1,764.9)" style="stroke:none; fill:black; font-family:Arial; font-size:12.00pt; text-anchor:middle">
		<text><tspan> 10000</tspan>
		</text>
	</g>
	<path  d='M1125.5,742.4 L1125.5,733.4 M1125.5,52.7 L1125.5,61.7 '></path>
	<g transform="translate(1125.5,764.9)" style="stroke:none; fill:black; font-family:Arial; font-size:12.00pt; text-anchor:middle">
		<text><tspan> 12000</tspan>
		</text>
	</g>
	<path  d='M1337.9,742.4 L1337.9,733.4 M1337.9,52.7 L1337.9,61.7 '></path>
	<g transform="translate(1337.9,764.9)" style="stroke:none; fill:black; font-family:Arial; font-size:12.00pt; text-anchor:middle">
		<text><tspan> 14000</tspan>
		</text>
	</g>
	<path  d='M1550.2,742.4 L1550.2,733.4 M1550.2,52.7 L1550.2,61.7 '></path>
	<g transform="translate(1550.2,764.9)" style="stroke:none; fill:black; font-family:Arial; font-size:12.00pt; text-anchor:middle">
		<text><tspan> 16000</tspan>
		</text>
	</g>
	<path  d='M1762.6,742.4 L1762.6,733.4 M1762.6,52.7 L1762.6,61.7 '></path>
	<g transform="translate(1762.6,764.9)" style="stroke:none; fill:black; font-family:Arial; font-size:12.00pt; text-anchor:middle">
		<text><tspan> 18000</tspan>
		</text>
	</g>
	<path  d='M1975.0,742.4 L1975.0,733.4 M1975.0,52.7 L1975.0,61.7 '></path>
	<g transform="translate(1975.0,764.9)" style="stroke:none; fill:black; font-family:Arial; font-size:12.00pt; text-anchor:middle">
		<text><tspan> 20000</tspan>
		</text>
	</g>
	<path  d='M63.6,52.7 L63.6,742.4 L1975.0,742.4 L1975.0,52.7 L63.6,52.7 Z '></path>
	<g transform="translate(17.6,397.6) rotate(270)" style="stroke:none; fill:black; font-family:Arial; font-size:12.00pt; text-anchor:middle">
		<text><tspan>Efficiency</tspan>
		</text>
	</g>
	<g transform="translate(1019.3,791.9)" style="stroke:none; fill:black; font-family:Arial; font-size:12.00pt; text-anchor:middle">
		<text><tspan>Number of Processors</tspan>
		</text>
	</g>
</g>
	<a xlink:title="Plot #1">
<g style="fill:none; color:white; stroke:currentColor; stroke-width:5.00; stroke-linecap:butt; stroke-linejoin:miter">
</g>
<g style="fill:none; color:red; stroke:currentColor; stroke-width:5.00; stroke-linecap:butt; stroke-linejoin:miter">
	<g transform="translate(768.9,22.5)" style="stroke:none; fill:black; font-family:Arial; font-size:12.00pt; text-anchor:end">
		<text><tspan>100 second tasks</tspan>
		</text>
	</g>
	<path stroke='rgb(255,   0,   0)'  d='M777.2,18.0 L819.4,18.0 M1849.3,599.5 L1550.2,508.5 L870.6,365.5 L191.0,207.7 '></path>
	<use xlink:href='#gpPt4' transform='translate(1849.3,599.5) scale(9.00)' color='rgb(255,   0,   0)'/>
	<use xlink:href='#gpPt4' transform='translate(1550.2,508.5) scale(9.00)' color='rgb(255,   0,   0)'/>
	<use xlink:href='#gpPt4' transform='translate(870.6,365.5) scale(9.00)' color='rgb(255,   0,   0)'/>
	<use xlink:href='#gpPt4' transform='translate(191.0,207.7) scale(9.00)' color='rgb(255,   0,   0)'/>
	<use xlink:href='#gpPt4' transform='translate(798.3,18.0) scale(9.00)' color='rgb(255,   0,   0)'/>
</g>
	</a>
	<a xlink:title="Plot #2">
<g style="fill:none; color:green; stroke:currentColor; stroke-width:5.00; stroke-linecap:butt; stroke-linejoin:miter">
	<g transform="translate(960.5,22.5)" style="stroke:none; fill:black; font-family:Arial; font-size:12.00pt; text-anchor:end">
		<text><tspan>200 second tasks</tspan>
		</text>
	</g>
	<path stroke='rgb(255, 165,   0)'  d='M968.8,18.0 L1011.0,18.0 M1550.2,315.2 L870.6,237.8 L191.0,136.8 '></path>
	<use xlink:href='#gpPt6' transform='translate(1550.2,315.2) scale(9.00)' color='rgb(255, 165,   0)'/>
	<use xlink:href='#gpPt6' transform='translate(870.6,237.8) scale(9.00)' color='rgb(255, 165,   0)'/>
	<use xlink:href='#gpPt6' transform='translate(191.0,136.8) scale(9.00)' color='rgb(255, 165,   0)'/>
	<use xlink:href='#gpPt6' transform='translate(989.9,18.0) scale(9.00)' color='rgb(255, 165,   0)'/>
</g>
	</a>
	<a xlink:title="Plot #3">
<g style="fill:none; color:blue; stroke:currentColor; stroke-width:5.00; stroke-linecap:butt; stroke-linejoin:miter">
	<g transform="translate(1152.1,22.5)" style="stroke:none; fill:black; font-family:Arial; font-size:12.00pt; text-anchor:end">
		<text><tspan>150 seconds</tspan>
		</text>
	</g>
	<path stroke='rgb(135, 206, 235)'  d='M1160.4,18.0 L1202.6,18.0 M191.0,188.2 L870.6,343.1 L1550.2,440.6 '></path>
	<use xlink:href='#gpPt6' transform='translate(191.0,188.2) scale(9.00)' color='rgb(135, 206, 235)'/>
	<use xlink:href='#gpPt6' transform='translate(870.6,343.1) scale(9.00)' color='rgb(135, 206, 235)'/>
	<use xlink:href='#gpPt6' transform='translate(1550.2,440.6) scale(9.00)' color='rgb(135, 206, 235)'/>
	<use xlink:href='#gpPt6' transform='translate(1181.5,18.0) scale(9.00)' color='rgb(135, 206, 235)'/>
</g>
	</a>
	<a xlink:title="Plot #4">
<g style="fill:none; color:cyan; stroke:currentColor; stroke-width:5.00; stroke-linecap:butt; stroke-linejoin:miter">
	<g transform="translate(1343.7,22.5)" style="stroke:none; fill:black; font-family:Arial; font-size:12.00pt; text-anchor:end">
		<text><tspan>400 seconds</tspan>
		</text>
	</g>
	<path stroke='rgb(165,  42,  42)'  d='M1352.0,18.0 L1394.2,18.0 M191.0,102.5 L870.6,152.8 L1550.2,201.4 '></path>
	<use xlink:href='#gpPt6' transform='translate(191.0,102.5) scale(9.00)' color='rgb(165,  42,  42)'/>
	<use xlink:href='#gpPt6' transform='translate(870.6,152.8) scale(9.00)' color='rgb(165,  42,  42)'/>
	<use xlink:href='#gpPt6' transform='translate(1550.2,201.4) scale(9.00)' color='rgb(165,  42,  42)'/>
	<use xlink:href='#gpPt6' transform='translate(1373.1,18.0) scale(9.00)' color='rgb(165,  42,  42)'/>
</g>
	</a>
<g style="fill:none; color:white; stroke:rgb(165,  42,  42); stroke-width:1.00; stroke-linecap:butt; stroke-linejoin:miter">
</g>
<g style="fill:none; color:black; stroke:currentColor; stroke-width:1.00; stroke-linecap:butt; stroke-linejoin:miter">
	<path  d='M63.6,52.7 L63.6,742.4 L1975.0,742.4 L1975.0,52.7 L63.6,52.7 Z '></path>
</g>
</svg>

