{
  "soils": [
    {
      "soil_id": "XY01234567",
      "sl_loc_3": "Generic",
      "soil_long": "-99",
      "smke": "SA001",
      "sldp": "-99",
      "classification": "Eutric Planosol ()",
      "sldr": "0.050",
      "salb": "0.13",
      "slu1": "9.560",
      "slro": "84.00",
      "slpf": "1.00",
      "soil_name": "HWSD DATABASE, SOIL 5042",
      "slnf": "1.00",
      "sl_loc_1": "Generic",
      "smpx": "SA001",
      "soilLayer": [
        {
          "slbs": "65.00",
          "slrgf": "1.000",
          "sldul": "0.267",
          "slbdm": "1.410",
          "slna": "0.330",
          "caco3": "0.000",
          "slsil": "38.00",
          "slll": "0.119",
          "slcly": "20.00",
          "slcec": "11.00",
          "slcf": "4.000",
          "sloc": "1.060",
          "sksat": "1.610",
          "slphw": "5.500",
          "slsat": "0.435",
          "sllb": "5"
        },
        {
          "slbs": "65.00",
          "slrgf": "1.000",
          "sldul": "0.267",
          "slbdm": "1.410",
          "slna": "0.330",
          "caco3": "0.000",
          "slsil": "38.00",
          "slll": "0.119",
          "slcly": "20.00",
          "slcec": "11.00",
          "slcf": "4.000",
          "sloc": "1.060",
          "sksat": "1.610",
          "slphw": "5.500",
          "slsat": "0.435",
          "sllb": "15"
        },
        {
          "slbs": "65.00",
          "slrgf": "0.941",
          "sldul": "0.267",
          "slbdm": "1.410",
          "slna": "0.330",
          "caco3": "0.000",
          "slsil": "38.00",
          "slll": "0.119",
          "slcly": "20.00",
          "slcec": "11.00",
          "slcf": "4.000",
          "sloc": "1.060",
          "sksat": "1.610",
          "slphw": "5.500",
          "slsat": "0.435",
          "sllb": "30"
        },
        {
          "slbs": "85.00",
          "slrgf": "0.333",
          "sldul": "0.320",
          "slbdm": "1.310",
          "slna": "0.510",
          "caco3": "0.000",
          "slsil": "32.00",
          "slll": "0.185",
          "slcly": "36.00",
          "slcec": "17.00",
          "slcf": "4.000",
          "sloc": "0.430",
          "sksat": "1.370",
          "slphw": "6.300",
          "slsat": "0.511",
          "sllb": "100"
        },
        {
          "slbs": "85.00",
          "slrgf": "0.042",
          "sldul": "0.320",
          "slbdm": "1.310",
          "slna": "0.510",
          "caco3": "0.000",
          "slsil": "32.00",
          "slll": "0.185",
          "slcly": "36.00",
          "slcec": "17.00",
          "slcf": "4.000",
          "sloc": "0.430",
          "sksat": "1.370",
          "slphw": "6.300",
          "slsat": "0.511",
          "sllb": "200"
        }
      ],
      "smhb": "SA001",
      "soil_lat": "-99",
      "sltx": "L",
      "sl_source": "HWSD"
    }
  ]
}