{
  "soils": [
    {
      "soil_id": "XY01234567",
      "sl_loc_3": "Generic",
      "soil_long": "-99",
      "smke": "SA001",
      "sldp": "-99",
      "classification": "Gelic Leptosols (LPi)",
      "sldr": "0.250",
      "salb": "0.13",
      "slu1": "8.560",
      "slro": "73.00",
      "slpf": "1.00",
      "soil_name": "HWSD DATABASE, SOIL 11765",
      "slnf": "1.00",
      "sl_loc_1": "Generic",
      "smpx": "SA001",
      "soilLayer": [
        {
          "slbs": "71.00",
          "slrgf": "1.000",
          "sldul": "0.208",
          "slbdm": "1.610",
          "slna": "0.000",
          "caco3": "0.000",
          "slsil": "38.00",
          "slll": "0.091",
          "slcly": "6.000",
          "slcec": "13.00",
          "slcf": "13.00",
          "sloc": "1.410",
          "sksat": "10.50",
          "slphw": "5.700",
          "slsat": "0.512",
          "sllb": "5"
        },
        {
          "slbs": "71.00",
          "slrgf": "1.000",
          "sldul": "0.208",
          "slbdm": "1.610",
          "slna": "0.000",
          "caco3": "0.000",
          "slsil": "38.00",
          "slll": "0.091",
          "slcly": "6.000",
          "slcec": "13.00",
          "slcf": "13.00",
          "sloc": "1.410",
          "sksat": "10.50",
          "slphw": "5.700",
          "slsat": "0.512",
          "sllb": "15"
        },
        {
          "slbs": "71.00",
          "slrgf": "0.941",
          "sldul": "0.208",
          "slbdm": "1.610",
          "slna": "0.000",
          "caco3": "0.000",
          "slsil": "38.00",
          "slll": "0.091",
          "slcly": "6.000",
          "slcec": "13.00",
          "slcf": "13.00",
          "sloc": "1.410",
          "sksat": "10.50",
          "slphw": "5.700",
          "slsat": "0.512",
          "sllb": "30"
        },
        {
          "slbs": "71.00",
          "slrgf": "0.333",
          "sldul": "0.208",
          "slbdm": "1.610",
          "slna": "0.000",
          "caco3": "0.000",
          "slsil": "38.00",
          "slll": "0.091",
          "slcly": "6.000",
          "slcec": "13.00",
          "slcf": "13.00",
          "sloc": "1.410",
          "sksat": "10.50",
          "slphw": "5.700",
          "slsat": "0.512",
          "sllb": "100"
        },
        {
          "slbs": "71.00",
          "slrgf": "0.042",
          "sldul": "0.208",
          "slbdm": "1.610",
          "slna": "0.000",
          "caco3": "0.000",
          "slsil": "38.00",
          "slll": "0.091",
          "slcly": "6.000",
          "slcec": "13.00",
          "slcf": "13.00",
          "sloc": "1.410",
          "sksat": "10.50",
          "slphw": "5.700",
          "slsat": "0.512",
          "sllb": "200"
        }
      ],
      "smhb": "SA001",
      "soil_lat": "-99",
      "sltx": "SL",
      "sl_source": "HWSD"
    }
  ]
}