ampl.tab 1 2
BUS	lat_bus	lon_bus
18001	-87.1581	37.36144
18008	-87.1581	37.36144
18035	-88.53312	36.759
18037	-88.53312	36.759
18401	-87.1581	37.36144
22653	-87.1581	41.5
22660	-87.1581	41.5
22663	-87.1581	41.5
22668	-87.1581	41.5
22671	-87.1581	41.5
25387	-87.1581	39.7712
25540	-87.1581	39.7712
27561	-87.1581	38.56632
27567	-87.1581	38.56632
27618	-87.1581	38.56632
28001	-87.1581	40.97608
28005	-87.1581	40.97608
28010	-87.1581	40.97608
28012	-87.1581	40.97608
28013	-87.1581	40.97608
28031	-87.1581	40.97608
28069	-87.1581	40.97608
28087	-87.1581	40.97608
30003	-89.55	38.22
30004	-89.55	38.22
30008	-88.05723	38.37623
30009	-88.05723	38.37623
30010	-88.05723	38.37623
30015	-90.43365	39.5594
30016	-90.43777778	39.56027778
30017	-90.43777778	39.56027778
30018	-90.67	39.92
30019	-90.43777778	39.56027778
30022	-90.67	39.92
30044	-89.18947	38.3291
30045	-89.18947	38.3291
30046	-89.18947	38.3291
30055	-89.74591	39.57729
30071	-88.8041	38.98811
30072	-88.8041	38.98811
30073	-88.8041	38.98811
30119	-88.91855	38.0071
30162	-89.11001	39.0079
30165	-89.55	38.22
30213	-90.1777	38.56481
30214	-90.1777	38.56481
30215	-90.1777	38.56481
30216	-90.1777	38.56481
30217	-90.1777	38.56481
30249	-89.50133333	37.9007
30265	-90.82482	37.96388
30266	-90.82482	37.96388
30274	-90.04038	40.56259
30282	-90.82482	37.96388
30291	-89.21747	37.72468
30292	-89.21747	37.72468
30309	-87.98937	39.3026
30334	-88.17611	39.48486
30351	-88.28154	39.83157
30369	-90.68157	39.93358
30386	-89.39061	39.08891
30387	-89.39061	39.08891
30395	-89.39061	39.08891
30396	-89.39061	39.08891
30397	-89.39061	39.08891
30431	-88.92949	37.73286
30439	-88.06449	38.16267
30492	-88.92949	37.9007
30500	-91.38874	39.93358
30516	-88.55098	39.11968
30524	-88.55098	39.11968
30584	-90.32334	40.02441
30612	-89.38284	40.46761
30613	-89.38284	40.46761
30614	-89.37865	40.46569
30615	-89.37865	40.46569
30622	-87.99617	40.76598
30639	-89.50133333	37.64191667
30640	-89.50133333	37.64191667
30666	-89.50133333	37.64191667
30667	-89.50133333	37.64191667
30668	-89.50133333	37.64191667
30669	-89.50133333	37.64191667
30670	-89.50133333	37.64191667
30671	-89.50133333	37.64191667
30685	-90.82482	37.96388
30693	-91.36337	40.38917
30694	-91.36337	40.38917
30695	-91.36337	40.38917
30704	-88.55	38.86
30712	-90.05695	40.29847
30728	-89.03172	37.8016
30729	-88.55	38.86
30730	-88.55	38.86
30731	-88.55	38.86
30736	-87.67091	40.46522
30744	-91.20512	39.70916
30770	-87.66066	39.10874
30771	-87.65972222	39.13388889
30772	-87.66066	39.10874
30780	-88.90379	38.15222
30788	-90.32334	40.35212
30789	-90.32334	40.35212
30797	-90.23441	39.72974
30822	-90.32809	39.11958
30825	-88.84432	37.20583
30830	-88.84432	37.20583
30831	-88.84432	37.20583
30832	-88.84432	37.20583
30840	-87.93998	39.5539
30841	-87.93998	39.5539
30849	-90.82482	37.96388
30859	-91.36337	40.38917
30861	-91.36337	40.38917
30870	-91.36337	40.38917
30876	-89.01277778	38.765
30877	-89.01277778	38.765
30878	-88.84964	38.77403
30886	-90.82482	37.96388
30905	-89.55	38.22
30906	-89.55	38.22
30919	-90.67	39.92
30931	-87.68797	38.72647
30948	-89.55	38.22
30949	-89.55	38.22
30966	-88.50738	38.76958
30990	-90.68157	40.47043
30991	-90.68157	40.47043
30992	-90.629555	39.48551889
30993	-90.45669	39.62946
30995	-90.45669	39.62946
30997	-89.50133333	37.64191667
30998	-89.50133333	37.64191667
30999	-89.23732	37.61917
31010	-88.55	38.86
31015	-92.173653	38.576099
31023	-88.94142	37.73286
31025	-88.94142	37.73286
31026	-88.94142	37.73286
31034	-90.82482	37.96388
31054	-89.6963	40.20186
31062	-88.36888	39.47707
31063	-88.36888	39.47707
31114	-90.68157	39.11958
31115	-90.68157	39.11958
31180	-90.55846	39.83157
31181	-90.55846	39.83157
31182	-90.55846	39.83157
31183	-90.55846	39.83157
31184	-90.56805556	39.8225
31185	-90.56805556	39.8225
31211	-92.173653	38.576099
31212	-92.173653	38.576099
31213	-92.173653	38.576099
31230	-90.82482	37.96388
31248	-89.16312	37.08562
31256	-89.01774	39.6254
31273	-90.82482	37.96388
31281	-87.77012	38.41725
31283	-87.77012	38.41725
31289	-88.51681	37.76501
31297	-88.07188	39.79768
31313	-92.173653	38.576099
31319	-89.01774	39.6254
31320	-89.60444	38.18499
31321	-88.45159	39.32168
31322	-88.45542	39.32161
31323	-88.55	38.86
31324	-88.55	38.86
31325	-88.55	38.86
31326	-88.55	38.86
31327	-88.55	38.86
31328	-88.55	38.86
31329	-88.55	38.86
31330	-88.16338	38.98811
31331	-88.16338	38.98811
31332	-88.27777778	38.93638889
31333	-88.27777778	38.93638889
31340	-91.38874	40.49342
31341	-91.38874	40.49342
31342	-91.38874	40.49342
31350	-88.32828	37.97951
31351	-88.32828	37.97951
31367	-88.08534	38.73146
31383	-89.55	38.22
31437	-90.82482	37.96388
31445	-89.07854	39.38666
31446	-89.07854	39.38666
31454	-87.69153	39.61557
31462	-89.58098	39.59206
31463	-89.58098	39.59206
31471	-88.0995	40.4584
31472	-88.0995	40.4584
31489	-90.82482	37.96388
31500	-89.38509	38.07741
31501	-89.3843	38.0782
31502	-89.3843	38.0782
31503	-89.3843	38.0782
31504	-89.3843	38.0782
31505	-89.3843	38.0782
31506	-89.3843	38.0782
31525	-90.82482	37.96388
31550	-91.38874	39.93358
31558	-91.38874	39.93358
31559	-91.38874	39.93358
31567	-89.11001	39.14388
31568	-89.11001	39.14388
31576	-88.15558	40.3034
31584	-89.55	38.22
31592	-89.55	38.22
31618	-88.15558	40.3034
31626	-87.7405	39.0079
31643	-90.37353	39.4847
31651	-89.76959	38.765
31652	-89.76959	38.765
31679	-89.55	38.22
31680	-89.55	38.22
31681	-89.55	38.22
31698	-91.38874	39.93358
31731	-88.8041	39.40709
31739	-88.07188	40.02441
31747	-90.82482	37.96388
31755	-90.82482	37.96388
31764	-90.82482	37.96388
31785	-89.24046	38.03129
31806	-89.26225	39.52151
31807	-89.26225	39.52151
31825	-89.24046	38.03129
31826	-89.24046	38.03129
31849	-88.28154	39.79768
31850	-88.28154	39.79768
31870	-90.82482	37.96388
31876	-90.16885	38.6721
31877	-90.16885	38.6721
31878	-90.175	38.65833333
31879	-90.16885	38.6721
31880	-90.16885	38.6721
31881	-90.16885	38.6721
31882	-90.16885	38.6721
31883	-90.16885	38.6721
31884	-90.16885	38.6721
31885	-90.16885	38.6721
31886	-90.16885	38.6721
31908	-89.76959	39.50494
31916	-88.92949	37.9007
31924	-88.92949	37.9007
31925	-88.92949	37.9007
31958	-87.73216	40.77597
31991	-88.80218	39.41
31993	-88.63712	38.63682
31994	-88.63712	38.63682
31995	-88.63712	38.63682
31996	-88.63712	38.63682
31997	-88.63712	38.63682
31998	-88.63712	38.63682
31999	-88.63712	38.63682
32268	-88.97362	40.47899
32269	-88.97362	40.47899
32271	-90.13472222	38.86388889
32272	-90.13472222	38.86388889
32273	-87.74805556	40.17805556
32274	-89.85444444	38.205
32275	-89.84466	38.18377
32276	-89.85444444	38.205
32277	-89.85444444	38.205
32278	-90.11642306	38.72205889
32279	-90.11642306	38.72205889
32280	-89.76959	38.765
32281	-89.60632	38.60784
32282	-89.43	38.39
32283	-89.43	38.39
32284	-89.71564	38.15283
32285	-89.85444444	38.205
32286	-89.68336	38.21195
32287	-90.13472222	38.86388889
32288	-89.46066	39.16264
32289	-90.13472222	38.86388889
32290	-90.13472222	38.86388889
32291	-90.13472222	38.86388889
32292	-90.13472222	38.86388889
32293	-89.5511	37.93022
32294	-90.13472222	38.86388889
32295	-89.81727	39.1254
32296	-89.78856	39.01261
32297	-89.6561	39.17591
32298	-89.81727	39.1254
32299	-90.13472222	38.86388889
32300	-90.13472222	38.86388889
32301	-90.15044	38.67675
32302	-90.13472222	38.86388889
32303	-90.15044	38.67675
32304	-89.4	39.21
32305	-90.13472222	38.86388889
32306	-90.20972	38.51755
32307	-90.00334	38.53002
32308	-90.13472222	38.86388889
32309	-89.99737	38.67845
32310	-90.10168	38.57727
32311	-90.00334	38.53002
32312	-90.00334	38.53002
32313	-89.79621	38.37793
32314	-90.00334	38.53002
32315	-89.68336	38.21195
32316	-89.60444	38.18499
32319	-89.71564	38.15283
32320	-89.66084	38.00758
32321	-89.84466	38.18377
32322	-90.00334	38.53002
32323	-89.43	38.39
32324	-89.80553	38.50916
32325	-90.00334	38.53002
32326	-89.37783	38.3482
32327	-88.76475	38.31763
32328	-88.76475	38.31763
32329	-89.01277778	38.3291
32330	-89.48833333	39.11958
32331	-89.46066	39.16264
32332	-89.40172	38.88934
32333	-89.12703	38.52288
32334	-89.18947	38.3291
32335	-88.96602	38.17634
32336	-88.95188	38.62832
32337	-89.43	38.39
32338	-89.11001	39.0079
32339	-90.00334	38.53002
32340	-89.54835	38.43423
32341	-89.43	38.39
32342	-89.43	38.39
32343	-89.17335	40.52893
32344	-89.35	40.93
32345	-88.83333333	40.16666667
32346	-88.83333333	40.16666667
32347	-88.8333333	40.4644444
32348	-88.8333333	40.4644444
32349	-88.95502	40.03827
32350	-88.95502	40.03827
32351	-88.86932	39.93796
32352	-88.86932	39.93796
32353	-88.8333333	39.79768
32355	-89.07854	39.38666
32356	-89.16197	39.96693
32357	-89.16197	39.96693
32358	-89.16197	39.96693
32359	-89.16197	39.96693
32360	-89.16197	39.96693
32361	-89.26225	39.79768
32362	-88.93393	39.85229
32363	-88.93393	39.85229
32364	-88.80218	39.93358
32365	-88.80218	39.93358
32366	-89.07854	39.83157
32367	-89.4	39.21
32368	-88.80218	39.93358
32369	-89.01774	39.6254
32370	-88.80218	39.93358
32371	-88.36888	39.79768
32372	-88.87861	39.77797
32373	-89.4	39.21
32374	-88.97362	40.47899
32375	-89.35	40.93
32376	-88.83333333	40.16666667
32377	-88.83333333	40.16666667
32378	-88.99948	40.51741
32379	-89.05707694	40.545
32380	-89.01486	40.73983
32381	-89.03753	40.90365
32382	-89.37865	40.1666667
32383	-89.37865	40.1666667
32384	-88.5	40.08
32385	-87.74805556	39.93796
32386	-87.74805556	39.93796
32387	-88.07188	40.02441
32388	-88.07188	40.02441
32389	-88.97362	40.47899
32390	-87.74805556	40.17805556
32391	-88.5	40.08
32392	-88.5	40.08
32393	-87.64515611	40.09773889
32394	-88.5	40.08
32395	-87.64515611	40.09773889
32396	-88.265	40.11303
32397	-88.40182	40.19388
32398	-88.76475	40.34162
32399	-88.5	40.08
32400	-88.265	40.11303
32401	-88.265	40.11303
32402	-88.265	40.11303
32403	-88.5	40.08
32404	-88.16338	40.11303
32405	-88.16338	40.11303
32407	-90.08	40.27972222
32408	-89.74029	40.08484
32409	-89.48189	40.01936
32410	-88.16338	40.11303
32411	-89.6788889	40.545
32412	-90.19331	39.67291
32415	-90.37806	40.95008
32416	-90.64313	40.91342
32417	-90.19331	40.49342
32418	-89.3197	41.25601
32419	-89.315	41.16326
32420	-89.315	41.16326
32421	-89.315	41.16326
32422	-89.46692	41.37848
32423	-89.92568	41.24118
32424	-89.35	40.93
32425	-89.46692	40.76598
32426	-89.06462	41.29457
32427	-88.83947	41.35028
32428	-88.83947	41.35028
32429	-89.09357	41.33999
32430	-89.09357	41.33999
32431	-88.68791	41.32781
32432	-88.83947	41.35028
32433	-89.35	40.93
32434	-89.46692	41.37848
32435	-89.05707694	41.293265
32436	-89.06462	41.29457
32437	-89.06462	41.29457
32439	-90.11642306	38.72205889
32440	-90.11642306	38.72205889
32441	-90.13472222	38.86388889
32442	-89.315	41.30277778
32443	-89.315	41.30277778
32444	-87.58746	39.57976
32445	-87.74805556	40.17805556
32446	-87.58746	39.57976
32447	-88.8333333	40.4644444
32448	-87.58746	39.57976
32476	-88.96164	40.15036
32510	-89.43	38.39
32512	-89.43	38.39
32530	-89.43	38.39
32567	-89.43	38.39
32568	-89.43	38.39
32570	-89.48448	39.16317
32571	-89.48448	39.16317
32597	-89.4	39.21
32600	-90.64313	40.91342
32601	-90.64313	40.91342
32602	-89.35	40.93
32603	-89.35	40.93
32604	-89.92568	41.24118
32605	-89.35	40.93
32606	-89.3197	41.25601
32607	-89.46692	41.37848
32608	-89.06462	41.29457
32609	-89.09357	41.33999
32610	-89.09357	41.33999
32611	-88.83947	41.35028
32612	-88.68791	41.32781
32613	-89.05707694	40.545
32614	-88.97362	40.47899
32615	-88.99948	40.51741
32616	-87.64515611	40.09773889
32617	-88.265	40.11303
32618	-88.265	40.11303
32619	-88.265	40.11303
32620	-88.265	40.11303
32622	-88.16338	40.11303
32623	-88.57166	39.92288
32624	-88.5916	39.79856
32625	-88.57166	39.92288
32626	-89.07854	39.83157
32627	-88.93393	39.85229
32628	-88.93393	39.85229
32629	-88.80218	39.93358
32630	-88.80218	39.93358
32632	-88.5	40.08
32633	-88.80218	39.93358
32634	-88.8333333	39.79768
32640	-88.80218	39.93358
32641	-89.4	39.21
32642	-90.11642306	38.72205889
32643	-89.4	39.21
32644	-89.99737	38.67845
32645	-89.4	39.21
32646	-89.4	39.21
32647	-89.4	39.21
32648	-90.15044	38.67675
32649	-90.11642306	38.72205889
32650	-89.48833333	39.11958
32651	-89.46066	39.16264
32652	-89.40172	38.88934
32653	-89.78856	39.01261
32654	-89.81727	39.1254
32655	-89.6561	39.17591
32656	-89.48833333	39.11958
32657	-89.48448	39.16317
32658	-90.10168	38.57727
32659	-90.00334	38.53002
32660	-89.4	39.21
32661	-89.43	38.39
32662	-90.2	38.51
32663	-90.00334	38.53002
32664	-90.00334	38.53002
32665	-90.00334	38.53002
32666	-90.00334	38.53002
32667	-89.66084	38.00758
32668	-89.71564	38.15283
32669	-89.68336	38.21195
32670	-89.43	38.39
32671	-89.01277778	38.3291
32672	-88.76475	38.31763
32673	-89.01277778	38.3291
32674	-89.60632	38.60784
32675	-89.11001	39.0079
32676	-89.10143	38.98101
32677	-89.48833333	39.11958
32678	-89.11942	38.61132
32679	-89.11942	38.61132
32680	-89.11942	38.61132
32681	-89.18947	38.3291
32682	-89.37783	38.3482
32683	-89.3843	38.0782
32684	-89.24046	38.03129
32685	-89.01277778	38.72205889
32686	-89.11942	38.61132
32687	-90.00334	38.53002
32703	-88.36888	40.09773889
32704	-88.36888	40.09773889
32705	-88.36888	40.09773889
32706	-88.36888	40.09773889
32707	-88.36888	40.09773889
32708	-88.36888	40.09773889
32709	-88.36888	40.09773889
32710	-88.36888	40.09773889
32711	-88.36888	40.09773889
32712	-88.36888	40.09773889
32713	-88.36888	40.09773889
32714	-88.36888	40.09773889
32999	-89.96485	38.72642
33001	-89.66333333	40.59611111
33002	-89.53	40.39
33023	-89.53	40.39
33029	-89.60257	40.75392889
33040	-89.53	40.39
33073	-89.53	40.39
33084	-89.66333333	40.59611111
33088	-89.53	40.39
33108	-89.66333333	40.76598
33134	-88.5916	39.79856
33135	-89.53	40.39
33136	-88.57166	39.92288
33137	-89.66333333	40.59611111
33138	-89.53	40.39
33139	-89.53	40.39
33140	-89.53	40.39
33141	-89.66333333	40.59611111
33143	-89.53	40.39
33144	-89.53	40.39
33146	-89.53	40.39
33147	-89.53	40.39
33148	-89.53	40.39
33150	-89.66333333	40.76598
33151	-89.53	40.39
33152	-89.53	40.39
33154	-89.53	40.39
33155	-89.53	40.39
33156	-89.52573	40.82349
33157	-89.66333333	39.57976
33158	-89.66333333	39.79768
33159	-89.39061	39.57976
33161	-89.9825	40.46444444
33162	-89.66333333	40.59611111
33174	-89.54792	40.67154
33175	-89.66333333	40.29847
33299	-89.60932	40.745
33300	-89.6282	40.56827
33301	-89.60083333	39.75472222
33302	-89.60083333	39.75472222
33303	-89.61452306	39.763355
33304	-89.63991	39.80694389
33305	-89.57426111	39.83132806
33306	-89.60083333	39.93358
33307	-89.60083333	39.93358
33308	-89.66333333	39.93358
33309	-89.66333333	39.93358
33310	-89.9825	39.93358
33311	-89.9825	39.93358
33312	-89.9825	39.75472222
33313	-89.9825	39.75472222
33314	-89.54206	39.86675
33315	-89.69718	39.67291
33316	-89.63822111	39.82230111
33317	-89.63822111	39.82230111
33318	-90.23441	39.72974
33319	-89.76	39.81
33320	-89.61712	39.81785
33321	-89.76	39.81
33322	-89.76	39.81
33323	-90.23441	39.72974
33324	-89.76	39.81
33325	-89.76	39.81
33326	-90.04732	39.62041
33327	-89.76	39.81
33328	-89.76	39.81
33330	-89.76	39.81
33331	-89.76	39.81
33332	-89.68197	39.7669
33333	-89.76	39.81
33334	-89.76	39.81
33335	-89.76	39.81
33336	-89.76	39.81
33337	-89.76	39.81
33338	-89.76	39.81
33340	-89.68197	39.7669
33351	-88.95	37.61666667
33352	-88.2777778	37.20583
33353	-88.30437	37.45088
33354	-90.04732	39.62041
33355	-89.84466	38.18377
33356	-88.2777778	37.76501
33357	-89.08	37.87
33358	-89.5511	37.93022
33359	-89.3843	37.9007
33360	-89.5511	37.93022
33361	-88.2777778	37.76501
33370	-89.84466	38.18377
33371	-89.08	37.87
33373	-89.5511	37.93022
33375	-88.30437	37.45088
33377	-90.04732	39.62041
33379	-89.08	37.87
33380	-89.3843	37.9007
33381	-89.33732	37.76812
33382	-88.95	37.61666667
33383	-88.2777778	37.20583
33385	-88.95	37.61666667
33386	-88.95	37.61666667
33387	-88.95	37.61666667
33388	-88.95	37.61666667
33389	-88.95	37.61666667
33391	-88.85861111	37.20833333
33392	-88.85861111	37.20833333
33393	-88.84432	37.20583
33394	-88.81983	37.2989
33395	-88.84432	37.20583
33396	-88.84432	37.20583
33471	-88.85861111	37.20833333
33472	-88.85861111	37.20833333
33473	-88.85861111	37.20833333
33475	-88.85861111	37.20833333
33478	-88.85861111	37.20833333
33481	-88.85861111	37.20833333
33482	-88.85861111	37.20833333
33483	-88.85861111	37.20833333
33484	-88.85861111	37.20833333
33485	-88.85861111	37.20833333
33486	-88.85861111	37.20833333
34036	-91.4	40.97608
34045	-91.4	40.97608
34078	-91.4	40.97608
34181	-91.4	40.97608
35975	-88.94024	41.79405
35976	-88.94024	41.79405
35977	-88.94024	41.79405
35978	-88.94024	41.79405
35979	-88.94024	41.79405
35981	-88.94024	41.79405
35982	-88.94024	41.79405
35983	-88.94024	41.79405
35984	-88.94024	41.79405
35985	-88.94024	41.79405
35986	-88.94024	41.79405
35987	-88.94024	41.79405
35988	-88.94024	41.79405
35990	-89.36699	40.15064
35991	-89.36699	40.15064
35992	-89.36699	40.15064
35993	-89.36699	40.15064
35994	-89.36699	40.15064
35995	-89.36699	40.15064
35996	-89.36699	40.15064
35997	-89.36699	40.15064
35998	-89.36699	40.15064
35999	-87.58245	41.76615
36000	-87.58245	41.76615
36001	-88.35194444	41.35166667
36002	-88.35194444	41.35166667
36003	-87.72277778	41.82944444
36004	-87.58245	41.76615
36005	-87.58245	41.76615
36006	-87.58245	41.76615
36007	-87.7981	41.7698
36008	-87.7981	41.7698
36009	-87.7981	41.7698
36010	-87.7981	41.7698
36011	-87.63761	41.50993
36012	-87.58245	41.76615
36013	-87.68147	41.65843
36014	-87.68147	41.65843
36015	-87.68147	41.65843
36016	-87.54122	41.63824
36017	-87.54122	41.63824
36018	-89.06462	42.21111611
36019	-89.06462	42.21111611
36020	-89.06462	42.21111611
36021	-88.35194444	41.35166667
36022	-87.72277778	41.82944444
36023	-87.72277778	41.82944444
36024	-87.72277778	41.82944444
36025	-87.72277778	41.82944444
36026	-87.86124	41.11548
36027	-87.86124	41.11548
36028	-87.83598	42.08333333
36029	-87.83598	42.08333333
36030	-87.83598	42.08333333
36031	-87.83598	42.08333333
36032	-88.42773	41.36868
36033	-88.42773	41.36868
36034	-87.68147	41.65843
36035	-88.24825	41.798
36036	-88.24825	41.798
36037	-88.24825	41.798
36038	-87.94369	41.89798
36039	-87.94369	41.89798
36040	-87.94369	41.89798
36041	-87.78659	42.05883
36042	-87.78659	42.05883
36043	-88.1225	41.52675
36044	-88.01856	41.97673
36045	-88.01856	41.97673
36046	-88.66666667	41.25
36047	-87.9661	42.28412
36048	-87.9661	42.28412
36049	-88.08784	41.79183
36050	-88.08784	41.79183
36051	-88.01503	41.87498
36052	-88.01503	41.87498
36053	-87.58245	41.76615
36054	-87.83588	41.79286
36055	-87.83588	41.79286
36056	-89.60267	41.79558
36057	-89.60267	41.79558
36058	-87.83302	42.12973
36059	-87.83302	42.12973
36060	-88.53491	41.66335
36061	-88.53491	41.66335
36063	-88.6419	40.87667
36064	-87.92482	42.10243
36065	-87.92482	42.10243
36066	-88.244576	42.23354
36067	-88.244576	42.23354
36068	-87.74001	42.03708
36069	-87.74001	42.03708
36070	-87.74001	42.03708
36071	-87.74001	42.03708
36072	-87.52166667	41.7075
36073	-87.52166667	41.7075
36074	-87.63588	41.86979
36075	-87.63588	41.86979
36078	-88.13838	42.06458
36081	-88.26136	41.95213
36082	-88.26136	41.95213
36084	-89.187002	42.336932
36085	-87.9888	41.42605
36086	-87.9888	41.42605
36088	-89.06325	42.27032
36089	-89.06325	42.27032
36092	-88.24825	41.798
36093	-88.1225	41.52675
36107	-87.7981	41.7698
36108	-87.7981	41.7698
36109	-87.7981	41.7698
36110	-87.7981	41.7698
36111	-87.63761	41.50993
36113	-87.68147	41.65843
36114	-87.68147	41.65843
36115	-87.68147	41.65843
36116	-87.54122	41.63824
36117	-87.54122	41.63824
36118	-89.06462	42.21111611
36119	-89.06462	42.21111611
36120	-89.06462	42.21111611
36121	-88.35194444	41.35166667
36122	-87.72277778	41.82944444
36123	-87.72277778	41.82944444
36124	-87.72277778	41.82944444
36125	-87.72277778	41.82944444
36126	-87.86124	41.11548
36127	-87.86124	41.11548
36128	-87.83598	42.08333333
36129	-87.83598	42.08333333
36130	-87.83598	42.08333333
36131	-87.83598	42.08333333
36132	-88.42773	41.36868
36133	-88.42773	41.36868
36134	-87.68147	41.65843
36135	-88.24825	41.798
36136	-88.24825	41.798
36137	-88.24825	41.798
36138	-87.94369	41.89798
36139	-87.94369	41.89798
36140	-87.94369	41.89798
36141	-87.78659	42.05883
36142	-87.78659	42.05883
36143	-88.1225	41.52675
36144	-88.01856	41.97673
36145	-88.01856	41.97673
36146	-88.66666667	41.25
36147	-87.9661	42.28412
36148	-87.9661	42.28412
36149	-88.08784	41.79183
36150	-88.08784	41.79183
36151	-88.01503	41.87498
36152	-88.01503	41.87498
36154	-87.83588	41.79286
36155	-87.83588	41.79286
36156	-89.60267	41.79558
36157	-89.60267	41.79558
36158	-87.83302	42.12973
36159	-87.83302	42.12973
36160	-88.53491	41.66335
36161	-88.53491	41.66335
36163	-88.6419	40.87667
36164	-87.92482	42.10243
36165	-87.92482	42.10243
36166	-88.244576	42.23354
36167	-88.244576	42.23354
36168	-87.74001	42.03708
36169	-87.74001	42.03708
36170	-87.74001	42.03708
36171	-87.74001	42.03708
36172	-87.52166667	41.70722222
36173	-87.52166667	41.70722222
36174	-87.63588	41.86979
36175	-87.63588	41.86979
36178	-88.13838	42.06458
36181	-88.26136	41.95213
36182	-88.26136	41.95213
36184	-89.187002	42.336932
36185	-87.9888	41.42605
36186	-87.9888	41.42605
36192	-88.24825	41.798
36193	-88.1225	41.52675
36194	-89.60267	41.79558
36198	-88.08784	41.79183
36212	-87.99267	42.00578
36213	-87.99267	42.00578
36255	-88.35194444	41.35166667
36258	-88.53491	41.66335
36260	-87.9888	41.42605
36261	-87.54122	41.63824
36264	-87.7981	41.7698
36265	-87.7981	41.7698
36267	-87.7981	41.7698
36268	-87.63761	41.50993
36270	-87.68147	41.65843
36271	-87.68147	41.65843
36272	-87.68147	41.65843
36273	-87.68147	41.65843
36274	-88.13333333	41.25
36275	-88.13333333	41.25
36277	-88.6419	40.87667
36278	-87.54122	41.63824
36279	-87.54122	41.63824
36280	-89.25837	42.12842
36281	-89.25837	42.12842
36282	-87.54959	41.61179
36284	-90.32215	41.67807
36288	-89.06462	42.21111611
36289	-89.06462	42.21111611
36291	-88.35194444	41.35166667
36294	-87.72277778	41.82944444
36295	-87.72277778	41.82944444
36298	-87.86124	41.11548
36299	-87.86124	41.11548
36300	-87.83598	42.08333333
36301	-87.83598	42.08333333
36302	-88.26666667	41.38333333
36303	-88.26666667	41.38333333
36308	-87.83598	41.49702
36309	-87.83598	41.49702
36310	-88.24825	41.798
36311	-88.24825	41.798
36312	-87.94369	41.89798
36313	-87.94369	41.89798
36314	-88.10903	41.4121
36315	-88.10903	41.4121
36317	-88.28	41.59
36319	-88.28	41.59
36321	-88.28	41.59
36323	-88.28	41.59
36325	-88.28	41.59
36327	-88.28	41.59
36330	-87.94369	41.89798
36332	-87.78659	42.05883
36333	-87.78659	42.05883
36334	-88.1225	41.52675
36335	-88.1225	41.52675
36336	-88.1225	41.52675
36337	-88.1225	41.52675
36338	-88.01856	41.97673
36339	-88.01856	41.97673
36340	-88.12444444	41.495
36341	-88.12444444	41.495
36342	-89.48833333	39.59083333
36343	-89.48833333	39.59083333
36344	-88.6419	40.87667
36345	-88.6419	40.87667
36346	-88.66666667	41.25
36347	-88.66666667	41.25
36348	-89.16197	39.96693
36349	-88.24825	41.798
36350	-87.9661	42.28412
36351	-87.9661	42.28412
36352	-88.08784	41.79183
36353	-88.08784	41.79183
36354	-88.04791	41.58946
36355	-88.04791	41.58946
36356	-88.01503	41.87498
36357	-88.01503	41.87498
36358	-88.08784	41.79183
36360	-87.83588	41.79286
36361	-87.83588	41.79286
36362	-89.60267	41.79558
36363	-89.60267	41.79558
36364	-87.83302	42.12973
36365	-87.83302	42.12973
36368	-89.14	42.12
36372	-88.53491	41.66335
36373	-88.53491	41.66335
36374	-88.53491	41.66335
36375	-88.53491	41.66335
36378	-89.67888889	40.545
36379	-89.67888889	40.545
36380	-87.92482	42.10243
36381	-87.92482	42.10243
36382	-90.32215	41.67807
36389	-88.244576	42.23354
36390	-87.74001	42.03708
36391	-87.74001	42.03708
36392	-87.52166667	41.7075
36393	-87.52166667	41.7075
36394	-87.63588	41.86979
36395	-87.63588	41.86979
36396	-87.83588	41.79286
36397	-87.83588	41.79286
36398	-88.13838	42.06458
36404	-88.26136	41.95213
36405	-88.26136	41.95213
36406	-89.187002	42.336932
36407	-89.187002	42.336932
36414	-87.9888	41.42605
36415	-87.9888	41.42605
36420	-87.84314	42.45667
36421	-87.84314	42.45667
36426	-87.84314	42.45667
36427	-87.84314	42.45667
36428	-87.94	42.14
36429	-87.94	42.14
36432	-87.94	42.14
36433	-87.94	42.14
36438	-87.84314	42.45667
36439	-87.84314	42.45667
36440	-87.8	41.63
36441	-87.8	41.63
36442	-87.8	41.63
36443	-87.8	41.63
36448	-88.00869	41.9306
36449	-88.00869	41.9306
36451	-87.8	41.63
36453	-87.8	41.63
36456	-89.06325	42.27032
36457	-89.06325	42.27032
36458	-89.06325	42.27032
36459	-89.06325	42.27032
36460	-87.8	41.63
36461	-87.8	41.63
36462	-87.73583	41.67038
36463	-87.73583	41.67038
36464	-87.73583	41.67038
36465	-87.73583	41.67038
36466	-88.00869	41.9306
36467	-88.00869	41.9306
36468	-88.00869	41.9306
36469	-88.00869	41.9306
36470	-89.07	40.84
36471	-89.07	40.84
36472	-89.67888889	40.545
36473	-89.67888889	40.545
36474	-87.8	41.63
36475	-87.8	41.63
36476	-87.8	41.63
36477	-87.8	41.63
36478	-88.28	41.59
36479	-88.28	41.59
36480	-88.28	41.59
36481	-88.28	41.59
36482	-88.07962	42.47475
36483	-88.07962	42.47475
36484	-88.07962	42.47475
36485	-88.07962	42.47475
36486	-88.00292	42.19541
36487	-88.00292	42.19541
36488	-87.73248	41.80026
36489	-87.73248	41.80026
36491	-87.8	41.63
36492	-87.9821	42.09498
36493	-87.9821	42.09498
36494	-88.30055	42.16426
36495	-88.30055	42.16426
36496	-88.30055	42.16426
36497	-88.30055	42.16426
36498	-87.8	41.63
36499	-87.8	41.63
36500	-87.8	41.63
36501	-87.8	41.63
36507	-87.8	41.63
36508	-88.24983	42.20897
36509	-88.24983	42.20897
36510	-88.12931	42.15186
36511	-88.12931	42.15186
36512	-88.20543	41.97903
36513	-88.20543	41.97903
36514	-88.20543	41.97903
36515	-88.20543	41.97903
36518	-87.7981	41.7698
36519	-87.7981	41.7698
36520	-87.7981	41.7698
36521	-87.7981	41.7698
36522	-88.04791	41.58946
36523	-88.04791	41.58946
36524	-88.04791	41.58946
36525	-88.04791	41.58946
36526	-89.06325	42.27032
36527	-89.06325	42.27032
36528	-89.06325	42.27032
36529	-89.06325	42.27032
36530	-87.87638	41.88293
36531	-87.87638	41.88293
36532	-88.84842	42.25261
36533	-88.84842	42.25261
36536	-87.91236	41.88848
36537	-87.91236	41.88848
36540	-87.65348	41.70308
36541	-87.65348	41.70308
36542	-87.65348	41.70308
36543	-87.65348	41.70308
36544	-88.2	41.35
36546	-88.2	41.35
36548	-88.2	41.35
36552	-89.06551	42.17465
36553	-89.06551	42.17465
36554	-89.06551	42.17465
36555	-89.06551	42.17465
36556	-87.63761	41.50993
36557	-87.63761	41.50993
36558	-87.68147	41.65843
36559	-87.68147	41.65843
36560	-88.07723	41.70043
36561	-88.07723	41.70043
36562	-87.88042	41.16326
36563	-87.68147	41.65843
36564	-87.80594	41.73878
36565	-87.80594	41.73878
36566	-88.1225	41.52675
36567	-88.1225	41.52675
36568	-87.9634	42.16633
36569	-87.9634	42.16633
36570	-87.54122	41.63824
36571	-87.54122	41.63824
36572	-87.92066	41.75093
36573	-87.92066	41.75093
36574	-87.92066	41.75093
36575	-87.92066	41.75093
36576	-87.93762	42.06543
36577	-87.93762	42.06543
36578	-88.0543	41.8311
36579	-88.0543	41.8311
36580	-87.8	41.63
36581	-87.8	41.63
36582	-87.54959	41.61179
36583	-87.54959	41.61179
36584	-87.94	42.14
36585	-87.94	42.14
36588	-88.28	41.59
36589	-88.28	41.59
36590	-88.28	41.59
36591	-88.28	41.59
36592	-88.28	41.59
36593	-88.28	41.59
36594	-89.06325	42.27032
36595	-89.06325	42.27032
36596	-87.72	41.86
36597	-87.72	41.86
36598	-89.06462	42.21111611
36599	-89.06462	42.21111611
36600	-87.63761	41.50993
36601	-87.63761	41.50993
36602	-87.63761	41.50993
36603	-87.63761	41.50993
36604	-88.00869	41.9306
36605	-88.00869	41.9306
36606	-89.14	42.12
36608	-89.14	42.12
36609	-89.14	42.12
36612	-87.8	41.63
36613	-87.8	41.63
36614	-87.8	41.63
36615	-87.8	41.63
36616	-87.8	41.63
36617	-87.8	41.63
36618	-87.8	41.63
36619	-87.8	41.63
36620	-87.65594	41.91438
36621	-87.65594	41.91438
36624	-87.65594	41.91438
36625	-87.65594	41.91438
36626	-87.69048	41.87479
36627	-87.69048	41.87479
36628	-87.7253	41.56318
36629	-87.7253	41.56318
36630	-87.7253	41.56318
36631	-87.7253	41.56318
36632	-87.72277778	41.82944444
36633	-87.72277778	41.82944444
36634	-87.72277778	41.82944444
36635	-87.72277778	41.82944444
36636	-87.72277778	41.82944444
36637	-87.72277778	41.82944444
36640	-87.72277778	41.82944444
36641	-87.72277778	41.82944444
36642	-87.72277778	41.82944444
36643	-87.72277778	41.82944444
36644	-87.74034	41.64528
36645	-87.74034	41.64528
36648	-87.64624	41.90322
36649	-87.64624	41.90322
36652	-88.33062	42.23187
36653	-88.33062	42.23187
36654	-87.65594	41.91438
36655	-87.65594	41.91438
36656	-87.67678	41.75008
36657	-87.67678	41.75008
36658	-87.86124	41.11548
36659	-87.86124	41.11548
36660	-87.86124	41.11548
36661	-87.86124	41.11548
36666	-87.84997	42.16563
36667	-87.84997	42.16563
36668	-87.84997	42.16563
36669	-87.84997	42.16563
36670	-87.86124	41.11548
36671	-87.83598	42.08333333
36673	-87.83598	42.08333333
36675	-87.83598	42.08333333
36676	-87.83598	42.08333333
36678	-87.83598	42.08333333
36679	-87.83598	42.08333333
36681	-87.73889	41.99722
36682	-87.73889	41.99722
36683	-87.73889	41.99722
36684	-87.73889	41.99722
36686	-89.47888	41.84953
36688	-89.47888	41.84953
36689	-89.47888	41.84953
36690	-87.67544	41.92995
36691	-87.67544	41.92995
36692	-88.01746	41.79723
36693	-88.01746	41.79723
36694	-88.42773	41.36868
36695	-88.42773	41.36868
36697	-88.24825	41.798
36698	-88.12931	42.15186
36699	-88.12931	42.15186
36702	-87.83598	41.49702
36703	-87.83598	41.49702
36708	-88.24825	41.798
36709	-88.24825	41.798
36710	-87.8	41.63
36711	-87.8	41.63
36712	-89.63481	42.29017
36713	-89.63481	42.29017
36714	-89.63481	42.29017
36715	-89.63481	42.29017
36716	-88.28803	42.03959
36717	-88.28803	42.03959
36718	-87.94369	41.89798
36719	-87.94369	41.89798
36720	-87.94369	41.89798
36721	-87.94369	41.89798
36724	-87.81656	41.92248
36725	-87.81656	41.92248
36726	-87.69461	42.04638
36727	-87.69461	42.04638
36728	-87.70116	41.72113
36729	-87.70116	41.72113
36731	-88.33045	41.80385
36736	-87.63	41.8525
36737	-87.63	41.8525
36740	-87.63	41.8525
36741	-87.63	41.8525
36742	-87.736692	41.762014
36743	-87.736692	41.762014
36744	-87.736692	41.762014
36745	-87.736692	41.762014
36746	-87.8	41.63
36747	-87.8	41.63
36748	-87.8	41.63
36749	-87.8	41.63
36753	-89.092261	42.264554
36754	-87.83598	41.49702
36755	-87.83598	41.49702
36756	-87.81491	41.86908
36757	-87.81491	41.86908
36758	-87.81491	41.86908
36759	-87.81491	41.86908
36765	-89.63481	42.29017
36766	-88.2511	41.7386
36767	-88.2511	41.7386
36768	-87.78528	41.92282
36769	-87.78528	41.92282
36770	-87.78528	41.92282
36771	-87.78528	41.92282
36773	-89.14	42.12
36774	-88.36728	42.10168
36775	-88.36728	42.10168
36776	-88.06267	41.86658
36777	-88.06267	41.86658
36778	-88.08656	41.94893
36779	-88.08656	41.94893
36780	-88.08656	41.94893
36781	-88.08656	41.94893
36782	-87.61706	41.5461
36783	-87.61706	41.5461
36784	-88.752	41.93066
36786	-88.752	41.93066
36788	-87.78659	42.05883
36789	-87.78659	42.05883
36790	-88.1225	41.52675
36791	-88.1225	41.52675
36792	-88.42773	41.36868
36793	-88.42773	41.36868
36794	-88.00869	41.9306
36795	-88.00869	41.9306
36806	-87.94	42.14
36807	-87.94	42.14
36808	-87.94	42.14
36809	-87.94	42.14
36812	-87.93605	42.37711
36813	-87.93605	42.37711
36814	-88.14486	41.9846
36815	-88.14486	41.9846
36816	-87.75342	41.91682
36817	-87.75342	41.91682
36818	-87.75342	41.91682
36819	-87.75342	41.91682
36820	-87.54558	41.72545
36822	-87.54558	41.72545
36823	-87.54558	41.72545
36824	-89.01008	42.33587
36825	-89.01008	42.33587
36828	-87.65194	41.60728
36829	-87.65194	41.60728
36830	-87.65194	41.60728
36831	-87.65194	41.60728
36832	-87.7143	41.75646
36833	-87.7143	41.75646
36834	-87.7143	41.75646
36835	-87.7143	41.75646
36836	-87.54951	41.66285
36838	-87.54951	41.66285
36839	-89.3197	41.25601
36840	-87.80696	41.97884
36842	-87.80972	42.18273
36843	-87.80972	42.18273
36844	-88.10512	41.5663
36845	-88.10512	41.5663
36846	-88.10512	41.5663
36847	-88.10512	41.5663
36848	-88.13838	42.06458
36849	-88.13838	42.06458
36856	-87.68715	41.90113
36857	-87.68715	41.90113
36858	-88.4243	42.16812
36859	-88.4243	42.16812
36860	-87.63548	41.88574
36861	-87.63548	41.88574
36862	-87.63548	41.88574
36863	-87.63548	41.88574
36864	-88.01856	41.97673
36865	-88.01856	41.97673
36866	-87.64223	41.87136
36867	-87.64223	41.87136
36870	-87.94	42.14
36871	-87.94	42.14
36872	-87.94	42.14
36873	-87.94	42.14
36874	-88.2	41.35
36875	-88.42773	41.36868
36877	-88.28	41.59
36878	-88.1225	41.52675
36879	-88.1225	41.52675
36880	-88.11527778	41.49305556
36881	-88.11527778	41.49305556
36882	-87.86124	41.11548
36883	-87.86124	41.11548
36884	-87.86124	41.11548
36885	-87.86124	41.11548
36886	-89.14	42.12
36887	-89.14	42.12
36888	-89.14	42.12
36889	-89.14	42.12
36891	-89.92568	41.24118
36892	-87.87345	41.80788
36893	-87.87345	41.80788
36906	-88.0881	42.19232
36907	-88.0881	42.19232
36908	-87.86807	42.37092
36909	-87.86807	42.37092
36917	-89.6633333	42.336932
36918	-87.99267	42.00578
36919	-87.99267	42.00578
36920	-87.54574	41.56759
36921	-87.54574	41.56759
36922	-88.66666667	41.25
36924	-87.6316	41.87324
36925	-87.6316	41.87324
36926	-87.6316	41.87324
36927	-87.6316	41.87324
36928	-87.9661	42.28412
36929	-87.9661	42.28412
36930	-89.82594	42.38095
36931	-89.82594	42.38095
36932	-88.28	41.59
36933	-88.28	41.59
36934	-88.28	41.59
36935	-88.28	41.59
36936	-87.9661	42.28412
36937	-87.9661	42.28412
36940	-88.08784	41.79183
36941	-88.08784	41.79183
36942	-88.01503	41.87498
36943	-88.01503	41.87498
36948	-87.8	41.63
36949	-87.72	41.86
36952	-88.60042	42.24794
36953	-88.60042	42.24794
36954	-88.60042	42.24794
36955	-88.60042	42.24794
36957	-88.68791	41.32781
36958	-89.43209	42.04895
36960	-87.73757	41.51107
36961	-87.73757	41.51107
36968	-88.42492	41.23962
36969	-88.42492	41.23962
36970	-87.83588	41.79286
36971	-87.83588	41.79286
36976	-88.29137	42.34069
36977	-88.29137	42.34069
36978	-87.6752	41.87412
36979	-87.6752	41.87412
36981	-89.12016	41.55092
36982	-89.12016	41.55092
36984	-87.8	41.63
36985	-87.8	41.63
36986	-87.72	41.86
36987	-87.72	41.86
36988	-87.8	41.63
36989	-87.8	41.63
36990	-87.8	41.63
36991	-87.8	41.63
36992	-87.8	41.63
36993	-87.8	41.63
36995	-89.03753	40.90365
36998	-88.28	41.59
36999	-88.28	41.59
37000	-88.28	41.59
37001	-88.28	41.59
37002	-87.87576	41.53207
37003	-87.87576	41.53207
37004	-87.87576	41.53207
37005	-87.87576	41.53207
37006	-88.34154	41.72993
37008	-88.34154	41.72993
37009	-88.34154	41.72993
37014	-87.93762	42.06543
37015	-87.93762	42.06543
37018	-88.28	41.59
37019	-88.28	41.59
37020	-88.28	41.59
37021	-88.28	41.59
37022	-88.28	41.59
37023	-88.28	41.59
37024	-88.28	41.59
37025	-88.28	41.59
37026	-88.28	41.59
37027	-88.28	41.59
37029	-88.28	41.59
37031	-88.28	41.59
37033	-88.28	41.59
37034	-87.79077	41.92362
37035	-87.79077	41.92362
37037	-89.60267	41.79558
37038	-89.60267	41.79558
37039	-89.60267	41.79558
37040	-87.98402	41.51875
37041	-87.98402	41.51875
37044	-87.80956	42.02698
37045	-87.80956	42.02698
37046	-87.80956	42.02698
37047	-87.80956	42.02698
37048	-88.08656	41.94893
37049	-88.08656	41.94893
37050	-89.650146	41.561008
37051	-89.650146	41.561008
37053	-87.83174	41.95968
37054	-88.33045	41.80385
37055	-88.33045	41.80385
37060	-87.85932	42.31867
37061	-87.85932	42.31867
37062	-87.83302	42.12973
37063	-87.83302	42.12973
37064	-87.83302	42.12973
37065	-87.83302	42.12973
37066	-89.07	40.84
37067	-89.07	40.84
37070	-87.69784	41.94468
37071	-87.69784	41.94468
37072	-87.69784	41.94468
37073	-87.69784	41.94468
37074	-87.69784	41.94468
37075	-87.69784	41.94468
37076	-89.14	42.12
37078	-89.14	42.12
37079	-89.14	42.12
37080	-87.78952	41.88759
37082	-87.95273	41.83693
37083	-87.95273	41.83693
37085	-89.06462	41.29457
37086	-87.63695	41.89231
37087	-87.63695	41.89231
37088	-88.33267	41.69795
37089	-88.33267	41.69795
37090	-87.80972	42.18273
37091	-87.80972	42.18273
37092	-87.62992	41.8931
37093	-87.62992	41.8931
37094	-87.62992	41.8931
37095	-87.62992	41.8931
37096	-87.85073	41.61048
37097	-87.85073	41.61048
37098	-88.0431	42.11253
37099	-88.0431	42.11253
37100	-87.7972	41.66533
37101	-87.7972	41.66533
37102	-87.68704	41.4823
37103	-87.68704	41.4823
37104	-89.35865	42.30996
37106	-89.06325	42.27032
37107	-89.06325	42.27032
37108	-89.06325	42.27032
37109	-89.06325	42.27032
37110	-88.20413	41.61595
37111	-88.20413	41.61595
37114	-87.72	41.86
37116	-87.72	41.86
37117	-87.72	41.86
37118	-90.027428	42.225422
37119	-90.027428	42.225422
37124	-88.6419	40.87667
37126	-88.13838	42.06458
37127	-88.13838	42.06458
37128	-87.741061	41.948137
37129	-87.741061	41.948137
37130	-87.741061	41.948137
37131	-87.741061	41.948137
37135	-89.67888889	40.545
37136	-87.92482	42.10243
37137	-87.92482	42.10243
37138	-87.92482	42.10243
37139	-87.92482	42.10243
37140	-89.07	40.84
37141	-89.07	40.84
37142	-87.63	41.8525
37143	-87.63	41.8525
37144	-87.63	41.8525
37145	-87.63	41.8525
37148	-87.8	41.63
37149	-87.8	41.63
37150	-87.8	41.63
37151	-87.8	41.63
37152	-87.8	41.63
37153	-87.8	41.63
37154	-87.8	41.63
37155	-87.8	41.63
37158	-87.58245	41.76615
37160	-87.58245	41.76615
37161	-87.58245	41.76615
37162	-87.82618	41.69763
37163	-87.82618	41.69763
37164	-87.58245	41.76615
37165	-87.8	41.63
37166	-89.021071	41.849636
37167	-89.14	42.12
37168	-89.14	42.12
37169	-89.14	42.12
37170	-89.69122	41.77421
37171	-89.69122	41.77421
37172	-88.11831	41.50553
37173	-88.11831	41.50553
37174	-87.6746	41.98673
37175	-87.6746	41.98673
37176	-88.02509	42.07506
37177	-88.02509	42.07506
37178	-88.08636	41.64608
37179	-88.08636	41.64608
37180	-89.06325	42.27032
37181	-89.06325	42.27032
37182	-89.06325	42.27032
37183	-89.06325	42.27032
37186	-87.6746	41.98673
37187	-87.6746	41.98673
37188	-87.6746	41.98673
37189	-87.6746	41.98673
37190	-87.6746	41.98673
37191	-87.6746	41.98673
37194	-88.11042	42.34997
37195	-88.11042	42.34997
37198	-89.06325	42.27032
37199	-89.06325	42.27032
37200	-89.01008	42.33587
37201	-89.01008	42.33587
37202	-89.01008	42.33587
37204	-89.01008	42.33587
37206	-87.54574	41.56759
37207	-87.54574	41.56759
37210	-88.62316	41.64661
37211	-88.62316	41.64661
37216	-87.71117	41.80534
37217	-87.71117	41.80534
37218	-87.7981	41.7698
37219	-87.7981	41.7698
37220	-88.08344	42.03303
37221	-88.08344	42.03303
37222	-88.08344	42.03303
37223	-88.08344	42.03303
37224	-87.6366	41.87836
37225	-87.6366	41.87836
37226	-87.6366	41.87836
37227	-87.6366	41.87836
37229	-88.20244	41.52323
37230	-88.244576	42.23354
37231	-88.244576	42.23354
37232	-87.74001	42.03708
37233	-87.74001	42.03708
37234	-87.74001	42.03708
37235	-87.74001	42.03708
37236	-87.74001	42.03708
37237	-87.74001	42.03708
37238	-87.74001	42.03708
37239	-87.74001	42.03708
37240	-87.74001	42.03708
37241	-87.74001	42.03708
37242	-87.74001	42.03708
37243	-87.74001	42.03708
37244	-87.74001	42.03708
37245	-87.74001	42.03708
37246	-88.29808	41.99633
37247	-88.29808	41.99633
37250	-87.60122	41.59753
37251	-87.60122	41.59753
37253	-89.35865	42.30996
37254	-87.94	42.14
37255	-87.94	42.14
37256	-87.52166667	41.70722222
37257	-87.52166667	41.70722222
37258	-87.63	41.8525
37259	-87.63	41.8525
37260	-87.52166667	41.7075
37261	-87.52166667	41.70722222
37262	-87.52166667	41.7075
37263	-87.52166667	41.7075
37264	-89.69163	41.79826
37267	-89.17818	42.10404
37269	-89.17818	42.10404
37271	-88.83155	41.1253
37276	-88.45892	41.76963
37277	-88.45892	41.76963
37280	-88.08344	42.03303
37281	-88.08344	42.03303
37282	-87.63588	41.86979
37283	-87.63588	41.86979
37287	-87.8	41.63
37288	-87.8	41.63
37289	-87.8	41.63
37290	-87.8	41.63
37291	-87.8	41.63
37292	-87.80048	41.5748
37293	-87.80048	41.5748
37294	-87.80048	41.5748
37295	-87.80048	41.5748
37296	-88.13838	42.06458
37297	-88.13838	42.06458
37298	-87.99267	42.00578
37299	-87.99267	42.00578
37300	-87.8	41.63
37301	-87.8	41.63
37302	-87.8	41.63
37303	-87.8	41.63
37304	-87.8	41.63
37305	-87.8	41.63
37306	-87.8	41.63
37307	-87.8	41.63
37308	-87.64381	41.80338
37314	-87.63969	41.74686
37315	-87.63969	41.74686
37316	-87.61882	41.78157
37317	-87.61882	41.78157
37318	-88.77325	41.76946
37326	-87.86807	42.37092
37327	-87.86807	42.37092
37328	-88.26136	41.95213
37329	-88.26136	41.95213
37332	-89.187002	42.336932
37333	-89.187002	42.336932
37338	-88.2229	41.88992
37339	-88.2229	41.88992
37340	-88.77325	41.76946
37341	-88.752	41.93066
37343	-88.752	41.93066
37344	-88.752	41.93066
37345	-88.752	41.93066
37356	-87.9237	42.13053
37357	-87.9237	42.13053
37358	-88.18627	41.82008
37359	-88.18627	41.82008
37360	-87.6208	41.66337
37361	-87.6208	41.66337
37362	-88.06138889	41.63333333
37363	-88.06138889	41.63333333
37364	-88.06138889	41.63333333
37365	-88.06138889	41.63333333
37366	-87.88251	41.73353
37367	-87.88251	41.73353
37369	-88.11527778	41.25
37370	-88.11042	42.34997
37371	-88.11042	42.34997
37372	-88.260788	41.69585
37373	-88.260788	41.69585
37374	-87.70968	41.44243
37375	-87.70968	41.44243
37376	-88.08784	41.79183
37377	-88.08784	41.79183
37378	-88.43678	42.31067
37380	-87.99481	41.85498
37381	-87.99481	41.85498
37382	-87.99481	41.85498
37383	-87.99481	41.85498
37384	-87.84314	42.45667
37386	-87.63703	41.89157
37387	-87.63703	41.89157
37388	-88.08344	42.03303
37389	-88.08344	42.03303
37391	-87.90102	42.03463
37393	-87.90102	42.03463
37394	-88.18627	41.82008
37395	-88.18627	41.82008
37399	-87.8	41.63
37400	-89.06325	42.27032
37401	-89.06325	42.27032
37402	-89.06325	42.27032
37403	-87.79111	41.84248
37404	-87.79111	41.84248
37405	-87.79111	41.84248
37406	-87.54959	41.61179
37407	-87.54959	41.61179
37408	-87.54959	41.61179
37409	-87.75991	41.84438
37410	-87.75991	41.84438
37411	-87.75991	41.84438
37412	-87.7544	41.86786
37413	-87.7544	41.86786
37414	-87.7544	41.86786
37420	-87.64624	41.90322
37421	-87.64624	41.90322
37422	-87.64624	41.90322
37423	-87.64624	41.90322
37424	-87.62944	41.88364
37425	-87.62944	41.88364
37426	-87.62944	41.88364
37427	-87.62944	41.88364
37428	-87.62944	41.88364
37429	-87.62944	41.88364
37434	-89.092261	42.264554
37435	-87.78104	41.80658
37436	-87.78104	41.80658
37437	-87.78104	41.80658
37438	-89.14	42.12
37439	-89.14	42.12
37440	-89.06325	42.27032
37441	-89.06325	42.27032
37442	-87.75991	41.84438
37443	-87.75991	41.84438
37444	-87.75991	41.84438
37445	-87.64223	41.87136
37446	-87.64223	41.87136
37449	-87.64223	41.87136
37450	-87.64223	41.87136
37451	-87.64223	41.87136
37452	-87.64223	41.87136
37453	-87.64223	41.87136
37454	-87.64223	41.87136
37455	-87.64223	41.87136
37456	-87.64223	41.87136
37457	-87.64223	41.87136
37458	-87.64223	41.87136
37459	-87.64223	41.87136
37460	-87.64223	41.87136
37461	-87.64223	41.87136
37466	-87.65607	41.93242
37467	-87.65607	41.93242
37468	-87.65607	41.93242
37469	-87.65607	41.93242
37470	-87.65607	41.93242
37471	-87.65607	41.93242
37472	-87.65607	41.93242
37473	-87.65607	41.93242
37478	-87.8	41.63
37479	-87.8	41.63
37480	-87.63695	41.89231
37481	-87.63695	41.89231
37482	-87.63695	41.89231
37483	-87.63695	41.89231
37484	-89.06325	42.27032
37485	-87.62863	41.87525
37486	-87.62863	41.87525
37487	-87.62863	41.87525
37488	-87.62863	41.87525
37493	-87.58245	41.76615
37494	-87.58245	41.76615
37495	-87.58245	41.76615
37496	-87.58245	41.76615
37497	-87.58245	41.76615
37498	-87.58245	41.76615
37499	-89.06325	42.27032
37500	-88.08322	41.98048
37501	-88.08322	41.98048
37502	-88.08322	41.98048
37503	-89.06325	42.27032
37504	-89.06325	42.27032
37505	-89.01008	42.33587
37506	-87.72	41.86
37508	-87.65128	41.87294
37509	-87.65128	41.87294
37510	-87.65128	41.87294
37511	-87.65128	41.87294
37512	-87.65128	41.87294
37513	-87.65128	41.87294
37514	-87.65128	41.87294
37515	-87.65128	41.87294
37518	-87.63	41.8525
37519	-87.63	41.8525
37520	-89.092261	42.264554
37521	-88.11527778	41.49305556
37522	-88.13333333	41.25
37523	-88.13333333	41.25
37524	-89.33333333	42.08333333
37525	-89.33333333	42.08333333
37526	-88.35194444	41.35166667
37527	-88.35194444	41.35166667
37528	-88.35194444	41.35166667
37529	-88.35194444	41.35166667
37530	-88.35194444	41.35166667
37533	-87.72277778	41.82944444
37534	-87.72277778	41.82944444
37535	-87.72277778	41.82944444
37536	-88.26666667	41.38333333
37537	-88.26666667	41.38333333
37540	-87.63	41.8525
37541	-88.11527778	41.49305556
37542	-88.12444444	41.495
37543	-88.12444444	41.495
37544	-89.48833333	39.59083333
37545	-89.48833333	39.59083333
37546	-87.63	41.8525
37547	-88.66666667	41.25
37548	-88.66666667	41.25
37549	-89.67888889	40.545
37550	-89.67888889	40.545
37551	-90.30944444	41.72444444
37552	-90.30944444	41.72444444
37553	-87.52166667	41.7075
37554	-87.52166667	41.70722222
37555	-87.81333333	42.38305556
37556	-87.81333333	42.38305556
37557	-87.86807	42.37092
37558	-88.06138889	41.63333333
37559	-88.06138889	41.63333333
37560	-88.06138889	41.63333333
37561	-88.06138889	41.63333333
37562	-87.84314	42.45667
37563	-87.84314	42.45667
37564	-87.61096111	41.50702
37565	-87.63761	41.50993
37566	-87.55725389	41.72461111
37567	-87.55725389	41.72461111
37570	-87.72277778	41.82944444
37571	-87.72277778	41.82944444
37572	-87.72277778	41.82944444
37576	-88.24277778	41.76277778
37577	-88.24277778	41.76277778
37578	-87.63	41.8525
37579	-87.63	41.8525
37582	-88.01503	41.87498
37583	-88.01503	41.87498
37586	-89.04864806	42.21111611
37587	-89.04864806	42.21111611
37590	-87.81333333	42.38305556
37594	-88.11527778	41.49305556
37596	-89.06325	42.27032
37601	-88.08144	41.43139
37606	-88.08144	41.43139
37608	-88.28363	42.09608
37609	-88.28363	42.09608
37610	-87.59375	41.43497
37611	-87.59375	41.43497
37612	-87.59375	41.43497
37613	-87.59375	41.43497
37614	-88.30821	41.485
37615	-88.30821	41.485
37616	-90.29627	41.69315
37617	-88.30821	41.485
37618	-88.30821	41.485
37619	-88.30821	41.485
37620	-89.13218	42.24978
37621	-89.13218	42.24978
37622	-87.72	41.86
37623	-87.72	41.86
37624	-87.72	41.86
37625	-87.72	41.86
37626	-88.30821	41.485
37627	-87.72	41.86
37628	-87.72	41.86
37629	-87.72	41.86
37630	-89.07	40.84
37631	-89.07	40.84
37632	-88.94024	41.79405
37633	-88.23555556	41.81111111
37634	-88.23555556	41.81111111
37635	-87.72	41.86
37637	-88.23555556	41.81111111
37638	-87.68381	41.47339
37639	-87.68381	41.47339
37640	-87.68381	41.47339
37641	-87.68381	41.47339
37642	-87.72	41.86
37643	-87.72	41.86
37644	-88.28803	42.03959
37645	-88.28803	42.03959
37646	-87.59375	41.43497
37647	-87.84626	42.44738
37648	-87.68381	41.47339
37649	-87.59375	41.43497
37650	-87.59375	41.43497
37651	-87.59375	41.43497
37652	-88.2	41.35
37653	-88.2	41.35
37654	-88.2	41.35
37655	-88.30821	41.485
37656	-88.30821	41.485
37657	-88.30821	41.485
37658	-88.30821	41.485
37659	-88.30821	41.485
37660	-88.30821	41.485
37661	-88.30821	41.485
37662	-88.30821	41.485
37663	-88.2	41.35
37664	-88.2	41.35
37665	-88.2	41.35
37673	-87.72	41.86
37674	-87.72	41.86
37675	-87.72	41.86
37676	-87.72	41.86
37677	-87.72	41.86
37678	-87.72	41.86
37679	-87.72	41.86
37680	-87.72	41.86
37681	-87.68381	41.47339
37682	-87.68381	41.47339
37683	-87.68381	41.47339
37684	-87.68381	41.47339
37685	-87.68381	41.47339
37686	-87.68381	41.47339
37687	-88.2	41.35
37688	-88.2	41.35
37689	-88.2	41.35
37690	-88.2	41.35
37691	-88.2	41.35
37692	-88.2	41.35
37693	-88.2	41.35
37694	-88.2	41.35
37695	-88.2	41.35
37696	-88.2	41.35
37697	-88.2	41.35
37698	-88.2	41.35
37700	-89.60267	41.79558
38849	-88.53312	42.7834
39058	-90.36648	42.7834
39119	-90.36648	42.7834
39247	-88.53312	42.7834
39329	-88.53312	42.7834
39362	-88.53312	42.7834
64400	-91.28316	39.16876
64405	-91.28316	39.16876
64411	-91.28316	39.16876
