ampl.tab 1 4
FUEL	Description	HV	Unitprice	Units
BIT	Bituminus	23	41.9	tonne
NG	NaturalGas	1030	6480	10^6ft3
FO2	FuelOil	0.138	2.91	gallon
FO6	FuelOil	0.15	0.854	gallon
UR	Uranium	190	95	pounds
JF	JetFuel	0.135	2.91	gallon
SUB	Sub-Bituminus	23	41.9	tonne
WAT	Water	1	0	tonne
HYD	Hydro	1	0	tonne
Other	Other	1030	9720	other
BITseq	BITseques	23	41.9	tonne
WIND	Wind	1	0	NoUnits
