ampl.tab 1 13
GEN	alias_gen	bus_gen	np_cap	sum_cap	win_cap	min_cap	fuel	min_hrate	min_power	max_ur	max_dr	lat_gen	lon_gen
1	EDEdwards1	33001	136	117	117	50.01	BIT	10307	50	4.08	4.08	-89.66	40.6
2	EDEdwards2	33001	280.5	262	262	120	BIT	11502	119.99	8.42	8.42	-89.66	40.6
3	EDEdwards3	33137	363.8	361	361	120	BIT	11841	119.99	7.28	7.28	-89.66	40.6
4	SterlingAve(1-2)(Northwest)	33029	36	30	32	0	NG	16220	15.99	7.2	7.2	-89.6	40.75
5	DuckCreek	33161	441	366	366	99.99	BIT	12724	99.98	8.82	8.82	-89.98	40.46
6	Coffeen1	30396	388.96	360	360	149.99	BIT	12135	149.98	7.78	7.78	-89.4	39.06
7	Coffeen2	30397	616.5	615	615	249.98	BIT	11829	249.97	12.33	12.33	-89.4	39.06
8	Hutsonville3	30771	79	76	77	25	BIT	14722	24.99	2.37	2.37	-87.66	39.13
9	Hutsonville4	30772	81	77	79	25	BIT	14722	24.99	2.43	2.43	-87.66	39.13
10	Meredosia3	31184	239.36	245	245	80	BIT	16219	79.99	7.18	7.18	-90.57	39.82
11	Meredosia4	31185	209.7	200	200	50.01	FO6	19258	50	10.49	10.49	-90.57	39.82
12	Newton1	31332	617.4	605	605	150	BIT	14638	149.99	12.35	12.35	-88.28	38.94
13	Newton2	31333	617.4	610	610	150	BIT	15750	149.99	12.35	12.35	-88.28	38.94
14	Joliet29_7	37542	660	518	522	115.09	SUB	12721	115.08	13.2	13.2	-88.12	41.5
15	Joliet29_8	37543	660	518	522	114.98	SUB	12829	114.97	13.2	13.2	-88.12	41.5
16	Bloom(1-2)	37564	38	24.1	29.8	0	FO2	16250	6.39	7.6	7.6	-87.61	41.51
17	Bloom(3-5)	37565	57	39.7	49	0	FO2	16250	9.59	11.4	11.4	-87.61	41.51
18	Calumet(1-8)	37567	147.4	111.7	139.9	0	NG	16300	34.99	29.48	29.48	-87.56	41.72
19	Calumet(9-12)	37566	76	50.9	63.9	0	NG	16300	22.29	15.2	15.2	-87.56	41.72
20	Crawford(1-4)	37570	69.2	56.47	70.23	0	NG	16300	17.29	13.84	13.84	-87.72	41.83
21	Crawford(5-8)	37571	69.2	56.47	70.23	0	NG	16300	17.29	13.84	13.84	-87.72	41.83
22	Crawford(9-12)	37572	69.2	56.47	70.23	0	NG	16300	17.29	13.84	13.84	-87.72	41.83
23	Crawford7Y	37533	119.68	106.5	108	50	SUB	12151	49.99	3.59	3.59	-87.72	41.83
24	Crawford7G	37534	119.68	106.5	108	50	SUB	12151	49.99	3.59	3.59	-87.72	41.83
25	Crawford8	37535	358.16	319	326	113	SUB	12719	112.99	7.16	7.16	-87.72	41.83
26	Dresden2	37536	828.32	850	867	434	UR	11607	433.99	16.57	16.57	-88.27	41.38
27	Dresden3	37537	828.32	850	867	434	UR	11602	433.99	16.57	16.57	-88.27	41.38
28	ElectricJunct(1-4)	37576	76	57.9	70.8	0	NG	16300	19.99	15.2	15.2	-88.24	41.76
29	ElectricJunct(5-12)	37577	152	115.8	141.6	0	NG	16300	39.99	30.4	30.4	-88.24	41.76
30	Joliet9(1-8)	37594	147.4	115.7	141.5	0	NG	16300	38.99	29.48	29.48	-88.12	41.49
31	Joliet9(6)	37541	360.4	314	314	110	SUB	11275	109.99	7.21	7.21	-88.12	41.49
32	Kincaid1	37544	659.7	579	579	212	SUB	12113	211.99	13.19	13.19	-89.49	39.59
33	Kincaid2	37545	659.7	579	579	212	SUB	12535	211.99	13.19	13.19	-89.49	39.59
34	Lombard(1-2)	37582	44.3	31.95	41.75	0	JF	16300	19.99	8.86	8.86	-88.02	41.87
35	Lombard(3-4)	37583	44.3	31.95	41.75	0	JF	16300	19.99	8.86	8.86	-88.02	41.87
36	Powerton5	37549	892.8	769	769	141	SUB	15667	140.99	17.86	17.86	-89.68	40.55
37	Powerton6	37550	892.8	769	769	141	SUB	20509	140.99	17.86	17.86	-89.68	40.55
38	QuadCities1	37551	828.32	855	867	325	UR	12121	324.99	16.57	16.57	-90.31	41.72
39	QuadCities2	37552	828.32	855	867	326	UR	12077	325.99	16.57	16.57	-90.31	41.72
40	Sabrooke(1-2)	37586	36.85	25.05	31.9	0	FO2	16156	20.99	7.37	7.37	-89.05	42.21
41	Sabrooke(3-4)	37587	36.85	25.05	31.9	0	FO2	16156	20.99	7.37	7.37	-89.05	42.21
42	Sabrooke(5-6)	37596	38	24.2	29.2	0	FO2	16156	20.99	7.6	7.6	-89.05	42.21
43	Waukegan(1-4)	37590	152	108.3	143.7	0	JF	16250	26.99	30.4	30.4	-87.81	42.38
44	Waukegan6	37555	121	100	100	43	SUB	10861	42.99	3.63	3.63	-87.81	42.38
45	Waukegan7	37556	326.4	328	328	151	SUB	9492	150.99	6.53	6.53	-87.81	42.38
46	Waukegan8	37557	355.3	361	361	151	SUB	13919	150.99	7.11	7.11	-87.81	42.38
47	WillCounty3	37560	299.2	251	262	95	SUB	11437	94.99	8.98	8.98	-88.06	41.63
48	WillCounty4	37561	598.4	510	520	154	SUB	12253	153.99	11.97	11.97	-88.06	41.63
49	Fisk19	37540	374.08	326	326	120	SUB	10813	119.99	7.48	7.48	-87.63	41.85
50	Fisk(1-4)	37578	152	98.6	131.85	0	JF	16250	33.99	30.4	30.4	-87.63	41.85
51	Fisk(5-8)	37579	152	98.6	131.85	0	JF	16250	33.99	30.4	30.4	-87.63	41.85
52	Braidwood1	37522	1224.9	1201	1221	429	UR	12009	428.99	24.5	24.5	-88.13	41.25
53	Braidwood2	37523	1224.9	1179	1201	429	UR	12009	428.99	24.5	24.5	-88.13	41.25
54	Byron1	37524	1224.9	1195	1221	425	UR	11806	424.99	24.5	24.5	-89.33	42.08
55	Byron2	37525	1224.9	1175	1199	425	UR	11641	424.99	24.5	24.5	-89.33	42.08
56	Collins1	37526	544.95	554	554	48	NG	14010	47.99	27.25	27.25	-88.35	41.35
57	Collins2	37527	544.95	554	554	48	NG	14010	47.99	27.25	27.25	-88.35	41.35
58	Collins3	37528	518.94	530	530	29	NG	14010	28.99	25.95	25.95	-88.35	41.35
59	LaSalle1	37547	1170.27	1128	1151	422	UR	11336	421.99	23.41	23.41	-88.67	41.25
60	LaSalle2	37548	1170.27	1131	1154	422	UR	11141	421.99	23.41	23.41	-88.67	41.25
61	StateLine3	37553	225	197	197	123.01	SUB	11543	123	6.75	6.75	-87.52	41.71
62	StateLine4	37554	388.96	318	318	88.98	SUB	13195	88.97	7.78	7.78	-87.52	41.71
63	JoppaSteam1	33481	183.38	169	169	84.5	BIT	10306	84.49	5.5	5.5	-88.86	37.21
64	JoppaSteam2	33482	183.38	169	169	84.5	BIT	10306	84.49	5.5	5.5	-88.86	37.21
65	JoppaSteam3	33483	183.38	169	169	84.5	BIT	10306	84.49	5.5	5.5	-88.86	37.21
66	JoppaSteam4	33484	183.38	169	169	84.5	BIT	10306	84.49	5.5	5.5	-88.86	37.21
67	JoppaSteam5	33485	183.38	169	169	84.5	BIT	10306	84.49	5.5	5.5	-88.86	37.21
68	JoppaSteam6	33486	183.38	169	169	84.5	BIT	10306	84.49	5.5	5.5	-88.86	37.21
69	Clinton	32346	984.88	930	944	944	UR	11335	943.99	19.7	19.7	-88.83	40.17
70	Baldwin1	32274	623.05	575	584	400	BIT	9598	399.99	12.46	12.46	-89.85	38.21
71	Baldwin2	32274	634.5	581	588	400	BIT	9824	399.99	12.69	12.69	-89.85	38.21
72	Baldwin3	32274	634.5	595	602	100	BIT	8502	99.99	12.69	12.69	-89.85	38.21
73	Havana(1-5)	32407	230	238	242	49	FO6	10793	48.99	11.5	11.5	-90.08	40.28
74	Havana6	32407	488.48	428	430	73	BIT	9779	72.99	9.77	9.77	-90.08	40.28
75	Hennepin1	32443	75	74	76	40	BIT	9445	39.99	2.25	2.25	-89.32	41.3
76	Hennepin2	32442	231.25	215	225	100	BIT	9357	99.99	6.94	6.94	-89.32	41.3
77	Oglesby(1-2)	32436	35.1	30	35.5	0	NG	16600	8.99	7.02	7.02	-89.06	41.29
78	Oglesby(3-4)	32437	35.11	30	35.5	0	NG	16600	8.99	7.02	7.02	-89.06	41.29
79	Stallings(1-2)	32439	47.6	38.5	46.5	0	NG	16750	11.99	9.52	9.52	-90.12	38.72
80	Stallings(3-4)	32440	47.6	38.5	46.5	0	NG	16750	11.99	9.52	9.52	-90.12	38.72
81	Vermilion2	32390	108.8	102	102	26	BIT	10175	25.99	3.26	3.26	-87.75	40.18
82	VermilionGT1	32445	15	10	12	0	FO2	18617	5.99	3	3	-87.75	40.18
83	VermilionST1	32273	73.5	74	75	22	BIT	9742	21.99	2.21	2.21	-87.75	40.18
84	WoodRiver1	32271	50	46.3	47.3	10	NG	11583	9.99	2.5	2.5	-90.13	38.86
85	WoodRiver2	32272	50	46.3	47.3	10	NG	11583	9.99	2.5	2.5	-90.13	38.86
86	WoodRiver3	32287	50	46.3	47.3	10	NG	11583	9.99	2.5	2.5	-90.13	38.86
87	WoodRiver4	32287	112.5	96	99	25	BIT	9838	24.99	3.38	3.38	-90.13	38.86
88	WoodRiver5	32441	387.6	372	379	280	BIT	11818	279.99	11.63	11.63	-90.13	38.86
89	Tilton(1-4)	32393	176	176	179	0	NG	9965	89.49	35.2	35.2	-87.65	40.1
90	Marion1	33385	33	34	34	17	BIT	15000	16.99	0.99	0.99	-88.95	37.62
91	Marion2	33386	33	34	34	17	BIT	15000	16.99	0.99	0.99	-88.95	37.62
92	Marion3	33387	33	34	34	17	BIT	15000	16.99	0.99	0.99	-88.95	37.62
93	Marion4	33388	173	170	170	85	BIT	12000	84.99	5.19	5.19	-88.95	37.62
94	FreedomEP(Avena_St.Elmo)	30073	71	47	47	0	NG	10440	23.49	14.2	14.2	38.98	-88.8
95	Dallman(1-2)	33301	180.5	173	173	86.5	BIT	12338	86.49	5.42	5.42	-89.6	39.75
96	Dallman3	33302	207.36	192	192	96	BIT	12338	95.99	6.22	6.22	-89.6	39.75
97	Lakeside(1-2)	33303	75	76	78	39	BIT	15017	38.99	2.25	2.25	-89.61	39.76
98	Reynolds	33304	17.55	18.1	19.5	0	FO2	16745	9.74	3.51	3.51	-89.64	39.81
99	Interstate	33305	138.6	128	134	0	NG	19940	66.99	27.72	27.72	-89.57	39.83
100	Factory	33316	26.64	23	26	0	FO2	13531	12.99	5.33	5.33	-89.64	39.82
101	Venice	31878	37.5	25	30	0	FO2	11218	29.99	7.5	7.5	-90.18	38.66
102	PearlStation1	30992	22	22	22	11	BIT	9650	10.99	0.66	0.66	-90.63	39.49
103	PearlStationGT1	30992	24	22	22	0	FO2	18250	10.99	4.8	4.8	-90.63	39.49
104	Alsey(1-2)	30016	60	60	60	0	NG	11665	29.99	12	12	-90.44	39.56
105	Alsey(3-4)	30017	40	40	40	0	NG	16084	19.99	8	8	-90.44	39.56
106	Alsey5	30019	25	23.8	23.8	0	NG	17504	11.89	5	5	-90.44	39.56
107	LincolnEnergyCenter1	35991	83	78.02	83	0	NG	10480	41.49	16.6	16.6	40.15	-89.36
108	LincolnEnergyCenter2	35992	83	78.02	83	0	NG	10480	41.49	16.6	16.6	40.15	-89.36
109	LincolnEnergyCenter3	35993	83	78.02	83	0	NG	10480	41.49	16.6	16.6	40.15	-89.36
110	LincolnEnergyCenter4	35994	83	78.02	83	0	NG	10480	41.49	16.6	16.6	40.15	-89.36
111	LincolnEnergyCenter5	35995	83	78.02	83	0	NG	10480	41.49	16.6	16.6	40.15	-89.36
112	LincolnEnergyCenter6	35996	83	78.02	83	0	NG	10480	41.49	16.6	16.6	40.15	-89.36
113	LincolnEnergyCenter7	35997	83	78.02	83	0	NG	10480	41.49	16.6	16.6	40.15	-89.36
114	LincolnEnergyCenter8	35998	83	78.02	83	0	NG	10480	41.49	16.6	16.6	40.15	-89.36
115	GrandTowerCC1	30670	250	240	250	125	NG	8026	124.99	12.5	12.5	-89.5	37.64
116	GrandTowerCC2	30671	250	240	250	125	NG	8026	124.99	12.5	12.5	-89.5	37.64
117	KendallCounty1	37655	250	240	250	125	NG	8330	124.99	12.5	12.5	-88.31	41.49
118	KendallCounty2	37657	250	240	250	125	NG	8330	124.99	12.5	12.5	-88.31	41.49
119	KendallCounty3	37659	250	240	250	125	NG	8330	124.99	12.5	12.5	-88.31	41.49
120	KendallCounty4	37661	250	240	250	125	NG	8330	124.99	12.5	12.5	-88.31	41.49
121	Nelson(LeeCounty1)	37700	286	274.56	286	143	NG	8330	142.99	14.3	14.3	41.79	-89.6
122	Nelson(LeeCounty2)	37700	286	274.56	286	143	NG	8330	142.99	14.3	14.3	41.79	-89.6
123	Nelson(LeeCounty3)	37700	286	274.56	286	143	NG	8330	142.99	14.3	14.3	41.79	-89.6
124	Nelson(LeeCounty4)	37700	286	274.56	286	143	NG	8330	142.99	14.3	14.3	41.79	-89.6
125	CordovaEnergy1	37616	250	240	250	125	NG	8330	124.99	12.5	12.5	-90.3	41.69
126	CordovaEnergy2	37616	250	240	250	125	NG	8330	124.99	12.5	12.5	-90.3	41.69
127	ElwoodEnergy1	37601	170	159.8	170	0	NG	9420	84.99	34	34	-88.08	41.43
128	ElwoodEnergy2	37601	170	159.8	170	0	NG	9420	84.99	34	34	-88.08	41.43
129	ElwoodEnergy3	37601	170	159.8	170	0	NG	9420	84.99	34	34	-88.08	41.43
130	ElwoodEnergy4	37601	170	159.8	170	0	NG	9420	84.99	34	34	-88.08	41.43
131	ElwoodEnergyII5	37606	172	161.68	172	0	NG	9420	85.99	34.4	34.4	-88.08	41.43
132	ElwoodEnergyII6	37606	172	161.68	172	0	NG	9420	85.99	34.4	34.4	-88.08	41.43
133	ElwoodEnergyIII7	37606	172	161.68	172	0	NG	9420	85.99	34.4	34.4	-88.08	41.43
134	ElwoodEnergyIII8	37606	172	161.68	172	0	NG	9420	85.99	34.4	34.4	-88.08	41.43
135	ElwoodEnergyIII9	37606	172	161.68	172	0	NG	9420	85.99	34.4	34.4	-88.08	41.43
136	LeeCounty1	35981	83	78.02	83	0	NG	10480	41.49	16.6	16.6	-89.46	41.8
137	LeeCounty2	35982	83	78.02	83	0	NG	10480	41.49	16.6	16.6	-89.46	41.8
138	LeeCounty3	35983	83	78.02	83	0	NG	10480	41.49	16.6	16.6	-89.46	41.8
139	LeeCounty4	35984	83	78.02	83	0	NG	10480	41.49	16.6	16.6	-89.46	41.8
140	LeeCounty5	35985	83	78.02	83	0	NG	10480	41.49	16.6	16.6	-89.46	41.8
141	LeeCounty6	35986	83	78.02	83	0	NG	10480	41.49	16.6	16.6	-89.46	41.8
142	LeeCounty7	35987	83	78.02	83	0	NG	10480	41.49	16.6	16.6	-89.46	41.8
143	LeeCounty8	35988	83	78.02	83	0	NG	10480	41.49	16.6	16.6	-89.46	41.8
144	JoppaMEPI1	33471	72	67.68	72	0	NG	9980	35.99	14.4	14.4	-88.82	37.3
145	JoppaMEPI2	33472	72	67.68	72	0	NG	9980	35.99	14.4	14.4	-88.82	37.3
146	JoppaMEPI3	33473	72	67.68	72	0	NG	9980	35.99	14.4	14.4	-88.82	37.3
147	JoppaMEPI4-5	33475	102	95.88	102	0	NG	8905	50.99	20.4	20.4	-88.82	37.3
148	HollandEnergy1	30729	300	288	300	150	NG	7024	149.99	15	15	-88.8	39.41
149	HollandEnergy2	30731	300	288	300	150	NG	7024	149.99	15	15	-88.8	39.41
150	RockfordEnergyCenter1	37620	171	147	171	0	NG	9890	85.49	34.2	34.2	-89.13	42.25
151	RockfordEnergyCenter2	37620	171	147	171	0	NG	9890	85.49	34.2	34.2	-89.13	42.25
152	RockfordEnergyCenter3	37621	171	147	171	85.5	NG	8330	85.49	8.55	8.55	-89.13	42.25
153	RockyRoad3	37609	35	32.9	35	0	NG	10880	17.49	7	7	-88.28	42.1
154	RockyRoad2	37609	121	113.74	121	0	NG	10100	60.49	24.2	24.2	-88.28	42.1
155	RockyRoad1	37609	121	113.74	121	0	NG	10100	60.49	24.2	24.2	-88.28	42.1
156	RockyRoad4	37608	121	113.74	121	0	NG	10100	60.49	24.2	24.2	-88.28	42.1
157	Marion(new5-6)	33389	166	156.04	166	0	NG	10480	82.99	33.2	33.2	-88.95	37.62
158	Venice(newGT2-3)	31886	60	48	53	0	NG	10670	26.49	12	12	-90.18	38.66
159	River1	37624	152.5	143.35	152.5	0	NG	9890	76.24	30.5	30.5	-87.56	41.73
160	River2	37624	152.5	143.35	152.5	0	NG	9890	76.24	30.5	30.5	-87.56	41.73
161	ZionEnergyCenter1	37647	160	150.4	160	0	NG	9660	79.99	32	32	-87.85	42.45
162	ZionEnergyCenter2	37647	160	150.4	160	0	NG	9660	79.99	32	32	-87.85	42.45
163	ZionEnergyCenter3	37647	160	150.4	160	0	NG	9660	79.99	32	32	-87.85	42.45
164	Kinmundy1	30876	135	117	135	0	NG	11400	67.49	27	27	-89.01	38.77
165	Kinmundy2	30877	135	117	135	0	NG	11400	67.49	27	27	-89.01	38.77
166	GibsonCity1	30612	135	117	135	0	NG	11400	67.49	27	27	-89.38	40.47
167	GibsonCity2	30613	135	117	135	0	NG	11400	67.49	27	27	-89.38	40.47
168	Pinckneyville2	31501	48.25	39.5	40	0	NG	11025	19.99	9.65	9.65	-89.39	38.08
169	Pinckneyville3	31502	48.25	39.5	40	0	NG	11025	19.99	9.65	9.65	-89.39	38.08
170	Pinckneyville4	31503	48.25	39.5	40	0	NG	11025	19.99	9.65	9.65	-89.39	38.08
171	Pinckneyville5	31504	48.25	39.5	40	0	NG	11025	19.99	9.65	9.65	-89.39	38.08
172	Pinckneyville(5-6)	31505	96.5	79	80	0	NG	11025	39.99	19.3	19.3	-89.39	38.08
173	Pinckneyville(7-8)	31506	96.5	79	80	0	NG	11025	39.99	19.3	19.3	-89.39	38.08
174	UniversityPark1	37681	66	62.04	66	0	NG	11990	32.99	13.2	13.2	-87.68	41.47
175	UniversityPark2	37682	66	62.04	66	0	NG	11990	32.99	13.2	13.2	-87.68	41.47
176	UniversityPark3	37683	66	62.04	66	0	NG	11990	32.99	13.2	13.2	-87.68	41.47
177	UniversityPark4	37684	66	62.04	66	0	NG	11990	32.99	13.2	13.2	-87.68	41.47
178	UniversityPark5	37685	66	62.04	66	0	NG	11990	32.99	13.2	13.2	-87.68	41.47
179	UniversityPark6	37686	66	62.04	66	0	NG	11990	32.99	13.2	13.2	-87.68	41.47
180	UniversityParkNorth1	37687	37.5	35.25	37.5	0	NG	10880	18.74	7.5	7.5	41.35	-88.2
181	UniversityParkNorth2	37688	37.5	35.25	37.5	0	NG	10880	18.74	7.5	7.5	41.35	-88.2
182	UniversityParkNorth3	37689	37.5	35.25	37.5	0	NG	10880	18.74	7.5	7.5	41.35	-88.2
183	UniversityParkNorth4	37690	37.5	35.25	37.5	0	NG	10880	18.74	7.5	7.5	41.35	-88.2
184	UniversityParkNorth5	37691	37.5	35.25	37.5	0	NG	10880	18.74	7.5	7.5	41.35	-88.2
185	UniversityParkNorth6	37692	37.5	35.25	37.5	0	NG	10880	18.74	7.5	7.5	41.35	-88.2
186	UniversityParkNorth7	37693	37.5	35.25	37.5	0	NG	10880	18.74	7.5	7.5	41.35	-88.2
187	UniversityParkNorth8	37694	37.5	35.25	37.5	0	NG	10880	18.74	7.5	7.5	41.35	-88.2
188	UniversityParkNorth9	37695	37.5	35.25	37.5	0	NG	10880	18.74	7.5	7.5	41.35	-88.2
189	UniversityParkNorth10	37696	37.5	35.25	37.5	0	NG	10880	18.74	7.5	7.5	41.35	-88.2
190	UniversityParkNorth11	37697	37.5	35.25	37.5	0	NG	10880	18.74	7.5	7.5	41.35	-88.2
191	UniversityParkNorth12	37698	37.5	35.25	37.5	0	NG	10880	18.74	7.5	7.5	41.35	-88.2
192	ShelbyEnergyCenter1	31322	44	41.36	44	0	NG	10710	21.99	8.8	8.8	-88.46	39.32
193	ShelbyEnergyCenter2	31323	44	41.36	44	0	NG	10710	21.99	8.8	8.8	-88.46	39.32
194	ShelbyEnergyCenter3	31324	44	41.36	44	0	NG	10710	21.99	8.8	8.8	-88.46	39.32
195	ShelbyEnergyCenter4	31325	44	41.36	44	0	NG	10710	21.99	8.8	8.8	-88.46	39.32
196	ShelbyEnergyCenter5	31326	44	41.36	44	0	NG	10710	21.99	8.8	8.8	-88.46	39.32
197	ShelbyEnergyCenter6	31327	44	41.36	44	0	NG	10710	21.99	8.8	8.8	-88.46	39.32
198	ShelbyEnergyCenter7	31328	44	41.36	44	0	NG	10710	21.99	8.8	8.8	-88.46	39.32
199	ShelbyEnergyCenter8	31329	44	41.36	44	0	NG	10710	21.99	8.8	8.8	-88.46	39.32
200	Aurora(DuPageCo5-10)	37633	270	253.8	270	0	NG	10440	134.99	54	54	-88.24	41.81
201	Aurora(DuPageCo1)	37637	170	159.8	170	0	NG	9420	84.99	34	34	-88.24	41.81
202	Aurora(DuPageCo2)	37637	170	159.8	170	0	NG	9420	84.99	34	34	-88.24	41.81
203	Aurora(DuPageCo3)	37634	170	159.8	170	0	NG	9420	84.99	34	34	-88.24	41.81
204	Aurora(DuPageCo4)	37634	170	159.8	170	0	NG	9420	84.99	34	34	-88.24	41.81
205	CreteEnergyPark1	37610	89	83.66	89	0	NG	10420	44.49	17.8	17.8	-87.59	41.43
206	CreteEnergyPark2	37611	89	83.66	89	0	NG	10420	44.49	17.8	17.8	-87.59	41.43
207	CreteEnergyPark3	37612	89	83.66	89	0	NG	10420	44.49	17.8	17.8	-87.59	41.43
208	CreteEnergyPark4	37613	89	83.66	89	0	NG	10420	44.49	17.8	17.8	-87.59	41.43
209	SoutheastChicago5	37673	41	38.54	41	0	NG	10880	20.49	8.2	8.2	41.86	-87.72
210	SoutheastChicago6	37674	41	38.54	41	0	NG	10880	20.49	8.2	8.2	41.86	-87.72
211	SoutheastChicago7	37675	41	38.54	41	0	NG	10880	20.49	8.2	8.2	41.86	-87.72
212	SoutheastChicago8	37676	41	38.54	41	0	NG	10880	20.49	8.2	8.2	41.86	-87.72
213	SoutheastChicago9	37677	41	38.54	41	0	NG	10880	20.49	8.2	8.2	41.86	-87.72
214	SoutheastChicago10	37678	41	38.54	41	0	NG	10880	20.49	8.2	8.2	41.86	-87.72
215	SoutheastChicago11	37679	41	38.54	41	0	NG	10880	20.49	8.2	8.2	41.86	-87.72
216	SoutheastChicago12	37680	41	38.54	41	0	NG	10880	20.49	8.2	8.2	41.86	-87.72
217	ElginEnergyCenter1-2	37644	270	234	270	0	NG	10100	134.99	54	54	42.03	-88.28
218	ElginEnergyCenter3-4	37645	270	234	270	0	NG	10100	134.99	54	54	42.03	-88.28
219	RaccoonCreekEn.Ctr.1	31994	80	75.2	80	0	NG	12000	39.99	16	16	38.63	-88.63
220	RaccoonCreekEn.Ctr.2	31995	80	75.2	80	0	NG	12000	39.99	16	16	38.63	-88.63
221	RaccoonCreekEn.Ctr.3	31996	80	75.2	80	0	NG	12000	39.99	16	16	38.63	-88.63
222	RaccoonCreekEn.Ctr.4	31997	80	75.2	80	0	NG	12000	39.99	16	16	38.63	-88.63
223	Midwest	33073	10	10	10	0	NG	18000	4.99	2	2	40.39	-89.53
224	Tazewell(Cogen#1)	33084	21	16	16	0	NG	18000	7.99	4.2	4.2	40.59	-89.66
225	Hallock	33088	13	13	13	0	FO2	9212	6.49	2.6	2.6	40.39	-89.53
226	Kickapoo	33159	13	13	13	0	FO2	9212	6.49	2.6	2.6	39.57	-89.39
227	GooseCreekEn.Center1	32709	75	70.5	75	0	NG	12000	37.49	15	15	40.09	-88.36
228	GooseCreekEn.Center2	32710	75	70.5	75	0	NG	12000	37.49	15	15	40.09	-88.36
229	GooseCreekEn.Center3	32711	75	70.5	75	0	NG	12000	37.49	15	15	40.09	-88.36
230	GooseCreekEn.Center4	32712	75	70.5	75	0	NG	12000	37.49	15	15	40.09	-88.36
231	GooseCreekEn.Center5	32713	75	70.5	75	0	NG	12000	37.49	15	15	40.09	-88.36
232	GooseCreekEn.Center6	32714	75	70.5	75	0	NG	12000	37.49	15	15	40.09	-88.36
233	EquistarMorris(cogen)1	37630	39	39	39	0	NG	12100	19.49	7.8	7.8	-88.42	41.36
234	EquistarMorris(cogen)2	37630	39	39	39	0	NG	12100	19.49	7.8	7.8	-88.42	41.36
235	EquistarMorris(cogen)3	37631	39	39	39	0	NG	12100	19.49	7.8	7.8	-88.42	41.36
236	EquistarMorris(cogen)4	37631	57	57	57	0	NG	12100	28.49	2.85	2.85	-88.42	41.36
237	KeokukHydro(MO)	30861	36	36	36	30	WAT	10500	29.99	36	36	-91.36	40.38
238	AECI	31230	4329	4329	4329	0	Other	12000	37.49	2467	2467	0	0
239	AEP	22671	30807	30807	30807	0	Other	12000	37.49	17560	17560	0	0
240	ALTE	39119	3457	3457	3457	0	Other	12000	37.49	1970	1970	0	0
241	ALTW	34036	4234	4234	4234	0	Other	12000	37.49	2413	2413	0	0
242	Ameren-Out	31230	9086	9086	9086	0	Other	12000	37.49	5179	5179	0	0
243	BREC	27561	1772	1772	1772	0	Other	12000	37.49	1010	1010	0	0
244	CIN	25387	13283	13283	13283	0	Other	12000	37.49	7572	7572	0	0
245	CONS	28001	13481	13481	13481	0	Other	12000	37.49	7684	7684	0	0
246	DPC	64400	1187	1187	1187	0	Other	12000	37.49	677	677	0	0
247	DPL	22671	4710	4710	4710	0	Other	12000	37.49	2685	2685	0	0
248	HE	25387	1539	1539	1539	0	Other	12000	37.49	877	877	0	0
249	IPL	25387	3492	3492	3492	0	Other	12000	37.49	1990	1990	0	0
250	LGEE	25387	8046	8046	8046	0	Other	12000	37.49	4586	4586	0	0
251	MEC	64400	5944	5944	5944	0	Other	12000	37.49	3388	3388	0	0
252	MGE	39119	493	493	493	0	Other	12000	37.49	281	281	0	0
253	MPW	64400	245	245	245	0	Other	12000	37.49	140	140	0	0
254	NIPS	28001	3945	3945	3945	0	Other	12000	37.49	2249	2249	0	0
255	NSP	64400	9014	9014	9014	0	Other	12000	37.49	5138	5138	0	0
256	OVEC	22671	2249	2249	2249	0	Other	12000	37.49	1282	1282	0	0
257	SIGE	25387	2089	2089	2089	0	Other	12000	37.49	1191	1191	0	0
258	TVA	18401	36560	36560	36560	0	Other	12000	37.49	20839	20839	0	0
259	UPCC	39329	270	270	270	0	Other	12000	37.49	154	154	0	0
260	WEC	39329	6689	6689	6689	0	Other	12000	37.49	3813	3813	0	0
261	WPS	39329	2493	2493	2493	0	Other	12000	37.49	1421	1421	0	0
