{
  "soils": [
    {
      "soil_id": "XY01234567",
      "sl_loc_3": "Generic",
      "soil_long": "-99",
      "smke": "SA001",
      "sldp": "-99",
      "classification": "Calcic Yermosol ()",
      "sldr": "0.400",
      "salb": "0.13",
      "slu1": "9.880",
      "slro": "73.00",
      "slpf": "1.00",
      "soil_name": "HWSD DATABASE, SOIL 5077",
      "slnf": "1.00",
      "sl_loc_1": "Generic",
      "smpx": "SA001",
      "soilLayer": [
        {
          "slbs": "100.0",
          "slrgf": "1.000",
          "sldul": "0.297",
          "slbdm": "1.380",
          "slna": "1.200",
          "caco3": "26.00",
          "slsil": "37.00",
          "slll": "0.133",
          "slcly": "24.00",
          "slcec": "15.00",
          "slcf": "20.00",
          "sloc": "0.370",
          "sksat": "1.940",
          "slphw": "8.100",
          "slsat": "0.484",
          "sllb": "5"
        },
        {
          "slbs": "100.0",
          "slrgf": "1.000",
          "sldul": "0.297",
          "slbdm": "1.380",
          "slna": "1.200",
          "caco3": "26.00",
          "slsil": "37.00",
          "slll": "0.133",
          "slcly": "24.00",
          "slcec": "15.00",
          "slcf": "20.00",
          "sloc": "0.370",
          "sksat": "1.940",
          "slphw": "8.100",
          "slsat": "0.484",
          "sllb": "15"
        },
        {
          "slbs": "100.0",
          "slrgf": "0.941",
          "sldul": "0.297",
          "slbdm": "1.380",
          "slna": "1.200",
          "caco3": "26.00",
          "slsil": "37.00",
          "slll": "0.133",
          "slcly": "24.00",
          "slcec": "15.00",
          "slcf": "20.00",
          "sloc": "0.370",
          "sksat": "1.940",
          "slphw": "8.100",
          "slsat": "0.484",
          "sllb": "30"
        },
        {
          "slbs": "100.0",
          "slrgf": "0.333",
          "sldul": "0.283",
          "slbdm": "1.340",
          "slna": "0.880",
          "caco3": "35.00",
          "slsil": "42.00",
          "slll": "0.145",
          "slcly": "28.00",
          "slcec": "11.00",
          "slcf": "41.00",
          "sloc": "0.290",
          "sksat": "1.460",
          "slphw": "8.100",
          "slsat": "0.446",
          "sllb": "100"
        },
        {
          "slbs": "100.0",
          "slrgf": "0.042",
          "sldul": "0.283",
          "slbdm": "1.340",
          "slna": "0.880",
          "caco3": "35.00",
          "slsil": "42.00",
          "slll": "0.145",
          "slcly": "28.00",
          "slcec": "11.00",
          "slcf": "41.00",
          "sloc": "0.290",
          "sksat": "1.460",
          "slphw": "8.100",
          "slsat": "0.446",
          "sllb": "200"
        }
      ],
      "smhb": "SA001",
      "soil_lat": "-99",
      "sltx": "L",
      "sl_source": "HWSD"
    }
  ]
}