{
  "soils": [
    {
      "soil_id": "XY01234567",
      "sl_loc_3": "Generic",
      "soil_long": "-99",
      "smke": "SA001",
      "sldp": "-99",
      "classification": "Mollic Gleysols (GLm)",
      "sldr": "0.050",
      "salb": "0.12",
      "slu1": "10.70",
      "slro": "84.00",
      "slpf": "1.00",
      "soil_name": "HWSD DATABASE, SOIL 27860",
      "slnf": "1.00",
      "sl_loc_1": "Generic",
      "smpx": "SA001",
      "soilLayer": [
        {
          "slbs": "81.00",
          "slrgf": "1.000",
          "sldul": "0.304",
          "slbdm": "1.320",
          "slna": "0.400",
          "caco3": "0.100",
          "slsil": "30.00",
          "slll": "0.198",
          "slcly": "34.00",
          "slcec": "20.00",
          "slcf": "1.000",
          "sloc": "1.630",
          "sksat": "0.970",
          "slphw": "6.400",
          "slsat": "0.459",
          "sllb": "5"
        },
        {
          "slbs": "81.00",
          "slrgf": "1.000",
          "sldul": "0.304",
          "slbdm": "1.320",
          "slna": "0.400",
          "caco3": "0.100",
          "slsil": "30.00",
          "slll": "0.198",
          "slcly": "34.00",
          "slcec": "20.00",
          "slcf": "1.000",
          "sloc": "1.630",
          "sksat": "0.970",
          "slphw": "6.400",
          "slsat": "0.459",
          "sllb": "15"
        },
        {
          "slbs": "81.00",
          "slrgf": "0.941",
          "sldul": "0.304",
          "slbdm": "1.320",
          "slna": "0.400",
          "caco3": "0.100",
          "slsil": "30.00",
          "slll": "0.198",
          "slcly": "34.00",
          "slcec": "20.00",
          "slcf": "1.000",
          "sloc": "1.630",
          "sksat": "0.970",
          "slphw": "6.400",
          "slsat": "0.459",
          "sllb": "30"
        },
        {
          "slbs": "89.00",
          "slrgf": "0.333",
          "sldul": "0.336",
          "slbdm": "1.310",
          "slna": "0.340",
          "caco3": "0.400",
          "slsil": "27.00",
          "slll": "0.208",
          "slcly": "36.00",
          "slcec": "17.00",
          "slcf": "1.000",
          "sloc": "0.550",
          "sksat": "0.899",
          "slphw": "6.800",
          "slsat": "0.470",
          "sllb": "100"
        },
        {
          "slbs": "89.00",
          "slrgf": "0.042",
          "sldul": "0.336",
          "slbdm": "1.310",
          "slna": "0.340",
          "caco3": "0.400",
          "slsil": "27.00",
          "slll": "0.208",
          "slcly": "36.00",
          "slcec": "17.00",
          "slcf": "1.000",
          "sloc": "0.550",
          "sksat": "0.899",
          "slphw": "6.800",
          "slsat": "0.470",
          "sllb": "200"
        }
      ],
      "smhb": "SA001",
      "soil_lat": "-99",
      "sltx": "CL",
      "sl_source": "HWSD"
    }
  ]
}