{
  "soils": [
    {
      "soil_id": "XY01234567",
      "sl_loc_3": "Generic",
      "soil_long": "-99",
      "smke": "SA001",
      "sldp": "-99",
      "classification": "Haplic Calcisols (CLh)",
      "sldr": "0.400",
      "salb": "0.13",
      "slu1": "9.920",
      "slro": "73.00",
      "slpf": "1.00",
      "soil_name": "HWSD DATABASE, SOIL 27846",
      "slnf": "1.00",
      "sl_loc_1": "Generic",
      "smpx": "SA001",
      "soilLayer": [
        {
          "slbs": "100.0",
          "slrgf": "1.000",
          "sldul": "0.308",
          "slbdm": "1.380",
          "slna": "0.190",
          "caco3": "5.400",
          "slsil": "32.00",
          "slll": "0.171",
          "slcly": "25.00",
          "slcec": "19.00",
          "slcf": "1.000",
          "sloc": "0.290",
          "sksat": "0.698",
          "slphw": "8.100",
          "slsat": "0.424",
          "sllb": "5"
        },
        {
          "slbs": "100.0",
          "slrgf": "1.000",
          "sldul": "0.308",
          "slbdm": "1.380",
          "slna": "0.190",
          "caco3": "5.400",
          "slsil": "32.00",
          "slll": "0.171",
          "slcly": "25.00",
          "slcec": "19.00",
          "slcf": "1.000",
          "sloc": "0.290",
          "sksat": "0.698",
          "slphw": "8.100",
          "slsat": "0.424",
          "sllb": "15"
        },
        {
          "slbs": "100.0",
          "slrgf": "0.941",
          "sldul": "0.308",
          "slbdm": "1.380",
          "slna": "0.190",
          "caco3": "5.400",
          "slsil": "32.00",
          "slll": "0.171",
          "slcly": "25.00",
          "slcec": "19.00",
          "slcf": "1.000",
          "sloc": "0.290",
          "sksat": "0.698",
          "slphw": "8.100",
          "slsat": "0.424",
          "sllb": "30"
        },
        {
          "slbs": "100.0",
          "slrgf": "0.333",
          "sldul": "0.296",
          "slbdm": "1.360",
          "slna": "0.480",
          "caco3": "12.40",
          "slsil": "30.00",
          "slll": "0.172",
          "slcly": "27.00",
          "slcec": "16.00",
          "slcf": "1.000",
          "sloc": "0.220",
          "sksat": "2.940",
          "slphw": "8.200",
          "slsat": "0.555",
          "sllb": "100"
        },
        {
          "slbs": "100.0",
          "slrgf": "0.042",
          "sldul": "0.296",
          "slbdm": "1.360",
          "slna": "0.480",
          "caco3": "12.40",
          "slsil": "30.00",
          "slll": "0.172",
          "slcly": "27.00",
          "slcec": "16.00",
          "slcf": "1.000",
          "sloc": "0.220",
          "sksat": "2.940",
          "slphw": "8.200",
          "slsat": "0.555",
          "sllb": "200"
        }
      ],
      "smhb": "SA001",
      "soil_lat": "-99",
      "sltx": "L",
      "sl_source": "HWSD"
    }
  ]
}