#localhost		lebInvoke	/Users/tiberius/workspace/SwiftApps/Econ-LEB/bin/lebInvoke.sh	INSTALLED	INTEL32::LINUX null
#localhost		biglebInvoke	/Users/tiberius/workspace/SwiftApps/Econ-LEB/bin/biglebInvoke.sh	INSTALLED	INTEL32::LINUX null


#UC_32	queryGIS	/home/tstef/local/x32/ECON-LEB/bin/queryGIS.sh	INSTALLED	INTEL32::LINUX  GLOBUS::host_types=ia32-compute;GLOBUS::maxwalltime=10
#UC_32	xmlXtract	/home/tstef/local/x32/ECON-LEB/bin/xmlExtractFeature.py	INSTALLED	INTEL32::LINUX  GLOBUS::host_types=ia32-compute;GLOBUS::maxwalltime=10
#UC_32	lebInvoke	/home/tstef/local/x32/ECON-LEB/bin/lebInvoke-uc32.sh INSTALLED INTEL32::LINUX GLOBUS::host_types=ia32-compute


#teraport	queryGIS	/home/tiberius/local/ECON-LEB/bin/queryGIS.sh	INSTALLED	INTEL32::LINUX GLOBUS::queue=fast;GLOBUS::maxwalltime=10
#teraport	xmlXtract	/home/tiberius/local/ECON-LEB/bin/xmlExtractFeature.py	INSTALLED	INTEL32::LINUX GLOBUS::queue=fast;GLOBUS::maxwalltime=10
#teraport	lebInvoke	/home/tiberius/local/ECON-LEB/bin/lebInvoke-teraport.sh INSTALLED INTEL32::LINUX GLOBUS::queue=fast


teraport	compiledLEB	/home/tiberius/local/ECON-LEB/bin/lebCompiled-tp.sh	INSTALLED INTEL32::LINUX GLOBUS::queue=fast
#UC_32	compiledLEB	/home/tstef/local/x32/ECON-LEB/bin/lebCompiled-uc32.sh INSTALLED INTEL32::LINUX GLOBUS::host_types=ia32-compute
#ncsa_32	compiledLEB	/u/ac/tstef/local/ECON-LEB/bin/lebCompiled-ncsa-w.sh INSTALLED INTEL32::LINUX null

teraport	paramCompiledLEB	/home/tiberius/local/ECON-LEB/bin/paramCompiledLEB-tp.sh	INSTALLED INTEL32::LINUX GLOBUS::queue=fast
#teraport	paramCompiledLEB	/home/tiberius/local/ECON-LEB/bin/paramCompiledLEB-tp.sh	INSTALLED INTEL32::LINUX GLOBUS::queue=short
#teraport	paramCompiledLEB	/home/tiberius/local/ECON-LEB/bin/paramCompiledLEB-tp.sh	INSTALLED INTEL32::LINUX GLOBUS::queue=long
#teraport	paramCompiledLEB	/home/tiberius/local/ECON-LEB/bin/paramCompiledLEB-tp.sh	INSTALLED INTEL32::LINUX GLOBUS::queue=extended

teraport	paramCompiledBatchedLEB	/home/tiberius/local/ECON-LEB/bin/lebCompiledBatched-tp.sh	INSTALLED INTEL32::LINUX GLOBUS::queue=fast
purdue paramCompiledBatchedLEB /home/ba01/u102/stef/local/ECON-LEB/bin/lebCompiledBatched-purdue.sh	INSTALLED INTEL32::LINUX GLOBUS::queue=standby

