{
  "soils": [
    {
      "soil_id": "XY01234567",
      "sl_loc_3": "Generic",
      "soil_long": "-99",
      "smke": "SA001",
      "sldp": "-99",
      "classification": "Salic Fluviosls (FLs)",
      "sldr": "0.050",
      "salb": "0.13",
      "slu1": "9.360",
      "slro": "84.00",
      "slpf": "1.00",
      "soil_name": "HWSD DATABASE, SOIL 11525",
      "slnf": "1.00",
      "sl_loc_1": "Generic",
      "smpx": "SA001",
      "soilLayer": [
        {
          "slbs": "100.0",
          "slrgf": "1.000",
          "sldul": "0.337",
          "slbdm": "1.430",
          "slna": "1.300",
          "caco3": "3.000",
          "slsil": "46.00",
          "slll": "0.148",
          "slcly": "17.00",
          "slcec": "10.00",
          "slcf": "4.000",
          "sloc": "0.420",
          "sksat": "0.370",
          "slphw": "7.900",
          "slsat": "0.431",
          "sllb": "5"
        },
        {
          "slbs": "100.0",
          "slrgf": "1.000",
          "sldul": "0.337",
          "slbdm": "1.430",
          "slna": "1.300",
          "caco3": "3.000",
          "slsil": "46.00",
          "slll": "0.148",
          "slcly": "17.00",
          "slcec": "10.00",
          "slcf": "4.000",
          "sloc": "0.420",
          "sksat": "0.370",
          "slphw": "7.900",
          "slsat": "0.431",
          "sllb": "15"
        },
        {
          "slbs": "100.0",
          "slrgf": "0.941",
          "sldul": "0.337",
          "slbdm": "1.430",
          "slna": "1.300",
          "caco3": "3.000",
          "slsil": "46.00",
          "slll": "0.148",
          "slcly": "17.00",
          "slcec": "10.00",
          "slcf": "4.000",
          "sloc": "0.420",
          "sksat": "0.370",
          "slphw": "7.900",
          "slsat": "0.431",
          "sllb": "30"
        },
        {
          "slbs": "100.0",
          "slrgf": "0.333",
          "sldul": "0.272",
          "slbdm": "1.390",
          "slna": "4.070",
          "caco3": "3.000",
          "slsil": "42.00",
          "slll": "0.112",
          "slcly": "21.00",
          "slcec": "11.00",
          "slcf": "8.000",
          "sloc": "0.470",
          "sksat": "4.330",
          "slphw": "7.900",
          "slsat": "0.522",
          "sllb": "100"
        },
        {
          "slbs": "100.0",
          "slrgf": "0.042",
          "sldul": "0.272",
          "slbdm": "1.390",
          "slna": "4.070",
          "caco3": "3.000",
          "slsil": "42.00",
          "slll": "0.112",
          "slcly": "21.00",
          "slcec": "11.00",
          "slcf": "8.000",
          "sloc": "0.470",
          "sksat": "4.330",
          "slphw": "7.900",
          "slsat": "0.522",
          "sllb": "200"
        }
      ],
      "smhb": "SA001",
      "soil_lat": "-99",
      "sltx": "L",
      "sl_source": "HWSD"
    }
  ]
}