{
  "soils": [
    {
      "soil_id": "XY01234567",
      "sl_loc_3": "Generic",
      "soil_long": "-99",
      "smke": "SA001",
      "sldp": "-99",
      "classification": "Luvic Yermosol ()",
      "sldr": "0.400",
      "salb": "0.13",
      "slu1": "9.600",
      "slro": "73.00",
      "slpf": "1.00",
      "soil_name": "HWSD DATABASE, SOIL 5084",
      "slnf": "1.00",
      "sl_loc_1": "Generic",
      "smpx": "SA001",
      "soilLayer": [
        {
          "slbs": "100.0",
          "slrgf": "1.000",
          "sldul": "0.212",
          "slbdm": "1.420",
          "slna": "0.420",
          "caco3": "0.500",
          "slsil": "29.00",
          "slll": "0.075",
          "slcly": "21.00",
          "slcec": "7.000",
          "slcf": "20.00",
          "sloc": "0.400",
          "sksat": "7.460",
          "slphw": "7.300",
          "slsat": "0.488",
          "sllb": "5"
        },
        {
          "slbs": "100.0",
          "slrgf": "1.000",
          "sldul": "0.212",
          "slbdm": "1.420",
          "slna": "0.420",
          "caco3": "0.500",
          "slsil": "29.00",
          "slll": "0.075",
          "slcly": "21.00",
          "slcec": "7.000",
          "slcf": "20.00",
          "sloc": "0.400",
          "sksat": "7.460",
          "slphw": "7.300",
          "slsat": "0.488",
          "sllb": "15"
        },
        {
          "slbs": "100.0",
          "slrgf": "0.941",
          "sldul": "0.212",
          "slbdm": "1.420",
          "slna": "0.420",
          "caco3": "0.500",
          "slsil": "29.00",
          "slll": "0.075",
          "slcly": "21.00",
          "slcec": "7.000",
          "slcf": "20.00",
          "sloc": "0.400",
          "sksat": "7.460",
          "slphw": "7.300",
          "slsat": "0.488",
          "sllb": "30"
        },
        {
          "slbs": "100.0",
          "slrgf": "0.333",
          "sldul": "0.289",
          "slbdm": "1.370",
          "slna": "0.440",
          "caco3": "3.800",
          "slsil": "28.00",
          "slll": "0.121",
          "slcly": "28.00",
          "slcec": "11.00",
          "slcf": "27.00",
          "sloc": "0.280",
          "sksat": "1.240",
          "slphw": "7.300",
          "slsat": "0.457",
          "sllb": "100"
        },
        {
          "slbs": "100.0",
          "slrgf": "0.042",
          "sldul": "0.289",
          "slbdm": "1.370",
          "slna": "0.440",
          "caco3": "3.800",
          "slsil": "28.00",
          "slll": "0.121",
          "slcly": "28.00",
          "slcec": "11.00",
          "slcf": "27.00",
          "sloc": "0.280",
          "sksat": "1.240",
          "slphw": "7.300",
          "slsat": "0.457",
          "sllb": "200"
        }
      ],
      "smhb": "SA001",
      "soil_lat": "-99",
      "sltx": "L",
      "sl_source": "HWSD"
    }
  ]
}