\relax 
\@writefile{toc}{\contentsline {section}{\numberline {I}Introduction}{1}}
\@writefile{toc}{\contentsline {section}{\numberline {II}Protein Structure Prediction Algorithm}{2}}
\@writefile{toc}{\contentsline {section}{\numberline {III}Computational Challenges in Protein Structure Prediction}{2}}
\@writefile{lof}{\contentsline {figure}{\numberline {1}{\ignorespaces OOPS ItFix data flow diagram, showing algorithm applied to multiple proteins concurrently, in multiple rounds.}}{3}}
\newlabel{fig:oops}{{1}{3}}
\@writefile{toc}{\contentsline {section}{\numberline {IV}Parallel Prediction Scripting}{3}}
\@writefile{toc}{\contentsline {section}{\numberline {V}Experience on Large Systems}{5}}
\@writefile{toc}{\contentsline {subsection}{\numberline {\unhbox \voidb@x \hbox {V-A}}Usage Rates}{5}}
\@writefile{toc}{\contentsline {subsection}{\numberline {\unhbox \voidb@x \hbox {V-B}}Parameter Sweeps}{5}}
\@writefile{lof}{\contentsline {figure}{\numberline {2}{\ignorespaces The outputs of an initial test run on Intrepid are shown here for four representative proteins. Note that the protein’s native secondary structure was used as input, so a direct comparison to DeBartolo et al. is only relevant for $\alpha $-proteins, where ItFix effectively converges to the native secondary structure.}}{5}}
\newlabel{fig:test-outputs}{{2}{5}}
\@writefile{toc}{\contentsline {subsection}{\numberline {\unhbox \voidb@x \hbox {V-C}}Data Analysis and Visualization}{5}}
\@writefile{toc}{\contentsline {subsection}{\numberline {\unhbox \voidb@x \hbox {V-D}}OOPS Experiments Conducted in Swift}{5}}
\@writefile{lof}{\contentsline {figure}{\numberline {3}{\ignorespaces Table presenting results of running > 5000 simulations on alpha proteins using TeraGrid resources. The structures generated are better than those of DeBartolo et al. [13], and required significantly less computation. The lower images are the predicted structures (with helices in red and coil in green) overlaid with the native structures (colored orange).}}{6}}
\newlabel{fig:alpha-sim-res}{{3}{6}}
\@writefile{toc}{\contentsline {paragraph}{\numberline {\unhbox \voidb@x \hbox {V-D}0a}Initial Test}{6}}
\@writefile{toc}{\contentsline {paragraph}{\numberline {\unhbox \voidb@x \hbox {V-D}0b}Investigation of $\alpha $ Proteins}{6}}
\@writefile{toc}{\contentsline {paragraph}{\numberline {\unhbox \voidb@x \hbox {V-D}0c}Investigation of $\beta $ Proteins}{6}}
\@writefile{toc}{\contentsline {paragraph}{\numberline {\unhbox \voidb@x \hbox {V-D}0d}Replicate/compare DeBartolo et al. runs}{6}}
\@writefile{lof}{\contentsline {figure}{\numberline {4}{\ignorespaces Results of running eight proteins on 2 racks (8192 CPUS) on Argonne’s BG/P, Intrepid. Below are results from this investigation for T1af7. On the left is a scatter plot showing the correlation between our statistical energy potential and accuracy of the protein structures for the 985 simulations that ran to completion. On the right is an image showing the lowest RMSD structure. This table, plot and image were all automatically generated by our scripting mechanism, and the table is presented by a simple CGI script at our web site [2].}}{6}}
\newlabel{fig:bgprun}{{4}{6}}
\@writefile{lof}{\contentsline {figure}{\numberline {5}{\ignorespaces Sample result of a timing run on Ranger for varying values of Temperature Update Interval with Starting Temperature of 100.}}{6}}
\newlabel{fig:rangerplot}{{5}{6}}
\@writefile{toc}{\contentsline {paragraph}{\numberline {\unhbox \voidb@x \hbox {V-D}0e}Automatic Timing Runs}{6}}
\@writefile{toc}{\contentsline {section}{\numberline {VI}Related Work}{6}}
\@writefile{toc}{\contentsline {subsection}{\numberline {\unhbox \voidb@x \hbox {VI-A}}Structure Prediction Approach}{6}}
\@writefile{toc}{\contentsline {subsection}{\numberline {\unhbox \voidb@x \hbox {VI-B}}Computing Approach}{7}}
\@writefile{toc}{\contentsline {section}{\numberline {VII}Future Work}{7}}
\bibcite{IEEEhowto:kopka}{1}
\@writefile{lof}{\contentsline {figure}{\numberline {6}{\ignorespaces Planned OOPS Environment}}{8}}
\newlabel{fig:oops-planned}{{6}{8}}
\@writefile{toc}{\contentsline {section}{\numberline {VIII}Conclusion}{8}}
\@writefile{toc}{\contentsline {section}{References}{8}}
