%!PS-Adobe-3.0 EPSF-3.0 
%%BoundingBox: 0 0 698 238
%%Pages: 0
%%Creator: Sun Microsystems, Inc.
%%Title: none
%%CreationDate: none
%%LanguageLevel: 2
%%EndComments
%%BeginProlog
%%BeginResource: procset SDRes-Prolog 1.0 0
/b4_inc_state save def
/dict_count countdictstack def
/op_count count 1 sub def
userdict begin
0 setgray 0 setlinecap 1 setlinewidth 0 setlinejoin 10 setmiterlimit[] 0 setdash newpath
/languagelevel where {pop languagelevel 1 ne {false setstrokeadjust false setoverprint} if} if
/bdef {bind def} bind def
/c {setrgbcolor} bdef
/l {neg lineto} bdef
/rl {neg rlineto} bdef
/lc {setlinecap} bdef
/lj {setlinejoin} bdef
/lw {setlinewidth} bdef
/ml {setmiterlimit} bdef
/ld {setdash} bdef
/m {neg moveto} bdef
/ct {6 2 roll neg 6 2 roll neg 6 2 roll neg curveto} bdef
/r {rotate} bdef
/t {neg translate} bdef
/s {scale} bdef
/sw {show} bdef
/gs {gsave} bdef
/gr {grestore} bdef
/f {findfont dup length dict begin
{1 index /FID ne {def} {pop pop} ifelse} forall /Encoding ISOLatin1Encoding def
currentdict end /NFont exch definefont pop /NFont findfont} bdef
/p {closepath} bdef
/sf {scalefont setfont} bdef
/ef {eofill}bdef
/pc {closepath stroke}bdef
/ps {stroke}bdef
/pum {matrix currentmatrix}bdef
/pom {setmatrix}bdef
/bs {/aString exch def /nXOfs exch def /nWidth exch def currentpoint nXOfs 0 rmoveto pum nWidth aString stringwidth pop div 1 scale aString show pom moveto} bdef
%%EndResource
%%EndProlog
%%BeginSetup
%%EndSetup
%%Page: 1 1
%%BeginPageSetup
%%EndPageSetup
pum
0.02833 0.02839 s 
0 -8382 t
/tm matrix currentmatrix def
gs
0 0 m 24637 0 l 24637 8381 l 0 8381 l 0 0 l eoclip newpath
gs
0 0 m 24637 0 l 24637 8381 l 0 8381 l 0 0 l eoclip newpath
0.601 0.800 1.000 c 4595 4926 m  2543 4926 l  2543 3594 l  6647 3594 l 
6647 4926 l  4595 4926 l  p ef
0 lw 1 lj 0.003 0.003 0.003 c 4595 4926 m  2543 4926 l  2543 3594 l  6647 3594 l 
6647 4926 l  4595 4926 l  pc
pum
3337 4491 t
23 -106 m  83 -115 l  86 -95 95 -79 109 -67 ct 123 -56 143 -51 169 -51 ct 195 -51 214 -56 226 -65 ct 
239 -75 245 -86 245 -99 ct 245 -110 238 -119 224 -126 ct 214 -131 195 -136 167 -143 ct 
128 -154 101 -164 84 -172 ct 67 -180 54 -191 45 -205 ct 37 -219 32 -234 32 -251 ct 
32 -267 36 -281 43 -294 ct 49 -307 59 -318 70 -327 ct 79 -334 91 -339 106 -344 ct 
121 -349 137 -351 155 -351 ct 181 -351 204 -347 223 -339 ct 243 -331 258 -319 267 -305 ct 
276 -292 283 -273 286 -249 ct 226 -240 l  224 -258 217 -271 206 -281 ct 195 -291 179 -296 159 -296 ct 
135 -296 118 -292 108 -284 ct 97 -276 92 -267 92 -257 ct 92 -251 94 -245 99 -239 ct 
103 -234 110 -229 119 -226 ct 124 -224 139 -220 165 -213 ct 202 -202 229 -193 247 -186 ct 
265 -179 279 -168 289 -155 ct 300 -142 305 -125 305 -105 ct 305 -85 299 -67 288 -50 ct 
277 -32 261 -19 240 -10 ct 219 0 195 5 168 5 ct 124 5 90 -5 67 -23 ct 44 -42 29 -70 23 -106 ct 
p ef
360 -173 m  360 -236 377 -283 411 -313 ct 440 -338 475 -351 517 -351 ct 563 -351 601 -336 630 -305 ct 
659 -274 674 -232 674 -178 ct 674 -134 667 -100 654 -75 ct 641 -50 623 -30 598 -16 ct 
573 -2 546 5 517 5 ct 470 5 432 -11 403 -41 ct 374 -72 360 -116 360 -173 ct p
420 -173 m  420 -132 429 -102 447 -81 ct 466 -61 489 -51 517 -51 ct 545 -51 568 -61 586 -82 ct 
604 -102 614 -133 614 -175 ct 614 -215 604 -245 586 -265 ct 567 -285 544 -296 517 -296 ct 
489 -296 466 -285 447 -265 ct 429 -245 420 -214 420 -173 ct p ef
808 0 m  748 0 l  748 -346 l  799 -346 l  799 -296 l  812 -318 825 -333 836 -340 ct 
847 -347 860 -351 873 -351 ct 893 -351 913 -346 933 -336 ct 913 -282 l  899 -291 885 -296 872 -296 ct 
859 -296 848 -292 838 -284 ct 829 -276 822 -265 818 -251 ct 811 -230 808 -208 808 -183 ct 
808 0 l  p ef
1094 -52 m  1103 -1 l  1087 3 1072 5 1059 5 ct 1038 5 1022 1 1010 -5 ct 998 -12 990 -20 986 -31 ct 
981 -42 978 -64 978 -98 ct 978 -291 l  937 -291 l  937 -346 l  978 -346 l 
978 -432 l  1038 -467 l  1038 -346 l  1094 -346 l  1094 -291 l  1038 -291 l 
1038 -97 l  1038 -81 1039 -70 1041 -66 ct 1043 -61 1046 -58 1051 -55 ct 1055 -52 1062 -51 1070 -51 ct 
1076 -51 1084 -51 1094 -52 ct p ef
1228 0 m  1163 0 l  1163 -476 l  1339 -476 l  1370 -476 1394 -474 1410 -471 ct 
1433 -467 1452 -460 1468 -449 ct 1483 -438 1495 -423 1505 -403 ct 1514 -383 1519 -362 1519 -338 ct 
1519 -298 1507 -264 1482 -236 ct 1457 -208 1412 -194 1346 -194 ct 1228 -194 l 
1228 0 l  p
1228 -420 m  1228 -249 l  1346 -249 l  1385 -249 1413 -257 1430 -272 ct 1446 -287 1454 -309 1454 -336 ct 
1454 -356 1450 -374 1440 -388 ct 1430 -402 1417 -411 1402 -416 ct 1391 -419 1373 -420 1345 -420 ct 
1228 -420 l  p ef
1657 0 m  1597 0 l  1597 -346 l  1648 -346 l  1648 -296 l  1661 -318 1674 -333 1685 -340 ct 
1696 -347 1709 -351 1722 -351 ct 1742 -351 1762 -346 1782 -336 ct 1762 -282 l 
1748 -291 1734 -296 1721 -296 ct 1708 -296 1697 -292 1687 -284 ct 1678 -276 1671 -265 1667 -251 ct 
1660 -230 1657 -208 1657 -183 ct 1657 0 l  p ef
1800 -173 m  1800 -236 1817 -283 1851 -313 ct 1880 -338 1915 -351 1957 -351 ct 
2003 -351 2041 -336 2070 -305 ct 2099 -274 2114 -232 2114 -178 ct 2114 -134 2107 -100 2094 -75 ct 
2081 -50 2063 -30 2038 -16 ct 2013 -2 1986 5 1957 5 ct 1910 5 1872 -11 1843 -41 ct 
1814 -72 1800 -116 1800 -173 ct p
1860 -173 m  1860 -132 1869 -102 1887 -81 ct 1906 -61 1929 -51 1957 -51 ct 1985 -51 2008 -61 2026 -82 ct 
2044 -102 2054 -133 2054 -175 ct 2054 -215 2044 -245 2026 -265 ct 2007 -285 1984 -296 1957 -296 ct 
1929 -296 1906 -285 1887 -265 ct 1869 -245 1860 -214 1860 -173 ct p ef
2171 23 m  2231 32 l  2233 49 2239 61 2250 68 ct 2264 78 2283 83 2307 83 ct 
2334 83 2354 78 2368 68 ct 2383 58 2392 45 2397 27 ct 2400 16 2402 -7 2401 -42 ct 
2376 -14 2345 0 2308 0 ct 2261 0 2225 -17 2200 -51 ct 2174 -85 2161 -126 2161 -174 ct 
2161 -206 2167 -237 2178 -264 ct 2190 -292 2206 -313 2228 -328 ct 2250 -343 2275 -351 2305 -351 ct 
2344 -351 2376 -334 2401 -300 ct 2401 -346 l  2461 -346 l  2461 -48 l  2461 5 2456 44 2445 66 ct 
2434 88 2417 106 2393 119 ct 2370 132 2341 139 2306 139 ct 2265 139 2232 129 2207 110 ct 
2182 91 2170 62 2171 23 ct p
2221 -178 m  2221 -135 2230 -104 2247 -85 ct 2264 -65 2285 -55 2311 -55 ct 2337 -55 2358 -65 2375 -85 ct 
2393 -104 2401 -134 2401 -176 ct 2401 -215 2392 -245 2375 -265 ct 2357 -286 2335 -296 2310 -296 ct 
2286 -296 2265 -286 2247 -266 ct 2230 -246 2221 -217 2221 -178 ct p ef
pom
0.601 0.800 1.000 c 4595 1597 m  4217 1597 3911 1299 3911 931 ct 3911 563 4217 265 4595 265 ct 
4973 265 5279 563 5279 931 ct 5279 1299 4973 1597 4595 1597 ct p ef
0.003 0.003 0.003 c 4595 1597 m  4217 1597 3911 1299 3911 931 ct 3911 563 4217 265 4595 265 ct 
4973 265 5279 563 5279 931 ct 5279 1299 4973 1597 4595 1597 ct pc
pum
4502 1162 t
118 0 m  58 0 l  58 -291 l  7 -291 l  7 -346 l  58 -346 l  58 -383 l  58 -406 60 -423 64 -434 ct 
70 -449 80 -462 95 -471 ct 109 -480 130 -485 155 -485 ct 172 -485 190 -483 210 -479 ct 
201 -426 l  189 -428 177 -429 167 -429 ct 149 -429 136 -426 129 -418 ct 122 -411 118 -397 118 -377 ct 
118 -346 l  182 -346 l  182 -291 l  118 -291 l  118 0 l  p ef
pom
0.601 0.800 1.000 c 4595 8255 m  4217 8255 3911 7957 3911 7589 ct 3911 7221 4217 6923 4595 6923 ct 
4973 6923 5279 7221 5279 7589 ct 5279 7957 4973 8255 4595 8255 ct p ef
0.003 0.003 0.003 c 4595 8255 m  4217 8255 3911 7957 3911 7589 ct 3911 7221 4217 6923 4595 6923 ct 
4973 6923 5279 7221 5279 7589 ct 5279 7957 4973 8255 4595 8255 ct pc
pum
4411 7820 t
29 23 m  89 32 l  91 49 97 61 108 68 ct 122 78 141 83 165 83 ct 192 83 212 78 226 68 ct 
241 58 250 45 255 27 ct 258 16 260 -7 259 -42 ct 234 -14 203 0 166 0 ct 119 0 83 -17 58 -51 ct 
32 -85 19 -126 19 -174 ct 19 -206 25 -237 36 -264 ct 48 -292 64 -313 86 -328 ct 
108 -343 133 -351 163 -351 ct 202 -351 234 -334 259 -300 ct 259 -346 l  319 -346 l 
319 -48 l  319 5 314 44 303 66 ct 292 88 275 106 251 119 ct 228 132 199 139 164 139 ct 
123 139 90 129 65 110 ct 40 91 28 62 29 23 ct p
79 -178 m  79 -135 88 -104 105 -85 ct 122 -65 143 -55 169 -55 ct 195 -55 216 -65 233 -85 ct 
251 -104 259 -134 259 -176 ct 259 -215 250 -245 233 -265 ct 215 -286 193 -296 168 -296 ct 
144 -296 123 -286 105 -266 ct 88 -246 79 -217 79 -178 ct p ef
pom
0.601 0.800 1.000 c 11435 1597 m  9383 1597 l  9383 265 l  13487 265 l 
13487 1597 l  11435 1597 l  p ef
0.003 0.003 0.003 c 11435 1597 m  9383 1597 l  9383 265 l  13487 265 l  13487 1597 l 
11435 1597 l  pc
pum
9545 1162 t
379 -54 m  365 -37 349 -24 331 -15 ct 314 -5 297 0 279 0 ct 260 0 241 -6 223 -17 ct 
205 -28 190 -45 179 -68 ct 167 -92 162 -117 162 -145 ct 162 -179 170 -214 188 -248 ct 
205 -282 227 -308 253 -325 ct 279 -342 304 -351 329 -351 ct 347 -351 365 -346 382 -336 ct 
399 -326 414 -312 426 -292 ct 439 -342 l  499 -342 l  449 -126 l  442 -96 439 -80 439 -77 ct 
439 -71 441 -66 446 -62 ct 450 -57 456 -55 462 -55 ct 474 -55 489 -62 509 -74 ct 
534 -91 554 -113 569 -141 ct 584 -169 591 -198 591 -228 ct 591 -263 582 -295 563 -325 ct 
544 -356 517 -380 479 -398 ct 442 -416 401 -425 357 -425 ct 305 -425 259 -414 216 -391 ct 
174 -369 141 -336 118 -294 ct 95 -252 83 -207 83 -159 ct 83 -108 95 -65 118 -28 ct 
141 8 174 35 218 52 ct 261 70 310 79 363 79 ct 419 79 467 70 505 52 ct 543 34 572 12 591 -14 ct 
651 -14 l  640 10 621 34 594 59 ct 568 83 536 103 499 117 ct 462 131 417 139 365 139 ct 
317 139 273 132 232 120 ct 192 108 157 89 129 65 ct 100 40 79 11 64 -21 ct 46 -62 37 -106 37 -153 ct 
37 -206 48 -256 69 -304 ct 96 -362 134 -407 182 -438 ct 231 -469 290 -485 359 -485 ct 
413 -485 462 -474 504 -452 ct 547 -430 581 -397 606 -354 ct 627 -317 637 -276 637 -232 ct 
637 -170 615 -114 571 -65 ct 531 -22 488 0 441 0 ct 426 0 414 -2 405 -7 ct 396 -11 389 -18 385 -26 ct 
382 -31 380 -41 379 -54 ct p
222 -145 m  222 -118 229 -97 242 -82 ct 256 -67 272 -60 290 -60 ct 302 -60 314 -63 328 -70 ct 
341 -76 353 -86 365 -99 ct 377 -112 387 -128 395 -148 ct 403 -168 406 -187 406 -207 ct 
406 -234 399 -254 385 -269 ct 370 -284 353 -291 332 -291 ct 319 -291 306 -288 294 -281 ct 
282 -275 270 -265 259 -251 ct 248 -237 239 -220 232 -200 ct 225 -180 222 -161 222 -145 ct 
p ef
793 0 m  733 0 l  733 -291 l  682 -291 l  682 -346 l  733 -346 l  733 -383 l 
733 -406 735 -423 739 -434 ct 745 -449 755 -462 770 -471 ct 784 -480 805 -485 830 -485 ct 
847 -485 865 -483 885 -479 ct 876 -426 l  864 -428 852 -429 842 -429 ct 824 -429 811 -426 804 -418 ct 
797 -411 793 -397 793 -377 ct 793 -346 l  857 -346 l  857 -291 l  793 -291 l 
793 0 l  p ef
966 -416 m  906 -416 l  906 -476 l  966 -476 l  966 -416 l  p
966 0 m  906 0 l  906 -346 l  966 -346 l  966 0 l  p ef
1114 0 m  1054 0 l  1054 -476 l  1114 -476 l  1114 0 l  p ef
1436 -111 m  1495 -102 l  1485 -68 1468 -42 1442 -23 ct 1416 -5 1383 5 1343 5 ct 
1292 5 1252 -11 1223 -41 ct 1193 -72 1178 -115 1178 -170 ct 1178 -228 1193 -272 1223 -304 ct 
1253 -335 1292 -351 1340 -351 ct 1386 -351 1423 -335 1453 -304 ct 1482 -273 1497 -229 1497 -173 ct 
1497 -169 1497 -164 1496 -157 ct 1238 -157 l  1240 -123 1251 -96 1271 -78 ct 
1290 -60 1315 -51 1344 -51 ct 1366 -51 1384 -56 1400 -65 ct 1415 -75 1427 -90 1436 -111 ct 
p
1238 -212 m  1437 -212 l  1434 -237 1426 -255 1414 -267 ct 1395 -286 1370 -296 1339 -296 ct 
1312 -296 1288 -288 1269 -273 ct 1251 -258 1240 -238 1238 -212 ct p ef
1631 0 m  1571 0 l  1571 -346 l  1631 -346 l  1631 -297 l  1655 -333 1690 -351 1736 -351 ct 
1756 -351 1774 -347 1791 -340 ct 1807 -332 1820 -323 1828 -311 ct 1836 -298 1842 -284 1845 -268 ct 
1847 -257 1848 -238 1848 -211 ct 1848 0 l  1788 0 l  1788 -205 l  1788 -229 1786 -246 1782 -258 ct 
1777 -269 1770 -278 1758 -285 ct 1747 -292 1734 -296 1719 -296 ct 1695 -296 1675 -288 1657 -272 ct 
1640 -257 1631 -227 1631 -184 ct 1631 0 l  p ef
2158 -42 m  2137 -25 2117 -13 2098 -6 ct 2079 1 2058 5 2036 5 ct 2000 5 1972 -4 1952 -23 ct 
1932 -41 1923 -64 1923 -92 ct 1923 -108 1926 -124 1934 -137 ct 1941 -151 1951 -162 1963 -170 ct 
1975 -178 1988 -185 2003 -189 ct 2014 -192 2031 -195 2053 -197 ct 2098 -203 2132 -209 2153 -217 ct 
2153 -224 2154 -229 2154 -231 ct 2154 -253 2148 -268 2138 -277 ct 2124 -289 2103 -296 2076 -296 ct 
2050 -296 2031 -291 2019 -282 ct 2007 -273 1998 -258 1992 -236 ct 1932 -245 l 
1937 -269 1946 -289 1957 -304 ct 1969 -319 1986 -331 2009 -339 ct 2031 -347 2057 -351 2086 -351 ct 
2115 -351 2139 -347 2157 -340 ct 2175 -333 2189 -324 2197 -314 ct 2206 -303 2212 -289 2215 -273 ct 
2217 -263 2218 -246 2218 -222 ct 2218 -149 l  2218 -99 2220 -65 2222 -48 ct 
2224 -32 2229 -15 2237 0 ct 2177 0 l  2167 -12 2161 -26 2158 -42 ct p
2153 -145 m  2154 -162 l  2133 -155 2103 -148 2062 -144 ct 2039 -141 2022 -137 2013 -134 ct 
2003 -130 1996 -125 1991 -118 ct 1985 -112 1983 -104 1983 -96 ct 1983 -83 1988 -72 2000 -64 ct 
2011 -55 2028 -51 2049 -51 ct 2071 -51 2090 -55 2107 -64 ct 2124 -73 2136 -85 2144 -98 ct 
2150 -109 2153 -124 2153 -145 ct p ef
2369 0 m  2309 0 l  2309 -346 l  2369 -346 l  2369 -290 l  2379 -308 2393 -323 2410 -334 ct 
2428 -345 2447 -351 2469 -351 ct 2494 -351 2514 -345 2530 -334 ct 2545 -322 2556 -306 2563 -286 ct 
2590 -329 2625 -351 2669 -351 ct 2703 -351 2729 -342 2748 -323 ct 2766 -304 2775 -275 2775 -236 ct 
2775 0 l  2715 0 l  2715 -213 l  2715 -235 2713 -252 2710 -262 ct 2706 -272 2699 -280 2689 -286 ct 
2680 -292 2668 -296 2655 -296 ct 2631 -296 2611 -288 2596 -272 ct 2580 -256 2572 -231 2572 -196 ct 
2572 0 l  2512 0 l  2512 -219 l  2512 -245 2507 -264 2498 -276 ct 2489 -289 2474 -296 2452 -296 ct 
2436 -296 2421 -291 2408 -283 ct 2394 -274 2384 -262 2378 -246 ct 2372 -229 2369 -206 2369 -175 ct 
2369 0 l  p ef
3100 -111 m  3159 -102 l  3149 -68 3132 -42 3106 -23 ct 3080 -5 3047 5 3007 5 ct 
2956 5 2916 -11 2887 -41 ct 2857 -72 2842 -115 2842 -170 ct 2842 -228 2857 -272 2887 -304 ct 
2917 -335 2956 -351 3004 -351 ct 3050 -351 3087 -335 3117 -304 ct 3146 -273 3161 -229 3161 -173 ct 
3161 -169 3161 -164 3160 -157 ct 2902 -157 l  2904 -123 2915 -96 2935 -78 ct 
2954 -60 2979 -51 3008 -51 ct 3030 -51 3048 -56 3064 -65 ct 3079 -75 3091 -90 3100 -111 ct 
p
2902 -212 m  3101 -212 l  3098 -237 3090 -255 3078 -267 ct 3059 -286 3034 -296 3003 -296 ct 
2976 -296 2952 -288 2933 -273 ct 2915 -258 2904 -238 2902 -212 ct p ef
3392 134 m  3351 134 l  3317 94 3289 48 3265 -6 ct 3242 -59 3231 -114 3231 -171 ct 
3231 -222 3239 -270 3257 -316 ct 3277 -369 3308 -423 3351 -476 ct 3392 -476 l 
3365 -432 3347 -400 3338 -381 ct 3324 -352 3313 -322 3305 -290 ct 3295 -251 3291 -211 3291 -171 ct 
3291 -69 3324 32 3392 134 ct p ef
3516 -416 m  3456 -416 l  3456 -476 l  3516 -476 l  3516 -416 l  p
3516 0 m  3456 0 l  3456 -346 l  3516 -346 l  3516 0 l  p ef
3637 134 m  3595 134 l  3663 32 3697 -69 3697 -171 ct 3697 -211 3692 -250 3682 -289 ct 
3674 -321 3663 -351 3650 -380 ct 3641 -400 3623 -431 3595 -476 ct 3637 -476 l 
3679 -423 3710 -369 3731 -316 ct 3748 -270 3757 -222 3757 -171 ct 3757 -114 3745 -59 3722 -6 ct 
3698 48 3670 94 3637 134 ct p ef
pom
0.601 0.800 1.000 c 11093 8255 m  8699 8255 l  8699 6923 l  13487 6923 l 
13487 8255 l  11093 8255 l  p ef
0.003 0.003 0.003 c 11093 8255 m  8699 8255 l  8699 6923 l  13487 6923 l  13487 8255 l 
11093 8255 l  pc
pum
9092 7820 t
379 -54 m  365 -37 349 -24 331 -15 ct 314 -5 297 0 279 0 ct 260 0 241 -6 223 -17 ct 
205 -28 190 -45 179 -68 ct 167 -92 162 -117 162 -145 ct 162 -179 170 -214 188 -248 ct 
205 -282 227 -308 253 -325 ct 279 -342 304 -351 329 -351 ct 347 -351 365 -346 382 -336 ct 
399 -326 414 -312 426 -292 ct 439 -342 l  499 -342 l  449 -126 l  442 -96 439 -80 439 -77 ct 
439 -71 441 -66 446 -62 ct 450 -57 456 -55 462 -55 ct 474 -55 489 -62 509 -74 ct 
534 -91 554 -113 569 -141 ct 584 -169 591 -198 591 -228 ct 591 -263 582 -295 563 -325 ct 
544 -356 517 -380 479 -398 ct 442 -416 401 -425 357 -425 ct 305 -425 259 -414 216 -391 ct 
174 -369 141 -336 118 -294 ct 95 -252 83 -207 83 -159 ct 83 -108 95 -65 118 -28 ct 
141 8 174 35 218 52 ct 261 70 310 79 363 79 ct 419 79 467 70 505 52 ct 543 34 572 12 591 -14 ct 
651 -14 l  640 10 621 34 594 59 ct 568 83 536 103 499 117 ct 462 131 417 139 365 139 ct 
317 139 273 132 232 120 ct 192 108 157 89 129 65 ct 100 40 79 11 64 -21 ct 46 -62 37 -106 37 -153 ct 
37 -206 48 -256 69 -304 ct 96 -362 134 -407 182 -438 ct 231 -469 290 -485 359 -485 ct 
413 -485 462 -474 504 -452 ct 547 -430 581 -397 606 -354 ct 627 -317 637 -276 637 -232 ct 
637 -170 615 -114 571 -65 ct 531 -22 488 0 441 0 ct 426 0 414 -2 405 -7 ct 396 -11 389 -18 385 -26 ct 
382 -31 380 -41 379 -54 ct p
222 -145 m  222 -118 229 -97 242 -82 ct 256 -67 272 -60 290 -60 ct 302 -60 314 -63 328 -70 ct 
341 -76 353 -86 365 -99 ct 377 -112 387 -128 395 -148 ct 403 -168 406 -187 406 -207 ct 
406 -234 399 -254 385 -269 ct 370 -284 353 -291 332 -291 ct 319 -291 306 -288 294 -281 ct 
282 -275 270 -265 259 -251 ct 248 -237 239 -220 232 -200 ct 225 -180 222 -161 222 -145 ct 
p ef
793 0 m  733 0 l  733 -291 l  682 -291 l  682 -346 l  733 -346 l  733 -383 l 
733 -406 735 -423 739 -434 ct 745 -449 755 -462 770 -471 ct 784 -480 805 -485 830 -485 ct 
847 -485 865 -483 885 -479 ct 876 -426 l  864 -428 852 -429 842 -429 ct 824 -429 811 -426 804 -418 ct 
797 -411 793 -397 793 -377 ct 793 -346 l  857 -346 l  857 -291 l  793 -291 l 
793 0 l  p ef
966 -416 m  906 -416 l  906 -476 l  966 -476 l  966 -416 l  p
966 0 m  906 0 l  906 -346 l  966 -346 l  966 0 l  p ef
1114 0 m  1054 0 l  1054 -476 l  1114 -476 l  1114 0 l  p ef
1436 -111 m  1495 -102 l  1485 -68 1468 -42 1442 -23 ct 1416 -5 1383 5 1343 5 ct 
1292 5 1252 -11 1223 -41 ct 1193 -72 1178 -115 1178 -170 ct 1178 -228 1193 -272 1223 -304 ct 
1253 -335 1292 -351 1340 -351 ct 1386 -351 1423 -335 1453 -304 ct 1482 -273 1497 -229 1497 -173 ct 
1497 -169 1497 -164 1496 -157 ct 1238 -157 l  1240 -123 1251 -96 1271 -78 ct 
1290 -60 1315 -51 1344 -51 ct 1366 -51 1384 -56 1400 -65 ct 1415 -75 1427 -90 1436 -111 ct 
p
1238 -212 m  1437 -212 l  1434 -237 1426 -255 1414 -267 ct 1395 -286 1370 -296 1339 -296 ct 
1312 -296 1288 -288 1269 -273 ct 1251 -258 1240 -238 1238 -212 ct p ef
1631 0 m  1571 0 l  1571 -346 l  1631 -346 l  1631 -297 l  1655 -333 1690 -351 1736 -351 ct 
1756 -351 1774 -347 1791 -340 ct 1807 -332 1820 -323 1828 -311 ct 1836 -298 1842 -284 1845 -268 ct 
1847 -257 1848 -238 1848 -211 ct 1848 0 l  1788 0 l  1788 -205 l  1788 -229 1786 -246 1782 -258 ct 
1777 -269 1770 -278 1758 -285 ct 1747 -292 1734 -296 1719 -296 ct 1695 -296 1675 -288 1657 -272 ct 
1640 -257 1631 -227 1631 -184 ct 1631 0 l  p ef
2158 -42 m  2137 -25 2117 -13 2098 -6 ct 2079 1 2058 5 2036 5 ct 2000 5 1972 -4 1952 -23 ct 
1932 -41 1923 -64 1923 -92 ct 1923 -108 1926 -124 1934 -137 ct 1941 -151 1951 -162 1963 -170 ct 
1975 -178 1988 -185 2003 -189 ct 2014 -192 2031 -195 2053 -197 ct 2098 -203 2132 -209 2153 -217 ct 
2153 -224 2154 -229 2154 -231 ct 2154 -253 2148 -268 2138 -277 ct 2124 -289 2103 -296 2076 -296 ct 
2050 -296 2031 -291 2019 -282 ct 2007 -273 1998 -258 1992 -236 ct 1932 -245 l 
1937 -269 1946 -289 1957 -304 ct 1969 -319 1986 -331 2009 -339 ct 2031 -347 2057 -351 2086 -351 ct 
2115 -351 2139 -347 2157 -340 ct 2175 -333 2189 -324 2197 -314 ct 2206 -303 2212 -289 2215 -273 ct 
2217 -263 2218 -246 2218 -222 ct 2218 -149 l  2218 -99 2220 -65 2222 -48 ct 
2224 -32 2229 -15 2237 0 ct 2177 0 l  2167 -12 2161 -26 2158 -42 ct p
2153 -145 m  2154 -162 l  2133 -155 2103 -148 2062 -144 ct 2039 -141 2022 -137 2013 -134 ct 
2003 -130 1996 -125 1991 -118 ct 1985 -112 1983 -104 1983 -96 ct 1983 -83 1988 -72 2000 -64 ct 
2011 -55 2028 -51 2049 -51 ct 2071 -51 2090 -55 2107 -64 ct 2124 -73 2136 -85 2144 -98 ct 
2150 -109 2153 -124 2153 -145 ct p ef
2369 0 m  2309 0 l  2309 -346 l  2369 -346 l  2369 -290 l  2379 -308 2393 -323 2410 -334 ct 
2428 -345 2447 -351 2469 -351 ct 2494 -351 2514 -345 2530 -334 ct 2545 -322 2556 -306 2563 -286 ct 
2590 -329 2625 -351 2669 -351 ct 2703 -351 2729 -342 2748 -323 ct 2766 -304 2775 -275 2775 -236 ct 
2775 0 l  2715 0 l  2715 -213 l  2715 -235 2713 -252 2710 -262 ct 2706 -272 2699 -280 2689 -286 ct 
2680 -292 2668 -296 2655 -296 ct 2631 -296 2611 -288 2596 -272 ct 2580 -256 2572 -231 2572 -196 ct 
2572 0 l  2512 0 l  2512 -219 l  2512 -245 2507 -264 2498 -276 ct 2489 -289 2474 -296 2452 -296 ct 
2436 -296 2421 -291 2408 -283 ct 2394 -274 2384 -262 2378 -246 ct 2372 -229 2369 -206 2369 -175 ct 
2369 0 l  p ef
3100 -111 m  3159 -102 l  3149 -68 3132 -42 3106 -23 ct 3080 -5 3047 5 3007 5 ct 
2956 5 2916 -11 2887 -41 ct 2857 -72 2842 -115 2842 -170 ct 2842 -228 2857 -272 2887 -304 ct 
2917 -335 2956 -351 3004 -351 ct 3050 -351 3087 -335 3117 -304 ct 3146 -273 3161 -229 3161 -173 ct 
3161 -169 3161 -164 3160 -157 ct 2902 -157 l  2904 -123 2915 -96 2935 -78 ct 
2954 -60 2979 -51 3008 -51 ct 3030 -51 3048 -56 3064 -65 ct 3079 -75 3091 -90 3100 -111 ct 
p
2902 -212 m  3101 -212 l  3098 -237 3090 -255 3078 -267 ct 3059 -286 3034 -296 3003 -296 ct 
2976 -296 2952 -288 2933 -273 ct 2915 -258 2904 -238 2902 -212 ct p ef
3392 134 m  3351 134 l  3317 94 3289 48 3265 -6 ct 3242 -59 3231 -114 3231 -171 ct 
3231 -222 3239 -270 3257 -316 ct 3277 -369 3308 -423 3351 -476 ct 3392 -476 l 
3365 -432 3347 -400 3338 -381 ct 3324 -352 3313 -322 3305 -290 ct 3295 -251 3291 -211 3291 -171 ct 
3291 -69 3324 32 3392 134 ct p ef
3438 -173 m  3438 -236 3455 -283 3489 -313 ct 3518 -338 3553 -351 3595 -351 ct 
3641 -351 3679 -336 3708 -305 ct 3737 -274 3752 -232 3752 -178 ct 3752 -134 3745 -100 3732 -75 ct 
3719 -50 3701 -30 3676 -16 ct 3651 -2 3624 5 3595 5 ct 3548 5 3510 -11 3481 -41 ct 
3452 -72 3438 -116 3438 -173 ct p
3498 -173 m  3498 -132 3507 -102 3525 -81 ct 3544 -61 3567 -51 3595 -51 ct 3623 -51 3646 -61 3664 -82 ct 
3682 -102 3692 -133 3692 -175 ct 3692 -215 3682 -245 3664 -265 ct 3645 -285 3622 -296 3595 -296 ct 
3567 -296 3544 -285 3525 -265 ct 3507 -245 3498 -214 3498 -173 ct p ef
3859 134 m  3817 134 l  3885 32 3919 -69 3919 -171 ct 3919 -211 3914 -250 3904 -289 ct 
3896 -321 3885 -351 3872 -380 ct 3863 -400 3845 -431 3817 -476 ct 3859 -476 l 
3901 -423 3932 -369 3953 -316 ct 3970 -270 3979 -222 3979 -171 ct 3979 -114 3967 -59 3944 -6 ct 
3920 48 3892 94 3859 134 ct p ef
pom
0.601 0.800 1.000 c 21352 1597 m  19652 1597 18274 1299 18274 931 ct 18274 563 19652 265 21352 265 ct 
23052 265 24430 563 24430 931 ct 24430 1299 23052 1597 21352 1597 ct p ef
0.003 0.003 0.003 c 21352 1597 m  19652 1597 18274 1299 18274 931 ct 18274 563 19652 265 21352 265 ct 
23052 265 24430 563 24430 931 ct 24430 1299 23052 1597 21352 1597 ct pc
pum
19449 1162 t
89 0 m  28 0 l  92 -300 l  42 -300 l  51 -346 l  102 -346 l  112 -395 l 
118 -419 123 -437 129 -448 ct 135 -459 144 -467 157 -474 ct 170 -481 187 -485 208 -485 ct 
223 -485 245 -481 273 -474 ct 263 -423 l  243 -424 226 -425 213 -425 ct 201 -425 192 -422 186 -417 ct 
180 -412 175 -400 171 -381 ct 163 -346 l  226 -346 l  217 -300 l  153 -300 l 
89 0 l  p ef
358 -416 m  297 -416 l  310 -476 l  371 -476 l  358 -416 l  p
269 0 m  208 0 l  282 -346 l  343 -346 l  269 0 l  p ef
413 0 m  352 0 l  453 -476 l  514 -476 l  413 0 l  p ef
755 -120 m  813 -115 l  804 -87 785 -60 755 -34 ct 726 -8 690 5 649 5 ct 623 5 600 -1 578 -13 ct 
557 -24 540 -41 529 -64 ct 518 -86 512 -111 512 -140 ct 512 -177 521 -213 539 -248 ct 
556 -283 579 -309 607 -326 ct 635 -342 666 -351 698 -351 ct 740 -351 773 -338 798 -313 ct 
823 -287 836 -253 836 -209 ct 836 -192 834 -175 831 -157 ct 577 -157 l  574 -150 572 -144 572 -139 ct 
572 -107 580 -83 595 -67 ct 610 -50 628 -42 650 -42 ct 670 -42 690 -48 710 -62 ct 
729 -75 745 -95 755 -120 ct p
586 -203 m  775 -203 l  775 -209 776 -213 776 -216 ct 776 -245 768 -267 754 -282 ct 
740 -297 721 -305 698 -305 ct 674 -305 652 -296 631 -279 ct 611 -263 596 -237 586 -203 ct 
p ef
934 0 m  873 0 l  947 -346 l  1004 -346 l  991 -283 l  1014 -307 1035 -324 1055 -335 ct 
1075 -346 1095 -351 1116 -351 ct 1143 -351 1165 -343 1180 -328 ct 1196 -313 1204 -293 1204 -268 ct 
1204 -255 1201 -235 1195 -208 ct 1147 0 l  1086 0 l  1135 -219 l  1140 -240 1142 -256 1142 -266 ct 
1142 -278 1138 -287 1131 -294 ct 1123 -301 1111 -305 1097 -305 ct 1067 -305 1041 -294 1017 -272 ct 
994 -250 977 -213 966 -160 ct 934 0 l  p ef
1474 -43 m  1454 -25 1435 -13 1416 -6 ct 1398 1 1378 5 1357 5 ct 1325 5 1300 -5 1281 -23 ct 
1262 -42 1252 -65 1252 -94 ct 1252 -113 1257 -130 1265 -145 ct 1274 -160 1285 -171 1299 -180 ct 
1313 -189 1330 -196 1351 -200 ct 1366 -202 1391 -204 1425 -206 ct 1460 -207 1485 -211 1500 -217 ct 
1504 -233 1506 -246 1506 -257 ct 1506 -270 1502 -281 1492 -289 ct 1480 -299 1461 -305 1437 -305 ct 
1414 -305 1396 -299 1381 -288 ct 1367 -277 1356 -261 1349 -240 ct 1289 -245 l 
1301 -279 1320 -305 1345 -324 ct 1370 -342 1402 -351 1441 -351 ct 1482 -351 1515 -341 1539 -321 ct 
1557 -305 1566 -286 1566 -262 ct 1566 -243 1564 -222 1559 -198 ct 1542 -113 l 
1537 -86 1534 -64 1534 -47 ct 1534 -36 1536 -20 1540 0 ct 1480 0 l  1477 -11 1475 -26 1474 -43 ct 
p
1493 -176 m  1485 -173 1477 -171 1469 -169 ct 1460 -167 1445 -165 1423 -163 ct 
1390 -160 1367 -157 1354 -152 ct 1340 -147 1330 -140 1323 -130 ct 1316 -120 1312 -109 1312 -97 ct 
1312 -81 1318 -68 1329 -57 ct 1340 -47 1356 -42 1376 -42 ct 1395 -42 1413 -47 1430 -57 ct 
1448 -67 1461 -81 1471 -99 ct 1480 -117 1487 -143 1493 -176 ct p ef
1674 0 m  1613 0 l  1687 -346 l  1748 -346 l  1735 -287 l  1757 -311 1776 -328 1793 -337 ct 
1810 -346 1829 -351 1848 -351 ct 1870 -351 1887 -345 1902 -334 ct 1916 -323 1925 -307 1930 -286 ct 
1947 -308 1965 -324 1984 -335 ct 2003 -346 2023 -351 2045 -351 ct 2073 -351 2094 -344 2109 -331 ct 
2123 -317 2130 -298 2130 -273 ct 2130 -263 2127 -245 2122 -221 ct 2071 0 l  2010 0 l 
2059 -228 l  2063 -247 2065 -260 2065 -268 ct 2065 -280 2062 -289 2055 -295 ct 
2048 -302 2038 -305 2026 -305 ct 2009 -305 1992 -299 1975 -289 ct 1957 -278 1944 -264 1934 -247 ct 
1924 -230 1916 -203 1909 -167 ct 1873 0 l  1812 0 l  1861 -233 l  1865 -249 1867 -260 1867 -267 ct 
1867 -278 1863 -287 1856 -294 ct 1850 -301 1841 -305 1830 -305 ct 1814 -305 1797 -299 1779 -289 ct 
1761 -278 1747 -263 1736 -244 ct 1725 -225 1716 -198 1709 -162 ct 1674 0 l  p ef
2419 -120 m  2477 -115 l  2468 -87 2449 -60 2419 -34 ct 2390 -8 2354 5 2313 5 ct 
2287 5 2264 -1 2242 -13 ct 2221 -24 2204 -41 2193 -64 ct 2182 -86 2176 -111 2176 -140 ct 
2176 -177 2185 -213 2203 -248 ct 2220 -283 2243 -309 2271 -326 ct 2299 -342 2330 -351 2362 -351 ct 
2404 -351 2437 -338 2462 -313 ct 2487 -287 2500 -253 2500 -209 ct 2500 -192 2498 -175 2495 -157 ct 
2241 -157 l  2238 -150 2236 -144 2236 -139 ct 2236 -107 2244 -83 2259 -67 ct 
2274 -50 2292 -42 2314 -42 ct 2334 -42 2354 -48 2374 -62 ct 2393 -75 2409 -95 2419 -120 ct 
p
2250 -203 m  2439 -203 l  2439 -209 2440 -213 2440 -216 ct 2440 -245 2432 -267 2418 -282 ct 
2404 -297 2385 -305 2362 -305 ct 2338 -305 2316 -296 2295 -279 ct 2275 -263 2260 -237 2250 -203 ct 
p ef
2731 -132 m  2731 -199 2751 -254 2791 -297 ct 2824 -333 2867 -351 2920 -351 ct 
2962 -351 2995 -338 3021 -313 ct 3046 -287 3059 -252 3059 -209 ct 3059 -170 3051 -133 3035 -100 ct 
3019 -66 2996 -40 2966 -22 ct 2937 -4 2906 5 2873 5 ct 2846 5 2821 -1 2799 -12 ct 
2777 -24 2760 -40 2749 -60 ct 2737 -81 2731 -105 2731 -132 ct p
2791 -138 m  2791 -107 2799 -83 2815 -66 ct 2830 -50 2850 -42 2873 -42 ct 2886 -42 2898 -44 2910 -49 ct 
2923 -54 2934 -62 2945 -72 ct 2955 -82 2964 -93 2971 -106 ct 2979 -119 2985 -133 2989 -148 ct 
2996 -169 2999 -189 2999 -209 ct 2999 -239 2991 -263 2976 -280 ct 2960 -296 2941 -305 2917 -305 ct 
2899 -305 2882 -301 2867 -292 ct 2852 -283 2839 -271 2827 -254 ct 2814 -238 2806 -219 2800 -197 ct 
2794 -175 2791 -155 2791 -138 ct p ef
3158 0 m  3097 0 l  3161 -300 l  3111 -300 l  3120 -346 l  3171 -346 l 
3181 -395 l  3187 -419 3192 -437 3198 -448 ct 3204 -459 3213 -467 3226 -474 ct 
3239 -481 3256 -485 3277 -485 ct 3292 -485 3314 -481 3342 -474 ct 3332 -423 l 
3312 -424 3295 -425 3282 -425 ct 3270 -425 3261 -422 3255 -417 ct 3249 -412 3244 -400 3240 -381 ct 
3232 -346 l  3295 -346 l  3286 -300 l  3222 -300 l  3158 0 l  p ef
pom
pum
22700 1162 t
488 0 m  428 0 l  428 -291 l  377 -291 l  377 -346 l  428 -346 l  428 -383 l 
428 -406 430 -423 434 -434 ct 440 -449 450 -462 465 -471 ct 479 -480 500 -485 525 -485 ct 
542 -485 560 -483 580 -479 ct 571 -426 l  559 -428 547 -429 537 -429 ct 519 -429 506 -426 499 -418 ct 
492 -411 488 -397 488 -377 ct 488 -346 l  552 -346 l  552 -291 l  488 -291 l 
488 0 l  p ef
pom
0.601 0.800 1.000 c 21352 8255 m  19652 8255 18274 7957 18274 7589 ct 18274 7221 19652 6923 21352 6923 ct 
23052 6923 24430 7221 24430 7589 ct 24430 7957 23052 8255 21352 8255 ct p ef
0.003 0.003 0.003 c 21352 8255 m  19652 8255 18274 7957 18274 7589 ct 18274 7221 19652 6923 21352 6923 ct 
23052 6923 24430 7221 24430 7589 ct 24430 7957 23052 8255 21352 8255 ct pc
pum
19356 7820 t
89 0 m  28 0 l  92 -300 l  42 -300 l  51 -346 l  102 -346 l  112 -395 l 
118 -419 123 -437 129 -448 ct 135 -459 144 -467 157 -474 ct 170 -481 187 -485 208 -485 ct 
223 -485 245 -481 273 -474 ct 263 -423 l  243 -424 226 -425 213 -425 ct 201 -425 192 -422 186 -417 ct 
180 -412 175 -400 171 -381 ct 163 -346 l  226 -346 l  217 -300 l  153 -300 l 
89 0 l  p ef
358 -416 m  297 -416 l  310 -476 l  371 -476 l  358 -416 l  p
269 0 m  208 0 l  282 -346 l  343 -346 l  269 0 l  p ef
413 0 m  352 0 l  453 -476 l  514 -476 l  413 0 l  p ef
755 -120 m  813 -115 l  804 -87 785 -60 755 -34 ct 726 -8 690 5 649 5 ct 623 5 600 -1 578 -13 ct 
557 -24 540 -41 529 -64 ct 518 -86 512 -111 512 -140 ct 512 -177 521 -213 539 -248 ct 
556 -283 579 -309 607 -326 ct 635 -342 666 -351 698 -351 ct 740 -351 773 -338 798 -313 ct 
823 -287 836 -253 836 -209 ct 836 -192 834 -175 831 -157 ct 577 -157 l  574 -150 572 -144 572 -139 ct 
572 -107 580 -83 595 -67 ct 610 -50 628 -42 650 -42 ct 670 -42 690 -48 710 -62 ct 
729 -75 745 -95 755 -120 ct p
586 -203 m  775 -203 l  775 -209 776 -213 776 -216 ct 776 -245 768 -267 754 -282 ct 
740 -297 721 -305 698 -305 ct 674 -305 652 -296 631 -279 ct 611 -263 596 -237 586 -203 ct 
p ef
934 0 m  873 0 l  947 -346 l  1004 -346 l  991 -283 l  1014 -307 1035 -324 1055 -335 ct 
1075 -346 1095 -351 1116 -351 ct 1143 -351 1165 -343 1180 -328 ct 1196 -313 1204 -293 1204 -268 ct 
1204 -255 1201 -235 1195 -208 ct 1147 0 l  1086 0 l  1135 -219 l  1140 -240 1142 -256 1142 -266 ct 
1142 -278 1138 -287 1131 -294 ct 1123 -301 1111 -305 1097 -305 ct 1067 -305 1041 -294 1017 -272 ct 
994 -250 977 -213 966 -160 ct 934 0 l  p ef
1474 -43 m  1454 -25 1435 -13 1416 -6 ct 1398 1 1378 5 1357 5 ct 1325 5 1300 -5 1281 -23 ct 
1262 -42 1252 -65 1252 -94 ct 1252 -113 1257 -130 1265 -145 ct 1274 -160 1285 -171 1299 -180 ct 
1313 -189 1330 -196 1351 -200 ct 1366 -202 1391 -204 1425 -206 ct 1460 -207 1485 -211 1500 -217 ct 
1504 -233 1506 -246 1506 -257 ct 1506 -270 1502 -281 1492 -289 ct 1480 -299 1461 -305 1437 -305 ct 
1414 -305 1396 -299 1381 -288 ct 1367 -277 1356 -261 1349 -240 ct 1289 -245 l 
1301 -279 1320 -305 1345 -324 ct 1370 -342 1402 -351 1441 -351 ct 1482 -351 1515 -341 1539 -321 ct 
1557 -305 1566 -286 1566 -262 ct 1566 -243 1564 -222 1559 -198 ct 1542 -113 l 
1537 -86 1534 -64 1534 -47 ct 1534 -36 1536 -20 1540 0 ct 1480 0 l  1477 -11 1475 -26 1474 -43 ct 
p
1493 -176 m  1485 -173 1477 -171 1469 -169 ct 1460 -167 1445 -165 1423 -163 ct 
1390 -160 1367 -157 1354 -152 ct 1340 -147 1330 -140 1323 -130 ct 1316 -120 1312 -109 1312 -97 ct 
1312 -81 1318 -68 1329 -57 ct 1340 -47 1356 -42 1376 -42 ct 1395 -42 1413 -47 1430 -57 ct 
1448 -67 1461 -81 1471 -99 ct 1480 -117 1487 -143 1493 -176 ct p ef
1674 0 m  1613 0 l  1687 -346 l  1748 -346 l  1735 -287 l  1757 -311 1776 -328 1793 -337 ct 
1810 -346 1829 -351 1848 -351 ct 1870 -351 1887 -345 1902 -334 ct 1916 -323 1925 -307 1930 -286 ct 
1947 -308 1965 -324 1984 -335 ct 2003 -346 2023 -351 2045 -351 ct 2073 -351 2094 -344 2109 -331 ct 
2123 -317 2130 -298 2130 -273 ct 2130 -263 2127 -245 2122 -221 ct 2071 0 l  2010 0 l 
2059 -228 l  2063 -247 2065 -260 2065 -268 ct 2065 -280 2062 -289 2055 -295 ct 
2048 -302 2038 -305 2026 -305 ct 2009 -305 1992 -299 1975 -289 ct 1957 -278 1944 -264 1934 -247 ct 
1924 -230 1916 -203 1909 -167 ct 1873 0 l  1812 0 l  1861 -233 l  1865 -249 1867 -260 1867 -267 ct 
1867 -278 1863 -287 1856 -294 ct 1850 -301 1841 -305 1830 -305 ct 1814 -305 1797 -299 1779 -289 ct 
1761 -278 1747 -263 1736 -244 ct 1725 -225 1716 -198 1709 -162 ct 1674 0 l  p ef
2419 -120 m  2477 -115 l  2468 -87 2449 -60 2419 -34 ct 2390 -8 2354 5 2313 5 ct 
2287 5 2264 -1 2242 -13 ct 2221 -24 2204 -41 2193 -64 ct 2182 -86 2176 -111 2176 -140 ct 
2176 -177 2185 -213 2203 -248 ct 2220 -283 2243 -309 2271 -326 ct 2299 -342 2330 -351 2362 -351 ct 
2404 -351 2437 -338 2462 -313 ct 2487 -287 2500 -253 2500 -209 ct 2500 -192 2498 -175 2495 -157 ct 
2241 -157 l  2238 -150 2236 -144 2236 -139 ct 2236 -107 2244 -83 2259 -67 ct 
2274 -50 2292 -42 2314 -42 ct 2334 -42 2354 -48 2374 -62 ct 2393 -75 2409 -95 2419 -120 ct 
p
2250 -203 m  2439 -203 l  2439 -209 2440 -213 2440 -216 ct 2440 -245 2432 -267 2418 -282 ct 
2404 -297 2385 -305 2362 -305 ct 2338 -305 2316 -296 2295 -279 ct 2275 -263 2260 -237 2250 -203 ct 
p ef
2731 -132 m  2731 -199 2751 -254 2791 -297 ct 2824 -333 2867 -351 2920 -351 ct 
2962 -351 2995 -338 3021 -313 ct 3046 -287 3059 -252 3059 -209 ct 3059 -170 3051 -133 3035 -100 ct 
3019 -66 2996 -40 2966 -22 ct 2937 -4 2906 5 2873 5 ct 2846 5 2821 -1 2799 -12 ct 
2777 -24 2760 -40 2749 -60 ct 2737 -81 2731 -105 2731 -132 ct p
2791 -138 m  2791 -107 2799 -83 2815 -66 ct 2830 -50 2850 -42 2873 -42 ct 2886 -42 2898 -44 2910 -49 ct 
2923 -54 2934 -62 2945 -72 ct 2955 -82 2964 -93 2971 -106 ct 2979 -119 2985 -133 2989 -148 ct 
2996 -169 2999 -189 2999 -209 ct 2999 -239 2991 -263 2976 -280 ct 2960 -296 2941 -305 2917 -305 ct 
2899 -305 2882 -301 2867 -292 ct 2852 -283 2839 -271 2827 -254 ct 2814 -238 2806 -219 2800 -197 ct 
2794 -175 2791 -155 2791 -138 ct p ef
3158 0 m  3097 0 l  3161 -300 l  3111 -300 l  3120 -346 l  3171 -346 l 
3181 -395 l  3187 -419 3192 -437 3198 -448 ct 3204 -459 3213 -467 3226 -474 ct 
3239 -481 3256 -485 3277 -485 ct 3292 -485 3314 -481 3342 -474 ct 3332 -423 l 
3312 -424 3295 -425 3282 -425 ct 3270 -425 3261 -422 3255 -417 ct 3249 -412 3244 -400 3240 -381 ct 
3232 -346 l  3295 -346 l  3286 -300 l  3222 -300 l  3158 0 l  p ef
pom
pum
22607 7820 t
397 23 m  457 32 l  459 49 465 61 476 68 ct 490 78 509 83 533 83 ct 560 83 580 78 594 68 ct 
609 58 618 45 623 27 ct 626 16 628 -7 627 -42 ct 602 -14 571 0 534 0 ct 487 0 451 -17 426 -51 ct 
400 -85 387 -126 387 -174 ct 387 -206 393 -237 404 -264 ct 416 -292 432 -313 454 -328 ct 
476 -343 501 -351 531 -351 ct 570 -351 602 -334 627 -300 ct 627 -346 l  687 -346 l 
687 -48 l  687 5 682 44 671 66 ct 660 88 643 106 619 119 ct 596 132 567 139 532 139 ct 
491 139 458 129 433 110 ct 408 91 396 62 397 23 ct p
447 -178 m  447 -135 456 -104 473 -85 ct 490 -65 511 -55 537 -55 ct 563 -55 584 -65 601 -85 ct 
619 -104 627 -134 627 -176 ct 627 -215 618 -245 601 -265 ct 583 -286 561 -296 536 -296 ct 
512 -296 491 -286 473 -266 ct 456 -246 447 -217 447 -178 ct p ef
pom
1 lw 0 lj 9383 931 m  5639 931 l  ps
5279 931 m  5729 1081 l  5729 781 l  5279 931 l  p ef
8699 7589 m  5639 7589 l  ps
5279 7589 m  5729 7739 l  5729 7439 l  5279 7589 l  p ef
18275 7589 m  13847 7589 l  ps
13487 7589 m  13937 7739 l  13937 7439 l  13487 7589 l  p ef
4596 6924 m  4596 5286 l  ps
4596 4926 m  4446 5376 l  4746 5376 l  4596 4926 l  p ef
4596 3595 m  4596 1957 l  ps
4596 1597 m  4446 2047 l  4746 2047 l  4596 1597 l  p ef
18275 931 m  13847 931 l  ps
13487 931 m  13937 1081 l  13937 781 l  13487 931 l  p ef

pum
6213 7339 t
206 0 m  167 0 l  167 -37 l  151 -10 129 3 101 3 ct 89 3 77 0 66 -4 ct 56 -9 48 -16 42 -23 ct 
37 -31 34 -40 32 -50 ct 30 -58 29 -69 29 -85 ct 29 -220 l  68 -220 l  68 -101 l 
68 -82 68 -70 70 -63 ct 72 -53 77 -46 84 -40 ct 91 -35 100 -32 111 -32 ct 122 -32 132 -35 141 -41 ct 
151 -46 158 -54 162 -64 ct 165 -73 167 -87 167 -105 ct 167 -220 l  206 -220 l 
206 0 l  p ef
250 -68 m  288 -73 l  290 -60 295 -50 304 -43 ct 313 -36 326 -32 342 -32 ct 
359 -32 371 -35 379 -41 ct 387 -47 391 -55 391 -63 ct 391 -70 386 -76 377 -80 ct 
371 -83 359 -87 341 -91 ct 317 -98 299 -104 288 -109 ct 278 -114 269 -121 264 -130 ct 
258 -139 256 -149 256 -160 ct 256 -170 258 -179 262 -187 ct 266 -195 272 -202 280 -208 ct 
285 -212 293 -216 302 -219 ct 312 -222 322 -223 333 -223 ct 350 -223 365 -221 377 -215 ct 
390 -210 399 -203 405 -194 ct 411 -185 415 -174 417 -159 ct 379 -153 l  377 -164 373 -172 366 -179 ct 
359 -185 349 -188 336 -188 ct 321 -188 310 -186 304 -181 ct 297 -176 294 -170 294 -164 ct 
294 -159 295 -156 298 -152 ct 301 -149 305 -146 311 -144 ct 314 -143 324 -140 340 -135 ct 
363 -128 381 -123 392 -118 ct 404 -114 413 -107 419 -99 ct 426 -90 429 -79 429 -67 ct 
429 -54 425 -43 418 -32 ct 411 -21 401 -12 387 -6 ct 374 0 359 3 342 3 ct 314 3 293 -3 278 -15 ct 
263 -27 254 -44 250 -68 ct p ef
626 -71 m  663 -65 l  657 -43 646 -27 629 -15 ct 613 -3 592 3 566 3 ct 534 3 509 -7 490 -26 ct 
471 -46 462 -73 462 -108 ct 462 -145 471 -173 490 -193 ct 509 -213 534 -223 564 -223 ct 
594 -223 618 -213 636 -193 ct 655 -174 664 -146 664 -110 ct 664 -108 664 -104 664 -100 ct 
500 -100 l  501 -78 508 -61 521 -50 ct 533 -38 549 -32 567 -32 ct 581 -32 593 -35 603 -41 ct 
612 -47 620 -57 626 -71 ct p
500 -135 m  626 -135 l  624 -151 620 -162 612 -170 ct 599 -182 584 -188 564 -188 ct 
547 -188 532 -183 520 -174 ct 508 -164 501 -151 500 -135 ct p ef
888 0 m  849 0 l  849 -35 l  836 -10 816 3 789 3 ct 772 3 756 -2 742 -11 ct 
728 -21 716 -34 709 -51 ct 701 -68 697 -88 697 -110 ct 697 -132 700 -151 708 -169 ct 
715 -186 726 -200 740 -209 ct 755 -219 771 -223 789 -223 ct 802 -223 814 -220 824 -214 ct 
835 -207 843 -199 849 -189 ct 849 -303 l  888 -303 l  888 0 l  p
735 -110 m  735 -84 741 -65 752 -52 ct 764 -39 777 -32 793 -32 ct 809 -32 822 -38 833 -51 ct 
844 -63 849 -82 849 -107 ct 849 -135 844 -155 833 -168 ct 821 -181 808 -188 791 -188 ct 
775 -188 762 -182 751 -169 ct 740 -157 735 -137 735 -110 ct p ef
1046 85 m  1020 85 l  998 60 980 30 966 -4 ct 951 -37 943 -73 943 -109 ct 943 -141 949 -172 960 -201 ct 
973 -235 993 -269 1020 -303 ct 1046 -303 l  1029 -275 1017 -255 1012 -243 ct 
1003 -224 996 -205 991 -185 ct 985 -159 982 -134 982 -109 ct 982 -44 1003 21 1046 85 ct 
p ef
1076 -110 m  1076 -150 1087 -180 1109 -199 ct 1127 -215 1149 -223 1176 -223 ct 
1205 -223 1229 -214 1247 -194 ct 1266 -175 1275 -148 1275 -113 ct 1275 -85 1271 -63 1263 -47 ct 
1255 -32 1243 -19 1227 -10 ct 1211 -1 1194 3 1176 3 ct 1146 3 1122 -7 1103 -26 ct 
1085 -46 1076 -74 1076 -110 ct p
1114 -110 m  1114 -84 1120 -65 1131 -52 ct 1143 -39 1158 -32 1176 -32 ct 1193 -32 1208 -39 1220 -52 ct 
1231 -65 1237 -85 1237 -111 ct 1237 -137 1231 -156 1220 -169 ct 1208 -182 1193 -188 1176 -188 ct 
1158 -188 1143 -182 1131 -169 ct 1120 -156 1114 -136 1114 -110 ct p ef
1343 85 m  1317 85 l  1360 21 1381 -44 1381 -109 ct 1381 -134 1378 -159 1372 -184 ct 
1367 -204 1360 -223 1351 -242 ct 1346 -254 1334 -274 1317 -303 ct 1343 -303 l 
1370 -269 1390 -235 1403 -201 ct 1414 -172 1419 -141 1419 -109 ct 1419 -73 1412 -37 1397 -4 ct 
1382 30 1364 60 1343 85 ct p ef
pom

pum
14421 7339 t
108 0 m  66 0 l  -1 -220 l  38 -220 l  75 -93 l  86 -46 l  86 -48 90 -63 97 -91 ct 
131 -220 l  172 -220 l  206 -92 l  216 -50 l  228 -93 l  264 -220 l  304 -220 l 
237 0 l  194 0 l  161 -131 l  151 -170 l  108 0 l  p ef
473 -26 m  460 -16 447 -8 435 -4 ct 423 1 410 3 396 3 ct 373 3 355 -3 342 -14 ct 
330 -26 324 -41 324 -58 ct 324 -69 326 -79 331 -87 ct 335 -96 342 -103 349 -108 ct 
357 -113 365 -117 375 -120 ct 382 -122 392 -124 407 -126 ct 435 -129 457 -133 470 -138 ct 
470 -143 471 -146 471 -147 ct 471 -161 467 -171 461 -176 ct 452 -184 439 -188 421 -188 ct 
405 -188 393 -185 385 -180 ct 377 -174 371 -164 368 -150 ct 330 -156 l  333 -171 338 -184 346 -193 ct 
353 -203 364 -210 378 -215 ct 392 -221 409 -223 428 -223 ct 446 -223 461 -221 473 -217 ct 
484 -212 493 -206 498 -200 ct 504 -193 508 -184 510 -174 ct 511 -167 512 -156 512 -141 ct 
512 -95 l  512 -63 512 -42 514 -31 ct 516 -20 519 -10 523 0 ct 485 0 l  479 -8 475 -16 473 -26 ct 
p
470 -92 m  471 -103 l  458 -98 438 -94 412 -91 ct 397 -89 387 -87 381 -85 ct 
375 -83 370 -80 367 -75 ct 363 -71 362 -66 362 -61 ct 362 -53 365 -46 373 -40 ct 
380 -35 390 -32 404 -32 ct 418 -32 430 -35 441 -41 ct 452 -47 460 -54 465 -63 ct 
468 -69 470 -79 470 -92 ct p ef
556 -68 m  594 -73 l  596 -60 601 -50 610 -43 ct 619 -36 632 -32 648 -32 ct 
665 -32 677 -35 685 -41 ct 693 -47 697 -55 697 -63 ct 697 -70 692 -76 683 -80 ct 
677 -83 665 -87 647 -91 ct 623 -98 605 -104 594 -109 ct 584 -114 575 -121 570 -130 ct 
564 -139 562 -149 562 -160 ct 562 -170 564 -179 568 -187 ct 572 -195 578 -202 586 -208 ct 
591 -212 599 -216 608 -219 ct 618 -222 628 -223 639 -223 ct 656 -223 671 -221 683 -215 ct 
696 -210 705 -203 711 -194 ct 717 -185 721 -174 723 -159 ct 685 -153 l  683 -164 679 -172 672 -179 ct 
665 -185 655 -188 642 -188 ct 627 -188 616 -186 610 -181 ct 603 -176 600 -170 600 -164 ct 
600 -159 601 -156 604 -152 ct 607 -149 611 -146 617 -144 ct 620 -143 630 -140 646 -135 ct 
669 -128 687 -123 698 -118 ct 710 -114 719 -107 725 -99 ct 732 -90 735 -79 735 -67 ct 
735 -54 731 -43 724 -32 ct 717 -21 707 -12 693 -6 ct 680 0 665 3 648 3 ct 620 3 599 -3 584 -15 ct 
569 -27 560 -44 556 -68 ct p ef
1014 -120 m  926 -120 l  926 -156 l  1056 -156 l  1056 -42 l  1036 -26 1015 -14 994 -6 ct 
973 2 952 6 929 6 ct 899 6 872 -1 848 -13 ct 823 -26 805 -45 792 -69 ct 780 -93 774 -120 774 -150 ct 
774 -179 780 -207 792 -233 ct 805 -258 822 -277 846 -290 ct 869 -302 896 -308 926 -308 ct 
948 -308 968 -305 986 -298 ct 1004 -291 1018 -281 1028 -268 ct 1038 -255 1046 -239 1051 -218 ct 
1013 -208 l  1008 -224 1003 -236 996 -244 ct 989 -253 980 -260 967 -265 ct 955 -271 941 -273 925 -273 ct 
907 -273 891 -270 878 -265 ct 864 -259 854 -252 845 -243 ct 837 -234 831 -224 826 -213 ct 
819 -194 815 -173 815 -151 ct 815 -124 819 -102 829 -83 ct 838 -65 851 -52 869 -43 ct 
887 -34 906 -29 926 -29 ct 943 -29 960 -33 977 -40 ct 993 -47 1006 -54 1014 -62 ct 
1014 -120 l  p ef
1261 -71 m  1298 -65 l  1292 -43 1281 -27 1264 -15 ct 1248 -3 1227 3 1201 3 ct 
1169 3 1144 -7 1125 -26 ct 1106 -46 1097 -73 1097 -108 ct 1097 -145 1106 -173 1125 -193 ct 
1144 -213 1169 -223 1199 -223 ct 1229 -223 1253 -213 1271 -193 ct 1290 -174 1299 -146 1299 -110 ct 
1299 -108 1299 -104 1299 -100 ct 1135 -100 l  1136 -78 1143 -61 1156 -50 ct 
1168 -38 1184 -32 1202 -32 ct 1216 -32 1228 -35 1238 -41 ct 1247 -47 1255 -57 1261 -71 ct 
p
1135 -135 m  1261 -135 l  1259 -151 1255 -162 1247 -170 ct 1234 -182 1219 -188 1199 -188 ct 
1182 -188 1167 -183 1155 -174 ct 1143 -164 1136 -151 1135 -135 ct p ef
1385 0 m  1346 0 l  1346 -220 l  1385 -220 l  1385 -189 l  1400 -212 1422 -223 1451 -223 ct 
1464 -223 1475 -221 1486 -216 ct 1496 -211 1504 -205 1510 -198 ct 1515 -190 1519 -181 1521 -170 ct 
1522 -163 1523 -151 1523 -134 ct 1523 0 l  1484 0 l  1484 -131 l  1484 -145 1483 -157 1480 -164 ct 
1477 -171 1473 -177 1465 -181 ct 1458 -186 1450 -188 1441 -188 ct 1425 -188 1412 -183 1401 -173 ct 
1390 -163 1385 -145 1385 -117 ct 1385 0 l  p ef
1732 -71 m  1769 -65 l  1763 -43 1752 -27 1735 -15 ct 1719 -3 1698 3 1672 3 ct 
1640 3 1615 -7 1596 -26 ct 1577 -46 1568 -73 1568 -108 ct 1568 -145 1577 -173 1596 -193 ct 
1615 -213 1640 -223 1670 -223 ct 1700 -223 1724 -213 1742 -193 ct 1761 -174 1770 -146 1770 -110 ct 
1770 -108 1770 -104 1770 -100 ct 1606 -100 l  1607 -78 1614 -61 1627 -50 ct 
1639 -38 1655 -32 1673 -32 ct 1687 -32 1699 -35 1709 -41 ct 1718 -47 1726 -57 1732 -71 ct 
p
1606 -135 m  1732 -135 l  1730 -151 1726 -162 1718 -170 ct 1705 -182 1690 -188 1670 -188 ct 
1653 -188 1638 -183 1626 -174 ct 1614 -164 1607 -151 1606 -135 ct p ef
1856 0 m  1817 0 l  1817 -220 l  1850 -220 l  1850 -188 l  1858 -202 1866 -212 1873 -216 ct 
1880 -221 1888 -223 1897 -223 ct 1909 -223 1922 -220 1935 -214 ct 1922 -179 l 
1913 -185 1905 -188 1896 -188 ct 1888 -188 1881 -186 1875 -181 ct 1869 -176 1864 -169 1862 -160 ct 
1858 -147 1856 -132 1856 -116 ct 1856 0 l  p ef
2093 -26 m  2080 -16 2067 -8 2055 -4 ct 2043 1 2030 3 2016 3 ct 1993 3 1975 -3 1962 -14 ct 
1950 -26 1944 -41 1944 -58 ct 1944 -69 1946 -79 1951 -87 ct 1955 -96 1962 -103 1969 -108 ct 
1977 -113 1985 -117 1995 -120 ct 2002 -122 2012 -124 2027 -126 ct 2055 -129 2077 -133 2090 -138 ct 
2090 -143 2091 -146 2091 -147 ct 2091 -161 2087 -171 2081 -176 ct 2072 -184 2059 -188 2041 -188 ct 
2025 -188 2013 -185 2005 -180 ct 1997 -174 1991 -164 1988 -150 ct 1950 -156 l 
1953 -171 1958 -184 1966 -193 ct 1973 -203 1984 -210 1998 -215 ct 2012 -221 2029 -223 2048 -223 ct 
2066 -223 2081 -221 2093 -217 ct 2104 -212 2113 -206 2118 -200 ct 2124 -193 2128 -184 2130 -174 ct 
2131 -167 2132 -156 2132 -141 ct 2132 -95 l  2132 -63 2132 -42 2134 -31 ct 2136 -20 2139 -10 2143 0 ct 
2105 0 l  2099 -8 2095 -16 2093 -26 ct p
2090 -92 m  2091 -103 l  2078 -98 2058 -94 2032 -91 ct 2017 -89 2007 -87 2001 -85 ct 
1995 -83 1990 -80 1987 -75 ct 1983 -71 1982 -66 1982 -61 ct 1982 -53 1985 -46 1993 -40 ct 
2000 -35 2010 -32 2024 -32 ct 2038 -32 2050 -35 2061 -41 ct 2072 -47 2080 -54 2085 -63 ct 
2088 -69 2090 -79 2090 -92 ct p ef
2270 -33 m  2276 0 l  2265 2 2256 3 2248 3 ct 2234 3 2224 1 2216 -3 ct 2209 -7 2204 -13 2201 -20 ct 
2198 -26 2196 -41 2196 -62 ct 2196 -185 l  2170 -185 l  2170 -220 l  2196 -220 l 
2196 -275 l  2234 -297 l  2234 -220 l  2270 -220 l  2270 -185 l  2234 -185 l 
2234 -62 l  2234 -51 2235 -45 2236 -42 ct 2238 -39 2240 -37 2242 -35 ct 2245 -33 2249 -32 2254 -32 ct 
2258 -32 2263 -33 2270 -33 ct p ef
2461 -71 m  2498 -65 l  2492 -43 2481 -27 2464 -15 ct 2448 -3 2427 3 2401 3 ct 
2369 3 2344 -7 2325 -26 ct 2306 -46 2297 -73 2297 -108 ct 2297 -145 2306 -173 2325 -193 ct 
2344 -213 2369 -223 2399 -223 ct 2429 -223 2453 -213 2471 -193 ct 2490 -174 2499 -146 2499 -110 ct 
2499 -108 2499 -104 2499 -100 ct 2335 -100 l  2336 -78 2343 -61 2356 -50 ct 
2368 -38 2384 -32 2402 -32 ct 2416 -32 2428 -35 2438 -41 ct 2447 -47 2455 -57 2461 -71 ct 
p
2335 -135 m  2461 -135 l  2459 -151 2455 -162 2447 -170 ct 2434 -182 2419 -188 2399 -188 ct 
2382 -188 2367 -183 2355 -174 ct 2343 -164 2336 -151 2335 -135 ct p ef
2721 0 m  2682 0 l  2682 -35 l  2669 -10 2649 3 2622 3 ct 2605 3 2589 -2 2575 -11 ct 
2561 -21 2549 -34 2542 -51 ct 2534 -68 2530 -88 2530 -110 ct 2530 -132 2533 -151 2541 -169 ct 
2548 -186 2559 -200 2573 -209 ct 2588 -219 2604 -223 2622 -223 ct 2635 -223 2647 -220 2657 -214 ct 
2668 -207 2676 -199 2682 -189 ct 2682 -303 l  2721 -303 l  2721 0 l  p
2568 -110 m  2568 -84 2574 -65 2585 -52 ct 2597 -39 2610 -32 2626 -32 ct 2642 -32 2655 -38 2666 -51 ct 
2677 -63 2682 -82 2682 -107 ct 2682 -135 2677 -155 2666 -168 ct 2654 -181 2641 -188 2624 -188 ct 
2608 -188 2595 -182 2584 -169 ct 2573 -157 2568 -137 2568 -110 ct p ef
2899 0 m  2785 0 l  2785 -303 l  2899 -303 l  2922 -303 2941 -300 2955 -293 ct 
2969 -287 2980 -278 2988 -265 ct 2996 -253 3000 -239 3000 -225 ct 3000 -213 2996 -200 2989 -189 ct 
2981 -178 2970 -169 2956 -162 ct 2974 -156 2987 -147 2997 -134 ct 3007 -121 3011 -106 3011 -88 ct 
3011 -74 3008 -61 3003 -48 ct 2997 -36 2989 -27 2981 -20 ct 2972 -13 2961 -8 2948 -5 ct 
2935 -2 2919 0 2899 0 ct p
2826 -267 m  2826 -176 l  2891 -176 l  2908 -176 2921 -177 2928 -180 ct 2938 -183 2946 -188 2951 -195 ct 
2956 -202 2959 -211 2959 -221 ct 2959 -231 2956 -240 2951 -247 ct 2947 -255 2940 -260 2931 -263 ct 
2922 -266 2907 -267 2886 -267 ct 2826 -267 l  p
2826 -141 m  2826 -35 l  2900 -35 l  2913 -35 2922 -36 2927 -37 ct 2936 -38 2943 -41 2949 -45 ct 
2956 -49 2961 -55 2964 -62 ct 2968 -70 2970 -78 2970 -88 ct 2970 -100 2968 -110 2962 -118 ct 
2957 -126 2949 -132 2939 -136 ct 2929 -139 2914 -141 2895 -141 ct 2826 -141 l 
p ef
3061 84 m  3056 50 l  3063 52 3070 53 3076 53 ct 3084 53 3090 51 3095 49 ct 
3099 46 3103 42 3106 37 ct 3108 33 3112 24 3117 9 ct 3118 7 3119 4 3120 0 ct 3038 -220 l 
3078 -220 l  3123 -100 l  3128 -84 3134 -68 3138 -52 ct 3142 -63 3147 -77 3153 -94 ct 
3197 -220 l  3237 -220 l  3159 6 l  3150 29 3143 45 3138 54 ct 3131 66 3124 74 3115 80 ct 
3107 85 3097 88 3085 88 ct 3078 88 3070 87 3061 84 ct p ef
pom

pum
2914 2768 t
206 0 m  167 0 l  167 -37 l  151 -10 129 3 101 3 ct 89 3 77 0 66 -4 ct 56 -9 48 -16 42 -23 ct 
37 -31 34 -40 32 -50 ct 30 -58 29 -69 29 -85 ct 29 -220 l  68 -220 l  68 -101 l 
68 -82 68 -70 70 -63 ct 72 -53 77 -46 84 -40 ct 91 -35 100 -32 111 -32 ct 122 -32 132 -35 141 -41 ct 
151 -46 158 -54 162 -64 ct 165 -73 167 -87 167 -105 ct 167 -220 l  206 -220 l 
206 0 l  p ef
250 -68 m  288 -73 l  290 -60 295 -50 304 -43 ct 313 -36 326 -32 342 -32 ct 
359 -32 371 -35 379 -41 ct 387 -47 391 -55 391 -63 ct 391 -70 386 -76 377 -80 ct 
371 -83 359 -87 341 -91 ct 317 -98 299 -104 288 -109 ct 278 -114 269 -121 264 -130 ct 
258 -139 256 -149 256 -160 ct 256 -170 258 -179 262 -187 ct 266 -195 272 -202 280 -208 ct 
285 -212 293 -216 302 -219 ct 312 -222 322 -223 333 -223 ct 350 -223 365 -221 377 -215 ct 
390 -210 399 -203 405 -194 ct 411 -185 415 -174 417 -159 ct 379 -153 l  377 -164 373 -172 366 -179 ct 
359 -185 349 -188 336 -188 ct 321 -188 310 -186 304 -181 ct 297 -176 294 -170 294 -164 ct 
294 -159 295 -156 298 -152 ct 301 -149 305 -146 311 -144 ct 314 -143 324 -140 340 -135 ct 
363 -128 381 -123 392 -118 ct 404 -114 413 -107 419 -99 ct 426 -90 429 -79 429 -67 ct 
429 -54 425 -43 418 -32 ct 411 -21 401 -12 387 -6 ct 374 0 359 3 342 3 ct 314 3 293 -3 278 -15 ct 
263 -27 254 -44 250 -68 ct p ef
628 -71 m  665 -65 l  659 -43 648 -27 631 -15 ct 615 -3 594 3 568 3 ct 536 3 511 -7 492 -26 ct 
473 -46 464 -73 464 -108 ct 464 -145 473 -173 492 -193 ct 511 -213 536 -223 566 -223 ct 
596 -223 620 -213 638 -193 ct 657 -174 666 -146 666 -110 ct 666 -108 666 -104 666 -100 ct 
502 -100 l  503 -78 510 -61 523 -50 ct 535 -38 551 -32 569 -32 ct 583 -32 595 -35 605 -41 ct 
614 -47 622 -57 628 -71 ct p
502 -135 m  628 -135 l  626 -151 622 -162 614 -170 ct 601 -182 586 -188 566 -188 ct 
549 -188 534 -183 522 -174 ct 510 -164 503 -151 502 -135 ct p ef
890 0 m  851 0 l  851 -35 l  838 -10 818 3 791 3 ct 774 3 758 -2 744 -11 ct 
730 -21 718 -34 711 -51 ct 703 -68 699 -88 699 -110 ct 699 -132 702 -151 710 -169 ct 
717 -186 728 -200 742 -209 ct 757 -219 773 -223 791 -223 ct 804 -223 816 -220 826 -214 ct 
837 -207 845 -199 851 -189 ct 851 -303 l  890 -303 l  890 0 l  p
737 -110 m  737 -84 743 -65 754 -52 ct 766 -39 779 -32 795 -32 ct 811 -32 824 -38 835 -51 ct 
846 -63 851 -82 851 -107 ct 851 -135 846 -155 835 -168 ct 823 -181 810 -188 793 -188 ct 
777 -188 764 -182 753 -169 ct 742 -157 737 -137 737 -110 ct p ef
1048 85 m  1022 85 l  1000 60 982 30 968 -4 ct 953 -37 945 -73 945 -109 ct 945 -141 951 -172 962 -201 ct 
975 -235 995 -269 1022 -303 ct 1048 -303 l  1031 -275 1019 -255 1014 -243 ct 
1005 -224 998 -205 993 -185 ct 987 -159 984 -134 984 -109 ct 984 -44 1005 21 1048 85 ct 
p ef
1128 -264 m  1089 -264 l  1089 -303 l  1128 -303 l  1128 -264 l  p
1128 0 m  1089 0 l  1089 -220 l  1128 -220 l  1128 0 l  p ef
1201 85 m  1175 85 l  1218 21 1239 -44 1239 -109 ct 1239 -134 1236 -159 1230 -184 ct 
1225 -204 1218 -223 1209 -242 ct 1204 -254 1192 -274 1175 -303 ct 1201 -303 l 
1228 -269 1248 -235 1261 -201 ct 1272 -172 1277 -141 1277 -109 ct 1277 -73 1270 -37 1255 -4 ct 
1240 30 1222 60 1201 85 ct p ef
pom

pum
6897 681 t
206 0 m  167 0 l  167 -37 l  151 -10 129 3 101 3 ct 89 3 77 0 66 -4 ct 56 -9 48 -16 42 -23 ct 
37 -31 34 -40 32 -50 ct 30 -58 29 -69 29 -85 ct 29 -220 l  68 -220 l  68 -101 l 
68 -82 68 -70 70 -63 ct 72 -53 77 -46 84 -40 ct 91 -35 100 -32 111 -32 ct 122 -32 132 -35 141 -41 ct 
151 -46 158 -54 162 -64 ct 165 -73 167 -87 167 -105 ct 167 -220 l  206 -220 l 
206 0 l  p ef
250 -68 m  288 -73 l  290 -60 295 -50 304 -43 ct 313 -36 326 -32 342 -32 ct 
359 -32 371 -35 379 -41 ct 387 -47 391 -55 391 -63 ct 391 -70 386 -76 377 -80 ct 
371 -83 359 -87 341 -91 ct 317 -98 299 -104 288 -109 ct 278 -114 269 -121 264 -130 ct 
258 -139 256 -149 256 -160 ct 256 -170 258 -179 262 -187 ct 266 -195 272 -202 280 -208 ct 
285 -212 293 -216 302 -219 ct 312 -222 322 -223 333 -223 ct 350 -223 365 -221 377 -215 ct 
390 -210 399 -203 405 -194 ct 411 -185 415 -174 417 -159 ct 379 -153 l  377 -164 373 -172 366 -179 ct 
359 -185 349 -188 336 -188 ct 321 -188 310 -186 304 -181 ct 297 -176 294 -170 294 -164 ct 
294 -159 295 -156 298 -152 ct 301 -149 305 -146 311 -144 ct 314 -143 324 -140 340 -135 ct 
363 -128 381 -123 392 -118 ct 404 -114 413 -107 419 -99 ct 426 -90 429 -79 429 -67 ct 
429 -54 425 -43 418 -32 ct 411 -21 401 -12 387 -6 ct 374 0 359 3 342 3 ct 314 3 293 -3 278 -15 ct 
263 -27 254 -44 250 -68 ct p ef
628 -71 m  665 -65 l  659 -43 648 -27 631 -15 ct 615 -3 594 3 568 3 ct 536 3 511 -7 492 -26 ct 
473 -46 464 -73 464 -108 ct 464 -145 473 -173 492 -193 ct 511 -213 536 -223 566 -223 ct 
596 -223 620 -213 638 -193 ct 657 -174 666 -146 666 -110 ct 666 -108 666 -104 666 -100 ct 
502 -100 l  503 -78 510 -61 523 -50 ct 535 -38 551 -32 569 -32 ct 583 -32 595 -35 605 -41 ct 
614 -47 622 -57 628 -71 ct p
502 -135 m  628 -135 l  626 -151 622 -162 614 -170 ct 601 -182 586 -188 566 -188 ct 
549 -188 534 -183 522 -174 ct 510 -164 503 -151 502 -135 ct p ef
890 0 m  851 0 l  851 -35 l  838 -10 818 3 791 3 ct 774 3 758 -2 744 -11 ct 
730 -21 718 -34 711 -51 ct 703 -68 699 -88 699 -110 ct 699 -132 702 -151 710 -169 ct 
717 -186 728 -200 742 -209 ct 757 -219 773 -223 791 -223 ct 804 -223 816 -220 826 -214 ct 
837 -207 845 -199 851 -189 ct 851 -303 l  890 -303 l  890 0 l  p
737 -110 m  737 -84 743 -65 754 -52 ct 766 -39 779 -32 795 -32 ct 811 -32 824 -38 835 -51 ct 
846 -63 851 -82 851 -107 ct 851 -135 846 -155 835 -168 ct 823 -181 810 -188 793 -188 ct 
777 -188 764 -182 753 -169 ct 742 -157 737 -137 737 -110 ct p ef
1048 85 m  1022 85 l  1000 60 982 30 968 -4 ct 953 -37 945 -73 945 -109 ct 945 -141 951 -172 962 -201 ct 
975 -235 995 -269 1022 -303 ct 1048 -303 l  1031 -275 1019 -255 1014 -243 ct 
1005 -224 998 -205 993 -185 ct 987 -159 984 -134 984 -109 ct 984 -44 1005 21 1048 85 ct 
p ef
1128 -264 m  1089 -264 l  1089 -303 l  1128 -303 l  1128 -264 l  p
1128 0 m  1089 0 l  1089 -220 l  1128 -220 l  1128 0 l  p ef
1201 85 m  1175 85 l  1218 21 1239 -44 1239 -109 ct 1239 -134 1236 -159 1230 -184 ct 
1225 -204 1218 -223 1209 -242 ct 1204 -254 1192 -274 1175 -303 ct 1201 -303 l 
1228 -269 1248 -235 1261 -201 ct 1272 -172 1277 -141 1277 -109 ct 1277 -73 1270 -37 1255 -4 ct 
1240 30 1222 60 1201 85 ct p ef
pom

pum
14421 681 t
108 0 m  66 0 l  -1 -220 l  38 -220 l  75 -93 l  86 -46 l  86 -48 90 -63 97 -91 ct 
131 -220 l  172 -220 l  206 -92 l  216 -50 l  228 -93 l  264 -220 l  304 -220 l 
237 0 l  194 0 l  161 -131 l  151 -170 l  108 0 l  p ef
473 -26 m  460 -16 447 -8 435 -4 ct 423 1 410 3 396 3 ct 373 3 355 -3 342 -14 ct 
330 -26 324 -41 324 -58 ct 324 -69 326 -79 331 -87 ct 335 -96 342 -103 349 -108 ct 
357 -113 365 -117 375 -120 ct 382 -122 392 -124 407 -126 ct 435 -129 457 -133 470 -138 ct 
470 -143 471 -146 471 -147 ct 471 -161 467 -171 461 -176 ct 452 -184 439 -188 421 -188 ct 
405 -188 393 -185 385 -180 ct 377 -174 371 -164 368 -150 ct 330 -156 l  333 -171 338 -184 346 -193 ct 
353 -203 364 -210 378 -215 ct 392 -221 409 -223 428 -223 ct 446 -223 461 -221 473 -217 ct 
484 -212 493 -206 498 -200 ct 504 -193 508 -184 510 -174 ct 511 -167 512 -156 512 -141 ct 
512 -95 l  512 -63 512 -42 514 -31 ct 516 -20 519 -10 523 0 ct 485 0 l  479 -8 475 -16 473 -26 ct 
p
470 -92 m  471 -103 l  458 -98 438 -94 412 -91 ct 397 -89 387 -87 381 -85 ct 
375 -83 370 -80 367 -75 ct 363 -71 362 -66 362 -61 ct 362 -53 365 -46 373 -40 ct 
380 -35 390 -32 404 -32 ct 418 -32 430 -35 441 -41 ct 452 -47 460 -54 465 -63 ct 
468 -69 470 -79 470 -92 ct p ef
556 -68 m  594 -73 l  596 -60 601 -50 610 -43 ct 619 -36 632 -32 648 -32 ct 
665 -32 677 -35 685 -41 ct 693 -47 697 -55 697 -63 ct 697 -70 692 -76 683 -80 ct 
677 -83 665 -87 647 -91 ct 623 -98 605 -104 594 -109 ct 584 -114 575 -121 570 -130 ct 
564 -139 562 -149 562 -160 ct 562 -170 564 -179 568 -187 ct 572 -195 578 -202 586 -208 ct 
591 -212 599 -216 608 -219 ct 618 -222 628 -223 639 -223 ct 656 -223 671 -221 683 -215 ct 
696 -210 705 -203 711 -194 ct 717 -185 721 -174 723 -159 ct 685 -153 l  683 -164 679 -172 672 -179 ct 
665 -185 655 -188 642 -188 ct 627 -188 616 -186 610 -181 ct 603 -176 600 -170 600 -164 ct 
600 -159 601 -156 604 -152 ct 607 -149 611 -146 617 -144 ct 620 -143 630 -140 646 -135 ct 
669 -128 687 -123 698 -118 ct 710 -114 719 -107 725 -99 ct 732 -90 735 -79 735 -67 ct 
735 -54 731 -43 724 -32 ct 717 -21 707 -12 693 -6 ct 680 0 665 3 648 3 ct 620 3 599 -3 584 -15 ct 
569 -27 560 -44 556 -68 ct p ef
1014 -120 m  926 -120 l  926 -156 l  1056 -156 l  1056 -42 l  1036 -26 1015 -14 994 -6 ct 
973 2 952 6 929 6 ct 899 6 872 -1 848 -13 ct 823 -26 805 -45 792 -69 ct 780 -93 774 -120 774 -150 ct 
774 -179 780 -207 792 -233 ct 805 -258 822 -277 846 -290 ct 869 -302 896 -308 926 -308 ct 
948 -308 968 -305 986 -298 ct 1004 -291 1018 -281 1028 -268 ct 1038 -255 1046 -239 1051 -218 ct 
1013 -208 l  1008 -224 1003 -236 996 -244 ct 989 -253 980 -260 967 -265 ct 955 -271 941 -273 925 -273 ct 
907 -273 891 -270 878 -265 ct 864 -259 854 -252 845 -243 ct 837 -234 831 -224 826 -213 ct 
819 -194 815 -173 815 -151 ct 815 -124 819 -102 829 -83 ct 838 -65 851 -52 869 -43 ct 
887 -34 906 -29 926 -29 ct 943 -29 960 -33 977 -40 ct 993 -47 1006 -54 1014 -62 ct 
1014 -120 l  p ef
1261 -71 m  1298 -65 l  1292 -43 1281 -27 1264 -15 ct 1248 -3 1227 3 1201 3 ct 
1169 3 1144 -7 1125 -26 ct 1106 -46 1097 -73 1097 -108 ct 1097 -145 1106 -173 1125 -193 ct 
1144 -213 1169 -223 1199 -223 ct 1229 -223 1253 -213 1271 -193 ct 1290 -174 1299 -146 1299 -110 ct 
1299 -108 1299 -104 1299 -100 ct 1135 -100 l  1136 -78 1143 -61 1156 -50 ct 
1168 -38 1184 -32 1202 -32 ct 1216 -32 1228 -35 1238 -41 ct 1247 -47 1255 -57 1261 -71 ct 
p
1135 -135 m  1261 -135 l  1259 -151 1255 -162 1247 -170 ct 1234 -182 1219 -188 1199 -188 ct 
1182 -188 1167 -183 1155 -174 ct 1143 -164 1136 -151 1135 -135 ct p ef
1385 0 m  1346 0 l  1346 -220 l  1385 -220 l  1385 -189 l  1400 -212 1422 -223 1451 -223 ct 
1464 -223 1475 -221 1486 -216 ct 1496 -211 1504 -205 1510 -198 ct 1515 -190 1519 -181 1521 -170 ct 
1522 -163 1523 -151 1523 -134 ct 1523 0 l  1484 0 l  1484 -131 l  1484 -145 1483 -157 1480 -164 ct 
1477 -171 1473 -177 1465 -181 ct 1458 -186 1450 -188 1441 -188 ct 1425 -188 1412 -183 1401 -173 ct 
1390 -163 1385 -145 1385 -117 ct 1385 0 l  p ef
1732 -71 m  1769 -65 l  1763 -43 1752 -27 1735 -15 ct 1719 -3 1698 3 1672 3 ct 
1640 3 1615 -7 1596 -26 ct 1577 -46 1568 -73 1568 -108 ct 1568 -145 1577 -173 1596 -193 ct 
1615 -213 1640 -223 1670 -223 ct 1700 -223 1724 -213 1742 -193 ct 1761 -174 1770 -146 1770 -110 ct 
1770 -108 1770 -104 1770 -100 ct 1606 -100 l  1607 -78 1614 -61 1627 -50 ct 
1639 -38 1655 -32 1673 -32 ct 1687 -32 1699 -35 1709 -41 ct 1718 -47 1726 -57 1732 -71 ct 
p
1606 -135 m  1732 -135 l  1730 -151 1726 -162 1718 -170 ct 1705 -182 1690 -188 1670 -188 ct 
1653 -188 1638 -183 1626 -174 ct 1614 -164 1607 -151 1606 -135 ct p ef
1856 0 m  1817 0 l  1817 -220 l  1850 -220 l  1850 -188 l  1858 -202 1866 -212 1873 -216 ct 
1880 -221 1888 -223 1897 -223 ct 1909 -223 1922 -220 1935 -214 ct 1922 -179 l 
1913 -185 1905 -188 1896 -188 ct 1888 -188 1881 -186 1875 -181 ct 1869 -176 1864 -169 1862 -160 ct 
1858 -147 1856 -132 1856 -116 ct 1856 0 l  p ef
2093 -26 m  2080 -16 2067 -8 2055 -4 ct 2043 1 2030 3 2016 3 ct 1993 3 1975 -3 1962 -14 ct 
1950 -26 1944 -41 1944 -58 ct 1944 -69 1946 -79 1951 -87 ct 1955 -96 1962 -103 1969 -108 ct 
1977 -113 1985 -117 1995 -120 ct 2002 -122 2012 -124 2027 -126 ct 2055 -129 2077 -133 2090 -138 ct 
2090 -143 2091 -146 2091 -147 ct 2091 -161 2087 -171 2081 -176 ct 2072 -184 2059 -188 2041 -188 ct 
2025 -188 2013 -185 2005 -180 ct 1997 -174 1991 -164 1988 -150 ct 1950 -156 l 
1953 -171 1958 -184 1966 -193 ct 1973 -203 1984 -210 1998 -215 ct 2012 -221 2029 -223 2048 -223 ct 
2066 -223 2081 -221 2093 -217 ct 2104 -212 2113 -206 2118 -200 ct 2124 -193 2128 -184 2130 -174 ct 
2131 -167 2132 -156 2132 -141 ct 2132 -95 l  2132 -63 2132 -42 2134 -31 ct 2136 -20 2139 -10 2143 0 ct 
2105 0 l  2099 -8 2095 -16 2093 -26 ct p
2090 -92 m  2091 -103 l  2078 -98 2058 -94 2032 -91 ct 2017 -89 2007 -87 2001 -85 ct 
1995 -83 1990 -80 1987 -75 ct 1983 -71 1982 -66 1982 -61 ct 1982 -53 1985 -46 1993 -40 ct 
2000 -35 2010 -32 2024 -32 ct 2038 -32 2050 -35 2061 -41 ct 2072 -47 2080 -54 2085 -63 ct 
2088 -69 2090 -79 2090 -92 ct p ef
2270 -33 m  2276 0 l  2265 2 2256 3 2248 3 ct 2234 3 2224 1 2216 -3 ct 2209 -7 2204 -13 2201 -20 ct 
2198 -26 2196 -41 2196 -62 ct 2196 -185 l  2170 -185 l  2170 -220 l  2196 -220 l 
2196 -275 l  2234 -297 l  2234 -220 l  2270 -220 l  2270 -185 l  2234 -185 l 
2234 -62 l  2234 -51 2235 -45 2236 -42 ct 2238 -39 2240 -37 2242 -35 ct 2245 -33 2249 -32 2254 -32 ct 
2258 -32 2263 -33 2270 -33 ct p ef
2461 -71 m  2498 -65 l  2492 -43 2481 -27 2464 -15 ct 2448 -3 2427 3 2401 3 ct 
2369 3 2344 -7 2325 -26 ct 2306 -46 2297 -73 2297 -108 ct 2297 -145 2306 -173 2325 -193 ct 
2344 -213 2369 -223 2399 -223 ct 2429 -223 2453 -213 2471 -193 ct 2490 -174 2499 -146 2499 -110 ct 
2499 -108 2499 -104 2499 -100 ct 2335 -100 l  2336 -78 2343 -61 2356 -50 ct 
2368 -38 2384 -32 2402 -32 ct 2416 -32 2428 -35 2438 -41 ct 2447 -47 2455 -57 2461 -71 ct 
p
2335 -135 m  2461 -135 l  2459 -151 2455 -162 2447 -170 ct 2434 -182 2419 -188 2399 -188 ct 
2382 -188 2367 -183 2355 -174 ct 2343 -164 2336 -151 2335 -135 ct p ef
2721 0 m  2682 0 l  2682 -35 l  2669 -10 2649 3 2622 3 ct 2605 3 2589 -2 2575 -11 ct 
2561 -21 2549 -34 2542 -51 ct 2534 -68 2530 -88 2530 -110 ct 2530 -132 2533 -151 2541 -169 ct 
2548 -186 2559 -200 2573 -209 ct 2588 -219 2604 -223 2622 -223 ct 2635 -223 2647 -220 2657 -214 ct 
2668 -207 2676 -199 2682 -189 ct 2682 -303 l  2721 -303 l  2721 0 l  p
2568 -110 m  2568 -84 2574 -65 2585 -52 ct 2597 -39 2610 -32 2626 -32 ct 2642 -32 2655 -38 2666 -51 ct 
2677 -63 2682 -82 2682 -107 ct 2682 -135 2677 -155 2666 -168 ct 2654 -181 2641 -188 2624 -188 ct 
2608 -188 2595 -182 2584 -169 ct 2573 -157 2568 -137 2568 -110 ct p ef
2899 0 m  2785 0 l  2785 -303 l  2899 -303 l  2922 -303 2941 -300 2955 -293 ct 
2969 -287 2980 -278 2988 -265 ct 2996 -253 3000 -239 3000 -225 ct 3000 -213 2996 -200 2989 -189 ct 
2981 -178 2970 -169 2956 -162 ct 2974 -156 2987 -147 2997 -134 ct 3007 -121 3011 -106 3011 -88 ct 
3011 -74 3008 -61 3003 -48 ct 2997 -36 2989 -27 2981 -20 ct 2972 -13 2961 -8 2948 -5 ct 
2935 -2 2919 0 2899 0 ct p
2826 -267 m  2826 -176 l  2891 -176 l  2908 -176 2921 -177 2928 -180 ct 2938 -183 2946 -188 2951 -195 ct 
2956 -202 2959 -211 2959 -221 ct 2959 -231 2956 -240 2951 -247 ct 2947 -255 2940 -260 2931 -263 ct 
2922 -266 2907 -267 2886 -267 ct 2826 -267 l  p
2826 -141 m  2826 -35 l  2900 -35 l  2913 -35 2922 -36 2927 -37 ct 2936 -38 2943 -41 2949 -45 ct 
2956 -49 2961 -55 2964 -62 ct 2968 -70 2970 -78 2970 -88 ct 2970 -100 2968 -110 2962 -118 ct 
2957 -126 2949 -132 2939 -136 ct 2929 -139 2914 -141 2895 -141 ct 2826 -141 l 
p ef
3061 84 m  3056 50 l  3063 52 3070 53 3076 53 ct 3084 53 3090 51 3095 49 ct 
3099 46 3103 42 3106 37 ct 3108 33 3112 24 3117 9 ct 3118 7 3119 4 3120 0 ct 3038 -220 l 
3078 -220 l  3123 -100 l  3128 -84 3134 -68 3138 -52 ct 3142 -63 3147 -77 3153 -94 ct 
3197 -220 l  3237 -220 l  3159 6 l  3150 29 3143 45 3138 54 ct 3131 66 3124 74 3115 80 ct 
3107 85 3097 88 3085 88 ct 3078 88 3070 87 3061 84 ct p ef
pom

pum
250 6193 t
108 0 m  66 0 l  -1 -220 l  38 -220 l  75 -93 l  86 -46 l  86 -48 90 -63 97 -91 ct 
131 -220 l  172 -220 l  206 -92 l  216 -50 l  228 -93 l  264 -220 l  304 -220 l 
237 0 l  194 0 l  161 -131 l  151 -170 l  108 0 l  p ef
472 -26 m  459 -16 446 -8 434 -4 ct 422 1 409 3 395 3 ct 372 3 354 -3 341 -14 ct 
329 -26 323 -41 323 -58 ct 323 -69 325 -79 330 -87 ct 334 -96 341 -103 348 -108 ct 
356 -113 364 -117 374 -120 ct 381 -122 391 -124 406 -126 ct 434 -129 456 -133 469 -138 ct 
469 -143 470 -146 470 -147 ct 470 -161 466 -171 460 -176 ct 451 -184 438 -188 420 -188 ct 
404 -188 392 -185 384 -180 ct 376 -174 370 -164 367 -150 ct 329 -156 l  332 -171 337 -184 345 -193 ct 
352 -203 363 -210 377 -215 ct 391 -221 408 -223 427 -223 ct 445 -223 460 -221 472 -217 ct 
483 -212 492 -206 497 -200 ct 503 -193 507 -184 509 -174 ct 510 -167 511 -156 511 -141 ct 
511 -95 l  511 -63 511 -42 513 -31 ct 515 -20 518 -10 522 0 ct 484 0 l  478 -8 474 -16 472 -26 ct 
p
469 -92 m  470 -103 l  457 -98 437 -94 411 -91 ct 396 -89 386 -87 380 -85 ct 
374 -83 369 -80 366 -75 ct 362 -71 361 -66 361 -61 ct 361 -53 364 -46 372 -40 ct 
379 -35 389 -32 403 -32 ct 417 -32 429 -35 440 -41 ct 451 -47 459 -54 464 -63 ct 
467 -69 469 -79 469 -92 ct p ef
556 -68 m  594 -73 l  596 -60 601 -50 610 -43 ct 619 -36 632 -32 648 -32 ct 
665 -32 677 -35 685 -41 ct 693 -47 697 -55 697 -63 ct 697 -70 692 -76 683 -80 ct 
677 -83 665 -87 647 -91 ct 623 -98 605 -104 594 -109 ct 584 -114 575 -121 570 -130 ct 
564 -139 562 -149 562 -160 ct 562 -170 564 -179 568 -187 ct 572 -195 578 -202 586 -208 ct 
591 -212 599 -216 608 -219 ct 618 -222 628 -223 639 -223 ct 656 -223 671 -221 683 -215 ct 
696 -210 705 -203 711 -194 ct 717 -185 721 -174 723 -159 ct 685 -153 l  683 -164 679 -172 672 -179 ct 
665 -185 655 -188 642 -188 ct 627 -188 616 -186 610 -181 ct 603 -176 600 -170 600 -164 ct 
600 -159 601 -156 604 -152 ct 607 -149 611 -146 617 -144 ct 620 -143 630 -140 646 -135 ct 
669 -128 687 -123 698 -118 ct 710 -114 719 -107 725 -99 ct 732 -90 735 -79 735 -67 ct 
735 -54 731 -43 724 -32 ct 717 -21 707 -12 693 -6 ct 680 0 665 3 648 3 ct 620 3 599 -3 584 -15 ct 
569 -27 560 -44 556 -68 ct p ef
1013 -120 m  925 -120 l  925 -156 l  1055 -156 l  1055 -42 l  1035 -26 1014 -14 993 -6 ct 
972 2 951 6 928 6 ct 898 6 871 -1 847 -13 ct 822 -26 804 -45 791 -69 ct 779 -93 773 -120 773 -150 ct 
773 -179 779 -207 791 -233 ct 804 -258 821 -277 845 -290 ct 868 -302 895 -308 925 -308 ct 
947 -308 967 -305 985 -298 ct 1003 -291 1017 -281 1027 -268 ct 1037 -255 1045 -239 1050 -218 ct 
1012 -208 l  1007 -224 1002 -236 995 -244 ct 988 -253 979 -260 966 -265 ct 954 -271 940 -273 924 -273 ct 
906 -273 890 -270 877 -265 ct 863 -259 853 -252 844 -243 ct 836 -234 830 -224 825 -213 ct 
818 -194 814 -173 814 -151 ct 814 -124 818 -102 828 -83 ct 837 -65 850 -52 868 -43 ct 
886 -34 905 -29 925 -29 ct 942 -29 959 -33 976 -40 ct 992 -47 1005 -54 1013 -62 ct 
1013 -120 l  p ef
1260 -71 m  1297 -65 l  1291 -43 1280 -27 1263 -15 ct 1247 -3 1226 3 1200 3 ct 
1168 3 1143 -7 1124 -26 ct 1105 -46 1096 -73 1096 -108 ct 1096 -145 1105 -173 1124 -193 ct 
1143 -213 1168 -223 1198 -223 ct 1228 -223 1252 -213 1270 -193 ct 1289 -174 1298 -146 1298 -110 ct 
1298 -108 1298 -104 1298 -100 ct 1134 -100 l  1135 -78 1142 -61 1155 -50 ct 
1167 -38 1183 -32 1201 -32 ct 1215 -32 1227 -35 1237 -41 ct 1246 -47 1254 -57 1260 -71 ct 
p
1134 -135 m  1260 -135 l  1258 -151 1254 -162 1246 -170 ct 1233 -182 1218 -188 1198 -188 ct 
1181 -188 1166 -183 1154 -174 ct 1142 -164 1135 -151 1134 -135 ct p ef
1385 0 m  1346 0 l  1346 -220 l  1385 -220 l  1385 -189 l  1400 -212 1422 -223 1451 -223 ct 
1464 -223 1475 -221 1486 -216 ct 1496 -211 1504 -205 1510 -198 ct 1515 -190 1519 -181 1521 -170 ct 
1522 -163 1523 -151 1523 -134 ct 1523 0 l  1484 0 l  1484 -131 l  1484 -145 1483 -157 1480 -164 ct 
1477 -171 1473 -177 1465 -181 ct 1458 -186 1450 -188 1441 -188 ct 1425 -188 1412 -183 1401 -173 ct 
1390 -163 1385 -145 1385 -117 ct 1385 0 l  p ef
1731 -71 m  1768 -65 l  1762 -43 1751 -27 1734 -15 ct 1718 -3 1697 3 1671 3 ct 
1639 3 1614 -7 1595 -26 ct 1576 -46 1567 -73 1567 -108 ct 1567 -145 1576 -173 1595 -193 ct 
1614 -213 1639 -223 1669 -223 ct 1699 -223 1723 -213 1741 -193 ct 1760 -174 1769 -146 1769 -110 ct 
1769 -108 1769 -104 1769 -100 ct 1605 -100 l  1606 -78 1613 -61 1626 -50 ct 
1638 -38 1654 -32 1672 -32 ct 1686 -32 1698 -35 1708 -41 ct 1717 -47 1725 -57 1731 -71 ct 
p
1605 -135 m  1731 -135 l  1729 -151 1725 -162 1717 -170 ct 1704 -182 1689 -188 1669 -188 ct 
1652 -188 1637 -183 1625 -174 ct 1613 -164 1606 -151 1605 -135 ct p ef
1855 0 m  1816 0 l  1816 -220 l  1849 -220 l  1849 -188 l  1857 -202 1865 -212 1872 -216 ct 
1879 -221 1887 -223 1896 -223 ct 1908 -223 1921 -220 1934 -214 ct 1921 -179 l 
1912 -185 1904 -188 1895 -188 ct 1887 -188 1880 -186 1874 -181 ct 1868 -176 1863 -169 1861 -160 ct 
1857 -147 1855 -132 1855 -116 ct 1855 0 l  p ef
2095 -26 m  2082 -16 2069 -8 2057 -4 ct 2045 1 2032 3 2018 3 ct 1995 3 1977 -3 1964 -14 ct 
1952 -26 1946 -41 1946 -58 ct 1946 -69 1948 -79 1953 -87 ct 1957 -96 1964 -103 1971 -108 ct 
1979 -113 1987 -117 1997 -120 ct 2004 -122 2014 -124 2029 -126 ct 2057 -129 2079 -133 2092 -138 ct 
2092 -143 2093 -146 2093 -147 ct 2093 -161 2089 -171 2083 -176 ct 2074 -184 2061 -188 2043 -188 ct 
2027 -188 2015 -185 2007 -180 ct 1999 -174 1993 -164 1990 -150 ct 1952 -156 l 
1955 -171 1960 -184 1968 -193 ct 1975 -203 1986 -210 2000 -215 ct 2014 -221 2031 -223 2050 -223 ct 
2068 -223 2083 -221 2095 -217 ct 2106 -212 2115 -206 2120 -200 ct 2126 -193 2130 -184 2132 -174 ct 
2133 -167 2134 -156 2134 -141 ct 2134 -95 l  2134 -63 2134 -42 2136 -31 ct 2138 -20 2141 -10 2145 0 ct 
2107 0 l  2101 -8 2097 -16 2095 -26 ct p
2092 -92 m  2093 -103 l  2080 -98 2060 -94 2034 -91 ct 2019 -89 2009 -87 2003 -85 ct 
1997 -83 1992 -80 1989 -75 ct 1985 -71 1984 -66 1984 -61 ct 1984 -53 1987 -46 1995 -40 ct 
2002 -35 2012 -32 2026 -32 ct 2040 -32 2052 -35 2063 -41 ct 2074 -47 2082 -54 2087 -63 ct 
2090 -69 2092 -79 2092 -92 ct p ef
2272 -33 m  2278 0 l  2267 2 2258 3 2250 3 ct 2236 3 2226 1 2218 -3 ct 2211 -7 2206 -13 2203 -20 ct 
2200 -26 2198 -41 2198 -62 ct 2198 -185 l  2172 -185 l  2172 -220 l  2198 -220 l 
2198 -275 l  2236 -297 l  2236 -220 l  2272 -220 l  2272 -185 l  2236 -185 l 
2236 -62 l  2236 -51 2237 -45 2238 -42 ct 2240 -39 2242 -37 2244 -35 ct 2247 -33 2251 -32 2256 -32 ct 
2260 -32 2265 -33 2272 -33 ct p ef
2460 -71 m  2497 -65 l  2491 -43 2480 -27 2463 -15 ct 2447 -3 2426 3 2400 3 ct 
2368 3 2343 -7 2324 -26 ct 2305 -46 2296 -73 2296 -108 ct 2296 -145 2305 -173 2324 -193 ct 
2343 -213 2368 -223 2398 -223 ct 2428 -223 2452 -213 2470 -193 ct 2489 -174 2498 -146 2498 -110 ct 
2498 -108 2498 -104 2498 -100 ct 2334 -100 l  2335 -78 2342 -61 2355 -50 ct 
2367 -38 2383 -32 2401 -32 ct 2415 -32 2427 -35 2437 -41 ct 2446 -47 2454 -57 2460 -71 ct 
p
2334 -135 m  2460 -135 l  2458 -151 2454 -162 2446 -170 ct 2433 -182 2418 -188 2398 -188 ct 
2381 -188 2366 -183 2354 -174 ct 2342 -164 2335 -151 2334 -135 ct p ef
2722 0 m  2683 0 l  2683 -35 l  2670 -10 2650 3 2623 3 ct 2606 3 2590 -2 2576 -11 ct 
2562 -21 2550 -34 2543 -51 ct 2535 -68 2531 -88 2531 -110 ct 2531 -132 2534 -151 2542 -169 ct 
2549 -186 2560 -200 2574 -209 ct 2589 -219 2605 -223 2623 -223 ct 2636 -223 2648 -220 2658 -214 ct 
2669 -207 2677 -199 2683 -189 ct 2683 -303 l  2722 -303 l  2722 0 l  p
2569 -110 m  2569 -84 2575 -65 2586 -52 ct 2598 -39 2611 -32 2627 -32 ct 2643 -32 2656 -38 2667 -51 ct 
2678 -63 2683 -82 2683 -107 ct 2683 -135 2678 -155 2667 -168 ct 2655 -181 2642 -188 2625 -188 ct 
2609 -188 2596 -182 2585 -169 ct 2574 -157 2569 -137 2569 -110 ct p ef
2900 0 m  2786 0 l  2786 -303 l  2900 -303 l  2923 -303 2942 -300 2956 -293 ct 
2970 -287 2981 -278 2989 -265 ct 2997 -253 3001 -239 3001 -225 ct 3001 -213 2997 -200 2990 -189 ct 
2982 -178 2971 -169 2957 -162 ct 2975 -156 2988 -147 2998 -134 ct 3008 -121 3012 -106 3012 -88 ct 
3012 -74 3009 -61 3004 -48 ct 2998 -36 2990 -27 2982 -20 ct 2973 -13 2962 -8 2949 -5 ct 
2936 -2 2920 0 2900 0 ct p
2827 -267 m  2827 -176 l  2892 -176 l  2909 -176 2922 -177 2929 -180 ct 2939 -183 2947 -188 2952 -195 ct 
2957 -202 2960 -211 2960 -221 ct 2960 -231 2957 -240 2952 -247 ct 2948 -255 2941 -260 2932 -263 ct 
2923 -266 2908 -267 2887 -267 ct 2827 -267 l  p
2827 -141 m  2827 -35 l  2901 -35 l  2914 -35 2923 -36 2928 -37 ct 2937 -38 2944 -41 2950 -45 ct 
2957 -49 2962 -55 2965 -62 ct 2969 -70 2971 -78 2971 -88 ct 2971 -100 2969 -110 2963 -118 ct 
2958 -126 2950 -132 2940 -136 ct 2930 -139 2915 -141 2896 -141 ct 2827 -141 l 
p ef
3059 84 m  3054 50 l  3061 52 3068 53 3074 53 ct 3082 53 3088 51 3093 49 ct 
3097 46 3101 42 3104 37 ct 3106 33 3110 24 3115 9 ct 3116 7 3117 4 3118 0 ct 3036 -220 l 
3076 -220 l  3121 -100 l  3126 -84 3132 -68 3136 -52 ct 3140 -63 3145 -77 3151 -94 ct 
3195 -220 l  3235 -220 l  3157 6 l  3148 29 3141 45 3136 54 ct 3129 66 3122 74 3113 80 ct 
3105 85 3095 88 3083 88 ct 3076 88 3068 87 3059 84 ct p ef
3374 85 m  3348 85 l  3326 60 3308 30 3294 -4 ct 3279 -37 3271 -73 3271 -109 ct 
3271 -141 3277 -172 3288 -201 ct 3301 -235 3321 -269 3348 -303 ct 3374 -303 l 
3357 -275 3345 -255 3340 -243 ct 3331 -224 3324 -205 3319 -185 ct 3313 -159 3310 -134 3310 -109 ct 
3310 -44 3331 21 3374 85 ct p ef
3404 -110 m  3404 -150 3415 -180 3437 -199 ct 3455 -215 3477 -223 3504 -223 ct 
3533 -223 3557 -214 3575 -194 ct 3594 -175 3603 -148 3603 -113 ct 3603 -85 3599 -63 3591 -47 ct 
3583 -32 3571 -19 3555 -10 ct 3539 -1 3522 3 3504 3 ct 3474 3 3450 -7 3431 -26 ct 
3413 -46 3404 -74 3404 -110 ct p
3442 -110 m  3442 -84 3448 -65 3459 -52 ct 3471 -39 3486 -32 3504 -32 ct 3521 -32 3536 -39 3548 -52 ct 
3559 -65 3565 -85 3565 -111 ct 3565 -137 3559 -156 3548 -169 ct 3536 -182 3521 -188 3504 -188 ct 
3486 -188 3471 -182 3459 -169 ct 3448 -156 3442 -136 3442 -110 ct p ef
3671 85 m  3645 85 l  3688 21 3709 -44 3709 -109 ct 3709 -134 3706 -159 3700 -184 ct 
3695 -204 3688 -223 3679 -242 ct 3674 -254 3662 -274 3645 -303 ct 3671 -303 l 
3698 -269 3718 -235 3731 -201 ct 3742 -172 3747 -141 3747 -109 ct 3747 -73 3740 -37 3725 -4 ct 
3710 30 3692 60 3671 85 ct p ef
pom
gr
gs
0 0 m 24637 0 l 24637 8381 l 0 8381 l 0 0 l eoclip newpath
gr
gr
0 8382 t 
pom
count op_count sub {pop} repeat countdictstack dict_count sub {end} repeat b4_inc_state restore
%%PageTrailer
%%Trailer
%%EOF
