%!PS-Adobe-3.0 EPSF-3.0 
%%BoundingBox: 0 0 338 41
%%Pages: 0
%%Creator: Sun Microsystems, Inc.
%%Title: none
%%CreationDate: none
%%LanguageLevel: 2
%%EndComments
%%BeginProlog
%%BeginResource: procset SDRes-Prolog 1.0 0
/b4_inc_state save def
/dict_count countdictstack def
/op_count count 1 sub def
userdict begin
0 setgray 0 setlinecap 1 setlinewidth 0 setlinejoin 10 setmiterlimit[] 0 setdash newpath
/languagelevel where {pop languagelevel 1 ne {false setstrokeadjust false setoverprint} if} if
/bdef {bind def} bind def
/c {setrgbcolor} bdef
/l {neg lineto} bdef
/rl {neg rlineto} bdef
/lc {setlinecap} bdef
/lj {setlinejoin} bdef
/lw {setlinewidth} bdef
/ml {setmiterlimit} bdef
/ld {setdash} bdef
/m {neg moveto} bdef
/ct {6 2 roll neg 6 2 roll neg 6 2 roll neg curveto} bdef
/r {rotate} bdef
/t {neg translate} bdef
/s {scale} bdef
/sw {show} bdef
/gs {gsave} bdef
/gr {grestore} bdef
/f {findfont dup length dict begin
{1 index /FID ne {def} {pop pop} ifelse} forall /Encoding ISOLatin1Encoding def
currentdict end /NFont exch definefont pop /NFont findfont} bdef
/p {closepath} bdef
/sf {scalefont setfont} bdef
/ef {eofill}bdef
/pc {closepath stroke}bdef
/ps {stroke}bdef
/pum {matrix currentmatrix}bdef
/pom {setmatrix}bdef
/bs {/aString exch def /nXOfs exch def /nWidth exch def currentpoint nXOfs 0 rmoveto pum nWidth aString stringwidth pop div 1 scale aString show pom moveto} bdef
%%EndResource
%%EndProlog
%%BeginSetup
%%EndSetup
%%Page: 1 1
%%BeginPageSetup
%%EndPageSetup
pum
0.02831 0.02831 s 
0 -1448 t
/tm matrix currentmatrix def
gs
0 0 m 11937 0 l 11937 1447 l 0 1447 l 0 0 l eoclip newpath
gs
0 0 m 11937 0 l 11937 1447 l 0 1447 l 0 0 l eoclip newpath
0.601 0.800 1.000 c 9525 1356 m  7620 1356 l  7620 86 l  11430 86 l  11430 1356 l 
9525 1356 l  p ef
0 lw 1 lj 0.003 0.003 0.003 c 9525 1356 m  7620 1356 l  7620 86 l  11430 86 l 
11430 1356 l  9525 1356 l  pc
pum
8325 942 t
22 -101 m  79 -110 l  82 -90 91 -75 104 -64 ct 118 -54 137 -49 161 -49 ct 186 -49 204 -53 216 -62 ct 
228 -71 234 -82 234 -94 ct 234 -105 227 -114 214 -120 ct 204 -125 186 -130 159 -137 ct 
123 -147 96 -156 80 -164 ct 64 -171 52 -182 43 -195 ct 35 -209 31 -223 31 -240 ct 
31 -255 34 -268 41 -281 ct 47 -293 56 -304 67 -312 ct 75 -318 87 -324 101 -328 ct 
116 -333 131 -335 148 -335 ct 173 -335 194 -331 213 -323 ct 232 -316 246 -305 255 -292 ct 
264 -278 270 -260 273 -238 ct 216 -229 l  214 -246 207 -259 197 -268 ct 186 -278 171 -282 152 -282 ct 
129 -282 113 -279 103 -271 ct 93 -264 88 -255 88 -245 ct 88 -239 90 -234 94 -229 ct 
98 -223 105 -219 113 -216 ct 118 -214 133 -210 157 -203 ct 193 -193 219 -184 236 -177 ct 
253 -171 267 -161 276 -148 ct 286 -135 291 -119 291 -100 ct 291 -81 286 -64 275 -47 ct 
264 -31 249 -18 229 -9 ct 209 0 186 4 161 4 ct 118 4 86 -4 64 -22 ct 42 -40 28 -66 22 -101 ct 
p ef
344 -165 m  344 -226 361 -270 394 -299 ct 421 -323 455 -335 495 -335 ct 539 -335 574 -321 602 -291 ct 
630 -262 644 -222 644 -170 ct 644 -128 638 -95 626 -71 ct 613 -47 595 -29 572 -15 ct 
548 -2 522 4 495 4 ct 450 4 414 -10 386 -39 ct 358 -69 344 -111 344 -165 ct p
402 -166 m  402 -126 411 -97 428 -78 ct 446 -58 468 -49 495 -49 ct 521 -49 543 -58 561 -78 ct 
578 -97 587 -127 587 -167 ct 587 -205 578 -234 560 -253 ct 543 -272 521 -282 495 -282 ct 
468 -282 446 -273 428 -253 ct 411 -234 402 -205 402 -166 ct p ef
772 0 m  715 0 l  715 -331 l  764 -331 l  764 -283 l  776 -304 788 -318 799 -325 ct 
810 -332 822 -335 835 -335 ct 853 -335 872 -330 891 -321 ct 872 -269 l  859 -278 846 -282 833 -282 ct 
821 -282 811 -279 801 -271 ct 792 -264 785 -253 781 -240 ct 775 -220 772 -198 772 -174 ct 
772 0 l  p ef
1045 -50 m  1054 -1 l  1038 3 1024 4 1012 4 ct 992 4 976 1 965 -5 ct 954 -11 946 -19 942 -29 ct 
937 -40 935 -61 935 -94 ct 935 -278 l  895 -278 l  895 -331 l  935 -331 l 
935 -412 l  992 -446 l  992 -331 l  1045 -331 l  1045 -278 l  992 -278 l 
992 -92 l  992 -77 993 -67 995 -63 ct 997 -58 1000 -55 1004 -52 ct 1008 -50 1014 -49 1022 -49 ct 
1028 -49 1036 -49 1045 -50 ct p ef
1174 0 m  1112 0 l  1112 -454 l  1280 -454 l  1309 -454 1332 -453 1347 -450 ct 
1369 -446 1388 -439 1402 -429 ct 1417 -418 1429 -404 1438 -385 ct 1447 -366 1451 -346 1451 -323 ct 
1451 -285 1440 -252 1416 -225 ct 1392 -199 1349 -185 1287 -185 ct 1174 -185 l 
1174 0 l  p
1174 -401 m  1174 -238 l  1287 -238 l  1324 -238 1351 -245 1366 -260 ct 1382 -274 1390 -295 1390 -321 ct 
1390 -340 1385 -357 1376 -370 ct 1367 -384 1354 -393 1339 -397 ct 1330 -400 1312 -401 1285 -401 ct 
1174 -401 l  p ef
1583 0 m  1526 0 l  1526 -331 l  1575 -331 l  1575 -283 l  1587 -304 1599 -318 1610 -325 ct 
1621 -332 1633 -335 1646 -335 ct 1664 -335 1683 -330 1702 -321 ct 1683 -269 l 
1670 -278 1657 -282 1644 -282 ct 1632 -282 1622 -279 1612 -271 ct 1603 -264 1596 -253 1592 -240 ct 
1586 -220 1583 -198 1583 -174 ct 1583 0 l  p ef
1720 -165 m  1720 -226 1737 -270 1770 -299 ct 1797 -323 1831 -335 1871 -335 ct 
1915 -335 1950 -321 1978 -291 ct 2006 -262 2020 -222 2020 -170 ct 2020 -128 2014 -95 2002 -71 ct 
1989 -47 1971 -29 1948 -15 ct 1924 -2 1898 4 1871 4 ct 1826 4 1790 -10 1762 -39 ct 
1734 -69 1720 -111 1720 -165 ct p
1778 -166 m  1778 -126 1787 -97 1804 -78 ct 1822 -58 1844 -49 1871 -49 ct 1897 -49 1919 -58 1937 -78 ct 
1954 -97 1963 -127 1963 -167 ct 1963 -205 1954 -234 1936 -253 ct 1919 -272 1897 -282 1871 -282 ct 
1844 -282 1822 -273 1804 -253 ct 1787 -234 1778 -205 1778 -166 ct p ef
2074 22 m  2132 31 l  2134 46 2140 58 2150 65 ct 2163 75 2182 79 2205 79 ct 
2230 79 2249 75 2263 65 ct 2277 56 2286 43 2291 26 ct 2294 15 2295 -7 2295 -40 ct 
2271 -13 2241 0 2205 0 ct 2161 0 2126 -16 2102 -49 ct 2078 -81 2065 -120 2065 -166 ct 
2065 -197 2071 -226 2082 -252 ct 2093 -279 2109 -299 2129 -314 ct 2150 -328 2174 -335 2202 -335 ct 
2240 -335 2270 -319 2295 -287 ct 2295 -331 l  2352 -331 l  2352 -46 l  2352 5 2347 42 2336 63 ct 
2326 84 2310 101 2287 114 ct 2265 126 2237 132 2204 132 ct 2165 132 2133 123 2109 105 ct 
2085 86 2073 59 2074 22 ct p
2123 -170 m  2123 -129 2131 -99 2147 -81 ct 2164 -62 2184 -53 2209 -53 ct 2233 -53 2253 -62 2270 -81 ct 
2286 -99 2295 -128 2295 -168 ct 2295 -206 2286 -234 2269 -253 ct 2252 -273 2232 -282 2208 -282 ct 
2184 -282 2164 -273 2147 -254 ct 2131 -235 2123 -207 2123 -170 ct p ef
pom
0.601 0.800 1.000 c 1270 1356 m  919 1356 635 1072 635 721 ct 635 370 919 86 1270 86 ct 
1621 86 1905 370 1905 721 ct 1905 1072 1621 1356 1270 1356 ct p ef
0.003 0.003 0.003 c 1270 1356 m  919 1356 635 1072 635 721 ct 635 370 919 86 1270 86 ct 
1621 86 1905 370 1905 721 ct 1905 1072 1621 1356 1270 1356 ct pc
pum
1181 942 t
113 0 m  55 0 l  55 -278 l  7 -278 l  7 -331 l  55 -331 l  55 -366 l  55 -388 57 -404 61 -415 ct 
67 -429 77 -441 91 -450 ct 105 -459 124 -463 148 -463 ct 164 -463 181 -461 200 -457 ct 
192 -407 l  180 -409 169 -410 159 -410 ct 142 -410 130 -407 123 -400 ct 116 -393 113 -379 113 -360 ct 
113 -331 l  174 -331 l  174 -278 l  113 -278 l  113 0 l  p ef
pom

pum
4060 506 t
206 0 m  167 0 l  167 -37 l  151 -10 129 3 101 3 ct 89 3 77 0 66 -4 ct 56 -9 48 -16 42 -23 ct 
37 -31 34 -40 32 -50 ct 30 -58 29 -69 29 -85 ct 29 -220 l  68 -220 l  68 -101 l 
68 -82 68 -70 70 -63 ct 72 -53 77 -46 84 -40 ct 91 -35 100 -32 111 -32 ct 122 -32 132 -35 141 -41 ct 
151 -46 158 -54 162 -64 ct 165 -73 167 -87 167 -105 ct 167 -220 l  206 -220 l 
206 0 l  p ef
250 -68 m  288 -73 l  290 -60 295 -50 304 -43 ct 313 -36 326 -32 342 -32 ct 
359 -32 371 -35 379 -41 ct 387 -47 391 -55 391 -63 ct 391 -70 386 -76 377 -80 ct 
371 -83 359 -87 341 -91 ct 317 -98 299 -104 288 -109 ct 278 -114 269 -121 264 -130 ct 
258 -139 256 -149 256 -160 ct 256 -170 258 -179 262 -187 ct 266 -195 272 -202 280 -208 ct 
285 -212 293 -216 302 -219 ct 312 -222 322 -223 333 -223 ct 350 -223 365 -221 377 -215 ct 
390 -210 399 -203 405 -194 ct 411 -185 415 -174 417 -159 ct 379 -153 l  377 -164 373 -172 366 -179 ct 
359 -185 349 -188 336 -188 ct 321 -188 310 -186 304 -181 ct 297 -176 294 -170 294 -164 ct 
294 -159 295 -156 298 -152 ct 301 -149 305 -146 311 -144 ct 314 -143 324 -140 340 -135 ct 
363 -128 381 -123 392 -118 ct 404 -114 413 -107 419 -99 ct 426 -90 429 -79 429 -67 ct 
429 -54 425 -43 418 -32 ct 411 -21 401 -12 387 -6 ct 374 0 359 3 342 3 ct 314 3 293 -3 278 -15 ct 
263 -27 254 -44 250 -68 ct p ef
628 -71 m  665 -65 l  659 -43 648 -27 631 -15 ct 615 -3 594 3 568 3 ct 536 3 511 -7 492 -26 ct 
473 -46 464 -73 464 -108 ct 464 -145 473 -173 492 -193 ct 511 -213 536 -223 566 -223 ct 
596 -223 620 -213 638 -193 ct 657 -174 666 -146 666 -110 ct 666 -108 666 -104 666 -100 ct 
502 -100 l  503 -78 510 -61 523 -50 ct 535 -38 551 -32 569 -32 ct 583 -32 595 -35 605 -41 ct 
614 -47 622 -57 628 -71 ct p
502 -135 m  628 -135 l  626 -151 622 -162 614 -170 ct 601 -182 586 -188 566 -188 ct 
549 -188 534 -183 522 -174 ct 510 -164 503 -151 502 -135 ct p ef
890 0 m  851 0 l  851 -35 l  838 -10 818 3 791 3 ct 774 3 758 -2 744 -11 ct 
730 -21 718 -34 711 -51 ct 703 -68 699 -88 699 -110 ct 699 -132 702 -151 710 -169 ct 
717 -186 728 -200 742 -209 ct 757 -219 773 -223 791 -223 ct 804 -223 816 -220 826 -214 ct 
837 -207 845 -199 851 -189 ct 851 -303 l  890 -303 l  890 0 l  p
737 -110 m  737 -84 743 -65 754 -52 ct 766 -39 779 -32 795 -32 ct 811 -32 824 -38 835 -51 ct 
846 -63 851 -82 851 -107 ct 851 -135 846 -155 835 -168 ct 823 -181 810 -188 793 -188 ct 
777 -188 764 -182 753 -169 ct 742 -157 737 -137 737 -110 ct p ef
1048 85 m  1022 85 l  1000 60 982 30 968 -4 ct 953 -37 945 -73 945 -109 ct 945 -141 951 -172 962 -201 ct 
975 -235 995 -269 1022 -303 ct 1048 -303 l  1031 -275 1019 -255 1014 -243 ct 
1005 -224 998 -205 993 -185 ct 987 -159 984 -134 984 -109 ct 984 -44 1005 21 1048 85 ct 
p ef
1128 -264 m  1089 -264 l  1089 -303 l  1128 -303 l  1128 -264 l  p
1128 0 m  1089 0 l  1089 -220 l  1128 -220 l  1128 0 l  p ef
1201 85 m  1175 85 l  1218 21 1239 -44 1239 -109 ct 1239 -134 1236 -159 1230 -184 ct 
1225 -204 1218 -223 1209 -242 ct 1204 -254 1192 -274 1175 -303 ct 1201 -303 l 
1228 -269 1248 -235 1261 -201 ct 1272 -172 1277 -141 1277 -109 ct 1277 -73 1270 -37 1255 -4 ct 
1240 30 1222 60 1201 85 ct p ef
pom
1 lw 0 lj 7620 721 m  2265 721 l  ps
1905 721 m  2355 871 l  2355 571 l  1905 721 l  p ef
gr
gs
0 0 m 11937 0 l 11937 1447 l 0 1447 l 0 0 l eoclip newpath
gr
gr
0 1448 t 
pom
count op_count sub {pop} repeat countdictstack dict_count sub {end} repeat b4_inc_state restore
%%PageTrailer
%%Trailer
%%EOF
