%!PS-Adobe-3.0 EPSF-3.0 
%%BoundingBox: 0 0 338 41
%%Pages: 0
%%Creator: Sun Microsystems, Inc.
%%Title: none
%%CreationDate: none
%%LanguageLevel: 2
%%EndComments
%%BeginProlog
%%BeginResource: procset SDRes-Prolog 1.0 0
/b4_inc_state save def
/dict_count countdictstack def
/op_count count 1 sub def
userdict begin
0 setgray 0 setlinecap 1 setlinewidth 0 setlinejoin 10 setmiterlimit[] 0 setdash newpath
/languagelevel where {pop languagelevel 1 ne {false setstrokeadjust false setoverprint} if} if
/bdef {bind def} bind def
/c {setrgbcolor} bdef
/l {neg lineto} bdef
/rl {neg rlineto} bdef
/lc {setlinecap} bdef
/lj {setlinejoin} bdef
/lw {setlinewidth} bdef
/ml {setmiterlimit} bdef
/ld {setdash} bdef
/m {neg moveto} bdef
/ct {6 2 roll neg 6 2 roll neg 6 2 roll neg curveto} bdef
/r {rotate} bdef
/t {neg translate} bdef
/s {scale} bdef
/sw {show} bdef
/gs {gsave} bdef
/gr {grestore} bdef
/f {findfont dup length dict begin
{1 index /FID ne {def} {pop pop} ifelse} forall /Encoding ISOLatin1Encoding def
currentdict end /NFont exch definefont pop /NFont findfont} bdef
/p {closepath} bdef
/sf {scalefont setfont} bdef
/ef {eofill}bdef
/pc {closepath stroke}bdef
/ps {stroke}bdef
/pum {matrix currentmatrix}bdef
/pom {setmatrix}bdef
/bs {/aString exch def /nXOfs exch def /nWidth exch def currentpoint nXOfs 0 rmoveto pum nWidth aString stringwidth pop div 1 scale aString show pom moveto} bdef
%%EndResource
%%EndProlog
%%BeginSetup
%%EndSetup
%%Page: 1 1
%%BeginPageSetup
%%EndPageSetup
pum
0.02831 0.02831 s 
0 -1448 t
/tm matrix currentmatrix def
gs
0 0 m 11937 0 l 11937 1447 l 0 1447 l 0 0 l eoclip newpath
gs
0 0 m 11937 0 l 11937 1447 l 0 1447 l 0 0 l eoclip newpath

pum
5460 588 t
0.003 0.003 0.003 c 108 0 m  66 0 l  -1 -220 l  38 -220 l  75 -93 l  86 -46 l 
86 -48 90 -63 97 -91 ct 131 -220 l  172 -220 l  206 -92 l  216 -50 l  228 -93 l 
264 -220 l  304 -220 l  237 0 l  194 0 l  161 -131 l  151 -170 l  108 0 l 
p ef
472 -26 m  459 -16 446 -8 434 -4 ct 422 1 409 3 395 3 ct 372 3 354 -3 341 -14 ct 
329 -26 323 -41 323 -58 ct 323 -69 325 -79 330 -87 ct 334 -96 341 -103 348 -108 ct 
356 -113 364 -117 374 -120 ct 381 -122 391 -124 406 -126 ct 434 -129 456 -133 469 -138 ct 
469 -143 470 -146 470 -147 ct 470 -161 466 -171 460 -176 ct 451 -184 438 -188 420 -188 ct 
404 -188 392 -185 384 -180 ct 376 -174 370 -164 367 -150 ct 329 -156 l  332 -171 337 -184 345 -193 ct 
352 -203 363 -210 377 -215 ct 391 -221 408 -223 427 -223 ct 445 -223 460 -221 472 -217 ct 
483 -212 492 -206 497 -200 ct 503 -193 507 -184 509 -174 ct 510 -167 511 -156 511 -141 ct 
511 -95 l  511 -63 511 -42 513 -31 ct 515 -20 518 -10 522 0 ct 484 0 l  478 -8 474 -16 472 -26 ct 
p
469 -92 m  470 -103 l  457 -98 437 -94 411 -91 ct 396 -89 386 -87 380 -85 ct 
374 -83 369 -80 366 -75 ct 362 -71 361 -66 361 -61 ct 361 -53 364 -46 372 -40 ct 
379 -35 389 -32 403 -32 ct 417 -32 429 -35 440 -41 ct 451 -47 459 -54 464 -63 ct 
467 -69 469 -79 469 -92 ct p ef
556 -68 m  594 -73 l  596 -60 601 -50 610 -43 ct 619 -36 632 -32 648 -32 ct 
665 -32 677 -35 685 -41 ct 693 -47 697 -55 697 -63 ct 697 -70 692 -76 683 -80 ct 
677 -83 665 -87 647 -91 ct 623 -98 605 -104 594 -109 ct 584 -114 575 -121 570 -130 ct 
564 -139 562 -149 562 -160 ct 562 -170 564 -179 568 -187 ct 572 -195 578 -202 586 -208 ct 
591 -212 599 -216 608 -219 ct 618 -222 628 -223 639 -223 ct 656 -223 671 -221 683 -215 ct 
696 -210 705 -203 711 -194 ct 717 -185 721 -174 723 -159 ct 685 -153 l  683 -164 679 -172 672 -179 ct 
665 -185 655 -188 642 -188 ct 627 -188 616 -186 610 -181 ct 603 -176 600 -170 600 -164 ct 
600 -159 601 -156 604 -152 ct 607 -149 611 -146 617 -144 ct 620 -143 630 -140 646 -135 ct 
669 -128 687 -123 698 -118 ct 710 -114 719 -107 725 -99 ct 732 -90 735 -79 735 -67 ct 
735 -54 731 -43 724 -32 ct 717 -21 707 -12 693 -6 ct 680 0 665 3 648 3 ct 620 3 599 -3 584 -15 ct 
569 -27 560 -44 556 -68 ct p ef
1013 -120 m  925 -120 l  925 -156 l  1055 -156 l  1055 -42 l  1035 -26 1014 -14 993 -6 ct 
972 2 951 6 928 6 ct 898 6 871 -1 847 -13 ct 822 -26 804 -45 791 -69 ct 779 -93 773 -120 773 -150 ct 
773 -179 779 -207 791 -233 ct 804 -258 821 -277 845 -290 ct 868 -302 895 -308 925 -308 ct 
947 -308 967 -305 985 -298 ct 1003 -291 1017 -281 1027 -268 ct 1037 -255 1045 -239 1050 -218 ct 
1012 -208 l  1007 -224 1002 -236 995 -244 ct 988 -253 979 -260 966 -265 ct 954 -271 940 -273 924 -273 ct 
906 -273 890 -270 877 -265 ct 863 -259 853 -252 844 -243 ct 836 -234 830 -224 825 -213 ct 
818 -194 814 -173 814 -151 ct 814 -124 818 -102 828 -83 ct 837 -65 850 -52 868 -43 ct 
886 -34 905 -29 925 -29 ct 942 -29 959 -33 976 -40 ct 992 -47 1005 -54 1013 -62 ct 
1013 -120 l  p ef
1260 -71 m  1297 -65 l  1291 -43 1280 -27 1263 -15 ct 1247 -3 1226 3 1200 3 ct 
1168 3 1143 -7 1124 -26 ct 1105 -46 1096 -73 1096 -108 ct 1096 -145 1105 -173 1124 -193 ct 
1143 -213 1168 -223 1198 -223 ct 1228 -223 1252 -213 1270 -193 ct 1289 -174 1298 -146 1298 -110 ct 
1298 -108 1298 -104 1298 -100 ct 1134 -100 l  1135 -78 1142 -61 1155 -50 ct 
1167 -38 1183 -32 1201 -32 ct 1215 -32 1227 -35 1237 -41 ct 1246 -47 1254 -57 1260 -71 ct 
p
1134 -135 m  1260 -135 l  1258 -151 1254 -162 1246 -170 ct 1233 -182 1218 -188 1198 -188 ct 
1181 -188 1166 -183 1154 -174 ct 1142 -164 1135 -151 1134 -135 ct p ef
1385 0 m  1346 0 l  1346 -220 l  1385 -220 l  1385 -189 l  1400 -212 1422 -223 1451 -223 ct 
1464 -223 1475 -221 1486 -216 ct 1496 -211 1504 -205 1510 -198 ct 1515 -190 1519 -181 1521 -170 ct 
1522 -163 1523 -151 1523 -134 ct 1523 0 l  1484 0 l  1484 -131 l  1484 -145 1483 -157 1480 -164 ct 
1477 -171 1473 -177 1465 -181 ct 1458 -186 1450 -188 1441 -188 ct 1425 -188 1412 -183 1401 -173 ct 
1390 -163 1385 -145 1385 -117 ct 1385 0 l  p ef
1731 -71 m  1768 -65 l  1762 -43 1751 -27 1734 -15 ct 1718 -3 1697 3 1671 3 ct 
1639 3 1614 -7 1595 -26 ct 1576 -46 1567 -73 1567 -108 ct 1567 -145 1576 -173 1595 -193 ct 
1614 -213 1639 -223 1669 -223 ct 1699 -223 1723 -213 1741 -193 ct 1760 -174 1769 -146 1769 -110 ct 
1769 -108 1769 -104 1769 -100 ct 1605 -100 l  1606 -78 1613 -61 1626 -50 ct 
1638 -38 1654 -32 1672 -32 ct 1686 -32 1698 -35 1708 -41 ct 1717 -47 1725 -57 1731 -71 ct 
p
1605 -135 m  1731 -135 l  1729 -151 1725 -162 1717 -170 ct 1704 -182 1689 -188 1669 -188 ct 
1652 -188 1637 -183 1625 -174 ct 1613 -164 1606 -151 1605 -135 ct p ef
1855 0 m  1816 0 l  1816 -220 l  1849 -220 l  1849 -188 l  1857 -202 1865 -212 1872 -216 ct 
1879 -221 1887 -223 1896 -223 ct 1908 -223 1921 -220 1934 -214 ct 1921 -179 l 
1912 -185 1904 -188 1895 -188 ct 1887 -188 1880 -186 1874 -181 ct 1868 -176 1863 -169 1861 -160 ct 
1857 -147 1855 -132 1855 -116 ct 1855 0 l  p ef
2095 -26 m  2082 -16 2069 -8 2057 -4 ct 2045 1 2032 3 2018 3 ct 1995 3 1977 -3 1964 -14 ct 
1952 -26 1946 -41 1946 -58 ct 1946 -69 1948 -79 1953 -87 ct 1957 -96 1964 -103 1971 -108 ct 
1979 -113 1987 -117 1997 -120 ct 2004 -122 2014 -124 2029 -126 ct 2057 -129 2079 -133 2092 -138 ct 
2092 -143 2093 -146 2093 -147 ct 2093 -161 2089 -171 2083 -176 ct 2074 -184 2061 -188 2043 -188 ct 
2027 -188 2015 -185 2007 -180 ct 1999 -174 1993 -164 1990 -150 ct 1952 -156 l 
1955 -171 1960 -184 1968 -193 ct 1975 -203 1986 -210 2000 -215 ct 2014 -221 2031 -223 2050 -223 ct 
2068 -223 2083 -221 2095 -217 ct 2106 -212 2115 -206 2120 -200 ct 2126 -193 2130 -184 2132 -174 ct 
2133 -167 2134 -156 2134 -141 ct 2134 -95 l  2134 -63 2134 -42 2136 -31 ct 2138 -20 2141 -10 2145 0 ct 
2107 0 l  2101 -8 2097 -16 2095 -26 ct p
2092 -92 m  2093 -103 l  2080 -98 2060 -94 2034 -91 ct 2019 -89 2009 -87 2003 -85 ct 
1997 -83 1992 -80 1989 -75 ct 1985 -71 1984 -66 1984 -61 ct 1984 -53 1987 -46 1995 -40 ct 
2002 -35 2012 -32 2026 -32 ct 2040 -32 2052 -35 2063 -41 ct 2074 -47 2082 -54 2087 -63 ct 
2090 -69 2092 -79 2092 -92 ct p ef
2272 -33 m  2278 0 l  2267 2 2258 3 2250 3 ct 2236 3 2226 1 2218 -3 ct 2211 -7 2206 -13 2203 -20 ct 
2200 -26 2198 -41 2198 -62 ct 2198 -185 l  2172 -185 l  2172 -220 l  2198 -220 l 
2198 -275 l  2236 -297 l  2236 -220 l  2272 -220 l  2272 -185 l  2236 -185 l 
2236 -62 l  2236 -51 2237 -45 2238 -42 ct 2240 -39 2242 -37 2244 -35 ct 2247 -33 2251 -32 2256 -32 ct 
2260 -32 2265 -33 2272 -33 ct p ef
2460 -71 m  2497 -65 l  2491 -43 2480 -27 2463 -15 ct 2447 -3 2426 3 2400 3 ct 
2368 3 2343 -7 2324 -26 ct 2305 -46 2296 -73 2296 -108 ct 2296 -145 2305 -173 2324 -193 ct 
2343 -213 2368 -223 2398 -223 ct 2428 -223 2452 -213 2470 -193 ct 2489 -174 2498 -146 2498 -110 ct 
2498 -108 2498 -104 2498 -100 ct 2334 -100 l  2335 -78 2342 -61 2355 -50 ct 
2367 -38 2383 -32 2401 -32 ct 2415 -32 2427 -35 2437 -41 ct 2446 -47 2454 -57 2460 -71 ct 
p
2334 -135 m  2460 -135 l  2458 -151 2454 -162 2446 -170 ct 2433 -182 2418 -188 2398 -188 ct 
2381 -188 2366 -183 2354 -174 ct 2342 -164 2335 -151 2334 -135 ct p ef
2722 0 m  2683 0 l  2683 -35 l  2670 -10 2650 3 2623 3 ct 2606 3 2590 -2 2576 -11 ct 
2562 -21 2550 -34 2543 -51 ct 2535 -68 2531 -88 2531 -110 ct 2531 -132 2534 -151 2542 -169 ct 
2549 -186 2560 -200 2574 -209 ct 2589 -219 2605 -223 2623 -223 ct 2636 -223 2648 -220 2658 -214 ct 
2669 -207 2677 -199 2683 -189 ct 2683 -303 l  2722 -303 l  2722 0 l  p
2569 -110 m  2569 -84 2575 -65 2586 -52 ct 2598 -39 2611 -32 2627 -32 ct 2643 -32 2656 -38 2667 -51 ct 
2678 -63 2683 -82 2683 -107 ct 2683 -135 2678 -155 2667 -168 ct 2655 -181 2642 -188 2625 -188 ct 
2609 -188 2596 -182 2585 -169 ct 2574 -157 2569 -137 2569 -110 ct p ef
2900 0 m  2786 0 l  2786 -303 l  2900 -303 l  2923 -303 2942 -300 2956 -293 ct 
2970 -287 2981 -278 2989 -265 ct 2997 -253 3001 -239 3001 -225 ct 3001 -213 2997 -200 2990 -189 ct 
2982 -178 2971 -169 2957 -162 ct 2975 -156 2988 -147 2998 -134 ct 3008 -121 3012 -106 3012 -88 ct 
3012 -74 3009 -61 3004 -48 ct 2998 -36 2990 -27 2982 -20 ct 2973 -13 2962 -8 2949 -5 ct 
2936 -2 2920 0 2900 0 ct p
2827 -267 m  2827 -176 l  2892 -176 l  2909 -176 2922 -177 2929 -180 ct 2939 -183 2947 -188 2952 -195 ct 
2957 -202 2960 -211 2960 -221 ct 2960 -231 2957 -240 2952 -247 ct 2948 -255 2941 -260 2932 -263 ct 
2923 -266 2908 -267 2887 -267 ct 2827 -267 l  p
2827 -141 m  2827 -35 l  2901 -35 l  2914 -35 2923 -36 2928 -37 ct 2937 -38 2944 -41 2950 -45 ct 
2957 -49 2962 -55 2965 -62 ct 2969 -70 2971 -78 2971 -88 ct 2971 -100 2969 -110 2963 -118 ct 
2958 -126 2950 -132 2940 -136 ct 2930 -139 2915 -141 2896 -141 ct 2827 -141 l 
p ef
3059 84 m  3054 50 l  3061 52 3068 53 3074 53 ct 3082 53 3088 51 3093 49 ct 
3097 46 3101 42 3104 37 ct 3106 33 3110 24 3115 9 ct 3116 7 3117 4 3118 0 ct 3036 -220 l 
3076 -220 l  3121 -100 l  3126 -84 3132 -68 3136 -52 ct 3140 -63 3145 -77 3151 -94 ct 
3195 -220 l  3235 -220 l  3157 6 l  3148 29 3141 45 3136 54 ct 3129 66 3122 74 3113 80 ct 
3105 85 3095 88 3083 88 ct 3076 88 3068 87 3059 84 ct p ef
3374 85 m  3348 85 l  3326 60 3308 30 3294 -4 ct 3279 -37 3271 -73 3271 -109 ct 
3271 -141 3277 -172 3288 -201 ct 3301 -235 3321 -269 3348 -303 ct 3374 -303 l 
3357 -275 3345 -255 3340 -243 ct 3331 -224 3324 -205 3319 -185 ct 3313 -159 3310 -134 3310 -109 ct 
3310 -44 3331 21 3374 85 ct p ef
3404 -110 m  3404 -150 3415 -180 3437 -199 ct 3455 -215 3477 -223 3504 -223 ct 
3533 -223 3557 -214 3575 -194 ct 3594 -175 3603 -148 3603 -113 ct 3603 -85 3599 -63 3591 -47 ct 
3583 -32 3571 -19 3555 -10 ct 3539 -1 3522 3 3504 3 ct 3474 3 3450 -7 3431 -26 ct 
3413 -46 3404 -74 3404 -110 ct p
3442 -110 m  3442 -84 3448 -65 3459 -52 ct 3471 -39 3486 -32 3504 -32 ct 3521 -32 3536 -39 3548 -52 ct 
3559 -65 3565 -85 3565 -111 ct 3565 -137 3559 -156 3548 -169 ct 3536 -182 3521 -188 3504 -188 ct 
3486 -188 3471 -182 3459 -169 ct 3448 -156 3442 -136 3442 -110 ct p ef
3671 85 m  3645 85 l  3688 21 3709 -44 3709 -109 ct 3709 -134 3706 -159 3700 -184 ct 
3695 -204 3688 -223 3679 -242 ct 3674 -254 3662 -274 3645 -303 ct 3671 -303 l 
3698 -269 3718 -235 3731 -201 ct 3742 -172 3747 -141 3747 -109 ct 3747 -73 3740 -37 3725 -4 ct 
3710 30 3692 60 3671 85 ct p ef
pom
0.601 0.800 1.000 c 10745 1352 m  10394 1352 10110 1068 10110 717 ct 10110 366 10394 82 10745 82 ct 
11096 82 11380 366 11380 717 ct 11380 1068 11096 1352 10745 1352 ct p ef
0 lw 1 lj 0.003 0.003 0.003 c 10745 1352 m  10394 1352 10110 1068 10110 717 ct 
10110 366 10394 82 10745 82 ct 11096 82 11380 366 11380 717 ct 11380 1068 11096 1352 10745 1352 ct 
pc
pum
10569 938 t
27 22 m  85 31 l  87 46 93 58 103 65 ct 116 75 135 79 158 79 ct 183 79 202 75 216 65 ct 
230 56 239 43 244 26 ct 247 15 248 -7 248 -40 ct 224 -13 194 0 158 0 ct 114 0 79 -16 55 -49 ct 
31 -81 18 -120 18 -166 ct 18 -197 24 -226 35 -252 ct 46 -279 62 -299 82 -314 ct 
103 -328 127 -335 155 -335 ct 193 -335 223 -319 248 -287 ct 248 -331 l  305 -331 l 
305 -46 l  305 5 300 42 289 63 ct 279 84 263 101 240 114 ct 218 126 190 132 157 132 ct 
118 132 86 123 62 105 ct 38 86 26 59 27 22 ct p
76 -170 m  76 -129 84 -99 100 -81 ct 117 -62 137 -53 162 -53 ct 186 -53 206 -62 223 -81 ct 
239 -99 248 -128 248 -168 ct 248 -206 239 -234 222 -253 ct 205 -273 185 -282 161 -282 ct 
137 -282 117 -273 100 -254 ct 84 -235 76 -207 76 -170 ct p ef
pom
1 lw 0 lj 10110 717 m  4755 717 l  ps
4395 717 m  4845 867 l  4845 567 l  4395 717 l  p ef
0.601 0.800 1.000 c 2490 1352 m  585 1352 l  585 82 l  4395 82 l  4395 1352 l 
2490 1352 l  p ef
0 lw 1 lj 0.003 0.003 0.003 c 2490 1352 m  585 1352 l  585 82 l  4395 82 l 
4395 1352 l  2490 1352 l  pc
pum
1290 938 t
22 -101 m  79 -110 l  82 -90 91 -75 104 -64 ct 118 -54 137 -49 161 -49 ct 186 -49 204 -53 216 -62 ct 
228 -71 234 -82 234 -94 ct 234 -105 227 -114 214 -120 ct 204 -125 186 -130 159 -137 ct 
123 -147 96 -156 80 -164 ct 64 -171 52 -182 43 -195 ct 35 -209 31 -223 31 -240 ct 
31 -255 34 -268 41 -281 ct 47 -293 56 -304 67 -312 ct 75 -318 87 -324 101 -328 ct 
116 -333 131 -335 148 -335 ct 173 -335 194 -331 213 -323 ct 232 -316 246 -305 255 -292 ct 
264 -278 270 -260 273 -238 ct 216 -229 l  214 -246 207 -259 197 -268 ct 186 -278 171 -282 152 -282 ct 
129 -282 113 -279 103 -271 ct 93 -264 88 -255 88 -245 ct 88 -239 90 -234 94 -229 ct 
98 -223 105 -219 113 -216 ct 118 -214 133 -210 157 -203 ct 193 -193 219 -184 236 -177 ct 
253 -171 267 -161 276 -148 ct 286 -135 291 -119 291 -100 ct 291 -81 286 -64 275 -47 ct 
264 -31 249 -18 229 -9 ct 209 0 186 4 161 4 ct 118 4 86 -4 64 -22 ct 42 -40 28 -66 22 -101 ct 
p ef
344 -165 m  344 -226 361 -270 394 -299 ct 421 -323 455 -335 495 -335 ct 539 -335 574 -321 602 -291 ct 
630 -262 644 -222 644 -170 ct 644 -128 638 -95 626 -71 ct 613 -47 595 -29 572 -15 ct 
548 -2 522 4 495 4 ct 450 4 414 -10 386 -39 ct 358 -69 344 -111 344 -165 ct p
402 -166 m  402 -126 411 -97 428 -78 ct 446 -58 468 -49 495 -49 ct 521 -49 543 -58 561 -78 ct 
578 -97 587 -127 587 -167 ct 587 -205 578 -234 560 -253 ct 543 -272 521 -282 495 -282 ct 
468 -282 446 -273 428 -253 ct 411 -234 402 -205 402 -166 ct p ef
772 0 m  715 0 l  715 -331 l  764 -331 l  764 -283 l  776 -304 788 -318 799 -325 ct 
810 -332 822 -335 835 -335 ct 853 -335 872 -330 891 -321 ct 872 -269 l  859 -278 846 -282 833 -282 ct 
821 -282 811 -279 801 -271 ct 792 -264 785 -253 781 -240 ct 775 -220 772 -198 772 -174 ct 
772 0 l  p ef
1045 -50 m  1054 -1 l  1038 3 1024 4 1012 4 ct 992 4 976 1 965 -5 ct 954 -11 946 -19 942 -29 ct 
937 -40 935 -61 935 -94 ct 935 -278 l  895 -278 l  895 -331 l  935 -331 l 
935 -412 l  992 -446 l  992 -331 l  1045 -331 l  1045 -278 l  992 -278 l 
992 -92 l  992 -77 993 -67 995 -63 ct 997 -58 1000 -55 1004 -52 ct 1008 -50 1014 -49 1022 -49 ct 
1028 -49 1036 -49 1045 -50 ct p ef
1174 0 m  1112 0 l  1112 -454 l  1280 -454 l  1309 -454 1332 -453 1347 -450 ct 
1369 -446 1388 -439 1402 -429 ct 1417 -418 1429 -404 1438 -385 ct 1447 -366 1451 -346 1451 -323 ct 
1451 -285 1440 -252 1416 -225 ct 1392 -199 1349 -185 1287 -185 ct 1174 -185 l 
1174 0 l  p
1174 -401 m  1174 -238 l  1287 -238 l  1324 -238 1351 -245 1366 -260 ct 1382 -274 1390 -295 1390 -321 ct 
1390 -340 1385 -357 1376 -370 ct 1367 -384 1354 -393 1339 -397 ct 1330 -400 1312 -401 1285 -401 ct 
1174 -401 l  p ef
1583 0 m  1526 0 l  1526 -331 l  1575 -331 l  1575 -283 l  1587 -304 1599 -318 1610 -325 ct 
1621 -332 1633 -335 1646 -335 ct 1664 -335 1683 -330 1702 -321 ct 1683 -269 l 
1670 -278 1657 -282 1644 -282 ct 1632 -282 1622 -279 1612 -271 ct 1603 -264 1596 -253 1592 -240 ct 
1586 -220 1583 -198 1583 -174 ct 1583 0 l  p ef
1720 -165 m  1720 -226 1737 -270 1770 -299 ct 1797 -323 1831 -335 1871 -335 ct 
1915 -335 1950 -321 1978 -291 ct 2006 -262 2020 -222 2020 -170 ct 2020 -128 2014 -95 2002 -71 ct 
1989 -47 1971 -29 1948 -15 ct 1924 -2 1898 4 1871 4 ct 1826 4 1790 -10 1762 -39 ct 
1734 -69 1720 -111 1720 -165 ct p
1778 -166 m  1778 -126 1787 -97 1804 -78 ct 1822 -58 1844 -49 1871 -49 ct 1897 -49 1919 -58 1937 -78 ct 
1954 -97 1963 -127 1963 -167 ct 1963 -205 1954 -234 1936 -253 ct 1919 -272 1897 -282 1871 -282 ct 
1844 -282 1822 -273 1804 -253 ct 1787 -234 1778 -205 1778 -166 ct p ef
2074 22 m  2132 31 l  2134 46 2140 58 2150 65 ct 2163 75 2182 79 2205 79 ct 
2230 79 2249 75 2263 65 ct 2277 56 2286 43 2291 26 ct 2294 15 2295 -7 2295 -40 ct 
2271 -13 2241 0 2205 0 ct 2161 0 2126 -16 2102 -49 ct 2078 -81 2065 -120 2065 -166 ct 
2065 -197 2071 -226 2082 -252 ct 2093 -279 2109 -299 2129 -314 ct 2150 -328 2174 -335 2202 -335 ct 
2240 -335 2270 -319 2295 -287 ct 2295 -331 l  2352 -331 l  2352 -46 l  2352 5 2347 42 2336 63 ct 
2326 84 2310 101 2287 114 ct 2265 126 2237 132 2204 132 ct 2165 132 2133 123 2109 105 ct 
2085 86 2073 59 2074 22 ct p
2123 -170 m  2123 -129 2131 -99 2147 -81 ct 2164 -62 2184 -53 2209 -53 ct 2233 -53 2253 -62 2270 -81 ct 
2286 -99 2295 -128 2295 -168 ct 2295 -206 2286 -234 2269 -253 ct 2252 -273 2232 -282 2208 -282 ct 
2184 -282 2164 -273 2147 -254 ct 2131 -235 2123 -207 2123 -170 ct p ef
pom
gr
gs
0 0 m 11937 0 l 11937 1447 l 0 1447 l 0 0 l eoclip newpath
gr
gr
0 1448 t 
pom
count op_count sub {pop} repeat countdictstack dict_count sub {end} repeat b4_inc_state restore
%%PageTrailer
%%Trailer
%%EOF
