%!PS-Adobe-3.0 EPSF-3.0 
%%BoundingBox: 0 0 338 41
%%Pages: 0
%%Creator: Sun Microsystems, Inc.
%%Title: none
%%CreationDate: none
%%LanguageLevel: 2
%%EndComments
%%BeginProlog
%%BeginResource: procset SDRes-Prolog 1.0 0
/b4_inc_state save def
/dict_count countdictstack def
/op_count count 1 sub def
userdict begin
0 setgray 0 setlinecap 1 setlinewidth 0 setlinejoin 10 setmiterlimit[] 0 setdash newpath
/languagelevel where {pop languagelevel 1 ne {false setstrokeadjust false setoverprint} if} if
/bdef {bind def} bind def
/c {setrgbcolor} bdef
/l {neg lineto} bdef
/rl {neg rlineto} bdef
/lc {setlinecap} bdef
/lj {setlinejoin} bdef
/lw {setlinewidth} bdef
/ml {setmiterlimit} bdef
/ld {setdash} bdef
/m {neg moveto} bdef
/ct {6 2 roll neg 6 2 roll neg 6 2 roll neg curveto} bdef
/r {rotate} bdef
/t {neg translate} bdef
/s {scale} bdef
/sw {show} bdef
/gs {gsave} bdef
/gr {grestore} bdef
/f {findfont dup length dict begin
{1 index /FID ne {def} {pop pop} ifelse} forall /Encoding ISOLatin1Encoding def
currentdict end /NFont exch definefont pop /NFont findfont} bdef
/p {closepath} bdef
/sf {scalefont setfont} bdef
/ef {eofill}bdef
/pc {closepath stroke}bdef
/ps {stroke}bdef
/pum {matrix currentmatrix}bdef
/pom {setmatrix}bdef
/bs {/aString exch def /nXOfs exch def /nWidth exch def currentpoint nXOfs 0 rmoveto pum nWidth aString stringwidth pop div 1 scale aString show pom moveto} bdef
%%EndResource
%%EndProlog
%%BeginSetup
%%EndSetup
%%Page: 1 1
%%BeginPageSetup
%%EndPageSetup
pum
0.02831 0.02831 s 
0 -1448 t
/tm matrix currentmatrix def
gs
0 0 m 11937 0 l 11937 1447 l 0 1447 l 0 0 l eoclip newpath
gs
0 0 m 11937 0 l 11937 1447 l 0 1447 l 0 0 l eoclip newpath
0.601 0.800 1.000 c 9525 1356 m  7620 1356 l  7620 86 l  11430 86 l  11430 1356 l 
9525 1356 l  p ef
0 lw 1 lj 0.003 0.003 0.003 c 9525 1356 m  7620 1356 l  7620 86 l  11430 86 l 
11430 1356 l  9525 1356 l  pc
pum
7721 942 t
362 -51 m  348 -36 333 -23 317 -14 ct 300 -5 283 0 267 0 ct 248 0 230 -5 213 -16 ct 
196 -27 181 -43 171 -65 ct 160 -88 154 -112 154 -138 ct 154 -171 163 -204 179 -237 ct 
196 -269 217 -294 242 -310 ct 266 -327 290 -335 314 -335 ct 332 -335 349 -330 365 -321 ct 
381 -312 395 -298 407 -278 ct 419 -326 l  476 -326 l  429 -121 l  422 -92 419 -76 419 -73 ct 
419 -68 421 -63 425 -59 ct 430 -55 435 -53 441 -53 ct 453 -53 467 -59 486 -71 ct 
510 -87 529 -108 543 -135 ct 557 -162 564 -189 564 -218 ct 564 -251 556 -282 538 -311 ct 
520 -339 493 -363 458 -380 ct 422 -397 383 -406 341 -406 ct 292 -406 247 -395 207 -373 ct 
166 -352 135 -321 113 -281 ct 90 -241 79 -197 79 -152 ct 79 -103 90 -62 112 -27 ct 
134 8 166 33 208 50 ct 249 67 296 75 346 75 ct 400 75 446 66 482 49 ct 519 32 546 11 564 -13 ct 
622 -13 l  611 9 593 32 568 56 ct 542 79 512 98 476 112 ct 441 125 398 132 349 132 ct 
303 132 261 126 222 115 ct 183 103 150 85 123 62 ct 96 38 75 11 61 -20 ct 44 -59 35 -101 35 -146 ct 
35 -197 46 -244 66 -290 ct 92 -346 128 -389 174 -418 ct 221 -448 277 -463 343 -463 ct 
395 -463 441 -453 482 -432 ct 522 -411 555 -380 578 -338 ct 599 -302 609 -264 609 -222 ct 
609 -162 587 -109 545 -62 ct 507 -21 466 0 422 0 ct 407 0 396 -2 387 -6 ct 378 -11 372 -17 368 -25 ct 
365 -30 363 -39 362 -51 ct p
212 -138 m  212 -113 218 -93 231 -79 ct 245 -64 260 -57 277 -57 ct 288 -57 300 -60 313 -67 ct 
325 -73 337 -82 349 -94 ct 360 -107 370 -122 377 -141 ct 384 -160 388 -179 388 -198 ct 
388 -223 381 -243 367 -257 ct 354 -271 337 -278 317 -278 ct 304 -278 292 -275 281 -269 ct 
269 -263 258 -253 247 -240 ct 237 -226 228 -210 221 -191 ct 215 -172 212 -154 212 -138 ct 
p ef
758 0 m  700 0 l  700 -278 l  652 -278 l  652 -331 l  700 -331 l  700 -366 l 
700 -388 702 -404 706 -415 ct 712 -429 722 -441 736 -450 ct 750 -459 769 -463 793 -463 ct 
809 -463 826 -461 845 -457 ct 837 -407 l  825 -409 814 -410 804 -410 ct 787 -410 775 -407 768 -400 ct 
761 -393 758 -379 758 -360 ct 758 -331 l  819 -331 l  819 -278 l  758 -278 l 
758 0 l  p ef
922 -397 m  865 -397 l  865 -454 l  922 -454 l  922 -397 l  p
922 0 m  865 0 l  865 -331 l  922 -331 l  922 0 l  p ef
1063 0 m  1006 0 l  1006 -454 l  1063 -454 l  1063 0 l  p ef
1372 -106 m  1428 -97 l  1419 -65 1402 -40 1378 -22 ct 1353 -4 1322 4 1283 4 ct 
1235 4 1197 -10 1168 -39 ct 1140 -69 1126 -110 1126 -163 ct 1126 -217 1140 -260 1169 -290 ct 
1198 -320 1235 -335 1280 -335 ct 1324 -335 1360 -320 1388 -290 ct 1416 -261 1430 -219 1430 -165 ct 
1430 -161 1430 -156 1430 -150 ct 1183 -150 l  1185 -117 1196 -92 1215 -75 ct 
1233 -57 1256 -49 1284 -49 ct 1305 -49 1323 -53 1337 -62 ct 1352 -71 1364 -86 1372 -106 ct 
p
1183 -203 m  1373 -203 l  1370 -226 1363 -244 1351 -255 ct 1333 -273 1309 -282 1280 -282 ct 
1254 -282 1231 -275 1213 -261 ct 1195 -246 1185 -227 1183 -203 ct p ef
1558 0 m  1501 0 l  1501 -331 l  1558 -331 l  1558 -284 l  1581 -318 1615 -335 1658 -335 ct 
1677 -335 1695 -332 1711 -324 ct 1726 -317 1738 -308 1746 -297 ct 1754 -285 1760 -271 1763 -255 ct 
1765 -245 1766 -227 1766 -202 ct 1766 0 l  1708 0 l  1708 -196 l  1708 -218 1706 -235 1702 -246 ct 
1698 -257 1690 -266 1680 -272 ct 1669 -279 1657 -282 1642 -282 ct 1620 -282 1600 -275 1583 -260 ct 
1567 -245 1558 -217 1558 -176 ct 1558 0 l  p ef
2061 -40 m  2041 -24 2022 -12 2004 -6 ct 1985 1 1966 4 1945 4 ct 1910 4 1883 -4 1864 -22 ct 
1846 -39 1836 -61 1836 -88 ct 1836 -104 1840 -118 1847 -131 ct 1854 -144 1863 -154 1875 -162 ct 
1886 -170 1899 -176 1913 -180 ct 1924 -183 1940 -186 1961 -188 ct 2004 -194 2036 -200 2057 -207 ct 
2057 -214 2057 -219 2057 -221 ct 2057 -242 2052 -256 2042 -265 ct 2029 -276 2009 -282 1983 -282 ct 
1958 -282 1940 -278 1929 -270 ct 1917 -261 1908 -246 1903 -225 ct 1845 -234 l 
1850 -257 1858 -276 1870 -290 ct 1881 -305 1897 -316 1918 -323 ct 1940 -331 1964 -335 1992 -335 ct 
2020 -335 2043 -332 2060 -325 ct 2078 -318 2091 -310 2099 -300 ct 2107 -289 2113 -276 2116 -261 ct 
2118 -251 2119 -235 2119 -212 ct 2119 -143 l  2119 -94 2120 -62 2122 -46 ct 
2125 -30 2129 -15 2136 0 ct 2079 0 l  2070 -11 2064 -25 2061 -40 ct p
2057 -138 m  2057 -154 l  2037 -148 2008 -142 1969 -137 ct 1947 -134 1932 -131 1922 -128 ct 
1913 -124 1906 -120 1901 -113 ct 1896 -106 1894 -99 1894 -91 ct 1894 -79 1899 -69 1910 -61 ct 
1921 -53 1937 -49 1958 -49 ct 1978 -49 1996 -53 2013 -61 ct 2029 -70 2040 -81 2048 -94 ct 
2054 -104 2057 -119 2057 -138 ct p ef
2262 0 m  2205 0 l  2205 -331 l  2262 -331 l  2262 -277 l  2272 -295 2285 -309 2302 -319 ct 
2318 -330 2337 -335 2358 -335 ct 2381 -335 2401 -330 2416 -319 ct 2431 -308 2441 -293 2447 -273 ct 
2473 -314 2507 -335 2549 -335 ct 2581 -335 2606 -326 2624 -308 ct 2642 -290 2650 -262 2650 -225 ct 
2650 0 l  2593 0 l  2593 -203 l  2593 -225 2591 -241 2588 -250 ct 2584 -260 2578 -268 2568 -273 ct 
2559 -279 2548 -282 2535 -282 ct 2513 -282 2494 -275 2479 -260 ct 2464 -245 2456 -220 2456 -187 ct 
2456 0 l  2399 0 l  2399 -209 l  2399 -234 2394 -252 2386 -264 ct 2377 -276 2362 -282 2342 -282 ct 
2327 -282 2312 -278 2299 -270 ct 2286 -262 2277 -250 2271 -235 ct 2265 -219 2262 -197 2262 -167 ct 
2262 0 l  p ef
2961 -106 m  3017 -97 l  3008 -65 2991 -40 2967 -22 ct 2942 -4 2911 4 2872 4 ct 
2824 4 2786 -10 2757 -39 ct 2729 -69 2715 -110 2715 -163 ct 2715 -217 2729 -260 2758 -290 ct 
2787 -320 2824 -335 2869 -335 ct 2913 -335 2949 -320 2977 -290 ct 3005 -261 3019 -219 3019 -165 ct 
3019 -161 3019 -156 3019 -150 ct 2772 -150 l  2774 -117 2785 -92 2804 -75 ct 
2822 -57 2845 -49 2873 -49 ct 2894 -49 2912 -53 2926 -62 ct 2941 -71 2953 -86 2961 -106 ct 
p
2772 -203 m  2962 -203 l  2959 -226 2952 -244 2940 -255 ct 2922 -273 2898 -282 2869 -282 ct 
2843 -282 2820 -275 2802 -261 ct 2784 -246 2774 -227 2772 -203 ct p ef
3240 128 m  3200 128 l  3168 90 3141 46 3119 -5 ct 3097 -56 3086 -109 3086 -163 ct 
3086 -212 3094 -258 3111 -302 ct 3130 -353 3160 -404 3200 -454 ct 3240 -454 l 
3214 -412 3197 -382 3188 -364 ct 3175 -336 3165 -307 3157 -277 ct 3148 -239 3143 -201 3143 -163 ct 
3143 -66 3175 31 3240 128 ct p ef
3358 -397 m  3301 -397 l  3301 -454 l  3358 -454 l  3358 -397 l  p
3358 0 m  3301 0 l  3301 -331 l  3358 -331 l  3358 0 l  p ef
3474 128 m  3434 128 l  3499 31 3531 -66 3531 -163 ct 3531 -201 3527 -239 3517 -276 ct 
3510 -306 3500 -335 3487 -363 ct 3478 -382 3461 -412 3434 -454 ct 3474 -454 l 
3514 -404 3544 -353 3564 -302 ct 3580 -258 3589 -212 3589 -163 ct 3589 -109 3577 -56 3555 -5 ct 
3533 46 3506 90 3474 128 ct p ef
pom
1 lw 0 lj 7620 721 m  2265 721 l  ps
1905 721 m  2355 871 l  2355 571 l  1905 721 l  p ef
0.601 0.800 1.000 c 1270 1356 m  919 1356 635 1072 635 721 ct 635 370 919 86 1270 86 ct 
1621 86 1905 370 1905 721 ct 1905 1072 1621 1356 1270 1356 ct p ef
0 lw 1 lj 0.003 0.003 0.003 c 1270 1356 m  919 1356 635 1072 635 721 ct 635 370 919 86 1270 86 ct 
1621 86 1905 370 1905 721 ct 1905 1072 1621 1356 1270 1356 ct pc
pum
1181 942 t
113 0 m  55 0 l  55 -278 l  7 -278 l  7 -331 l  55 -331 l  55 -366 l  55 -388 57 -404 61 -415 ct 
67 -429 77 -441 91 -450 ct 105 -459 124 -463 148 -463 ct 164 -463 181 -461 200 -457 ct 
192 -407 l  180 -409 169 -410 159 -410 ct 142 -410 130 -407 123 -400 ct 116 -393 113 -379 113 -360 ct 
113 -331 l  174 -331 l  174 -278 l  113 -278 l  113 0 l  p ef
pom

pum
4060 506 t
206 0 m  167 0 l  167 -37 l  151 -10 129 3 101 3 ct 89 3 77 0 66 -4 ct 56 -9 48 -16 42 -23 ct 
37 -31 34 -40 32 -50 ct 30 -58 29 -69 29 -85 ct 29 -220 l  68 -220 l  68 -101 l 
68 -82 68 -70 70 -63 ct 72 -53 77 -46 84 -40 ct 91 -35 100 -32 111 -32 ct 122 -32 132 -35 141 -41 ct 
151 -46 158 -54 162 -64 ct 165 -73 167 -87 167 -105 ct 167 -220 l  206 -220 l 
206 0 l  p ef
250 -68 m  288 -73 l  290 -60 295 -50 304 -43 ct 313 -36 326 -32 342 -32 ct 
359 -32 371 -35 379 -41 ct 387 -47 391 -55 391 -63 ct 391 -70 386 -76 377 -80 ct 
371 -83 359 -87 341 -91 ct 317 -98 299 -104 288 -109 ct 278 -114 269 -121 264 -130 ct 
258 -139 256 -149 256 -160 ct 256 -170 258 -179 262 -187 ct 266 -195 272 -202 280 -208 ct 
285 -212 293 -216 302 -219 ct 312 -222 322 -223 333 -223 ct 350 -223 365 -221 377 -215 ct 
390 -210 399 -203 405 -194 ct 411 -185 415 -174 417 -159 ct 379 -153 l  377 -164 373 -172 366 -179 ct 
359 -185 349 -188 336 -188 ct 321 -188 310 -186 304 -181 ct 297 -176 294 -170 294 -164 ct 
294 -159 295 -156 298 -152 ct 301 -149 305 -146 311 -144 ct 314 -143 324 -140 340 -135 ct 
363 -128 381 -123 392 -118 ct 404 -114 413 -107 419 -99 ct 426 -90 429 -79 429 -67 ct 
429 -54 425 -43 418 -32 ct 411 -21 401 -12 387 -6 ct 374 0 359 3 342 3 ct 314 3 293 -3 278 -15 ct 
263 -27 254 -44 250 -68 ct p ef
628 -71 m  665 -65 l  659 -43 648 -27 631 -15 ct 615 -3 594 3 568 3 ct 536 3 511 -7 492 -26 ct 
473 -46 464 -73 464 -108 ct 464 -145 473 -173 492 -193 ct 511 -213 536 -223 566 -223 ct 
596 -223 620 -213 638 -193 ct 657 -174 666 -146 666 -110 ct 666 -108 666 -104 666 -100 ct 
502 -100 l  503 -78 510 -61 523 -50 ct 535 -38 551 -32 569 -32 ct 583 -32 595 -35 605 -41 ct 
614 -47 622 -57 628 -71 ct p
502 -135 m  628 -135 l  626 -151 622 -162 614 -170 ct 601 -182 586 -188 566 -188 ct 
549 -188 534 -183 522 -174 ct 510 -164 503 -151 502 -135 ct p ef
890 0 m  851 0 l  851 -35 l  838 -10 818 3 791 3 ct 774 3 758 -2 744 -11 ct 
730 -21 718 -34 711 -51 ct 703 -68 699 -88 699 -110 ct 699 -132 702 -151 710 -169 ct 
717 -186 728 -200 742 -209 ct 757 -219 773 -223 791 -223 ct 804 -223 816 -220 826 -214 ct 
837 -207 845 -199 851 -189 ct 851 -303 l  890 -303 l  890 0 l  p
737 -110 m  737 -84 743 -65 754 -52 ct 766 -39 779 -32 795 -32 ct 811 -32 824 -38 835 -51 ct 
846 -63 851 -82 851 -107 ct 851 -135 846 -155 835 -168 ct 823 -181 810 -188 793 -188 ct 
777 -188 764 -182 753 -169 ct 742 -157 737 -137 737 -110 ct p ef
1048 85 m  1022 85 l  1000 60 982 30 968 -4 ct 953 -37 945 -73 945 -109 ct 945 -141 951 -172 962 -201 ct 
975 -235 995 -269 1022 -303 ct 1048 -303 l  1031 -275 1019 -255 1014 -243 ct 
1005 -224 998 -205 993 -185 ct 987 -159 984 -134 984 -109 ct 984 -44 1005 21 1048 85 ct 
p ef
1128 -264 m  1089 -264 l  1089 -303 l  1128 -303 l  1128 -264 l  p
1128 0 m  1089 0 l  1089 -220 l  1128 -220 l  1128 0 l  p ef
1201 85 m  1175 85 l  1218 21 1239 -44 1239 -109 ct 1239 -134 1236 -159 1230 -184 ct 
1225 -204 1218 -223 1209 -242 ct 1204 -254 1192 -274 1175 -303 ct 1201 -303 l 
1228 -269 1248 -235 1261 -201 ct 1272 -172 1277 -141 1277 -109 ct 1277 -73 1270 -37 1255 -4 ct 
1240 30 1222 60 1201 85 ct p ef
pom
0.601 0.800 1.000 c 9525 1356 m  7620 1356 l  7620 86 l  11430 86 l  11430 1356 l 
9525 1356 l  p ef
0.003 0.003 0.003 c 9525 1356 m  7620 1356 l  7620 86 l  11430 86 l  11430 1356 l 
9525 1356 l  pc
pum
7721 942 t
362 -51 m  348 -36 333 -23 317 -14 ct 300 -5 283 0 267 0 ct 248 0 230 -5 213 -16 ct 
196 -27 181 -43 171 -65 ct 160 -88 154 -112 154 -138 ct 154 -171 163 -204 179 -237 ct 
196 -269 217 -294 242 -310 ct 266 -327 290 -335 314 -335 ct 332 -335 349 -330 365 -321 ct 
381 -312 395 -298 407 -278 ct 419 -326 l  476 -326 l  429 -121 l  422 -92 419 -76 419 -73 ct 
419 -68 421 -63 425 -59 ct 430 -55 435 -53 441 -53 ct 453 -53 467 -59 486 -71 ct 
510 -87 529 -108 543 -135 ct 557 -162 564 -189 564 -218 ct 564 -251 556 -282 538 -311 ct 
520 -339 493 -363 458 -380 ct 422 -397 383 -406 341 -406 ct 292 -406 247 -395 207 -373 ct 
166 -352 135 -321 113 -281 ct 90 -241 79 -197 79 -152 ct 79 -103 90 -62 112 -27 ct 
134 8 166 33 208 50 ct 249 67 296 75 346 75 ct 400 75 446 66 482 49 ct 519 32 546 11 564 -13 ct 
622 -13 l  611 9 593 32 568 56 ct 542 79 512 98 476 112 ct 441 125 398 132 349 132 ct 
303 132 261 126 222 115 ct 183 103 150 85 123 62 ct 96 38 75 11 61 -20 ct 44 -59 35 -101 35 -146 ct 
35 -197 46 -244 66 -290 ct 92 -346 128 -389 174 -418 ct 221 -448 277 -463 343 -463 ct 
395 -463 441 -453 482 -432 ct 522 -411 555 -380 578 -338 ct 599 -302 609 -264 609 -222 ct 
609 -162 587 -109 545 -62 ct 507 -21 466 0 422 0 ct 407 0 396 -2 387 -6 ct 378 -11 372 -17 368 -25 ct 
365 -30 363 -39 362 -51 ct p
212 -138 m  212 -113 218 -93 231 -79 ct 245 -64 260 -57 277 -57 ct 288 -57 300 -60 313 -67 ct 
325 -73 337 -82 349 -94 ct 360 -107 370 -122 377 -141 ct 384 -160 388 -179 388 -198 ct 
388 -223 381 -243 367 -257 ct 354 -271 337 -278 317 -278 ct 304 -278 292 -275 281 -269 ct 
269 -263 258 -253 247 -240 ct 237 -226 228 -210 221 -191 ct 215 -172 212 -154 212 -138 ct 
p ef
758 0 m  700 0 l  700 -278 l  652 -278 l  652 -331 l  700 -331 l  700 -366 l 
700 -388 702 -404 706 -415 ct 712 -429 722 -441 736 -450 ct 750 -459 769 -463 793 -463 ct 
809 -463 826 -461 845 -457 ct 837 -407 l  825 -409 814 -410 804 -410 ct 787 -410 775 -407 768 -400 ct 
761 -393 758 -379 758 -360 ct 758 -331 l  819 -331 l  819 -278 l  758 -278 l 
758 0 l  p ef
922 -397 m  865 -397 l  865 -454 l  922 -454 l  922 -397 l  p
922 0 m  865 0 l  865 -331 l  922 -331 l  922 0 l  p ef
1063 0 m  1006 0 l  1006 -454 l  1063 -454 l  1063 0 l  p ef
1372 -106 m  1428 -97 l  1419 -65 1402 -40 1378 -22 ct 1353 -4 1322 4 1283 4 ct 
1235 4 1197 -10 1168 -39 ct 1140 -69 1126 -110 1126 -163 ct 1126 -217 1140 -260 1169 -290 ct 
1198 -320 1235 -335 1280 -335 ct 1324 -335 1360 -320 1388 -290 ct 1416 -261 1430 -219 1430 -165 ct 
1430 -161 1430 -156 1430 -150 ct 1183 -150 l  1185 -117 1196 -92 1215 -75 ct 
1233 -57 1256 -49 1284 -49 ct 1305 -49 1323 -53 1337 -62 ct 1352 -71 1364 -86 1372 -106 ct 
p
1183 -203 m  1373 -203 l  1370 -226 1363 -244 1351 -255 ct 1333 -273 1309 -282 1280 -282 ct 
1254 -282 1231 -275 1213 -261 ct 1195 -246 1185 -227 1183 -203 ct p ef
1558 0 m  1501 0 l  1501 -331 l  1558 -331 l  1558 -284 l  1581 -318 1615 -335 1658 -335 ct 
1677 -335 1695 -332 1711 -324 ct 1726 -317 1738 -308 1746 -297 ct 1754 -285 1760 -271 1763 -255 ct 
1765 -245 1766 -227 1766 -202 ct 1766 0 l  1708 0 l  1708 -196 l  1708 -218 1706 -235 1702 -246 ct 
1698 -257 1690 -266 1680 -272 ct 1669 -279 1657 -282 1642 -282 ct 1620 -282 1600 -275 1583 -260 ct 
1567 -245 1558 -217 1558 -176 ct 1558 0 l  p ef
2061 -40 m  2041 -24 2022 -12 2004 -6 ct 1985 1 1966 4 1945 4 ct 1910 4 1883 -4 1864 -22 ct 
1846 -39 1836 -61 1836 -88 ct 1836 -104 1840 -118 1847 -131 ct 1854 -144 1863 -154 1875 -162 ct 
1886 -170 1899 -176 1913 -180 ct 1924 -183 1940 -186 1961 -188 ct 2004 -194 2036 -200 2057 -207 ct 
2057 -214 2057 -219 2057 -221 ct 2057 -242 2052 -256 2042 -265 ct 2029 -276 2009 -282 1983 -282 ct 
1958 -282 1940 -278 1929 -270 ct 1917 -261 1908 -246 1903 -225 ct 1845 -234 l 
1850 -257 1858 -276 1870 -290 ct 1881 -305 1897 -316 1918 -323 ct 1940 -331 1964 -335 1992 -335 ct 
2020 -335 2043 -332 2060 -325 ct 2078 -318 2091 -310 2099 -300 ct 2107 -289 2113 -276 2116 -261 ct 
2118 -251 2119 -235 2119 -212 ct 2119 -143 l  2119 -94 2120 -62 2122 -46 ct 
2125 -30 2129 -15 2136 0 ct 2079 0 l  2070 -11 2064 -25 2061 -40 ct p
2057 -138 m  2057 -154 l  2037 -148 2008 -142 1969 -137 ct 1947 -134 1932 -131 1922 -128 ct 
1913 -124 1906 -120 1901 -113 ct 1896 -106 1894 -99 1894 -91 ct 1894 -79 1899 -69 1910 -61 ct 
1921 -53 1937 -49 1958 -49 ct 1978 -49 1996 -53 2013 -61 ct 2029 -70 2040 -81 2048 -94 ct 
2054 -104 2057 -119 2057 -138 ct p ef
2262 0 m  2205 0 l  2205 -331 l  2262 -331 l  2262 -277 l  2272 -295 2285 -309 2302 -319 ct 
2318 -330 2337 -335 2358 -335 ct 2381 -335 2401 -330 2416 -319 ct 2431 -308 2441 -293 2447 -273 ct 
2473 -314 2507 -335 2549 -335 ct 2581 -335 2606 -326 2624 -308 ct 2642 -290 2650 -262 2650 -225 ct 
2650 0 l  2593 0 l  2593 -203 l  2593 -225 2591 -241 2588 -250 ct 2584 -260 2578 -268 2568 -273 ct 
2559 -279 2548 -282 2535 -282 ct 2513 -282 2494 -275 2479 -260 ct 2464 -245 2456 -220 2456 -187 ct 
2456 0 l  2399 0 l  2399 -209 l  2399 -234 2394 -252 2386 -264 ct 2377 -276 2362 -282 2342 -282 ct 
2327 -282 2312 -278 2299 -270 ct 2286 -262 2277 -250 2271 -235 ct 2265 -219 2262 -197 2262 -167 ct 
2262 0 l  p ef
2961 -106 m  3017 -97 l  3008 -65 2991 -40 2967 -22 ct 2942 -4 2911 4 2872 4 ct 
2824 4 2786 -10 2757 -39 ct 2729 -69 2715 -110 2715 -163 ct 2715 -217 2729 -260 2758 -290 ct 
2787 -320 2824 -335 2869 -335 ct 2913 -335 2949 -320 2977 -290 ct 3005 -261 3019 -219 3019 -165 ct 
3019 -161 3019 -156 3019 -150 ct 2772 -150 l  2774 -117 2785 -92 2804 -75 ct 
2822 -57 2845 -49 2873 -49 ct 2894 -49 2912 -53 2926 -62 ct 2941 -71 2953 -86 2961 -106 ct 
p
2772 -203 m  2962 -203 l  2959 -226 2952 -244 2940 -255 ct 2922 -273 2898 -282 2869 -282 ct 
2843 -282 2820 -275 2802 -261 ct 2784 -246 2774 -227 2772 -203 ct p ef
3240 128 m  3200 128 l  3168 90 3141 46 3119 -5 ct 3097 -56 3086 -109 3086 -163 ct 
3086 -212 3094 -258 3111 -302 ct 3130 -353 3160 -404 3200 -454 ct 3240 -454 l 
3214 -412 3197 -382 3188 -364 ct 3175 -336 3165 -307 3157 -277 ct 3148 -239 3143 -201 3143 -163 ct 
3143 -66 3175 31 3240 128 ct p ef
3358 -397 m  3301 -397 l  3301 -454 l  3358 -454 l  3358 -397 l  p
3358 0 m  3301 0 l  3301 -331 l  3358 -331 l  3358 0 l  p ef
3474 128 m  3434 128 l  3499 31 3531 -66 3531 -163 ct 3531 -201 3527 -239 3517 -276 ct 
3510 -306 3500 -335 3487 -363 ct 3478 -382 3461 -412 3434 -454 ct 3474 -454 l 
3514 -404 3544 -353 3564 -302 ct 3580 -258 3589 -212 3589 -163 ct 3589 -109 3577 -56 3555 -5 ct 
3533 46 3506 90 3474 128 ct p ef
pom
1 lw 0 lj 7620 721 m  2265 721 l  ps
1905 721 m  2355 871 l  2355 571 l  1905 721 l  p ef
0.601 0.800 1.000 c 1270 1356 m  919 1356 635 1072 635 721 ct 635 370 919 86 1270 86 ct 
1621 86 1905 370 1905 721 ct 1905 1072 1621 1356 1270 1356 ct p ef
0 lw 1 lj 0.003 0.003 0.003 c 1270 1356 m  919 1356 635 1072 635 721 ct 635 370 919 86 1270 86 ct 
1621 86 1905 370 1905 721 ct 1905 1072 1621 1356 1270 1356 ct pc
pum
1181 942 t
113 0 m  55 0 l  55 -278 l  7 -278 l  7 -331 l  55 -331 l  55 -366 l  55 -388 57 -404 61 -415 ct 
67 -429 77 -441 91 -450 ct 105 -459 124 -463 148 -463 ct 164 -463 181 -461 200 -457 ct 
192 -407 l  180 -409 169 -410 159 -410 ct 142 -410 130 -407 123 -400 ct 116 -393 113 -379 113 -360 ct 
113 -331 l  174 -331 l  174 -278 l  113 -278 l  113 0 l  p ef
pom

pum
4060 506 t
206 0 m  167 0 l  167 -37 l  151 -10 129 3 101 3 ct 89 3 77 0 66 -4 ct 56 -9 48 -16 42 -23 ct 
37 -31 34 -40 32 -50 ct 30 -58 29 -69 29 -85 ct 29 -220 l  68 -220 l  68 -101 l 
68 -82 68 -70 70 -63 ct 72 -53 77 -46 84 -40 ct 91 -35 100 -32 111 -32 ct 122 -32 132 -35 141 -41 ct 
151 -46 158 -54 162 -64 ct 165 -73 167 -87 167 -105 ct 167 -220 l  206 -220 l 
206 0 l  p ef
250 -68 m  288 -73 l  290 -60 295 -50 304 -43 ct 313 -36 326 -32 342 -32 ct 
359 -32 371 -35 379 -41 ct 387 -47 391 -55 391 -63 ct 391 -70 386 -76 377 -80 ct 
371 -83 359 -87 341 -91 ct 317 -98 299 -104 288 -109 ct 278 -114 269 -121 264 -130 ct 
258 -139 256 -149 256 -160 ct 256 -170 258 -179 262 -187 ct 266 -195 272 -202 280 -208 ct 
285 -212 293 -216 302 -219 ct 312 -222 322 -223 333 -223 ct 350 -223 365 -221 377 -215 ct 
390 -210 399 -203 405 -194 ct 411 -185 415 -174 417 -159 ct 379 -153 l  377 -164 373 -172 366 -179 ct 
359 -185 349 -188 336 -188 ct 321 -188 310 -186 304 -181 ct 297 -176 294 -170 294 -164 ct 
294 -159 295 -156 298 -152 ct 301 -149 305 -146 311 -144 ct 314 -143 324 -140 340 -135 ct 
363 -128 381 -123 392 -118 ct 404 -114 413 -107 419 -99 ct 426 -90 429 -79 429 -67 ct 
429 -54 425 -43 418 -32 ct 411 -21 401 -12 387 -6 ct 374 0 359 3 342 3 ct 314 3 293 -3 278 -15 ct 
263 -27 254 -44 250 -68 ct p ef
628 -71 m  665 -65 l  659 -43 648 -27 631 -15 ct 615 -3 594 3 568 3 ct 536 3 511 -7 492 -26 ct 
473 -46 464 -73 464 -108 ct 464 -145 473 -173 492 -193 ct 511 -213 536 -223 566 -223 ct 
596 -223 620 -213 638 -193 ct 657 -174 666 -146 666 -110 ct 666 -108 666 -104 666 -100 ct 
502 -100 l  503 -78 510 -61 523 -50 ct 535 -38 551 -32 569 -32 ct 583 -32 595 -35 605 -41 ct 
614 -47 622 -57 628 -71 ct p
502 -135 m  628 -135 l  626 -151 622 -162 614 -170 ct 601 -182 586 -188 566 -188 ct 
549 -188 534 -183 522 -174 ct 510 -164 503 -151 502 -135 ct p ef
890 0 m  851 0 l  851 -35 l  838 -10 818 3 791 3 ct 774 3 758 -2 744 -11 ct 
730 -21 718 -34 711 -51 ct 703 -68 699 -88 699 -110 ct 699 -132 702 -151 710 -169 ct 
717 -186 728 -200 742 -209 ct 757 -219 773 -223 791 -223 ct 804 -223 816 -220 826 -214 ct 
837 -207 845 -199 851 -189 ct 851 -303 l  890 -303 l  890 0 l  p
737 -110 m  737 -84 743 -65 754 -52 ct 766 -39 779 -32 795 -32 ct 811 -32 824 -38 835 -51 ct 
846 -63 851 -82 851 -107 ct 851 -135 846 -155 835 -168 ct 823 -181 810 -188 793 -188 ct 
777 -188 764 -182 753 -169 ct 742 -157 737 -137 737 -110 ct p ef
1048 85 m  1022 85 l  1000 60 982 30 968 -4 ct 953 -37 945 -73 945 -109 ct 945 -141 951 -172 962 -201 ct 
975 -235 995 -269 1022 -303 ct 1048 -303 l  1031 -275 1019 -255 1014 -243 ct 
1005 -224 998 -205 993 -185 ct 987 -159 984 -134 984 -109 ct 984 -44 1005 21 1048 85 ct 
p ef
1128 -264 m  1089 -264 l  1089 -303 l  1128 -303 l  1128 -264 l  p
1128 0 m  1089 0 l  1089 -220 l  1128 -220 l  1128 0 l  p ef
1201 85 m  1175 85 l  1218 21 1239 -44 1239 -109 ct 1239 -134 1236 -159 1230 -184 ct 
1225 -204 1218 -223 1209 -242 ct 1204 -254 1192 -274 1175 -303 ct 1201 -303 l 
1228 -269 1248 -235 1261 -201 ct 1272 -172 1277 -141 1277 -109 ct 1277 -73 1270 -37 1255 -4 ct 
1240 30 1222 60 1201 85 ct p ef
pom
gr
gs
0 0 m 11937 0 l 11937 1447 l 0 1447 l 0 0 l eoclip newpath
gr
gr
0 1448 t 
pom
count op_count sub {pop} repeat countdictstack dict_count sub {end} repeat b4_inc_state restore
%%PageTrailer
%%Trailer
%%EOF
