%!PS-Adobe-3.0 EPSF-3.0 
%%BoundingBox: 0 0 338 41
%%Pages: 0
%%Creator: Sun Microsystems, Inc.
%%Title: none
%%CreationDate: none
%%LanguageLevel: 2
%%EndComments
%%BeginProlog
%%BeginResource: procset SDRes-Prolog 1.0 0
/b4_inc_state save def
/dict_count countdictstack def
/op_count count 1 sub def
userdict begin
0 setgray 0 setlinecap 1 setlinewidth 0 setlinejoin 10 setmiterlimit[] 0 setdash newpath
/languagelevel where {pop languagelevel 1 ne {false setstrokeadjust false setoverprint} if} if
/bdef {bind def} bind def
/c {setrgbcolor} bdef
/l {neg lineto} bdef
/rl {neg rlineto} bdef
/lc {setlinecap} bdef
/lj {setlinejoin} bdef
/lw {setlinewidth} bdef
/ml {setmiterlimit} bdef
/ld {setdash} bdef
/m {neg moveto} bdef
/ct {6 2 roll neg 6 2 roll neg 6 2 roll neg curveto} bdef
/r {rotate} bdef
/t {neg translate} bdef
/s {scale} bdef
/sw {show} bdef
/gs {gsave} bdef
/gr {grestore} bdef
/f {findfont dup length dict begin
{1 index /FID ne {def} {pop pop} ifelse} forall /Encoding ISOLatin1Encoding def
currentdict end /NFont exch definefont pop /NFont findfont} bdef
/p {closepath} bdef
/sf {scalefont setfont} bdef
/ef {eofill}bdef
/pc {closepath stroke}bdef
/ps {stroke}bdef
/pum {matrix currentmatrix}bdef
/pom {setmatrix}bdef
/bs {/aString exch def /nXOfs exch def /nWidth exch def currentpoint nXOfs 0 rmoveto pum nWidth aString stringwidth pop div 1 scale aString show pom moveto} bdef
%%EndResource
%%EndProlog
%%BeginSetup
%%EndSetup
%%Page: 1 1
%%BeginPageSetup
%%EndPageSetup
pum
0.02831 0.02831 s 
0 -1448 t
/tm matrix currentmatrix def
gs
0 0 m 11937 0 l 11937 1447 l 0 1447 l 0 0 l eoclip newpath
gs
0 0 m 11937 0 l 11937 1447 l 0 1447 l 0 0 l eoclip newpath

pum
3647 595 t
0.003 0.003 0.003 c 206 0 m  167 0 l  167 -37 l  151 -10 129 3 101 3 ct 89 3 77 0 66 -4 ct 
56 -9 48 -16 42 -23 ct 37 -31 34 -40 32 -50 ct 30 -58 29 -69 29 -85 ct 29 -220 l 
68 -220 l  68 -101 l  68 -82 68 -70 70 -63 ct 72 -53 77 -46 84 -40 ct 91 -35 100 -32 111 -32 ct 
122 -32 132 -35 141 -41 ct 151 -46 158 -54 162 -64 ct 165 -73 167 -87 167 -105 ct 
167 -220 l  206 -220 l  206 0 l  p ef
250 -68 m  288 -73 l  290 -60 295 -50 304 -43 ct 313 -36 326 -32 342 -32 ct 
359 -32 371 -35 379 -41 ct 387 -47 391 -55 391 -63 ct 391 -70 386 -76 377 -80 ct 
371 -83 359 -87 341 -91 ct 317 -98 299 -104 288 -109 ct 278 -114 269 -121 264 -130 ct 
258 -139 256 -149 256 -160 ct 256 -170 258 -179 262 -187 ct 266 -195 272 -202 280 -208 ct 
285 -212 293 -216 302 -219 ct 312 -222 322 -223 333 -223 ct 350 -223 365 -221 377 -215 ct 
390 -210 399 -203 405 -194 ct 411 -185 415 -174 417 -159 ct 379 -153 l  377 -164 373 -172 366 -179 ct 
359 -185 349 -188 336 -188 ct 321 -188 310 -186 304 -181 ct 297 -176 294 -170 294 -164 ct 
294 -159 295 -156 298 -152 ct 301 -149 305 -146 311 -144 ct 314 -143 324 -140 340 -135 ct 
363 -128 381 -123 392 -118 ct 404 -114 413 -107 419 -99 ct 426 -90 429 -79 429 -67 ct 
429 -54 425 -43 418 -32 ct 411 -21 401 -12 387 -6 ct 374 0 359 3 342 3 ct 314 3 293 -3 278 -15 ct 
263 -27 254 -44 250 -68 ct p ef
626 -71 m  663 -65 l  657 -43 646 -27 629 -15 ct 613 -3 592 3 566 3 ct 534 3 509 -7 490 -26 ct 
471 -46 462 -73 462 -108 ct 462 -145 471 -173 490 -193 ct 509 -213 534 -223 564 -223 ct 
594 -223 618 -213 636 -193 ct 655 -174 664 -146 664 -110 ct 664 -108 664 -104 664 -100 ct 
500 -100 l  501 -78 508 -61 521 -50 ct 533 -38 549 -32 567 -32 ct 581 -32 593 -35 603 -41 ct 
612 -47 620 -57 626 -71 ct p
500 -135 m  626 -135 l  624 -151 620 -162 612 -170 ct 599 -182 584 -188 564 -188 ct 
547 -188 532 -183 520 -174 ct 508 -164 501 -151 500 -135 ct p ef
888 0 m  849 0 l  849 -35 l  836 -10 816 3 789 3 ct 772 3 756 -2 742 -11 ct 
728 -21 716 -34 709 -51 ct 701 -68 697 -88 697 -110 ct 697 -132 700 -151 708 -169 ct 
715 -186 726 -200 740 -209 ct 755 -219 771 -223 789 -223 ct 802 -223 814 -220 824 -214 ct 
835 -207 843 -199 849 -189 ct 849 -303 l  888 -303 l  888 0 l  p
735 -110 m  735 -84 741 -65 752 -52 ct 764 -39 777 -32 793 -32 ct 809 -32 822 -38 833 -51 ct 
844 -63 849 -82 849 -107 ct 849 -135 844 -155 833 -168 ct 821 -181 808 -188 791 -188 ct 
775 -188 762 -182 751 -169 ct 740 -157 735 -137 735 -110 ct p ef
1046 85 m  1020 85 l  998 60 980 30 966 -4 ct 951 -37 943 -73 943 -109 ct 943 -141 949 -172 960 -201 ct 
973 -235 993 -269 1020 -303 ct 1046 -303 l  1029 -275 1017 -255 1012 -243 ct 
1003 -224 996 -205 991 -185 ct 985 -159 982 -134 982 -109 ct 982 -44 1003 21 1046 85 ct 
p ef
1076 -110 m  1076 -150 1087 -180 1109 -199 ct 1127 -215 1149 -223 1176 -223 ct 
1205 -223 1229 -214 1247 -194 ct 1266 -175 1275 -148 1275 -113 ct 1275 -85 1271 -63 1263 -47 ct 
1255 -32 1243 -19 1227 -10 ct 1211 -1 1194 3 1176 3 ct 1146 3 1122 -7 1103 -26 ct 
1085 -46 1076 -74 1076 -110 ct p
1114 -110 m  1114 -84 1120 -65 1131 -52 ct 1143 -39 1158 -32 1176 -32 ct 1193 -32 1208 -39 1220 -52 ct 
1231 -65 1237 -85 1237 -111 ct 1237 -137 1231 -156 1220 -169 ct 1208 -182 1193 -188 1176 -188 ct 
1158 -188 1143 -182 1131 -169 ct 1120 -156 1114 -136 1114 -110 ct p ef
1343 85 m  1317 85 l  1360 21 1381 -44 1381 -109 ct 1381 -134 1378 -159 1372 -184 ct 
1367 -204 1360 -223 1351 -242 ct 1346 -254 1334 -274 1317 -303 ct 1343 -303 l 
1370 -269 1390 -235 1403 -201 ct 1414 -172 1419 -141 1419 -109 ct 1419 -73 1412 -37 1397 -4 ct 
1382 30 1364 60 1343 85 ct p ef
pom
0.601 0.800 1.000 c 889 1359 m  538 1359 254 1075 254 724 ct 254 373 538 89 889 89 ct 
1240 89 1524 373 1524 724 ct 1524 1075 1240 1359 889 1359 ct p ef
0 lw 1 lj 0.003 0.003 0.003 c 889 1359 m  538 1359 254 1075 254 724 ct 254 373 538 89 889 89 ct 
1240 89 1524 373 1524 724 ct 1524 1075 1240 1359 889 1359 ct pc
pum
713 945 t
27 22 m  85 31 l  87 46 93 58 103 65 ct 116 75 135 79 158 79 ct 183 79 202 75 216 65 ct 
230 56 239 43 244 26 ct 247 15 248 -7 248 -40 ct 224 -13 194 0 158 0 ct 114 0 79 -16 55 -49 ct 
31 -81 18 -120 18 -166 ct 18 -197 24 -226 35 -252 ct 46 -279 62 -299 82 -314 ct 
103 -328 127 -335 155 -335 ct 193 -335 223 -319 248 -287 ct 248 -331 l  305 -331 l 
305 -46 l  305 5 300 42 289 63 ct 279 84 263 101 240 114 ct 218 126 190 132 157 132 ct 
118 132 86 123 62 105 ct 38 86 26 59 27 22 ct p
76 -170 m  76 -129 84 -99 100 -81 ct 117 -62 137 -53 162 -53 ct 186 -53 206 -62 223 -81 ct 
239 -99 248 -128 248 -168 ct 248 -206 239 -234 222 -253 ct 205 -273 185 -282 161 -282 ct 
137 -282 117 -273 100 -254 ct 84 -235 76 -207 76 -170 ct p ef
pom
1 lw 0 lj 7239 724 m  1884 724 l  ps
1524 724 m  1974 874 l  1974 574 l  1524 724 l  p ef
0.601 0.800 1.000 c 9462 1359 m  7239 1359 l  7239 89 l  11684 89 l  11684 1359 l 
9462 1359 l  p ef
0 lw 1 lj 0.003 0.003 0.003 c 9462 1359 m  7239 1359 l  7239 89 l  11684 89 l 
11684 1359 l  9462 1359 l  pc
pum
7550 945 t
362 -51 m  348 -36 333 -23 317 -14 ct 300 -5 283 0 267 0 ct 248 0 230 -5 213 -16 ct 
196 -27 181 -43 171 -65 ct 160 -88 154 -112 154 -138 ct 154 -171 163 -204 179 -237 ct 
196 -269 217 -294 242 -310 ct 266 -327 290 -335 314 -335 ct 332 -335 349 -330 365 -321 ct 
381 -312 395 -298 407 -278 ct 419 -326 l  476 -326 l  429 -121 l  422 -92 419 -76 419 -73 ct 
419 -68 421 -63 425 -59 ct 430 -55 435 -53 441 -53 ct 453 -53 467 -59 486 -71 ct 
510 -87 529 -108 543 -135 ct 557 -162 564 -189 564 -218 ct 564 -251 556 -282 538 -311 ct 
520 -339 493 -363 458 -380 ct 422 -397 383 -406 341 -406 ct 292 -406 247 -395 207 -373 ct 
166 -352 135 -321 113 -281 ct 90 -241 79 -197 79 -152 ct 79 -103 90 -62 112 -27 ct 
134 8 166 33 208 50 ct 249 67 296 75 346 75 ct 400 75 446 66 482 49 ct 519 32 546 11 564 -13 ct 
622 -13 l  611 9 593 32 568 56 ct 542 79 512 98 476 112 ct 441 125 398 132 349 132 ct 
303 132 261 126 222 115 ct 183 103 150 85 123 62 ct 96 38 75 11 61 -20 ct 44 -59 35 -101 35 -146 ct 
35 -197 46 -244 66 -290 ct 92 -346 128 -389 174 -418 ct 221 -448 277 -463 343 -463 ct 
395 -463 441 -453 482 -432 ct 522 -411 555 -380 578 -338 ct 599 -302 609 -264 609 -222 ct 
609 -162 587 -109 545 -62 ct 507 -21 466 0 422 0 ct 407 0 396 -2 387 -6 ct 378 -11 372 -17 368 -25 ct 
365 -30 363 -39 362 -51 ct p
212 -138 m  212 -113 218 -93 231 -79 ct 245 -64 260 -57 277 -57 ct 288 -57 300 -60 313 -67 ct 
325 -73 337 -82 349 -94 ct 360 -107 370 -122 377 -141 ct 384 -160 388 -179 388 -198 ct 
388 -223 381 -243 367 -257 ct 354 -271 337 -278 317 -278 ct 304 -278 292 -275 281 -269 ct 
269 -263 258 -253 247 -240 ct 237 -226 228 -210 221 -191 ct 215 -172 212 -154 212 -138 ct 
p ef
758 0 m  700 0 l  700 -278 l  652 -278 l  652 -331 l  700 -331 l  700 -366 l 
700 -388 702 -404 706 -415 ct 712 -429 722 -441 736 -450 ct 750 -459 769 -463 793 -463 ct 
809 -463 826 -461 845 -457 ct 837 -407 l  825 -409 814 -410 804 -410 ct 787 -410 775 -407 768 -400 ct 
761 -393 758 -379 758 -360 ct 758 -331 l  819 -331 l  819 -278 l  758 -278 l 
758 0 l  p ef
922 -397 m  865 -397 l  865 -454 l  922 -454 l  922 -397 l  p
922 0 m  865 0 l  865 -331 l  922 -331 l  922 0 l  p ef
1063 0 m  1006 0 l  1006 -454 l  1063 -454 l  1063 0 l  p ef
1372 -106 m  1428 -97 l  1419 -65 1402 -40 1378 -22 ct 1353 -4 1322 4 1283 4 ct 
1235 4 1197 -10 1168 -39 ct 1140 -69 1126 -110 1126 -163 ct 1126 -217 1140 -260 1169 -290 ct 
1198 -320 1235 -335 1280 -335 ct 1324 -335 1360 -320 1388 -290 ct 1416 -261 1430 -219 1430 -165 ct 
1430 -161 1430 -156 1430 -150 ct 1183 -150 l  1185 -117 1196 -92 1215 -75 ct 
1233 -57 1256 -49 1284 -49 ct 1305 -49 1323 -53 1337 -62 ct 1352 -71 1364 -86 1372 -106 ct 
p
1183 -203 m  1373 -203 l  1370 -226 1363 -244 1351 -255 ct 1333 -273 1309 -282 1280 -282 ct 
1254 -282 1231 -275 1213 -261 ct 1195 -246 1185 -227 1183 -203 ct p ef
1558 0 m  1501 0 l  1501 -331 l  1558 -331 l  1558 -284 l  1581 -318 1615 -335 1658 -335 ct 
1677 -335 1695 -332 1711 -324 ct 1726 -317 1738 -308 1746 -297 ct 1754 -285 1760 -271 1763 -255 ct 
1765 -245 1766 -227 1766 -202 ct 1766 0 l  1708 0 l  1708 -196 l  1708 -218 1706 -235 1702 -246 ct 
1698 -257 1690 -266 1680 -272 ct 1669 -279 1657 -282 1642 -282 ct 1620 -282 1600 -275 1583 -260 ct 
1567 -245 1558 -217 1558 -176 ct 1558 0 l  p ef
2061 -40 m  2041 -24 2022 -12 2004 -6 ct 1985 1 1966 4 1945 4 ct 1910 4 1883 -4 1864 -22 ct 
1846 -39 1836 -61 1836 -88 ct 1836 -104 1840 -118 1847 -131 ct 1854 -144 1863 -154 1875 -162 ct 
1886 -170 1899 -176 1913 -180 ct 1924 -183 1940 -186 1961 -188 ct 2004 -194 2036 -200 2057 -207 ct 
2057 -214 2057 -219 2057 -221 ct 2057 -242 2052 -256 2042 -265 ct 2029 -276 2009 -282 1983 -282 ct 
1958 -282 1940 -278 1929 -270 ct 1917 -261 1908 -246 1903 -225 ct 1845 -234 l 
1850 -257 1858 -276 1870 -290 ct 1881 -305 1897 -316 1918 -323 ct 1940 -331 1964 -335 1992 -335 ct 
2020 -335 2043 -332 2060 -325 ct 2078 -318 2091 -310 2099 -300 ct 2107 -289 2113 -276 2116 -261 ct 
2118 -251 2119 -235 2119 -212 ct 2119 -143 l  2119 -94 2120 -62 2122 -46 ct 
2125 -30 2129 -15 2136 0 ct 2079 0 l  2070 -11 2064 -25 2061 -40 ct p
2057 -138 m  2057 -154 l  2037 -148 2008 -142 1969 -137 ct 1947 -134 1932 -131 1922 -128 ct 
1913 -124 1906 -120 1901 -113 ct 1896 -106 1894 -99 1894 -91 ct 1894 -79 1899 -69 1910 -61 ct 
1921 -53 1937 -49 1958 -49 ct 1978 -49 1996 -53 2013 -61 ct 2029 -70 2040 -81 2048 -94 ct 
2054 -104 2057 -119 2057 -138 ct p ef
2262 0 m  2205 0 l  2205 -331 l  2262 -331 l  2262 -277 l  2272 -295 2285 -309 2302 -319 ct 
2318 -330 2337 -335 2358 -335 ct 2381 -335 2401 -330 2416 -319 ct 2431 -308 2441 -293 2447 -273 ct 
2473 -314 2507 -335 2549 -335 ct 2581 -335 2606 -326 2624 -308 ct 2642 -290 2650 -262 2650 -225 ct 
2650 0 l  2593 0 l  2593 -203 l  2593 -225 2591 -241 2588 -250 ct 2584 -260 2578 -268 2568 -273 ct 
2559 -279 2548 -282 2535 -282 ct 2513 -282 2494 -275 2479 -260 ct 2464 -245 2456 -220 2456 -187 ct 
2456 0 l  2399 0 l  2399 -209 l  2399 -234 2394 -252 2386 -264 ct 2377 -276 2362 -282 2342 -282 ct 
2327 -282 2312 -278 2299 -270 ct 2286 -262 2277 -250 2271 -235 ct 2265 -219 2262 -197 2262 -167 ct 
2262 0 l  p ef
2960 -106 m  3016 -97 l  3007 -65 2990 -40 2966 -22 ct 2941 -4 2910 4 2871 4 ct 
2823 4 2785 -10 2756 -39 ct 2728 -69 2714 -110 2714 -163 ct 2714 -217 2728 -260 2757 -290 ct 
2786 -320 2823 -335 2868 -335 ct 2912 -335 2948 -320 2976 -290 ct 3004 -261 3018 -219 3018 -165 ct 
3018 -161 3018 -156 3018 -150 ct 2771 -150 l  2773 -117 2784 -92 2803 -75 ct 
2821 -57 2844 -49 2872 -49 ct 2893 -49 2911 -53 2925 -62 ct 2940 -71 2952 -86 2960 -106 ct 
p
2771 -203 m  2961 -203 l  2958 -226 2951 -244 2939 -255 ct 2921 -273 2897 -282 2868 -282 ct 
2842 -282 2819 -275 2801 -261 ct 2783 -246 2773 -227 2771 -203 ct p ef
3240 128 m  3200 128 l  3168 90 3141 46 3119 -5 ct 3097 -56 3086 -109 3086 -163 ct 
3086 -212 3094 -258 3111 -302 ct 3130 -353 3160 -404 3200 -454 ct 3240 -454 l 
3214 -412 3197 -382 3188 -364 ct 3175 -336 3165 -307 3157 -277 ct 3148 -239 3143 -201 3143 -163 ct 
3143 -66 3175 31 3240 128 ct p ef
3283 -165 m  3283 -226 3300 -270 3333 -299 ct 3360 -323 3394 -335 3434 -335 ct 
3478 -335 3513 -321 3541 -291 ct 3569 -262 3583 -222 3583 -170 ct 3583 -128 3577 -95 3565 -71 ct 
3552 -47 3534 -29 3511 -15 ct 3487 -2 3461 4 3434 4 ct 3389 4 3353 -10 3325 -39 ct 
3297 -69 3283 -111 3283 -165 ct p
3341 -166 m  3341 -126 3350 -97 3367 -78 ct 3385 -58 3407 -49 3434 -49 ct 3460 -49 3482 -58 3500 -78 ct 
3517 -97 3526 -127 3526 -167 ct 3526 -205 3517 -234 3499 -253 ct 3482 -272 3460 -282 3434 -282 ct 
3407 -282 3385 -273 3367 -253 ct 3350 -234 3341 -205 3341 -166 ct p ef
3686 128 m  3646 128 l  3711 31 3743 -66 3743 -163 ct 3743 -201 3739 -239 3729 -276 ct 
3722 -306 3712 -335 3699 -363 ct 3690 -382 3673 -412 3646 -454 ct 3686 -454 l 
3726 -404 3756 -353 3776 -302 ct 3792 -258 3801 -212 3801 -163 ct 3801 -109 3789 -56 3767 -5 ct 
3745 46 3718 90 3686 128 ct p ef
pom
gr
gs
0 0 m 11937 0 l 11937 1447 l 0 1447 l 0 0 l eoclip newpath
gr
gr
0 1448 t 
pom
count op_count sub {pop} repeat countdictstack dict_count sub {end} repeat b4_inc_state restore
%%PageTrailer
%%Trailer
%%EOF
