%!PS-Adobe-3.0 EPSF-3.0 
%%BoundingBox: 0 0 454 41
%%Pages: 0
%%Creator: Sun Microsystems, Inc.
%%Title: none
%%CreationDate: none
%%LanguageLevel: 2
%%EndComments
%%BeginProlog
%%BeginResource: procset SDRes-Prolog 1.0 0
/b4_inc_state save def
/dict_count countdictstack def
/op_count count 1 sub def
userdict begin
0 setgray 0 setlinecap 1 setlinewidth 0 setlinejoin 10 setmiterlimit[] 0 setdash newpath
/languagelevel where {pop languagelevel 1 ne {false setstrokeadjust false setoverprint} if} if
/bdef {bind def} bind def
/c {setrgbcolor} bdef
/l {neg lineto} bdef
/rl {neg rlineto} bdef
/lc {setlinecap} bdef
/lj {setlinejoin} bdef
/lw {setlinewidth} bdef
/ml {setmiterlimit} bdef
/ld {setdash} bdef
/m {neg moveto} bdef
/ct {6 2 roll neg 6 2 roll neg 6 2 roll neg curveto} bdef
/r {rotate} bdef
/t {neg translate} bdef
/s {scale} bdef
/sw {show} bdef
/gs {gsave} bdef
/gr {grestore} bdef
/f {findfont dup length dict begin
{1 index /FID ne {def} {pop pop} ifelse} forall /Encoding ISOLatin1Encoding def
currentdict end /NFont exch definefont pop /NFont findfont} bdef
/p {closepath} bdef
/sf {scalefont setfont} bdef
/ef {eofill}bdef
/pc {closepath stroke}bdef
/ps {stroke}bdef
/pum {matrix currentmatrix}bdef
/pom {setmatrix}bdef
/bs {/aString exch def /nXOfs exch def /nWidth exch def currentpoint nXOfs 0 rmoveto pum nWidth aString stringwidth pop div 1 scale aString show pom moveto} bdef
%%EndResource
%%EndProlog
%%BeginSetup
%%EndSetup
%%Page: 1 1
%%BeginPageSetup
%%EndPageSetup
pum
0.02837 0.02831 s 
0 -1448 t
/tm matrix currentmatrix def
gs
0 0 m 16001 0 l 16001 1447 l 0 1447 l 0 0 l eoclip newpath
gs
0 0 m 16001 0 l 16001 1447 l 0 1447 l 0 0 l eoclip newpath
0.601 0.800 1.000 c 2287 1359 m  64 1359 l  64 89 l  4509 89 l  4509 1359 l 
2287 1359 l  p ef
0 lw 1 lj 0.003 0.003 0.003 c 2287 1359 m  64 1359 l  64 89 l  4509 89 l  4509 1359 l 
2287 1359 l  pc
pum
375 945 t
362 -51 m  348 -36 333 -23 317 -14 ct 300 -5 283 0 267 0 ct 248 0 230 -5 213 -16 ct 
196 -27 181 -43 171 -65 ct 160 -88 154 -112 154 -138 ct 154 -171 163 -204 179 -237 ct 
196 -269 217 -294 242 -310 ct 266 -327 290 -335 314 -335 ct 332 -335 349 -330 365 -321 ct 
381 -312 395 -298 407 -278 ct 419 -326 l  476 -326 l  429 -121 l  422 -92 419 -76 419 -73 ct 
419 -68 421 -63 425 -59 ct 430 -55 435 -53 441 -53 ct 453 -53 467 -59 486 -71 ct 
510 -87 529 -108 543 -135 ct 557 -162 564 -189 564 -218 ct 564 -251 556 -282 538 -311 ct 
520 -339 493 -363 458 -380 ct 422 -397 383 -406 341 -406 ct 292 -406 247 -395 207 -373 ct 
166 -352 135 -321 113 -281 ct 90 -241 79 -197 79 -152 ct 79 -103 90 -62 112 -27 ct 
134 8 166 33 208 50 ct 249 67 296 75 346 75 ct 400 75 446 66 482 49 ct 519 32 546 11 564 -13 ct 
622 -13 l  611 9 593 32 568 56 ct 542 79 512 98 476 112 ct 441 125 398 132 349 132 ct 
303 132 261 126 222 115 ct 183 103 150 85 123 62 ct 96 38 75 11 61 -20 ct 44 -59 35 -101 35 -146 ct 
35 -197 46 -244 66 -290 ct 92 -346 128 -389 174 -418 ct 221 -448 277 -463 343 -463 ct 
395 -463 441 -453 482 -432 ct 522 -411 555 -380 578 -338 ct 599 -302 609 -264 609 -222 ct 
609 -162 587 -109 545 -62 ct 507 -21 466 0 422 0 ct 407 0 396 -2 387 -6 ct 378 -11 372 -17 368 -25 ct 
365 -30 363 -39 362 -51 ct p
212 -138 m  212 -113 218 -93 231 -79 ct 245 -64 260 -57 277 -57 ct 288 -57 300 -60 313 -67 ct 
325 -73 337 -82 349 -94 ct 360 -107 370 -122 377 -141 ct 384 -160 388 -179 388 -198 ct 
388 -223 381 -243 367 -257 ct 354 -271 337 -278 317 -278 ct 304 -278 292 -275 281 -269 ct 
269 -263 258 -253 247 -240 ct 237 -226 228 -210 221 -191 ct 215 -172 212 -154 212 -138 ct 
p ef
758 0 m  700 0 l  700 -278 l  652 -278 l  652 -331 l  700 -331 l  700 -366 l 
700 -388 702 -404 706 -415 ct 712 -429 722 -441 736 -450 ct 750 -459 769 -463 793 -463 ct 
809 -463 826 -461 845 -457 ct 837 -407 l  825 -409 814 -410 804 -410 ct 787 -410 775 -407 768 -400 ct 
761 -393 758 -379 758 -360 ct 758 -331 l  819 -331 l  819 -278 l  758 -278 l 
758 0 l  p ef
922 -397 m  865 -397 l  865 -454 l  922 -454 l  922 -397 l  p
922 0 m  865 0 l  865 -331 l  922 -331 l  922 0 l  p ef
1063 0 m  1006 0 l  1006 -454 l  1063 -454 l  1063 0 l  p ef
1372 -106 m  1428 -97 l  1419 -65 1402 -40 1378 -22 ct 1353 -4 1322 4 1283 4 ct 
1235 4 1197 -10 1168 -39 ct 1140 -69 1126 -110 1126 -163 ct 1126 -217 1140 -260 1169 -290 ct 
1198 -320 1235 -335 1280 -335 ct 1324 -335 1360 -320 1388 -290 ct 1416 -261 1430 -219 1430 -165 ct 
1430 -161 1430 -156 1430 -150 ct 1183 -150 l  1185 -117 1196 -92 1215 -75 ct 
1233 -57 1256 -49 1284 -49 ct 1305 -49 1323 -53 1337 -62 ct 1352 -71 1364 -86 1372 -106 ct 
p
1183 -203 m  1373 -203 l  1370 -226 1363 -244 1351 -255 ct 1333 -273 1309 -282 1280 -282 ct 
1254 -282 1231 -275 1213 -261 ct 1195 -246 1185 -227 1183 -203 ct p ef
1558 0 m  1501 0 l  1501 -331 l  1558 -331 l  1558 -284 l  1581 -318 1615 -335 1658 -335 ct 
1677 -335 1695 -332 1711 -324 ct 1726 -317 1738 -308 1746 -297 ct 1754 -285 1760 -271 1763 -255 ct 
1765 -245 1766 -227 1766 -202 ct 1766 0 l  1708 0 l  1708 -196 l  1708 -218 1706 -235 1702 -246 ct 
1698 -257 1690 -266 1680 -272 ct 1669 -279 1657 -282 1642 -282 ct 1620 -282 1600 -275 1583 -260 ct 
1567 -245 1558 -217 1558 -176 ct 1558 0 l  p ef
2061 -40 m  2041 -24 2022 -12 2004 -6 ct 1985 1 1966 4 1945 4 ct 1910 4 1883 -4 1864 -22 ct 
1846 -39 1836 -61 1836 -88 ct 1836 -104 1840 -118 1847 -131 ct 1854 -144 1863 -154 1875 -162 ct 
1886 -170 1899 -176 1913 -180 ct 1924 -183 1940 -186 1961 -188 ct 2004 -194 2036 -200 2057 -207 ct 
2057 -214 2057 -219 2057 -221 ct 2057 -242 2052 -256 2042 -265 ct 2029 -276 2009 -282 1983 -282 ct 
1958 -282 1940 -278 1929 -270 ct 1917 -261 1908 -246 1903 -225 ct 1845 -234 l 
1850 -257 1858 -276 1870 -290 ct 1881 -305 1897 -316 1918 -323 ct 1940 -331 1964 -335 1992 -335 ct 
2020 -335 2043 -332 2060 -325 ct 2078 -318 2091 -310 2099 -300 ct 2107 -289 2113 -276 2116 -261 ct 
2118 -251 2119 -235 2119 -212 ct 2119 -143 l  2119 -94 2120 -62 2122 -46 ct 
2125 -30 2129 -15 2136 0 ct 2079 0 l  2070 -11 2064 -25 2061 -40 ct p
2057 -138 m  2057 -154 l  2037 -148 2008 -142 1969 -137 ct 1947 -134 1932 -131 1922 -128 ct 
1913 -124 1906 -120 1901 -113 ct 1896 -106 1894 -99 1894 -91 ct 1894 -79 1899 -69 1910 -61 ct 
1921 -53 1937 -49 1958 -49 ct 1978 -49 1996 -53 2013 -61 ct 2029 -70 2040 -81 2048 -94 ct 
2054 -104 2057 -119 2057 -138 ct p ef
2262 0 m  2205 0 l  2205 -331 l  2262 -331 l  2262 -277 l  2272 -295 2285 -309 2302 -319 ct 
2318 -330 2337 -335 2358 -335 ct 2381 -335 2401 -330 2416 -319 ct 2431 -308 2441 -293 2447 -273 ct 
2473 -314 2507 -335 2549 -335 ct 2581 -335 2606 -326 2624 -308 ct 2642 -290 2650 -262 2650 -225 ct 
2650 0 l  2593 0 l  2593 -203 l  2593 -225 2591 -241 2588 -250 ct 2584 -260 2578 -268 2568 -273 ct 
2559 -279 2548 -282 2535 -282 ct 2513 -282 2494 -275 2479 -260 ct 2464 -245 2456 -220 2456 -187 ct 
2456 0 l  2399 0 l  2399 -209 l  2399 -234 2394 -252 2386 -264 ct 2377 -276 2362 -282 2342 -282 ct 
2327 -282 2312 -278 2299 -270 ct 2286 -262 2277 -250 2271 -235 ct 2265 -219 2262 -197 2262 -167 ct 
2262 0 l  p ef
2960 -106 m  3016 -97 l  3007 -65 2990 -40 2966 -22 ct 2941 -4 2910 4 2871 4 ct 
2823 4 2785 -10 2756 -39 ct 2728 -69 2714 -110 2714 -163 ct 2714 -217 2728 -260 2757 -290 ct 
2786 -320 2823 -335 2868 -335 ct 2912 -335 2948 -320 2976 -290 ct 3004 -261 3018 -219 3018 -165 ct 
3018 -161 3018 -156 3018 -150 ct 2771 -150 l  2773 -117 2784 -92 2803 -75 ct 
2821 -57 2844 -49 2872 -49 ct 2893 -49 2911 -53 2925 -62 ct 2940 -71 2952 -86 2960 -106 ct 
p
2771 -203 m  2961 -203 l  2958 -226 2951 -244 2939 -255 ct 2921 -273 2897 -282 2868 -282 ct 
2842 -282 2819 -275 2801 -261 ct 2783 -246 2773 -227 2771 -203 ct p ef
3240 128 m  3200 128 l  3168 90 3141 46 3119 -5 ct 3097 -56 3086 -109 3086 -163 ct 
3086 -212 3094 -258 3111 -302 ct 3130 -353 3160 -404 3200 -454 ct 3240 -454 l 
3214 -412 3197 -382 3188 -364 ct 3175 -336 3165 -307 3157 -277 ct 3148 -239 3143 -201 3143 -163 ct 
3143 -66 3175 31 3240 128 ct p ef
3283 -165 m  3283 -226 3300 -270 3333 -299 ct 3360 -323 3394 -335 3434 -335 ct 
3478 -335 3513 -321 3541 -291 ct 3569 -262 3583 -222 3583 -170 ct 3583 -128 3577 -95 3565 -71 ct 
3552 -47 3534 -29 3511 -15 ct 3487 -2 3461 4 3434 4 ct 3389 4 3353 -10 3325 -39 ct 
3297 -69 3283 -111 3283 -165 ct p
3341 -166 m  3341 -126 3350 -97 3367 -78 ct 3385 -58 3407 -49 3434 -49 ct 3460 -49 3482 -58 3500 -78 ct 
3517 -97 3526 -127 3526 -167 ct 3526 -205 3517 -234 3499 -253 ct 3482 -272 3460 -282 3434 -282 ct 
3407 -282 3385 -273 3367 -253 ct 3350 -234 3341 -205 3341 -166 ct p ef
3686 128 m  3646 128 l  3711 31 3743 -66 3743 -163 ct 3743 -201 3739 -239 3729 -276 ct 
3722 -306 3712 -335 3699 -363 ct 3690 -382 3673 -412 3646 -454 ct 3686 -454 l 
3726 -404 3756 -353 3776 -302 ct 3792 -258 3801 -212 3801 -163 ct 3801 -109 3789 -56 3767 -5 ct 
3745 46 3718 90 3686 128 ct p ef
pom
0.601 0.800 1.000 c 13082 1359 m  11503 1359 10224 1075 10224 724 ct 10224 373 11503 89 13082 89 ct 
14660 89 15939 373 15939 724 ct 15939 1075 14660 1359 13082 1359 ct p ef
0.003 0.003 0.003 c 13082 1359 m  11503 1359 10224 1075 10224 724 ct 10224 373 11503 89 13082 89 ct 
14660 89 15939 373 15939 724 ct 15939 1075 14660 1359 13082 1359 ct pc
pum
11174 945 t
85 0 m  26 0 l  88 -287 l  40 -287 l  49 -331 l  97 -331 l  107 -377 l 
113 -401 118 -417 123 -428 ct 129 -438 138 -446 150 -453 ct 162 -460 178 -463 199 -463 ct 
213 -463 234 -460 261 -453 ct 251 -404 l  232 -405 216 -406 203 -406 ct 192 -406 184 -403 178 -398 ct 
172 -394 167 -382 163 -364 ct 156 -331 l  216 -331 l  207 -287 l  146 -287 l 
85 0 l  p ef
341 -397 m  283 -397 l  295 -454 l  353 -454 l  341 -397 l  p
256 0 m  198 0 l  269 -331 l  327 -331 l  256 0 l  p ef
394 0 m  336 0 l  433 -454 l  491 -454 l  394 0 l  p ef
722 -115 m  777 -110 l  769 -83 751 -57 722 -32 ct 694 -8 660 4 620 4 ct 596 4 573 -1 553 -12 ct 
532 -23 517 -40 506 -61 ct 495 -82 490 -106 490 -133 ct 490 -169 498 -203 515 -236 ct 
532 -270 554 -295 581 -311 ct 607 -327 636 -335 668 -335 ct 707 -335 739 -323 763 -299 ct 
787 -274 799 -241 799 -199 ct 799 -183 797 -167 794 -150 ct 552 -150 l  549 -144 547 -138 547 -133 ct 
547 -103 554 -80 569 -64 ct 583 -48 600 -40 621 -40 ct 640 -40 659 -46 678 -59 ct 
697 -72 712 -90 722 -115 ct p
560 -194 m  741 -194 l  741 -200 741 -204 741 -206 ct 741 -234 734 -255 721 -269 ct 
707 -284 689 -291 668 -291 ct 644 -291 623 -283 604 -267 ct 584 -251 570 -226 560 -194 ct 
p ef
892 0 m  834 0 l  905 -331 l  959 -331 l  946 -270 l  968 -293 989 -310 1008 -320 ct 
1027 -330 1046 -335 1066 -335 ct 1092 -335 1112 -328 1127 -313 ct 1142 -299 1150 -280 1150 -256 ct 
1150 -243 1147 -224 1141 -198 ct 1095 0 l  1037 0 l  1084 -209 l  1089 -229 1091 -244 1091 -254 ct 
1091 -265 1087 -274 1080 -281 ct 1072 -288 1062 -291 1048 -291 ct 1019 -291 994 -281 972 -260 ct 
950 -239 933 -203 923 -153 ct 892 0 l  p ef
1408 -41 m  1388 -24 1370 -12 1352 -6 ct 1335 1 1316 4 1296 4 ct 1266 4 1242 -4 1223 -22 ct 
1205 -40 1196 -63 1196 -90 ct 1196 -108 1200 -124 1208 -138 ct 1216 -153 1227 -164 1240 -172 ct 
1254 -181 1270 -187 1290 -191 ct 1304 -193 1328 -195 1361 -196 ct 1394 -198 1418 -201 1433 -207 ct 
1437 -222 1438 -235 1438 -245 ct 1438 -258 1434 -268 1425 -276 ct 1413 -286 1396 -291 1372 -291 ct 
1351 -291 1333 -286 1319 -275 ct 1305 -264 1295 -249 1288 -229 ct 1231 -234 l 
1242 -266 1260 -292 1284 -309 ct 1309 -326 1339 -335 1376 -335 ct 1415 -335 1446 -325 1469 -306 ct 
1487 -292 1496 -273 1496 -250 ct 1496 -232 1493 -212 1489 -189 ct 1473 -108 l 
1467 -82 1465 -61 1465 -44 ct 1465 -34 1467 -19 1471 0 ct 1413 0 l  1410 -11 1409 -24 1408 -41 ct 
p
1426 -168 m  1418 -165 1411 -163 1402 -161 ct 1394 -160 1380 -158 1359 -156 ct 
1328 -153 1306 -149 1293 -145 ct 1280 -141 1270 -134 1263 -124 ct 1257 -115 1253 -104 1253 -93 ct 
1253 -77 1258 -65 1269 -55 ct 1279 -45 1294 -40 1314 -40 ct 1332 -40 1349 -45 1366 -54 ct 
1382 -64 1395 -77 1404 -95 ct 1413 -112 1420 -136 1426 -168 ct p ef
1598 0 m  1540 0 l  1610 -331 l  1669 -331 l  1657 -274 l  1677 -297 1696 -313 1712 -322 ct 
1728 -331 1746 -335 1765 -335 ct 1785 -335 1802 -330 1815 -319 ct 1829 -308 1838 -293 1842 -273 ct 
1859 -294 1876 -310 1894 -320 ct 1913 -330 1932 -335 1952 -335 ct 1979 -335 2000 -329 2013 -316 ct 
2027 -303 2034 -284 2034 -261 ct 2034 -251 2031 -234 2026 -211 ct 1978 0 l  1919 0 l 
1966 -218 l  1970 -236 1972 -249 1972 -256 ct 1972 -267 1968 -276 1962 -282 ct 
1955 -288 1946 -291 1934 -291 ct 1918 -291 1902 -286 1885 -276 ct 1869 -266 1856 -252 1846 -236 ct 
1837 -219 1829 -194 1822 -159 ct 1788 0 l  1730 0 l  1777 -223 l  1781 -238 1782 -249 1782 -255 ct 
1782 -266 1779 -274 1772 -281 ct 1766 -288 1757 -291 1747 -291 ct 1732 -291 1716 -286 1699 -276 ct 
1682 -265 1668 -251 1657 -233 ct 1647 -215 1638 -189 1631 -155 ct 1598 0 l  p ef
2310 -115 m  2365 -110 l  2357 -83 2339 -57 2310 -32 ct 2282 -8 2248 4 2208 4 ct 
2184 4 2161 -1 2141 -12 ct 2120 -23 2105 -40 2094 -61 ct 2083 -82 2078 -106 2078 -133 ct 
2078 -169 2086 -203 2103 -236 ct 2120 -270 2142 -295 2169 -311 ct 2195 -327 2224 -335 2256 -335 ct 
2295 -335 2327 -323 2351 -299 ct 2375 -274 2387 -241 2387 -199 ct 2387 -183 2385 -167 2382 -150 ct 
2140 -150 l  2137 -144 2135 -138 2135 -133 ct 2135 -103 2142 -80 2157 -64 ct 
2171 -48 2188 -40 2209 -40 ct 2228 -40 2247 -46 2266 -59 ct 2285 -72 2300 -90 2310 -115 ct 
p
2148 -194 m  2329 -194 l  2329 -200 2329 -204 2329 -206 ct 2329 -234 2322 -255 2309 -269 ct 
2295 -284 2277 -291 2256 -291 ct 2232 -291 2211 -283 2192 -267 ct 2172 -251 2158 -226 2148 -194 ct 
p ef
2608 -126 m  2608 -190 2627 -242 2665 -284 ct 2696 -318 2737 -335 2788 -335 ct 
2828 -335 2860 -323 2884 -298 ct 2909 -274 2921 -241 2921 -199 ct 2921 -162 2913 -127 2898 -95 ct 
2883 -63 2861 -38 2832 -21 ct 2804 -4 2774 4 2743 4 ct 2717 4 2694 -1 2673 -12 ct 
2652 -23 2636 -38 2625 -58 ct 2613 -77 2608 -100 2608 -126 ct p
2665 -132 m  2665 -102 2673 -79 2687 -63 ct 2702 -48 2721 -40 2744 -40 ct 2755 -40 2767 -42 2779 -47 ct 
2791 -52 2801 -59 2811 -68 ct 2821 -78 2830 -89 2837 -102 ct 2844 -114 2850 -127 2854 -142 ct 
2860 -162 2864 -181 2864 -199 ct 2864 -228 2856 -251 2841 -267 ct 2827 -283 2808 -291 2785 -291 ct 
2768 -291 2752 -287 2738 -279 ct 2723 -271 2710 -259 2699 -243 ct 2687 -227 2679 -209 2673 -188 ct 
2668 -167 2665 -148 2665 -132 ct p ef
3015 0 m  2956 0 l  3018 -287 l  2970 -287 l  2979 -331 l  3027 -331 l 
3037 -377 l  3043 -401 3048 -417 3053 -428 ct 3059 -438 3068 -446 3080 -453 ct 
3092 -460 3108 -463 3129 -463 ct 3143 -463 3164 -460 3191 -453 ct 3181 -404 l 
3162 -405 3146 -406 3133 -406 ct 3122 -406 3114 -403 3108 -398 ct 3102 -394 3097 -382 3093 -364 ct 
3086 -331 l  3146 -331 l  3137 -287 l  3076 -287 l  3015 0 l  p ef
pom
pum
14281 945 t
380 22 m  438 31 l  440 46 446 58 456 65 ct 469 75 488 79 511 79 ct 536 79 555 75 569 65 ct 
583 56 592 43 597 26 ct 600 15 601 -7 601 -40 ct 577 -13 547 0 511 0 ct 467 0 432 -16 408 -49 ct 
384 -81 371 -120 371 -166 ct 371 -197 377 -226 388 -252 ct 399 -279 415 -299 435 -314 ct 
456 -328 480 -335 508 -335 ct 546 -335 576 -319 601 -287 ct 601 -331 l  658 -331 l 
658 -46 l  658 5 653 42 642 63 ct 632 84 616 101 593 114 ct 571 126 543 132 510 132 ct 
471 132 439 123 415 105 ct 391 86 379 59 380 22 ct p
429 -170 m  429 -129 437 -99 453 -81 ct 470 -62 490 -53 515 -53 ct 539 -53 559 -62 576 -81 ct 
592 -99 601 -128 601 -168 ct 601 -206 592 -234 575 -253 ct 558 -273 538 -282 514 -282 ct 
490 -282 470 -273 453 -254 ct 437 -235 429 -207 429 -170 ct p ef
pom
1 lw 0 lj 10224 724 m  4869 724 l  ps
4509 724 m  4959 874 l  4959 574 l  4509 724 l  p ef

pum
5574 595 t
108 0 m  66 0 l  -1 -220 l  38 -220 l  75 -93 l  86 -46 l  86 -48 90 -63 97 -91 ct 
131 -220 l  172 -220 l  206 -92 l  216 -50 l  228 -93 l  264 -220 l  304 -220 l 
237 0 l  194 0 l  161 -131 l  151 -170 l  108 0 l  p ef
473 -26 m  460 -16 447 -8 435 -4 ct 423 1 410 3 396 3 ct 373 3 355 -3 342 -14 ct 
330 -26 324 -41 324 -58 ct 324 -69 326 -79 331 -87 ct 335 -96 342 -103 349 -108 ct 
357 -113 365 -117 375 -120 ct 382 -122 392 -124 407 -126 ct 435 -129 457 -133 470 -138 ct 
470 -143 471 -146 471 -147 ct 471 -161 467 -171 461 -176 ct 452 -184 439 -188 421 -188 ct 
405 -188 393 -185 385 -180 ct 377 -174 371 -164 368 -150 ct 330 -156 l  333 -171 338 -184 346 -193 ct 
353 -203 364 -210 378 -215 ct 392 -221 409 -223 428 -223 ct 446 -223 461 -221 473 -217 ct 
484 -212 493 -206 498 -200 ct 504 -193 508 -184 510 -174 ct 511 -167 512 -156 512 -141 ct 
512 -95 l  512 -63 512 -42 514 -31 ct 516 -20 519 -10 523 0 ct 485 0 l  479 -8 475 -16 473 -26 ct 
p
470 -92 m  471 -103 l  458 -98 438 -94 412 -91 ct 397 -89 387 -87 381 -85 ct 
375 -83 370 -80 367 -75 ct 363 -71 362 -66 362 -61 ct 362 -53 365 -46 373 -40 ct 
380 -35 390 -32 404 -32 ct 418 -32 430 -35 441 -41 ct 452 -47 460 -54 465 -63 ct 
468 -69 470 -79 470 -92 ct p ef
556 -68 m  594 -73 l  596 -60 601 -50 610 -43 ct 619 -36 632 -32 648 -32 ct 
665 -32 677 -35 685 -41 ct 693 -47 697 -55 697 -63 ct 697 -70 692 -76 683 -80 ct 
677 -83 665 -87 647 -91 ct 623 -98 605 -104 594 -109 ct 584 -114 575 -121 570 -130 ct 
564 -139 562 -149 562 -160 ct 562 -170 564 -179 568 -187 ct 572 -195 578 -202 586 -208 ct 
591 -212 599 -216 608 -219 ct 618 -222 628 -223 639 -223 ct 656 -223 671 -221 683 -215 ct 
696 -210 705 -203 711 -194 ct 717 -185 721 -174 723 -159 ct 685 -153 l  683 -164 679 -172 672 -179 ct 
665 -185 655 -188 642 -188 ct 627 -188 616 -186 610 -181 ct 603 -176 600 -170 600 -164 ct 
600 -159 601 -156 604 -152 ct 607 -149 611 -146 617 -144 ct 620 -143 630 -140 646 -135 ct 
669 -128 687 -123 698 -118 ct 710 -114 719 -107 725 -99 ct 732 -90 735 -79 735 -67 ct 
735 -54 731 -43 724 -32 ct 717 -21 707 -12 693 -6 ct 680 0 665 3 648 3 ct 620 3 599 -3 584 -15 ct 
569 -27 560 -44 556 -68 ct p ef
1014 -120 m  926 -120 l  926 -156 l  1056 -156 l  1056 -42 l  1036 -26 1015 -14 994 -6 ct 
973 2 952 6 929 6 ct 899 6 872 -1 848 -13 ct 823 -26 805 -45 792 -69 ct 780 -93 774 -120 774 -150 ct 
774 -179 780 -207 792 -233 ct 805 -258 822 -277 846 -290 ct 869 -302 896 -308 926 -308 ct 
948 -308 968 -305 986 -298 ct 1004 -291 1018 -281 1028 -268 ct 1038 -255 1046 -239 1051 -218 ct 
1013 -208 l  1008 -224 1003 -236 996 -244 ct 989 -253 980 -260 967 -265 ct 955 -271 941 -273 925 -273 ct 
907 -273 891 -270 878 -265 ct 864 -259 854 -252 845 -243 ct 837 -234 831 -224 826 -213 ct 
819 -194 815 -173 815 -151 ct 815 -124 819 -102 829 -83 ct 838 -65 851 -52 869 -43 ct 
887 -34 906 -29 926 -29 ct 943 -29 960 -33 977 -40 ct 993 -47 1006 -54 1014 -62 ct 
1014 -120 l  p ef
1261 -71 m  1298 -65 l  1292 -43 1281 -27 1264 -15 ct 1248 -3 1227 3 1201 3 ct 
1169 3 1144 -7 1125 -26 ct 1106 -46 1097 -73 1097 -108 ct 1097 -145 1106 -173 1125 -193 ct 
1144 -213 1169 -223 1199 -223 ct 1229 -223 1253 -213 1271 -193 ct 1290 -174 1299 -146 1299 -110 ct 
1299 -108 1299 -104 1299 -100 ct 1135 -100 l  1136 -78 1143 -61 1156 -50 ct 
1168 -38 1184 -32 1202 -32 ct 1216 -32 1228 -35 1238 -41 ct 1247 -47 1255 -57 1261 -71 ct 
p
1135 -135 m  1261 -135 l  1259 -151 1255 -162 1247 -170 ct 1234 -182 1219 -188 1199 -188 ct 
1182 -188 1167 -183 1155 -174 ct 1143 -164 1136 -151 1135 -135 ct p ef
1385 0 m  1346 0 l  1346 -220 l  1385 -220 l  1385 -189 l  1400 -212 1422 -223 1451 -223 ct 
1464 -223 1475 -221 1486 -216 ct 1496 -211 1504 -205 1510 -198 ct 1515 -190 1519 -181 1521 -170 ct 
1522 -163 1523 -151 1523 -134 ct 1523 0 l  1484 0 l  1484 -131 l  1484 -145 1483 -157 1480 -164 ct 
1477 -171 1473 -177 1465 -181 ct 1458 -186 1450 -188 1441 -188 ct 1425 -188 1412 -183 1401 -173 ct 
1390 -163 1385 -145 1385 -117 ct 1385 0 l  p ef
1732 -71 m  1769 -65 l  1763 -43 1752 -27 1735 -15 ct 1719 -3 1698 3 1672 3 ct 
1640 3 1615 -7 1596 -26 ct 1577 -46 1568 -73 1568 -108 ct 1568 -145 1577 -173 1596 -193 ct 
1615 -213 1640 -223 1670 -223 ct 1700 -223 1724 -213 1742 -193 ct 1761 -174 1770 -146 1770 -110 ct 
1770 -108 1770 -104 1770 -100 ct 1606 -100 l  1607 -78 1614 -61 1627 -50 ct 
1639 -38 1655 -32 1673 -32 ct 1687 -32 1699 -35 1709 -41 ct 1718 -47 1726 -57 1732 -71 ct 
p
1606 -135 m  1732 -135 l  1730 -151 1726 -162 1718 -170 ct 1705 -182 1690 -188 1670 -188 ct 
1653 -188 1638 -183 1626 -174 ct 1614 -164 1607 -151 1606 -135 ct p ef
1856 0 m  1817 0 l  1817 -220 l  1850 -220 l  1850 -188 l  1858 -202 1866 -212 1873 -216 ct 
1880 -221 1888 -223 1897 -223 ct 1909 -223 1922 -220 1935 -214 ct 1922 -179 l 
1913 -185 1905 -188 1896 -188 ct 1888 -188 1881 -186 1875 -181 ct 1869 -176 1864 -169 1862 -160 ct 
1858 -147 1856 -132 1856 -116 ct 1856 0 l  p ef
2093 -26 m  2080 -16 2067 -8 2055 -4 ct 2043 1 2030 3 2016 3 ct 1993 3 1975 -3 1962 -14 ct 
1950 -26 1944 -41 1944 -58 ct 1944 -69 1946 -79 1951 -87 ct 1955 -96 1962 -103 1969 -108 ct 
1977 -113 1985 -117 1995 -120 ct 2002 -122 2012 -124 2027 -126 ct 2055 -129 2077 -133 2090 -138 ct 
2090 -143 2091 -146 2091 -147 ct 2091 -161 2087 -171 2081 -176 ct 2072 -184 2059 -188 2041 -188 ct 
2025 -188 2013 -185 2005 -180 ct 1997 -174 1991 -164 1988 -150 ct 1950 -156 l 
1953 -171 1958 -184 1966 -193 ct 1973 -203 1984 -210 1998 -215 ct 2012 -221 2029 -223 2048 -223 ct 
2066 -223 2081 -221 2093 -217 ct 2104 -212 2113 -206 2118 -200 ct 2124 -193 2128 -184 2130 -174 ct 
2131 -167 2132 -156 2132 -141 ct 2132 -95 l  2132 -63 2132 -42 2134 -31 ct 2136 -20 2139 -10 2143 0 ct 
2105 0 l  2099 -8 2095 -16 2093 -26 ct p
2090 -92 m  2091 -103 l  2078 -98 2058 -94 2032 -91 ct 2017 -89 2007 -87 2001 -85 ct 
1995 -83 1990 -80 1987 -75 ct 1983 -71 1982 -66 1982 -61 ct 1982 -53 1985 -46 1993 -40 ct 
2000 -35 2010 -32 2024 -32 ct 2038 -32 2050 -35 2061 -41 ct 2072 -47 2080 -54 2085 -63 ct 
2088 -69 2090 -79 2090 -92 ct p ef
2270 -33 m  2276 0 l  2265 2 2256 3 2248 3 ct 2234 3 2224 1 2216 -3 ct 2209 -7 2204 -13 2201 -20 ct 
2198 -26 2196 -41 2196 -62 ct 2196 -185 l  2170 -185 l  2170 -220 l  2196 -220 l 
2196 -275 l  2234 -297 l  2234 -220 l  2270 -220 l  2270 -185 l  2234 -185 l 
2234 -62 l  2234 -51 2235 -45 2236 -42 ct 2238 -39 2240 -37 2242 -35 ct 2245 -33 2249 -32 2254 -32 ct 
2258 -32 2263 -33 2270 -33 ct p ef
2461 -71 m  2498 -65 l  2492 -43 2481 -27 2464 -15 ct 2448 -3 2427 3 2401 3 ct 
2369 3 2344 -7 2325 -26 ct 2306 -46 2297 -73 2297 -108 ct 2297 -145 2306 -173 2325 -193 ct 
2344 -213 2369 -223 2399 -223 ct 2429 -223 2453 -213 2471 -193 ct 2490 -174 2499 -146 2499 -110 ct 
2499 -108 2499 -104 2499 -100 ct 2335 -100 l  2336 -78 2343 -61 2356 -50 ct 
2368 -38 2384 -32 2402 -32 ct 2416 -32 2428 -35 2438 -41 ct 2447 -47 2455 -57 2461 -71 ct 
p
2335 -135 m  2461 -135 l  2459 -151 2455 -162 2447 -170 ct 2434 -182 2419 -188 2399 -188 ct 
2382 -188 2367 -183 2355 -174 ct 2343 -164 2336 -151 2335 -135 ct p ef
2721 0 m  2682 0 l  2682 -35 l  2669 -10 2649 3 2622 3 ct 2605 3 2589 -2 2575 -11 ct 
2561 -21 2549 -34 2542 -51 ct 2534 -68 2530 -88 2530 -110 ct 2530 -132 2533 -151 2541 -169 ct 
2548 -186 2559 -200 2573 -209 ct 2588 -219 2604 -223 2622 -223 ct 2635 -223 2647 -220 2657 -214 ct 
2668 -207 2676 -199 2682 -189 ct 2682 -303 l  2721 -303 l  2721 0 l  p
2568 -110 m  2568 -84 2574 -65 2585 -52 ct 2597 -39 2610 -32 2626 -32 ct 2642 -32 2655 -38 2666 -51 ct 
2677 -63 2682 -82 2682 -107 ct 2682 -135 2677 -155 2666 -168 ct 2654 -181 2641 -188 2624 -188 ct 
2608 -188 2595 -182 2584 -169 ct 2573 -157 2568 -137 2568 -110 ct p ef
2899 0 m  2785 0 l  2785 -303 l  2899 -303 l  2922 -303 2941 -300 2955 -293 ct 
2969 -287 2980 -278 2988 -265 ct 2996 -253 3000 -239 3000 -225 ct 3000 -213 2996 -200 2989 -189 ct 
2981 -178 2970 -169 2956 -162 ct 2974 -156 2987 -147 2997 -134 ct 3007 -121 3011 -106 3011 -88 ct 
3011 -74 3008 -61 3003 -48 ct 2997 -36 2989 -27 2981 -20 ct 2972 -13 2961 -8 2948 -5 ct 
2935 -2 2919 0 2899 0 ct p
2826 -267 m  2826 -176 l  2891 -176 l  2908 -176 2921 -177 2928 -180 ct 2938 -183 2946 -188 2951 -195 ct 
2956 -202 2959 -211 2959 -221 ct 2959 -231 2956 -240 2951 -247 ct 2947 -255 2940 -260 2931 -263 ct 
2922 -266 2907 -267 2886 -267 ct 2826 -267 l  p
2826 -141 m  2826 -35 l  2900 -35 l  2913 -35 2922 -36 2927 -37 ct 2936 -38 2943 -41 2949 -45 ct 
2956 -49 2961 -55 2964 -62 ct 2968 -70 2970 -78 2970 -88 ct 2970 -100 2968 -110 2962 -118 ct 
2957 -126 2949 -132 2939 -136 ct 2929 -139 2914 -141 2895 -141 ct 2826 -141 l 
p ef
3061 84 m  3056 50 l  3063 52 3070 53 3076 53 ct 3084 53 3090 51 3095 49 ct 
3099 46 3103 42 3106 37 ct 3108 33 3112 24 3117 9 ct 3118 7 3119 4 3120 0 ct 3038 -220 l 
3078 -220 l  3123 -100 l  3128 -84 3134 -68 3138 -52 ct 3142 -63 3147 -77 3153 -94 ct 
3197 -220 l  3237 -220 l  3159 6 l  3150 29 3143 45 3138 54 ct 3131 66 3124 74 3115 80 ct 
3107 85 3097 88 3085 88 ct 3078 88 3070 87 3061 84 ct p ef
pom
gr
gs
0 0 m 16001 0 l 16001 1447 l 0 1447 l 0 0 l eoclip newpath
gr
gr
0 1448 t 
pom
count op_count sub {pop} repeat countdictstack dict_count sub {end} repeat b4_inc_state restore
%%PageTrailer
%%Trailer
%%EOF
