0.00000	1
2.45000	1
4.90000	1
7.35000	2
9.80000	2
12.25000	2
14.70000	3
17.15000	27
19.60000	61
22.05000	84
24.50000	149
26.95000	172
29.40000	173
31.85000	174
34.30000	178
36.75000	181
39.20000	186
41.65000	190
44.10000	190
46.55000	193
49.00000	196
51.45000	198
53.90000	204
56.35000	206
58.80000	209
61.25000	210
63.70000	211
66.15000	214
68.60000	217
71.05000	224
73.50000	227
75.95000	231
78.40000	235
80.85000	235
83.30000	236
85.75000	238
88.20000	245
90.65000	248
93.10000	253
95.55000	257
98.00000	261
100.45000	262
102.90000	264
105.35000	266
107.80000	270
110.25000	274
112.70000	275
115.15000	277
117.60000	281
120.05000	283
122.50000	287
124.95000	291
127.40000	292
129.85000	293
132.30000	293
134.75000	295
137.20000	300
139.65000	305
142.10000	308
144.55000	309
147.00000	315
149.45000	321
151.90000	327
154.35000	333
156.80000	339
159.25000	345
161.70000	346
164.15000	352
166.60000	358
169.05000	364
171.50000	370
173.95000	376
176.40000	382
178.85000	387
181.30000	390
183.75000	396
186.20000	402
188.65000	408
191.10000	409
193.55000	410
196.00000	415
198.45000	420
200.90000	425
203.35000	431
205.80000	437
208.25000	443
210.70000	448
213.15000	453
215.60000	459
218.05000	464
220.50000	470
222.95000	476
225.40000	481
227.85000	487
230.30000	490
232.75000	491
235.20000	496
237.65000	501
240.10000	507
242.55000	513
245.00000	519
247.45000	525
249.90000	528
252.35000	534
254.80000	540
257.25000	546
259.70000	552
262.15000	558
264.60000	564
267.05000	570
269.50000	571
271.95000	576
274.40000	582
276.85000	588
279.30000	594
281.75000	599
284.20000	605
286.65000	611
289.10000	617
291.55000	620
294.00000	626
296.45000	632
298.90000	638
301.35000	644
303.80000	648
306.25000	654
308.70000	659
311.15000	660
313.60000	661
316.05000	666
318.50000	672
320.95000	677
323.40000	682
325.85000	688
328.30000	694
330.75000	698
333.20000	699
335.65000	705
338.10000	710
340.55000	716
343.00000	721
345.45000	727
347.90000	732
350.35000	738
352.80000	740
355.25000	744
357.70000	749
360.15000	755
362.60000	761
365.05000	767
367.50000	773
369.95000	778
372.40000	780
374.85000	781
377.30000	787
379.75000	793
382.20000	799
384.65000	805
387.10000	811
389.55000	817
392.00000	822
394.45000	823
396.90000	829
399.35000	835
401.80000	841
404.25000	847
406.70000	853
409.15000	859
411.60000	865
414.05000	868
416.50000	874
418.95000	880
421.40000	885
423.85000	890
426.30000	896
428.75000	901
431.20000	906
433.65000	907
436.10000	910
438.55000	914
441.00000	919
443.45000	924
445.90000	930
448.35000	936
450.80000	942
453.25000	943
455.70000	944
458.15000	948
460.60000	954
463.05000	957
465.50000	958
467.95000	961
470.40000	967
472.85000	972
475.30000	978
477.75000	983
480.20000	989
482.65000	993
485.10000	998
487.55000	1000
490.00000	
