0.00000	5
1.48036	5
2.96072	5
4.44108	5
5.92144	5
7.40180	46
8.88216	46
10.36252	46
11.84288	46
13.32324	46
14.80360	95
16.28396	95
17.76432	95
19.24468	118
20.72504	118
22.20540	118
23.68576	118
25.16612	118
26.64648	158
28.12684	158
29.60720	158
31.08756	158
32.56792	185
34.04828	185
35.52864	185
37.00900	185
38.48936	185
39.96972	233
41.45008	233
42.93044	233
44.41080	233
45.89116	258
47.37152	258
48.85188	258
50.33224	258
51.81260	258
53.29296	258
54.77332	258
56.25368	258
57.73404	258
59.21440	273
60.69476	272
62.17512	269
63.65548	265
65.13584	261
66.61620	259
68.09656	259
69.57692	259
71.05728	258
72.53764	258
74.01800	258
75.49836	258
76.97872	258
78.45908	258
79.93944	359
81.41980	358
82.90016	355
84.38052	353
85.86088	350
87.34124	347
88.82160	346
90.30196	344
91.78232	344
93.26268	343
94.74304	342
96.22340	341
97.70376	341
99.18412	340
100.66448	339
102.14484	337
103.62520	335
105.10556	334
106.58592	333
108.06628	333
109.54664	332
111.02700	331
112.50736	329
113.98772	325
115.46808	321
116.94844	321
118.42880	320
119.90916	317
121.38952	315
122.86988	312
124.35024	309
125.83060	306
127.31096	304
128.79132	303
130.27168	303
131.75204	300
133.23240	296
134.71276	294
136.19312	292
137.67348	291
139.15384	290
140.63420	286
142.11456	283
143.59492	279
145.07528	278
146.55564	277
148.03600	275
149.51636	275
150.99672	274
152.47708	273
153.95744	273
155.43780	273
156.91816	273
158.39852	273
159.87888	273
161.35924	683
162.83960	681
164.31996	680
165.80032	677
167.28068	676
168.76104	673
170.24140	671
171.72176	669
173.20212	668
174.68248	666
176.16284	663
177.64320	661
179.12356	659
180.60392	656
182.08428	653
183.56464	652
185.04500	647
186.52536	646
188.00572	644
189.48608	643
190.96644	641
192.44680	640
193.92716	639
195.40752	639
196.88788	638
198.36824	637
199.84860	634
201.32896	632
202.80932	630
204.28968	629
205.77004	627
207.25040	624
208.73076	624
210.21112	624
211.69148	624
213.17184	623
214.65220	621
216.13256	616
217.61292	614
219.09328	611
220.57364	608
222.05400	607
223.53436	604
225.01472	602
226.49508	599
227.97544	595
229.45580	592
230.93616	590
232.41652	589
233.89688	588
235.37724	584
236.85760	582
238.33796	576
239.81832	570
241.29868	570
242.77904	566
244.25940	565
245.73976	565
247.22012	563
248.70048	557
250.18084	555
251.66120	551
253.14156	548
254.62192	543
256.10228	544
257.58264	541
259.06300	540
260.54336	537
262.02372	532
263.50408	531
264.98444	529
266.46480	526
267.94516	523
269.42552	520
270.90588	517
272.38624	515
273.86660	515
275.34696	514
276.82732	512
278.30768	507
279.78804	504
281.26840	501
282.74876	502
284.22912	496
285.70948	490
287.18984	484
288.67020	480
290.15056	475
291.63092	469
293.11128	468
294.59164	464
296.07200	457
297.55236	451
299.03272	445
300.51308	441
301.99344	435
303.47380	429
304.95416	429
306.43452	424
307.91488	417
309.39524	412
310.87560	411
312.35596	410
313.83632	407
315.31668	403
316.79704	399
318.27740	394
319.75776	389
321.23812	387
322.71848	382
324.19884	379
325.67920	374
327.15956	369
328.63992	367
330.12028	362
331.60064	357
333.08100	353
334.56136	352
336.04172	351
337.52208	347
339.00244	344
340.48280	342
341.96316	336
343.44352	334
344.92388	329
346.40424	328
347.88460	324
349.36496	318
350.84532	317
352.32568	313
353.80604	308
355.28640	304
356.76676	297
358.24712	296
359.72748	294
361.20784	288
362.68820	284
364.16856	279
365.64892	275
367.12928	271
368.60964	268
370.09000	262
371.57036	260
373.05072	256
374.53108	252
376.01144	248
377.49180	245
378.97216	241
380.45252	239
381.93288	234
383.41324	235
384.89360	233
386.37396	232
387.85432	227
389.33468	224
390.81504	222
392.29540	217
393.77576	212
395.25612	211
396.73648	209
398.21684	206
399.69720	203
401.17756	198
402.65792	195
404.13828	189
405.61864	184
407.09900	181
408.57936	178
410.05972	176
411.54008	171
413.02044	168
414.50080	164
415.98116	158
417.46152	154
418.94188	151
420.42224	151
421.90260	149
423.38296	145
424.86332	141
426.34368	139
427.82404	133
429.30440	129
430.78476	127
432.26512	123
433.74548	124
435.22584	119
436.70620	116
438.18656	110
439.66692	106
441.14728	103
442.62764	98
444.10800	92
445.58836	89
447.06872	86
448.54908	82
450.02944	77
451.50980	74
452.99016	69
454.47052	67
455.95088	63
457.43124	61
458.91160	59
460.39196	56
461.87232	53
463.35268	50
464.83304	45
466.31340	41
467.79376	38
469.27412	36
470.75448	37
472.23484	33
473.71520	29
475.19556	27
476.67592	28
478.15628	25
479.63664	22
481.11700	17
482.59736	14
484.07772	11
485.55808	7
487.03844	4
488.51880	1
489.99916	
