0	1
10.9679	3
21.9359	3
32.9038	4
43.8717	3
54.8397	3
65.8076	3
76.7755	3
87.7434	3
98.7114	3
109.679	3
120.647	3
131.615	3
142.583	3
153.551	3
164.519	3
175.487	3
186.455	4
197.423	3
208.391	4
219.359	3
230.327	3
241.294	3
252.262	3
263.23	3
274.198	3
285.166	3
296.134	4
307.102	4
318.07	3
329.038	4
340.006	4
350.974	3
361.942	4
372.91	4
383.878	4
394.845	3
405.813	3
416.781	4
427.749	3
438.717	3
449.685	3
460.653	3
471.621	3
482.589	3
493.557	4
504.525	3
515.493	4
526.461	3
537.429	4
548.397	3
559.364	3
570.332	3
581.3	3
592.268	4
603.236	3
614.204	3
625.172	4
636.14	4
647.108	3
658.076	4
669.044	3
680.012	3
690.98	3
701.948	3
712.915	4
723.883	3
734.851	4
745.819	4
756.787	4
767.755	3
778.723	3
789.691	3
800.659	3
811.627	3
822.595	3
833.563	4
844.531	4
855.499	3
866.466	4
877.434	3
888.402	4
899.37	4
910.338	3
921.306	3
932.274	3
943.242	4
954.21	3
965.178	4
976.146	3
987.114	4
998.082	3
1009.05	3
1020.02	3
1030.99	3
1041.95	3
1052.92	3
1063.89	3
1074.86	4
1085.83	4
1096.79	3
1107.76	4
1118.73	3
1129.7	3
1140.66	3
1151.63	4
1162.6	4
1173.57	3
1184.54	4
1195.5	3
1206.47	4
1217.44	3
1228.41	4
1239.38	4
1250.34	3
1261.31	3
1272.28	3
1283.25	3
1294.22	3
1305.18	4
1316.15	3
1327.12	4
1338.09	4
1349.06	3
1360.02	3
1370.99	4
1381.96	3
1392.93	3
1403.9	3
1414.86	3
1425.83	4
1436.8	3
1447.77	3
1458.73	4
1469.7	3
1480.67	4
1491.64	3
1502.61	4
1513.57	4
1524.54	3
1535.51	3
1546.48	3
1557.45	3
1568.41	4
1579.38	4
1590.35	3
1601.32	3
1612.29	3
1623.25	4
1634.22	4
1645.19	3
1656.16	4
1667.13	4
1678.09	3
1689.06	3
1700.03	3
1711	3
1721.97	4
1732.93	3
1743.9	4
1754.87	4
1765.84	3
1776.8	3
1787.77	3
1798.74	4
1809.71	3
1820.68	4
1831.64	3
1842.61	4
1853.58	4
1864.55	3
1875.52	3
1886.48	4
1897.45	3
1908.42	3
1919.39	4
1930.36	4
1941.32	3
1952.29	4
1963.26	3
1974.23	3
1985.2	3
1996.16	4
2007.13	3
2018.1	4
2029.07	3
2040.03	4
2051	3
2061.97	4
2072.94	3
2083.91	3
2094.87	3
2105.84	3
2116.81	4
2127.78	3
2138.75	3
2149.71	3
2160.68	4
2171.65	3
2182.62	3
2193.59	3
2204.55	3
2215.52	4
2226.49	4
2237.46	2
2248.43	3
2259.39	3
2270.36	4
2281.33	3
2292.3	3
2303.27	3
2314.23	3
2325.2	3
2336.17	4
2347.14	3
2358.1	3
2369.07	4
2380.04	3
2391.01	3
2401.98	3
2412.94	4
2423.91	3
2434.88	4
2445.85	3
2456.82	4
2467.78	3
2478.75	4
2489.72	3
2500.69	4
2511.66	3
2522.62	4
2533.59	3
2544.56	4
2555.53	4
2566.5	3
2577.46	4
2588.43	3
2599.4	4
2610.37	3
2621.34	3
2632.3	4
2643.27	4
2654.24	4
2665.21	4
2676.17	3
2687.14	3
2698.11	4
2709.08	4
2720.05	2
2731.01	3
2741.98	3
2752.95	3
2763.92	3
2774.89	4
2785.85	4
2796.82	3
2807.79	3
2818.76	3
2829.73	3
2840.69	3
2851.66	3
2862.63	4
2873.6	4
2884.57	4
2895.53	3
2906.5	3
2917.47	3
2928.44	3
2939.41	3
2950.37	3
2961.34	4
2972.31	3
2983.28	3
2994.24	3
3005.21	4
3016.18	4
3027.15	3
3038.12	4
3049.08	3
3060.05	3
3071.02	4
3081.99	3
3092.96	3
3103.92	3
3114.89	4
3125.86	3
3136.83	4
3147.8	3
3158.76	3
3169.73	3
3180.7	4
3191.67	4
3202.64	4
3213.6	4
3224.57	3
3235.54	4
3246.51	4
3257.48	4
3268.44	4
3279.41	4
3290.38	3
3301.35	4
3312.31	4
3323.28	4
3334.25	3
3345.22	3
3356.19	4
3367.15	3
3378.12	3
3389.09	4
3400.06	3
3411.03	4
3421.99	3
3432.96	4
3443.93	3
3454.9	3
3465.87	3
3476.83	4
3487.8	3
3498.77	4
3509.74	3
3520.71	3
3531.67	3
3542.64	3
3553.61	3
3564.58	4
3575.55	4
3586.51	3
3597.48	3
3608.45	4
3619.42	4
3630.38	4
3641.35	3
3652.32	4
3663.29	3
3674.26	4
3685.22	3
3696.19	3
3707.16	4
3718.13	3
3729.1	3
3740.06	3
3751.03	4
3762	3
3772.97	4
3783.94	3
3794.9	3
3805.87	3
3816.84	3
3827.81	4
3838.78	3
3849.74	3
3860.71	3
3871.68	3
3882.65	4
3893.62	3
3904.58	3
3915.55	3
3926.52	4
3937.49	4
3948.45	3
3959.42	3
3970.39	4
3981.36	4
3992.33	4
4003.29	4
4014.26	3
4025.23	3
4036.2	3
4047.17	4
4058.13	3
4069.1	4
4080.07	3
4091.04	4
4102.01	3
4112.97	4
4123.94	3
4134.91	4
4145.88	3
4156.85	4
4167.81	4
4178.78	3
4189.75	4
4200.72	3
4211.69	4
4222.65	4
4233.62	3
4244.59	3
4255.56	3
4266.52	4
4277.49	3
4288.46	3
4299.43	3
4310.4	4
4321.36	3
4332.33	4
4343.3	3
4354.27	3
4365.24	3
4376.2	4
4387.17	3
4398.14	4
4409.11	3
4420.08	4
4431.04	3
4442.01	3
4452.98	3
4463.95	3
4474.92	3
4485.88	4
4496.85	3
4507.82	3
4518.79	3
4529.76	3
4540.72	3
4551.69	4
4562.66	3
4573.63	4
4584.59	3
4595.56	4
4606.53	3
4617.5	3
4628.47	4
4639.43	3
4650.4	4
4661.37	3
4672.34	3
4683.31	3
4694.27	4
4705.24	3
4716.21	3
4727.18	4
4738.15	4
4749.11	4
4760.08	3
4771.05	3
4782.02	4
4792.99	3
4803.95	3
4814.92	4
4825.89	3
4836.86	4
4847.83	3
4858.79	4
4869.76	3
4880.73	3
4891.7	3
4902.66	3
4913.63	3
4924.6	3
4935.57	4
4946.54	3
4957.5	3
4968.47	4
4979.44	3
4990.41	3
5001.38	3
5012.34	3
5023.31	3
5034.28	3
5045.25	4
5056.22	3
5067.18	4
5078.15	3
5089.12	3
5100.09	3
5111.06	4
5122.02	4
5132.99	3
5143.96	3
5154.93	3
5165.9	4
5176.86	3
5187.83	4
5198.8	3
5209.77	3
5220.73	3
5231.7	3
5242.67	4
5253.64	3
5264.61	3
5275.57	3
5286.54	3
5297.51	3
5308.48	3
5319.45	4
5330.41	4
5341.38	3
5352.35	4
5363.32	3
5374.29	3
5385.25	4
5396.22	3
5407.19	3
5418.16	4
5429.13	3
5440.09	3
5451.06	4
5462.03	3
5473	3
5483.97	3
5494.93	3
5505.9	3
5516.87	4
5527.84	3
5538.8	4
5549.77	3
5560.74	3
5571.71	4
5582.68	3
5593.64	4
5604.61	3
5615.58	3
5626.55	3
5637.52	3
5648.48	3
5659.45	4
5670.42	3
5681.39	4
5692.36	3
5703.32	3
5714.29	3
5725.26	3
5736.23	3
5747.2	3
5758.16	4
5769.13	3
5780.1	4
5791.07	3
5802.03	4
5813	4
5823.97	3
5834.94	4
5845.91	4
5856.87	3
5867.84	3
5878.81	3
5889.78	4
5900.75	3
5911.71	3
5922.68	3
5933.65	4
5944.62	3
5955.59	4
5966.55	4
5977.52	3
5988.49	3
5999.46	3
6010.43	3
6021.39	4
6032.36	4
6043.33	3
6054.3	4
6065.27	4
6076.23	4
6087.2	3
6098.17	3
6109.14	3
6120.1	3
6131.07	3
6142.04	3
6153.01	4
6163.98	4
6174.94	4
6185.91	3
6196.88	3
6207.85	4
6218.82	3
6229.78	3
6240.75	4
6251.72	4
6262.69	3
6273.66	3
6284.62	4
6295.59	3
6306.56	4
6317.53	4
6328.5	3
6339.46	4
6350.43	3
6361.4	3
6372.37	3
6383.34	3
6394.3	3
6405.27	3
6416.24	3
6427.21	4
6438.17	3
6449.14	3
6460.11	3
6471.08	3
6482.05	3
6493.01	3
6503.98	4
6514.95	4
6525.92	3
6536.89	3
6547.85	4
6558.82	4
6569.79	4
6580.76	4
6591.73	4
6602.69	4
6613.66	3
6624.63	3
6635.6	4
6646.57	4
6657.53	3
6668.5	4
6679.47	4
6690.44	3
6701.41	3
6712.37	3
6723.34	3
6734.31	3
6745.28	3
6756.24	3
6767.21	3
6778.18	3
6789.15	3
6800.12	2
6811.08	3
6822.05	3
6833.02	3
6843.99	3
6854.96	4
6865.92	3
6876.89	4
6887.86	4
6898.83	4
6909.8	3
6920.76	4
6931.73	3
6942.7	3
6953.67	3
6964.64	4
6975.6	3
6986.57	3
6997.54	3
7008.51	3
7019.48	3
7030.44	3
7041.41	3
7052.38	4
7063.35	3
7074.31	4
7085.28	3
7096.25	4
7107.22	4
7118.19	3
7129.15	3
7140.12	3
7151.09	4
7162.06	3
7173.03	4
7183.99	3
7194.96	3
7205.93	4
7216.9	4
7227.87	3
7238.83	3
7249.8	3
7260.77	3
7271.74	3
7282.71	4
7293.67	3
7304.64	3
7315.61	3
7326.58	3
7337.55	3
7348.51	3
7359.48	3
7370.45	4
7381.42	3
7392.38	4
7403.35	4
7414.32	3
7425.29	3
7436.26	4
7447.22	3
7458.19	3
7469.16	4
7480.13	3
7491.1	4
7502.06	3
7513.03	4
7524	3
7534.97	3
7545.94	3
7556.9	3
7567.87	3
7578.84	4
7589.81	3
7600.78	4
7611.74	3
7622.71	4
7633.68	3
7644.65	3
7655.62	3
7666.58	3
7677.55	4
7688.52	3
7699.49	3
7710.45	4
7721.42	4
7732.39	4
7743.36	4
7754.33	4
7765.29	3
7776.26	3
7787.23	3
7798.2	3
7809.17	3
7820.13	3
7831.1	3
7842.07	3
7853.04	3
7864.01	3
7874.97	3
7885.94	3
7896.91	3
7907.88	3
7918.85	3
7929.81	3
7940.78	3
7951.75	3
7962.72	4
7973.69	4
7984.65	4
7995.62	3
8006.59	3
8017.56	3
8028.52	3
8039.49	4
8050.46	3
8061.43	3
8072.4	3
8083.36	3
8094.33	3
8105.3	3
8116.27	4
8127.24	3
8138.2	3
8149.17	4
8160.14	3
8171.11	3
8182.08	3
8193.04	4
8204.01	3
8214.98	3
8225.95	3
8236.92	4
8247.88	3
8258.85	3
8269.82	4
8280.79	3
8291.76	3
8302.72	3
8313.69	3
8324.66	4
8335.63	4
8346.59	4
8357.56	3
8368.53	3
8379.5	3
8390.47	3
8401.43	4
8412.4	4
8423.37	3
8434.34	4
8445.31	4
8456.27	3
8467.24	3
8478.21	3
8489.18	3
8500.15	4
8511.11	3
8522.08	3
8533.05	3
8544.02	3
8554.99	3
8565.95	3
8576.92	3
8587.89	3
8598.86	4
8609.83	3
8620.79	3
8631.76	4
8642.73	4
8653.7	4
8664.66	3
8675.63	4
8686.6	3
8697.57	3
8708.54	3
8719.5	3
8730.47	3
8741.44	3
8752.41	3
8763.38	3
8774.34	3
8785.31	3
8796.28	3
8807.25	3
8818.22	3
8829.18	3
8840.15	3
8851.12	4
8862.09	3
8873.06	4
8884.02	3
8894.99	4
8905.96	3
8916.93	3
8927.9	3
8938.86	4
8949.83	3
8960.8	4
8971.77	3
8982.73	4
8993.7	3
9004.67	4
9015.64	3
9026.61	3
9037.57	4
9048.54	3
9059.51	4
9070.48	3
9081.45	4
9092.41	3
9103.38	3
9114.35	3
9125.32	4
9136.29	3
9147.25	3
9158.22	3
9169.19	3
9180.16	3
9191.13	3
9202.09	3
9213.06	3
9224.03	3
9235	3
9245.96	3
9256.93	3
9267.9	3
9278.87	3
9289.84	3
9300.8	4
9311.77	4
9322.74	4
9333.71	3
9344.68	3
9355.64	3
9366.61	4
9377.58	3
9388.55	3
9399.52	4
9410.48	3
9421.45	4
9432.42	3
9443.39	4
9454.36	4
9465.32	3
9476.29	3
9487.26	3
9498.23	3
9509.2	3
9520.16	3
9531.13	3
9542.1	3
9553.07	3
9564.03	3
9575	3
9585.97	3
9596.94	4
9607.91	4
9618.87	4
9629.84	3
9640.81	3
9651.78	3
9662.75	3
9673.71	3
9684.68	4
9695.65	3
9706.62	4
9717.59	3
9728.55	3
9739.52	3
9750.49	3
9761.46	3
9772.43	4
9783.39	3
9794.36	4
9805.33	3
9816.3	4
9827.27	3
9838.23	4
9849.2	3
9860.17	3
9871.14	3
9882.1	4
9893.07	4
9904.04	3
9915.01	4
9925.98	4
9936.94	3
9947.91	3
9958.88	3
9969.85	4
9980.82	3
9991.78	4
10002.8	3
10013.7	3
10024.7	3
10035.7	3
10046.6	3
10057.6	4
10068.6	3
10079.5	4
10090.5	3
10101.5	4
10112.4	3
10123.4	4
10134.4	3
10145.3	4
10156.3	3
10167.3	3
10178.2	3
10189.2	4
10200.2	4
10211.1	3
10222.1	4
10233.1	3
10244	4
10255	3
10266	3
10277	4
10287.9	4
10298.9	4
10309.9	3
10320.8	3
10331.8	4
10342.8	4
10353.7	3
10364.7	3
10375.7	3
10386.6	3
10397.6	3
10408.6	4
10419.5	3
10430.5	3
10441.5	4
10452.4	3
10463.4	4
10474.4	3
10485.3	4
10496.3	3
10507.3	3
10518.2	3
10529.2	3
10540.2	4
10551.1	3
10562.1	4
10573.1	3
10584.1	3
10595	3
10606	3
10617	4
10627.9	4
10638.9	3
10649.9	3
10660.8	3
10671.8	3
10682.8	3
10693.7	4
10704.7	4
10715.7	4
10726.6	3
10737.6	3
10748.6	3
10759.5	4
10770.5	3
10781.5	3
10792.4	3
10803.4	4
10814.4	3
10825.3	3
10836.3	3
10847.3	3
10858.3	3
10869.2	4
10880.2	4
10891.2	3
10902.1	3
10913.1	3
10924.1	3
10935	3
10946	4
10957	3
10967.9	4
10978.9	3
10989.9	3
11000.8	3
11011.8	4
11022.8	3
11033.7	3
11044.7	3
11055.7	3
11066.6	3
11077.6	3
11088.6	3
11099.5	4
11110.5	4
11121.5	3
11132.4	3
11143.4	3
11154.4	3
11165.4	3
11176.3	3
11187.3	4
11198.3	3
11209.2	4
11220.2	3
11231.2	3
11242.1	4
11253.1	3
11264.1	4
11275	3
11286	3
11297	3
11307.9	3
11318.9	4
11329.9	4
11340.8	3
11351.8	3
11362.8	4
11373.7	3
11384.7	3
11395.7	4
11406.6	4
11417.6	3
11428.6	4
11439.6	3
11450.5	3
11461.5	3
11472.5	3
11483.4	3
11494.4	4
11505.4	3
11516.3	3
11527.3	3
11538.3	3
11549.2	3
11560.2	4
11571.2	3
11582.1	3
11593.1	3
11604.1	3
11615	3
11626	3
11637	3
11647.9	3
11658.9	3
11669.9	2
11680.8	3
11691.8	3
11702.8	3
11713.7	3
11724.7	4
11735.7	3
11746.7	3
11757.6	3
11768.6	4
11779.6	3
11790.5	3
11801.5	4
11812.5	4
11823.4	4
11834.4	3
11845.4	4
11856.3	4
11867.3	3
11878.3	3
11889.2	3
11900.2	4
11911.2	3
11922.1	4
11933.1	3
11944.1	3
11955	3
11966	3
11977	4
11987.9	3
11998.9	3
12009.9	3
12020.9	3
12031.8	3
12042.8	3
12053.8	4
12064.7	4
12075.7	3
12086.7	3
12097.6	3
12108.6	3
12119.6	4
12130.5	3
12141.5	3
12152.5	4
12163.4	4
12174.4	3
12185.4	3
12196.3	3
12207.3	4
12218.3	3
12229.2	3
12240.2	4
12251.2	3
12262.1	3
12273.1	4
12284.1	3
12295	3
12306	3
12317	4
12328	3
12338.9	3
12349.9	3
12360.9	4
12371.8	4
12382.8	3
12393.8	4
12404.7	3
12415.7	4
12426.7	3
12437.6	3
12448.6	3
12459.6	3
12470.5	4
12481.5	3
12492.5	3
12503.4	3
12514.4	3
12525.4	4
12536.3	4
12547.3	3
12558.3	3
12569.2	3
12580.2	3
12591.2	3
12602.2	3
12613.1	4
12624.1	3
12635.1	4
12646	3
12657	3
12668	3
12678.9	3
12689.9	3
12700.9	3
12711.8	4
12722.8	4
12733.8	3
12744.7	4
12755.7	3
12766.7	3
12777.6	3
12788.6	4
12799.6	3
12810.5	3
12821.5	3
12832.5	4
12843.4	3
12854.4	3
12865.4	3
12876.3	4
12887.3	3
12898.3	4
12909.3	3
12920.2	4
12931.2	3
12942.2	3
12953.1	4
12964.1	4
12975.1	3
12986	4
12997	3
13008	3
13018.9	3
13029.9	3
13040.9	3
13051.8	2
13062.8	4
13073.8	3
13084.7	3
13095.7	4
13106.7	3
13117.6	4
13128.6	4
13139.6	4
13150.5	3
13161.5	3
13172.5	4
13183.5	3
13194.4	3
13205.4	3
13216.4	4
13227.3	3
13238.3	4
13249.3	4
13260.2	3
13271.2	4
13282.2	3
13293.1	3
13304.1	3
13315.1	3
13326	3
13337	3
13348	3
13358.9	4
13369.9	4
13380.9	3
13391.8	3
13402.8	3
13413.8	3
13424.7	4
13435.7	3
13446.7	4
13457.7	3
13468.6	4
13479.6	3
13490.6	4
13501.5	3
13512.5	4
13523.5	3
13534.4	4
13545.4	4
13556.4	4
13567.3	3
13578.3	4
13589.3	4
13600.2	4
13611.2	3
13622.2	4
13633.1	3
13644.1	3
13655.1	3
13666	3
13677	3
13688	3
13698.9	3
13709.9	4
13720.9	3
13731.8	3
13742.8	3
13753.8	3
13764.8	3
13775.7	3
13786.7	4
13797.7	3
13808.6	3
13819.6	4
13830.6	3
13841.5	3
13852.5	4
13863.5	3
13874.4	4
13885.4	3
13896.4	4
13907.3	3
13918.3	3
13929.3	3
13940.2	3
13951.2	3
13962.2	3
13973.1	3
13984.1	3
13995.1	3
14006	4
14017	4
14028	4
14039	4
14049.9	4
14060.9	3
14071.9	3
14082.8	4
14093.8	4
14104.8	3
14115.7	3
14126.7	3
14137.7	3
14148.6	3
14159.6	3
14170.6	3
14181.5	3
14192.5	3
14203.5	4
14214.4	3
14225.4	3
14236.4	4
14247.3	3
14258.3	4
14269.3	4
14280.2	3
14291.2	4
14302.2	3
14313.1	3
14324.1	3
14335.1	3
14346.1	3
14357	3
14368	4
14379	3
14389.9	3
14400.9	3
14411.9	4
14422.8	3
14433.8	4
14444.8	4
14455.7	3
14466.7	3
14477.7	4
14488.6	3
14499.6	3
14510.6	3
14521.5	3
14532.5	3
14543.5	4
14554.4	4
14565.4	3
14576.4	3
14587.3	3
14598.3	3
14609.3	3
14620.3	3
14631.2	4
14642.2	3
14653.2	3
14664.1	3
14675.1	3
14686.1	4
14697	3
14708	3
14719	3
14729.9	4
14740.9	3
14751.9	3
14762.8	3
14773.8	4
14784.8	3
14795.7	3
14806.7	3
14817.7	3
14828.6	3
14839.6	4
14850.6	3
14861.5	4
14872.5	3
14883.5	4
14894.4	3
14905.4	4
14916.4	4
14927.4	3
14938.3	4
14949.3	3
14960.3	3
14971.2	4
14982.2	3
14993.2	3
15004.1	3
15015.1	3
15026.1	3
15037	4
15048	4
15059	3
15069.9	3
15080.9	4
15091.9	4
15102.8	3
15113.8	3
15124.8	3
15135.7	3
15146.7	3
15157.7	3
15168.6	4
15179.6	4
15190.6	4
15201.6	3
15212.5	4
15223.5	3
15234.5	3
15245.4	4
15256.4	4
15267.4	3
15278.3	4
15289.3	4
15300.3	3
15311.2	3
15322.2	3
15333.2	3
15344.1	4
15355.1	4
15366.1	3
15377	3
15388	3
15399	3
15409.9	3
15420.9	4
15431.9	3
15442.8	4
15453.8	3
15464.8	3
15475.7	3
15486.7	3
15497.7	3
15508.7	3
15519.6	3
15530.6	3
15541.6	3
15552.5	3
15563.5	3
15574.5	3
15585.4	3
15596.4	3
15607.4	3
15618.3	3
15629.3	3
15640.3	4
15651.2	3
15662.2	3
15673.2	3
15684.1	3
15695.1	4
15706.1	3
15717	3
15728	3
15739	4
15749.9	4
15760.9	3
15771.9	3
15782.9	3
15793.8	4
15804.8	3
15815.8	4
15826.7	3
15837.7	3
15848.7	3
15859.6	4
15870.6	3
15881.6	3
15892.5	4
15903.5	3
15914.5	3
15925.4	4
15936.4	3
15947.4	3
15958.3	3
15969.3	4
15980.3	4
15991.2	3
16002.2	3
16013.2	3
16024.1	3
16035.1	4
16046.1	3
16057	3
16068	3
16079	4
16090	4
16100.9	3
16111.9	3
16122.9	4
16133.8	4
16144.8	4
16155.8	4
16166.7	4
16177.7	4
16188.7	4
16199.6	4
16210.6	4
16221.6	4
16232.5	4
16243.5	4
16254.5	4
16265.4	4
16276.4	4
16287.4	4
16298.3	4
16309.3	4
16320.3	4
16331.2	5
16342.2	5
16353.2	5
16364.2	5
16375.1	5
16386.1	5
16397.1	6
16408	5
16419	5
16430	6
16440.9	5
16451.9	5
16462.9	5
16473.8	6
16484.8	5
16495.8	5
16506.7	5
16517.7	5
16528.7	5
16539.6	5
16550.6	5
16561.6	5
16572.5	5
16583.5	5
16594.5	5
16605.4	5
16616.4	5
16627.4	5
16638.3	5
16649.3	6
16660.3	5
16671.3	5
16682.2	6
16693.2	5
16704.2	6
16715.1	5
16726.1	5
16737.1	5
16748	5
16759	5
16770	5
16780.9	5
16791.9	5
16802.9	5
16813.8	5
16824.8	5
16835.8	5
16846.7	5
16857.7	5
16868.7	5
16879.6	5
16890.6	5
16901.6	5
16912.5	6
16923.5	5
16934.5	5
16945.5	5
16956.4	5
16967.4	5
16978.4	5
16989.3	5
17000.3	5
17011.3	5
17022.2	5
17033.2	5
17044.2	5
17055.1	5
17066.1	5
17077.1	5
17088	5
17099	5
17110	5
17120.9	5
17131.9	6
17142.9	5
17153.8	5
17164.8	6
17175.8	5
17186.7	6
17197.7	5
17208.7	5
17219.7	5
17230.6	5
17241.6	5
17252.6	5
17263.5	6
17274.5	5
17285.5	5
17296.4	5
17307.4	5
17318.4	5
17329.3	5
17340.3	5
17351.3	5
17362.2	5
17373.2	6
17384.2	6
17395.1	5
17406.1	5
17417.1	6
17428	5
17439	6
17450	5
17460.9	5
17471.9	5
17482.9	5
17493.8	5
17504.8	6
17515.8	5
17526.8	6
17537.7	6
17548.7	5
17559.7	5
17570.6	6
17581.6	6
17592.6	6
17603.5	6
17614.5	6
17625.5	5
17636.4	6
17647.4	6
17658.4	6
17669.3	6
17680.3	6
17691.3	5
17702.2	6
17713.2	6
17724.2	6
17735.1	6
17746.1	6
17757.1	6
17768	5
17779	6
17790	6
17801	6
17811.9	6
17822.9	6
17833.9	5
17844.8	6
17855.8	6
17866.8	6
17877.7	6
17888.7	6
17899.7	6
17910.6	9
17921.6	8
17932.6	10
17943.5	9
17954.5	9
17965.5	9
17976.4	9
17987.4	10
17998.4	9
18009.3	10
18020.3	9
18031.3	9
18042.2	10
18053.2	9
18064.2	9
18075.1	9
18086.1	9
18097.1	9
18108.1	10
18119	10
18130	9
18141	9
18151.9	8
18162.9	9
18173.9	9
18184.8	9
18195.8	9
18206.8	9
18217.7	9
18228.7	9
18239.7	9
18250.6	9
18261.6	9
18272.6	10
18283.5	10
18294.5	9
18305.5	10
18316.4	10
18327.4	9
18338.4	9
18349.3	9
18360.3	10
18371.3	10
18382.3	9
18393.2	10
18404.2	9
18415.2	10
18426.1	10
18437.1	9
18448.1	10
18459	10
18470	9
18481	10
18491.9	10
18502.9	9
18513.9	9
18524.8	9
18535.8	9
18546.8	10
18557.7	10
18568.7	9
18579.7	10
18590.6	10
18601.6	9
18612.6	9
18623.5	9
18634.5	10
18645.5	10
18656.4	10
18667.4	10
18678.4	10
18689.4	10
18700.3	10
18711.3	10
18722.3	10
18733.2	10
18744.2	10
18755.2	10
18766.1	10
18777.1	10
18788.1	10
18799	10
18810	10
18821	10
18831.9	10
18842.9	10
18853.9	10
18864.8	9
18875.8	9
18886.8	10
18897.7	9
18908.7	9
18919.7	10
18930.6	10
18941.6	10
18952.6	10
18963.6	10
18974.5	10
18985.5	10
18996.5	10
19007.4	10
19018.4	10
19029.4	10
19040.3	10
19051.3	10
19062.3	10
19073.2	10
19084.2	10
19095.2	10
19106.1	10
19117.1	10
19128.1	10
19139	10
19150	10
19161	10
19171.9	10
19182.9	10
19193.9	10
19204.8	10
19215.8	10
19226.8	10
19237.7	10
19248.7	10
19259.7	10
19270.7	10
19281.6	10
19292.6	10
19303.6	10
19314.5	10
19325.5	10
19336.5	10
19347.4	10
19358.4	10
19369.4	10
19380.3	10
19391.3	10
19402.3	10
19413.2	10
19424.2	10
19435.2	10
19446.1	10
19457.1	10
19468.1	10
19479	10
19490	10
19501	10
19511.9	10
19522.9	10
19533.9	10
19544.9	10
19555.8	10
19566.8	10
19577.8	10
19588.7	11
19599.7	11
19610.7	11
19621.6	11
19632.6	11
19643.6	11
19654.5	12
19665.5	11
19676.5	11
19687.4	11
19698.4	11
19709.4	11
19720.3	11
19731.3	11
19742.3	11
19753.2	11
19764.2	11
19775.2	11
19786.1	12
19797.1	11
19808.1	11
19819	12
19830	12
19841	11
19852	11
19862.9	11
19873.9	11
19884.9	11
19895.8	11
19906.8	11
19917.8	11
19928.7	11
19939.7	11
19950.7	11
19961.6	11
19972.6	11
19983.6	11
19994.5	11
20005.5	11
20016.5	11
20027.4	11
20038.4	11
20049.4	11
20060.3	11
20071.3	12
20082.3	11
20093.2	12
20104.2	11
20115.2	11
20126.2	11
20137.1	12
20148.1	11
20159.1	11
20170	11
20181	11
20192	11
20202.9	11
20213.9	11
20224.9	11
20235.8	11
20246.8	11
20257.8	11
20268.7	11
20279.7	11
20290.7	11
20301.6	11
20312.6	11
20323.6	11
20334.5	11
20345.5	11
20356.5	11
20367.4	12
20378.4	12
20389.4	11
20400.3	12
20411.3	11
20422.3	11
20433.3	11
20444.2	11
20455.2	11
20466.2	11
20477.1	11
20488.1	11
20499.1	11
20510	11
20521	11
20532	11
20542.9	11
20553.9	11
20564.9	11
20575.8	11
20586.8	12
20597.8	11
20608.7	11
20619.7	11
20630.7	11
20641.6	11
20652.6	11
20663.6	12
20674.5	12
20685.5	12
20696.5	11
20707.5	11
20718.4	11
20729.4	11
20740.4	12
20751.3	11
20762.3	11
20773.3	11
20784.2	11
20795.2	11
20806.2	11
20817.1	11
20828.1	11
20839.1	12
20850	12
20861	11
20872	12
20882.9	11
20893.9	12
20904.9	12
20915.8	11
20926.8	12
20937.8	12
20948.7	12
20959.7	11
20970.7	11
20981.7	11
20992.6	11
21003.6	11
21014.6	11
21025.5	12
21036.5	11
21047.5	11
21058.4	11
21069.4	11
21080.4	11
21091.3	11
21102.3	11
21113.3	11
21124.2	11
21135.2	11
21146.2	11
21157.1	11
21168.1	11
21179.1	11
21190	11
21201	11
21212	12
21222.9	12
21233.9	12
21244.9	12
21255.8	11
21266.8	11
21277.8	11
21288.8	12
21299.7	11
21310.7	11
21321.7	11
21332.6	12
21343.6	12
21354.6	12
21365.5	11
21376.5	11
21387.5	11
21398.4	11
21409.4	11
21420.4	11
21431.3	11
21442.3	11
21453.3	11
21464.2	11
21475.2	12
21486.2	11
21497.1	11
21508.1	11
21519.1	11
21530	11
21541	11
21552	11
21563	11
21573.9	11
21584.9	12
21595.9	11
21606.8	12
21617.8	11
21628.8	12
21639.7	11
21650.7	12
21661.7	12
21672.6	12
21683.6	12
21694.6	11
21705.5	11
21716.5	11
21727.5	11
21738.4	12
21749.4	11
21760.4	11
21771.3	11
21782.3	11
21793.3	11
21804.2	11
21815.2	11
21826.2	11
21837.1	11
21848.1	12
21859.1	11
21870.1	11
21881	11
21892	11
21903	11
21913.9	12
21924.9	11
21935.9	11
21946.8	11
21957.8	12
21968.8	11
21979.7	11
21990.7	11
22001.7	11
22012.6	11
22023.6	11
22034.6	12
22045.5	11
22056.5	11
22067.5	11
22078.4	11
22089.4	11
22100.4	11
22111.3	12
22122.3	12
22133.3	12
22144.3	12
22155.2	11
22166.2	11
22177.2	11
22188.1	12
22199.1	11
22210.1	11
22221	11
22232	12
22243	12
22253.9	11
22264.9	11
22275.9	11
22286.8	12
22297.8	11
22308.8	12
22319.7	11
22330.7	11
22341.7	11
22352.6	11
22363.6	11
22374.6	11
22385.5	11
22396.5	11
22407.5	11
22418.4	11
22429.4	11
22440.4	11
22451.4	11
22462.3	11
22473.3	11
22484.3	11
22495.2	11
22506.2	11
22517.2	11
22528.1	11
22539.1	11
22550.1	11
22561	11
22572	11
22583	11
22593.9	12
22604.9	11
22615.9	11
22626.8	12
22637.8	11
22648.8	11
22659.7	11
22670.7	11
22681.7	12
22692.6	11
22703.6	11
22714.6	12
22725.6	11
22736.5	11
22747.5	12
22758.5	11
22769.4	11
22780.4	11
22791.4	12
22802.3	11
22813.3	11
22824.3	11
22835.2	11
22846.2	11
22857.2	11
22868.1	12
22879.1	11
22890.1	12
22901	12
22912	12
22923	12
22933.9	13
22944.9	14
22955.9	13
22966.8	13
22977.8	14
22988.8	14
22999.7	13
23010.7	13
23021.7	13
23032.7	13
23043.6	13
23054.6	13
23065.6	13
23076.5	13
23087.5	13
23098.5	14
23109.4	14
23120.4	13
23131.4	13
23142.3	13
23153.3	13
23164.3	13
23175.2	13
23186.2	14
23197.2	13
23208.1	13
23219.1	13
23230.1	14
23241	14
23252	13
23263	14
23273.9	13
23284.9	13
23295.9	13
23306.9	13
23317.8	13
23328.8	14
23339.8	13
23350.7	13
23361.7	13
23372.7	14
23383.6	13
23394.6	13
23405.6	13
23416.5	13
23427.5	14
23438.5	13
23449.4	13
23460.4	13
23471.4	13
23482.3	13
23493.3	13
23504.3	13
23515.2	13
23526.2	13
23537.2	13
23548.1	13
23559.1	14
23570.1	13
23581	14
23592	14
23603	14
23614	14
23624.9	14
23635.9	13
23646.9	13
23657.8	14
23668.8	13
23679.8	13
23690.7	13
23701.7	13
23712.7	13
23723.6	13
23734.6	13
23745.6	13
23756.5	13
23767.5	14
23778.5	14
23789.4	14
23800.4	14
23811.4	13
23822.3	13
23833.3	14
23844.3	13
23855.2	13
23866.2	14
23877.2	13
23888.2	14
23899.1	13
23910.1	14
23921.1	14
23932	13
23943	14
23954	13
23964.9	13
23975.9	13
23986.9	14
23997.8	14
24008.8	13
24019.8	14
24030.7	13
24041.7	14
24052.7	13
24063.6	13
24074.6	13
24085.6	13
24096.5	14
24107.5	14
24118.5	13
24129.4	14
24140.4	14
24151.4	14
24162.3	14
24173.3	13
24184.3	14
24195.3	14
24206.2	14
24217.2	14
24228.2	14
24239.1	14
24250.1	14
24261.1	14
24272	14
24283	14
24294	14
24304.9	14
24315.9	14
24326.9	14
24337.8	14
24348.8	14
24359.8	14
24370.7	14
24381.7	14
24392.7	14
24403.6	14
24414.6	14
24425.6	14
24436.5	14
24447.5	14
24458.5	14
24469.5	14
24480.4	14
24491.4	14
24502.4	14
24513.3	14
24524.3	14
24535.3	14
24546.2	14
24557.2	14
24568.2	14
24579.1	14
24590.1	14
24601.1	14
24612	14
24623	14
24634	14
24644.9	14
24655.9	14
24666.9	14
24677.8	12
24688.8	10
24699.8	10
24710.7	11
24721.7	12
24732.7	11
24743.7	11
24754.6	11
24765.6	11
24776.6	11
24787.5	11
24798.5	11
24809.5	11
24820.4	11
24831.4	11
24842.4	11
24853.3	11
24864.3	12
24875.3	12
24886.2	12
24897.2	12
24908.2	12
24919.1	12
24930.1	12
24941.1	12
24952	12
24963	12
24974	12
24984.9	12
24995.9	12
25006.9	12
25017.8	12
25028.8	12
25039.8	12
25050.8	12
25061.7	12
25072.7	12
25083.7	12
25094.6	12
25105.6	12
25116.6	12
25127.5	12
25138.5	12
25149.5	12
25160.4	12
25171.4	12
25182.4	12
25193.3	12
25204.3	12
25215.3	12
25226.2	12
25237.2	12
25248.2	12
25259.1	12
25270.1	12
25281.1	12
25292	12
25303	12
25314	12
25325	12
25335.9	12
25346.9	12
25357.9	12
25368.8	12
25379.8	12
25390.8	12
25401.7	12
25412.7	12
25423.7	12
25434.6	12
25445.6	12
25456.6	12
25467.5	12
25478.5	12
25489.5	12
25500.4	12
25511.4	12
25522.4	12
25533.3	12
25544.3	12
25555.3	12
25566.2	12
25577.2	12
25588.2	12
25599.1	12
25610.1	12
25621.1	13
25632.1	14
25643	14
25654	14
25665	14
25675.9	14
25686.9	15
25697.9	15
25708.8	15
25719.8	15
25730.8	15
25741.7	15
25752.7	16
25763.7	15
25774.6	15
25785.6	15
25796.6	15
25807.5	15
25818.5	15
25829.5	15
25840.4	15
25851.4	15
25862.4	16
25873.3	15
25884.3	15
25895.3	15
25906.3	15
25917.2	15
25928.2	15
25939.2	15
25950.1	15
25961.1	15
25972.1	16
25983	15
25994	15
26005	15
26015.9	15
26026.9	15
26037.9	15
26048.8	15
26059.8	15
26070.8	15
26081.7	15
26092.7	15
26103.7	15
26114.6	15
26125.6	15
26136.6	15
26147.5	15
26158.5	15
26169.5	15
26180.4	16
26191.4	15
26202.4	15
26213.4	15
26224.3	15
26235.3	15
26246.3	15
26257.2	15
26268.2	15
26279.2	15
26290.1	15
26301.1	15
26312.1	15
26323	15
26334	15
26345	15
26355.9	15
26366.9	15
26377.9	15
26388.8	15
26399.8	15
26410.8	15
26421.7	15
26432.7	15
26443.7	15
26454.6	15
26465.6	15
26476.6	15
26487.6	15
26498.5	15
26509.5	15
26520.5	15
26531.4	15
26542.4	15
26553.4	15
26564.3	15
26575.3	15
26586.3	15
26597.2	15
26608.2	15
26619.2	15
26630.1	15
26641.1	15
26652.1	15
26663	15
26674	15
26685	15
26695.9	15
26706.9	16
26717.9	15
26728.8	15
26739.8	15
26750.8	15
26761.7	16
26772.7	16
26783.7	15
26794.7	15
26805.6	15
26816.6	15
26827.6	15
26838.5	16
26849.5	15
26860.5	15
26871.4	15
26882.4	15
26893.4	15
26904.3	16
26915.3	15
26926.3	15
26937.2	16
26948.2	15
26959.2	15
26970.1	15
26981.1	15
26992.1	15
27003	15
27014	15
27025	16
27035.9	16
27046.9	15
27057.9	15
27068.9	15
27079.8	15
27090.8	15
27101.8	15
27112.7	15
27123.7	15
27134.7	15
27145.6	15
27156.6	15
27167.6	15
27178.5	15
27189.5	15
27200.5	15
27211.4	15
27222.4	15
27233.4	15
27244.3	15
27255.3	15
27266.3	15
27277.2	15
27288.2	15
27299.2	15
27310.1	15
27321.1	15
27332.1	15
27343	15
27354	15
27365	15
27376	15
27386.9	16
27397.9	16
27408.9	16
27419.8	16
27430.8	16
27441.8	16
27452.7	14
27463.7	14
27474.7	15
27485.6	16
27496.6	16
27507.6	16
27518.5	16
27529.5	16
27540.5	16
27551.4	17
27562.4	18
27573.4	18
27584.3	18
27595.3	18
27606.3	18
27617.2	18
27628.2	18
27639.2	18
27650.2	18
27661.1	18
27672.1	18
27683.1	18
27694	18
27705	18
27716	18
27726.9	18
27737.9	18
27748.9	18
27759.8	18
27770.8	18
27781.8	18
27792.7	18
27803.7	18
27814.7	18
27825.6	18
27836.6	18
27847.6	18
27858.5	18
27869.5	18
27880.5	18
27891.4	18
27902.4	18
27913.4	14
27924.3	14
27935.3	14
27946.3	14
27957.3	13
27968.2	13
27979.2	13
27990.2	13
28001.1	13
28012.1	13
28023.1	13
28034	14
28045	14
28056	13
28066.9	14
28077.9	13
28088.9	13
28099.8	13
28110.8	13
28121.8	14
28132.7	14
28143.7	14
28154.7	14
28165.6	14
28176.6	13
28187.6	13
28198.5	14
28209.5	14
28220.5	14
28231.5	13
28242.4	14
28253.4	14
28264.4	14
28275.3	14
28286.3	14
28297.3	14
28308.2	14
28319.2	14
28330.2	14
28341.1	14
28352.1	14
28363.1	14
28374	14
28385	14
28396	14
28406.9	14
28417.9	14
28428.9	14
28439.8	14
28450.8	14
28461.8	14
28472.7	14
28483.7	14
28494.7	14
28505.7	14
28516.6	14
28527.6	14
28538.6	14
28549.5	14
28560.5	14
28571.5	14
28582.4	14
28593.4	14
28604.4	14
28615.3	14
28626.3	14
28637.3	14
28648.2	14
28659.2	14
28670.2	14
28681.1	14
28692.1	14
28703.1	14
28714	14
28725	14
28736	14
28746.9	14
28757.9	14
28768.9	14
28779.8	14
28790.8	15
28801.8	17
28812.8	18
28823.7	17
28834.7	17
28845.7	17
28856.6	17
28867.6	17
28878.6	18
28889.5	17
28900.5	17
28911.5	17
28922.4	17
28933.4	17
28944.4	18
28955.3	17
28966.3	17
28977.3	17
28988.2	17
28999.2	18
29010.2	18
29021.1	17
29032.1	18
29043.1	17
29054	17
29065	17
29076	18
29087	18
29097.9	17
29108.9	18
29119.9	18
29130.8	17
29141.8	17
29152.8	18
29163.7	17
29174.7	18
29185.7	18
29196.6	18
29207.6	17
29218.6	17
29229.5	18
29240.5	18
29251.5	17
29262.4	17
29273.4	17
29284.4	17
29295.3	18
29306.3	17
29317.3	18
29328.2	17
29339.2	17
29350.2	18
29361.1	17
29372.1	17
29383.1	17
29394.1	17
29405	17
29416	17
29427	18
29437.9	17
29448.9	17
29459.9	18
29470.8	18
29481.8	17
29492.8	18
29503.7	17
29514.7	18
29525.7	16
29536.6	17
29547.6	18
29558.6	17
29569.5	17
29580.5	17
29591.5	17
29602.4	18
29613.4	17
29624.4	17
29635.3	18
29646.3	18
29657.3	17
29668.3	17
29679.2	17
29690.2	18
29701.2	17
29712.1	18
29723.1	17
29734.1	18
29745	17
29756	17
29767	17
29777.9	18
29788.9	17
29799.9	18
29810.8	17
29821.8	18
29832.8	18
29843.7	17
29854.7	17
29865.7	17
29876.6	17
29887.6	16
29898.6	18
29909.5	17
29920.5	17
29931.5	18
29942.4	17
29953.4	17
29964.4	17
29975.4	18
29986.3	18
29997.3	17
30008.3	17
30019.2	17
30030.2	17
30041.2	18
30052.1	17
30063.1	18
30074.1	17
30085	17
30096	18
30107	18
30117.9	17
30128.9	18
30139.9	17
30150.8	18
30161.8	17
30172.8	18
30183.7	17
30194.7	18
30205.7	17
30216.6	17
30227.6	17
30238.6	18
30249.6	17
30260.5	17
30271.5	17
30282.5	18
30293.4	17
30304.4	18
30315.4	18
30326.3	18
30337.3	18
30348.3	17
30359.2	18
30370.2	18
30381.2	17
30392.1	17
30403.1	17
30414.1	17
30425	17
30436	18
30447	17
30457.9	17
30468.9	18
30479.9	17
30490.8	18
30501.8	18
30512.8	17
30523.7	17
30534.7	17
30545.7	17
30556.7	17
30567.6	17
30578.6	17
30589.6	17
30600.5	18
30611.5	17
30622.5	17
30633.4	17
30644.4	17
30655.4	18
30666.3	17
30677.3	17
30688.3	18
30699.2	17
30710.2	17
30721.2	17
30732.1	18
30743.1	17
30754.1	18
30765	18
30776	18
30787	17
30797.9	17
30808.9	17
30819.9	18
30830.9	17
30841.8	18
30852.8	18
30863.8	18
30874.7	17
30885.7	18
30896.7	17
30907.6	18
30918.6	17
30929.6	17
30940.5	17
30951.5	17
30962.5	18
30973.4	18
30984.4	17
30995.4	18
31006.3	17
31017.3	17
31028.3	18
31039.2	17
31050.2	17
31061.2	17
31072.1	17
31083.1	18
31094.1	17
31105	17
31116	18
31127	17
31138	17
31148.9	17
31159.9	17
31170.9	18
31181.8	17
31192.8	18
31203.8	17
31214.7	18
31225.7	17
31236.7	17
31247.6	17
31258.6	18
31269.6	18
31280.5	18
31291.5	18
31302.5	17
31313.4	17
31324.4	17
31335.4	17
31346.3	17
31357.3	17
31368.3	17
31379.2	18
31390.2	17
31401.2	17
31412.2	17
31423.1	17
31434.1	18
31445.1	17
31456	17
31467	18
31478	17
31488.9	17
31499.9	18
31510.9	17
31521.8	18
31532.8	17
31543.8	18
31554.7	17
31565.7	18
31576.7	17
31587.6	18
31598.6	18
31609.6	18
31620.5	18
31631.5	18
31642.5	17
31653.4	18
31664.4	18
31675.4	17
31686.3	17
31697.3	18
31708.3	17
31719.3	17
31730.2	17
31741.2	17
31752.2	17
31763.1	18
31774.1	18
31785.1	18
31796	18
31807	17
31818	17
31828.9	17
31839.9	17
31850.9	17
31861.8	17
31872.8	17
31883.8	18
31894.7	17
31905.7	17
31916.7	17
31927.6	18
31938.6	18
31949.6	18
31960.5	18
31971.5	18
31982.5	18
31993.5	17
32004.4	16
32015.4	16
32026.4	16
32037.3	16
32048.3	16
32059.3	16
32070.2	16
32081.2	16
32092.2	16
32103.1	16
32114.1	16
32125.1	16
32136	16
32147	16
32158	16
32168.9	16
32179.9	16
32190.9	16
32201.8	16
32212.8	16
32223.8	16
32234.7	16
32245.7	16
32256.7	16
32267.7	16
32278.6	16
32289.6	16
32300.6	16
32311.5	16
32322.5	15
32333.5	16
32344.4	16
32355.4	15
32366.4	16
32377.3	16
32388.3	16
32399.3	15
32410.2	15
32421.2	16
32432.2	15
32443.1	16
32454.1	15
32465.1	15
32476	15
32487	15
32498	16
32508.9	15
32519.9	15
32530.9	15
32541.8	15
32552.8	15
32563.8	16
32574.8	16
32585.7	16
32596.7	16
32607.7	16
32618.6	16
32629.6	16
32640.6	16
32651.5	16
32662.5	16
32673.5	16
32684.4	16
32695.4	14
32706.4	14
32717.3	14
32728.3	14
32739.3	14
32750.2	14
32761.2	14
32772.2	14
32783.1	14
32794.1	14
32805.1	14
32816	14
32827	14
32838	14
32849	14
32859.9	14
32870.9	14
32881.9	14
32892.8	14
32903.8	13
32914.8	14
32925.7	14
32936.7	14
32947.7	13
32958.6	13
32969.6	13
32980.6	14
32991.5	13
33002.5	13
33013.5	13
33024.4	13
33035.4	14
33046.4	13
33057.3	13
33068.3	14
33079.3	13
33090.2	13
33101.2	13
33112.2	14
33123.1	14
33134.1	13
33145.1	14
33156.1	13
33167	13
33178	13
33189	14
33199.9	13
33210.9	13
33221.9	13
33232.8	13
33243.8	13
33254.8	13
33265.7	13
33276.7	13
33287.7	13
33298.6	14
33309.6	13
33320.6	14
33331.5	14
33342.5	14
33353.5	14
33364.4	13
33375.4	14
33386.4	13
33397.3	14
33408.3	13
33419.3	13
33430.3	13
33441.2	14
33452.2	13
33463.2	14
33474.1	13
33485.1	13
33496.1	14
33507	14
33518	14
33529	14
33539.9	14
33550.9	14
33561.9	14
33572.8	14
33583.8	14
33594.8	14
33605.7	14
33616.7	14
33627.7	14
33638.6	14
33649.6	14
33660.6	14
33671.5	14
33682.5	14
33693.5	14
33704.4	14
33715.4	14
33726.4	14
33737.4	14
33748.3	14
33759.3	14
33770.3	14
33781.2	14
33792.2	14
33803.2	14
33814.1	14
33825.1	14
33836.1	14
33847	14
33858	14
33869	14
33879.9	14
33890.9	14
33901.9	13
33912.8	12
33923.8	12
33934.8	12
33945.7	12
33956.7	12
33967.7	12
33978.6	12
33989.6	12
34000.6	12
34011.6	12
34022.5	12
34033.5	12
34044.5	12
34055.4	12
34066.4	12
34077.4	12
34088.3	12
34099.3	12
34110.3	12
34121.2	12
34132.2	12
34143.2	12
34154.1	12
34165.1	12
34176.1	12
34187	12
34198	12
34209	12
34219.9	12
34230.9	12
34241.9	12
34252.8	12
34263.8	12
34274.8	12
34285.7	12
34296.7	12
34307.7	12
34318.7	12
34329.6	12
34340.6	12
34351.6	12
34362.5	12
34373.5	12
34384.5	12
34395.4	12
34406.4	12
34417.4	12
34428.3	12
34439.3	12
34450.3	12
34461.2	12
34472.2	12
34483.2	12
34494.1	12
34505.1	12
34516.1	12
34527	12
34538	12
34549	12
34559.9	12
34570.9	12
34581.9	12
34592.9	12
34603.8	12
34614.8	12
34625.8	12
34636.7	12
34647.7	12
34658.7	12
34669.6	11
34680.6	10
34691.6	10
34702.5	10
34713.5	10
34724.5	9
34735.4	8
34746.4	8
34757.4	8
34768.3	8
34779.3	8
34790.3	8
34801.2	8
34812.2	8
34823.2	8
34834.1	8
34845.1	8
34856.1	8
34867	8
34878	8
34889	8
34900	8
34910.9	8
34921.9	8
34932.9	8
34943.8	8
34954.8	8
34965.8	8
34976.7	8
34987.7	8
34998.7	7
35009.6	6
35020.6	6
35031.6	6
35042.5	6
35053.5	6
35064.5	5
35075.4	4
35086.4	4
35097.4	4
35108.3	4
35119.3	4
35130.3	4
35141.2	4
35152.2	4
35163.2	4
35174.2	4
35185.1	4
35196.1	4
35207.1	4
35218	4
35229	4
35240	4
35250.9	4
35261.9	4
35272.9	4
35283.8	4
35294.8	4
35305.8	4
35316.7	4
35327.7	4
35338.7	4
35349.6	4
35360.6	4
35371.6	4
35382.5	4
35393.5	4
35404.5	4
35415.4	4
35426.4	4
35437.4	4
35448.3	4
35459.3	4
35470.3	4
35481.3	4
35492.2	4
35503.2	4
35514.2	4
35525.1	4
35536.1	4
35547.1	4
35558	4
35569	4
35580	4
35590.9	4
35601.9	4
35612.9	4
35623.8	4
35634.8	4
35645.8	4
35656.7	4
35667.7	4
35678.7	4
35689.6	4
35700.6	4
35711.6	4
35722.5	4
35733.5	4
35744.5	4
35755.5	4
35766.4	4
35777.4	4
35788.4	4
35799.3	4
35810.3	4
35821.3	4
35832.2	4
35843.2	4
35854.2	4
35865.1	4
35876.1	4
35887.1	4
35898	4
35909	4
35920	4
35930.9	4
35941.9	4
35952.9	4
35963.8	4
35974.8	4
35985.8	4
35996.7	4
36007.7	4
36018.7	4
36029.7	4
36040.6	4
36051.6	4
36062.6	4
36073.5	4
36084.5	4
36095.5	4
36106.4	3
36117.4	1
36128.4	1
36139.3	7
36150.3	11
36161.3	13
36172.2	20
36183.2	23
36194.2	23
36205.1	23
36216.1	24
36227.1	23
36238	24
36249	23
36260	23
36270.9	23
36281.9	23
36292.9	23
36303.8	25
36314.8	25
36325.8	25
36336.8	25
36347.7	25
36358.7	25
36369.7	26
36380.6	26
36391.6	25
36402.6	26
36413.5	25
36424.5	25
36435.5	26
36446.4	26
36457.4	25
36468.4	26
36479.3	25
36490.3	26
36501.3	26
36512.2	25
36523.2	25
36534.2	25
36545.1	25
36556.1	25
36567.1	26
36578	25
36589	25
36600	25
36611	25
36621.9	25
36632.9	25
36643.9	25
36654.8	25
36665.8	26
36676.8	26
36687.7	25
36698.7	25
36709.7	25
36720.6	25
36731.6	25
36742.6	25
36753.5	25
36764.5	25
36775.5	25
36786.4	26
36797.4	26
36808.4	25
36819.3	25
36830.3	25
36841.3	25
36852.2	25
36863.2	25
36874.2	25
36885.1	25
36896.1	25
36907.1	25
36918.1	25
36929	25
36940	26
36951	25
36961.9	25
36972.9	25
36983.9	26
36994.8	25
37005.8	25
37016.8	26
37027.7	25
37038.7	25
37049.7	26
37060.6	26
37071.6	26
37082.6	25
37093.5	26
37104.5	25
37115.5	25
37126.4	25
37137.4	26
37148.4	26
37159.3	25
37170.3	25
37181.3	26
37192.3	26
37203.2	26
37214.2	25
37225.2	25
37236.1	26
37247.1	25
37258.1	25
37269	25
37280	26
37291	25
37301.9	25
37312.9	25
37323.9	26
37334.8	26
37345.8	26
37356.8	26
37367.7	25
37378.7	26
37389.7	26
37400.6	25
37411.6	26
37422.6	25
37433.5	25
37444.5	26
37455.5	25
37466.4	26
37477.4	25
37488.4	26
37499.4	26
37510.3	25
37521.3	26
37532.3	25
37543.2	25
37554.2	25
37565.2	25
37576.1	26
37587.1	26
37598.1	25
37609	26
37620	25
37631	26
37641.9	26
37652.9	25
37663.9	25
37674.8	26
37685.8	25
37696.8	25
37707.7	25
37718.7	25
37729.7	25
37740.6	26
37751.6	25
37762.6	26
37773.6	26
37784.5	26
37795.5	25
37806.5	25
37817.4	26
37828.4	25
37839.4	25
37850.3	26
37861.3	25
37872.3	25
37883.2	25
37894.2	25
37905.2	25
37916.1	26
37927.1	25
37938.1	25
37949	25
37960	26
37971	25
37981.9	26
37992.9	26
38003.9	26
38014.8	26
38025.8	25
38036.8	26
38047.7	25
38058.7	25
38069.7	25
38080.7	26
38091.6	25
38102.6	25
38113.6	26
38124.5	26
38135.5	25
38146.5	25
38157.4	26
38168.4	25
38179.4	26
38190.3	25
38201.3	25
38212.3	26
38223.2	26
38234.2	25
38245.2	26
38256.1	26
38267.1	25
38278.1	26
38289	25
38300	25
38311	26
38321.9	25
38332.9	26
38343.9	25
38354.9	26
38365.8	26
38376.8	26
38387.8	25
38398.7	25
38409.7	26
38420.7	26
38431.6	26
38442.6	26
38453.6	26
38464.5	25
38475.5	26
38486.5	25
38497.4	25
38508.4	25
38519.4	25
38530.3	26
38541.3	25
38552.3	26
38563.2	25
38574.2	25
38585.2	26
38596.1	25
38607.1	25
38618.1	26
38629	26
38640	26
38651	25
38662	25
38672.9	25
38683.9	25
38694.9	25
38705.8	26
38716.8	25
38727.8	26
38738.7	26
38749.7	25
38760.7	26
38771.6	26
38782.6	25
38793.6	26
38804.5	25
38815.5	25
38826.5	25
38837.4	25
38848.4	26
38859.4	25
38870.3	25
38881.3	24
38892.3	25
38903.2	26
38914.2	26
38925.2	25
38936.2	26
38947.1	25
38958.1	25
38969.1	25
38980	26
38991	26
39002	25
39012.9	25
39023.9	25
39034.9	25
39045.8	25
39056.8	25
39067.8	25
39078.7	25
39089.7	25
39100.7	25
39111.6	25
39122.6	25
39133.6	25
39144.5	26
39155.5	26
39166.5	25
39177.4	26
39188.4	25
39199.4	25
39210.3	25
39221.3	26
39232.3	25
39243.3	25
39254.2	25
39265.2	25
39276.2	25
39287.1	26
39298.1	26
39309.1	25
39320	26
39331	26
39342	26
39352.9	26
39363.9	25
39374.9	25
39385.8	25
39396.8	26
39407.8	26
39418.7	26
39429.7	25
39440.7	25
39451.6	25
39462.6	25
39473.6	25
39484.5	25
39495.5	25
39506.5	26
39517.5	25
39528.4	26
39539.4	25
39550.4	25
39561.3	25
39572.3	26
39583.3	25
39594.2	25
39605.2	26
39616.2	25
39627.1	25
39638.1	25
39649.1	25
39660	26
39671	25
39682	26
39692.9	25
39703.9	25
39714.9	25
39725.8	26
39736.8	26
39747.8	25
39758.7	25
39769.7	25
39780.7	26
39791.7	26
39802.6	25
39813.6	24
39824.6	25
39835.5	26
39846.5	26
39857.5	25
39868.4	26
39879.4	26
39890.4	26
39901.3	25
39912.3	26
39923.3	25
39934.2	25
39945.2	25
39956.2	26
39967.1	25
39978.1	25
39989.1	25
40000	24
40011	26
40022	25
40032.9	26
40043.9	25
40054.9	25
40065.8	25
40076.8	26
40087.8	26
40098.8	25
40109.7	25
40120.7	25
40131.7	26
40142.6	25
40153.6	25
40164.6	26
40175.5	26
40186.5	25
40197.5	26
40208.4	26
40219.4	25
40230.4	26
40241.3	26
40252.3	26
40263.3	25
40274.2	25
40285.2	26
40296.2	26
40307.1	25
40318.1	26
40329.1	26
40340	25
40351	26
40362	26
40373	26
40383.9	25
40394.9	25
40405.9	25
40416.8	25
40427.8	26
40438.8	25
40449.7	25
40460.7	25
40471.7	26
40482.6	25
40493.6	26
40504.6	26
40515.5	26
40526.5	25
40537.5	26
40548.4	26
40559.4	25
40570.4	25
40581.3	25
40592.3	25
40603.3	25
40614.2	25
40625.2	25
40636.2	25
40647.1	25
40658.1	26
40669.1	24
40680.1	25
40691	25
40702	25
40713	25
40723.9	25
40734.9	26
40745.9	25
40756.8	25
40767.8	26
40778.8	25
40789.7	25
40800.7	26
40811.7	25
40822.6	25
40833.6	25
40844.6	25
40855.5	25
40866.5	25
40877.5	25
40888.4	26
40899.4	25
40910.4	25
40921.3	25
40932.3	25
40943.3	25
40954.3	24
40965.2	26
40976.2	25
40987.2	25
40998.1	25
41009.1	25
41020.1	25
41031	25
41042	26
41053	26
41063.9	26
41074.9	26
41085.9	26
41096.8	25
41107.8	25
41118.8	26
41129.7	26
41140.7	25
41151.7	26
41162.6	25
41173.6	25
41184.6	26
41195.5	25
41206.5	25
41217.5	26
41228.4	25
41239.4	26
41250.4	26
41261.4	25
41272.3	26
41283.3	25
41294.3	25
41305.2	25
41316.2	26
41327.2	25
41338.1	25
41349.1	25
41360.1	25
41371	25
41382	26
41393	25
41403.9	25
41414.9	26
41425.9	25
41436.8	25
41447.8	26
41458.8	25
41469.7	25
41480.7	26
41491.7	26
41502.6	25
41513.6	25
41524.6	25
41535.6	25
41546.5	26
41557.5	26
41568.5	25
41579.4	25
41590.4	25
41601.4	26
41612.3	25
41623.3	25
41634.3	26
41645.2	25
41656.2	26
41667.2	26
41678.1	25
41689.1	26
41700.1	26
41711	26
41722	25
41733	25
41743.9	25
41754.9	26
41765.9	26
41776.8	25
41787.8	26
41798.8	25
41809.7	26
41820.7	25
41831.7	25
41842.7	26
41853.6	25
41864.6	25
41875.6	26
41886.5	25
41897.5	26
41908.5	26
41919.4	25
41930.4	26
41941.4	25
41952.3	26
41963.3	25
41974.3	26
41985.2	25
41996.2	25
42007.2	25
42018.1	25
42029.1	26
42040.1	25
42051	26
42062	25
42073	25
42083.9	26
42094.9	25
42105.9	26
42116.9	26
42127.8	25
42138.8	26
42149.8	25
42160.7	25
42171.7	25
42182.7	26
42193.6	25
42204.6	25
42215.6	26
42226.5	25
42237.5	26
42248.5	26
42259.4	25
42270.4	25
42281.4	25
42292.3	25
42303.3	24
42314.3	25
42325.2	25
42336.2	26
42347.2	25
42358.1	25
42369.1	26
42380.1	25
42391	25
42402	26
42413	25
42424	26
42434.9	25
42445.9	26
42456.9	25
42467.8	26
42478.8	26
42489.8	26
42500.7	26
42511.7	25
42522.7	26
42533.6	25
42544.6	26
42555.6	25
42566.5	26
42577.5	25
42588.5	25
42599.4	26
42610.4	25
42621.4	26
42632.3	25
42643.3	25
42654.3	25
42665.2	26
42676.2	25
42687.2	26
42698.2	25
42709.1	26
42720.1	26
42731.1	26
42742	26
42753	25
42764	25
42774.9	26
42785.9	25
42796.9	26
42807.8	25
42818.8	26
42829.8	25
42840.7	26
42851.7	25
42862.7	26
42873.6	25
42884.6	26
42895.6	25
42906.5	25
42917.5	26
42928.5	26
42939.4	25
42950.4	26
42961.4	26
42972.3	25
42983.3	25
42994.3	26
43005.3	26
43016.2	25
43027.2	25
43038.2	26
43049.1	25
43060.1	25
43071.1	25
43082	26
43093	26
43104	25
43114.9	25
43125.9	26
43136.9	25
43147.8	26
43158.8	25
43169.8	26
43180.7	26
43191.7	26
43202.7	25
43213.6	25
43224.6	25
43235.6	26
43246.5	26
43257.5	25
43268.5	25
43279.5	25
43290.4	26
43301.4	26
43312.4	25
43323.3	26
43334.3	26
43345.3	26
43356.2	25
43367.2	25
43378.2	25
43389.1	26
43400.1	25
43411.1	26
43422	25
43433	25
43444	25
43454.9	25
43465.9	25
43476.9	26
43487.8	25
43498.8	25
43509.8	25
43520.7	25
43531.7	26
43542.7	25
43553.7	26
43564.6	25
43575.6	24
43586.6	25
43597.5	26
43608.5	25
43619.5	26
43630.4	26
43641.4	25
43652.4	26
43663.3	26
43674.3	25
43685.3	25
43696.2	25
43707.2	26
43718.2	26
43729.1	25
43740.1	25
43751.1	25
43762	26
43773	25
43784	25
43794.9	26
43805.9	26
43816.9	25
43827.8	25
43838.8	25
43849.8	25
43860.8	25
43871.7	26
43882.7	25
43893.7	26
43904.6	25
43915.6	26
43926.6	25
43937.5	26
43948.5	25
43959.5	25
43970.4	25
43981.4	26
43992.4	25
44003.3	26
44014.3	25
44025.3	25
44036.2	25
44047.2	25
44058.2	25
44069.1	26
44080.1	25
44091.1	25
44102	25
44113	25
44124	25
44135	25
44145.9	25
44156.9	25
44167.9	26
44178.8	25
44189.8	25
44200.8	25
44211.7	25
44222.7	25
44233.7	26
44244.6	25
44255.6	26
44266.6	26
44277.5	26
44288.5	25
44299.5	26
44310.4	26
44321.4	25
44332.4	25
44343.3	25
44354.3	25
44365.3	26
44376.2	25
44387.2	26
44398.2	26
44409.1	25
44420.1	25
44431.1	25
44442.1	25
44453	25
44464	26
44475	25
44485.9	25
44496.9	26
44507.9	26
44518.8	25
44529.8	26
44540.8	25
44551.7	26
44562.7	26
44573.7	25
44584.6	25
44595.6	25
44606.6	25
44617.5	25
44628.5	25
44639.5	25
44650.4	25
44661.4	25
44672.4	26
44683.3	26
44694.3	25
44705.3	26
44716.3	26
44727.2	26
44738.2	25
44749.2	26
44760.1	25
44771.1	25
44782.1	26
44793	25
44804	26
44815	26
44825.9	25
44836.9	26
44847.9	25
44858.8	26
44869.8	25
44880.8	25
44891.7	26
44902.7	26
44913.7	25
44924.6	26
44935.6	25
44946.6	25
44957.5	25
44968.5	25
44979.5	25
44990.4	25
45001.4	26
45012.4	25
45023.4	26
45034.3	25
45045.3	25
45056.3	25
45067.2	25
45078.2	26
45089.2	25
45100.1	26
45111.1	25
45122.1	26
45133	25
45144	26
45155	26
45165.9	25
45176.9	25
45187.9	26
45198.8	25
45209.8	26
45220.8	25
45231.7	25
45242.7	26
45253.7	25
45264.6	25
45275.6	26
45286.6	25
45297.6	25
45308.5	25
45319.5	26
45330.5	26
45341.4	26
45352.4	25
45363.4	26
45374.3	26
45385.3	25
45396.3	25
45407.2	26
45418.2	25
45429.2	25
45440.1	25
45451.1	25
45462.1	25
45473	25
45484	25
45495	25
45505.9	26
45516.9	25
45527.9	25
45538.8	25
45549.8	25
45560.8	25
45571.7	26
45582.7	26
45593.7	25
45604.7	25
45615.6	25
45626.6	25
45637.6	25
45648.5	25
45659.5	26
45670.5	25
45681.4	25
45692.4	25
45703.4	25
45714.3	26
45725.3	25
45736.3	25
45747.2	25
45758.2	26
45769.2	25
45780.1	25
45791.1	25
45802.1	25
45813	25
45824	26
45835	25
45845.9	25
45856.9	26
45867.9	25
45878.9	25
45889.8	25
45900.8	25
45911.8	25
45922.7	26
45933.7	25
45944.7	25
45955.6	25
45966.6	25
45977.6	26
45988.5	25
45999.5	26
46010.5	26
46021.4	27
46032.4	27
46043.4	27
46054.3	27
46065.3	27
46076.3	28
46087.2	28
46098.2	27
46109.2	28
46120.1	28
46131.1	27
46142.1	27
46153	27
46164	27
46175	29
46186	29
46196.9	29
46207.9	29
46218.9	29
46229.8	29
46240.8	29
46251.8	30
46262.7	30
46273.7	29
46284.7	29
46295.6	29
46306.6	29
46317.6	29
46328.5	29
46339.5	29
46350.5	29
46361.4	30
46372.4	29
46383.4	29
46394.3	29
46405.3	29
46416.3	29
46427.2	29
46438.2	29
46449.2	30
46460.2	29
46471.1	28
46482.1	29
46493.1	29
46504	29
46515	29
46526	29
46536.9	29
46547.9	29
46558.9	30
46569.8	30
46580.8	28
46591.8	30
46602.7	29
46613.7	30
46624.7	29
46635.6	29
46646.6	29
46657.6	30
46668.5	30
46679.5	30
46690.5	29
46701.4	29
46712.4	30
46723.4	29
46734.3	29
46745.3	30
46756.3	29
46767.3	30
46778.2	30
46789.2	29
46800.2	29
46811.1	29
46822.1	30
46833.1	30
46844	29
46855	30
46866	29
46876.9	29
46887.9	29
46898.9	30
46909.8	30
46920.8	30
46931.8	29
46942.7	30
46953.7	30
46964.7	29
46975.6	29
46986.6	29
46997.6	30
47008.5	29
47019.5	29
47030.5	30
47041.5	30
47052.4	28
47063.4	30
47074.4	30
47085.3	29
47096.3	30
47107.3	29
47118.2	30
47129.2	30
47140.2	30
47151.1	29
47162.1	30
47173.1	29
47184	30
47195	29
47206	30
47216.9	29
47227.9	29
47238.9	29
47249.8	29
47260.8	30
47271.8	29
47282.7	30
47293.7	30
47304.7	30
47315.7	30
47326.6	30
47337.6	30
47348.6	29
47359.5	29
47370.5	30
47381.5	29
47392.4	29
47403.4	29
47414.4	30
47425.3	29
47436.3	29
47447.3	30
47458.2	30
47469.2	30
47480.2	30
47491.1	29
47502.1	29
47513.1	29
47524	29
47535	29
47546	29
47556.9	29
47567.9	30
47578.9	30
47589.8	29
47600.8	29
47611.8	30
47622.8	29
47633.7	29
47644.7	29
47655.7	30
47666.6	29
47677.6	30
47688.6	30
47699.5	29
47710.5	30
47721.5	30
47732.4	29
47743.4	29
47754.4	30
47765.3	30
47776.3	29
47787.3	30
47798.2	30
47809.2	30
47820.2	29
47831.1	30
47842.1	29
47853.1	29
47864	29
47875	29
47886	29
47897	30
47907.9	29
47918.9	29
47929.9	30
47940.8	29
47951.8	30
47962.8	29
47973.7	29
47984.7	30
47995.7	29
48006.6	29
48017.6	30
48028.6	29
48039.5	29
48050.5	30
48061.5	29
48072.4	29
48083.4	30
48094.4	29
48105.3	29
48116.3	30
48127.3	29
48138.2	30
48149.2	30
48160.2	29
48171.1	29
48182.1	29
48193.1	30
48204.1	29
48215	29
48226	29
48237	29
48247.9	29
48258.9	29
48269.9	30
48280.8	30
48291.8	29
48302.8	30
48313.7	30
48324.7	29
48335.7	29
48346.6	30
48357.6	29
48368.6	29
48379.5	30
48390.5	29
48401.5	29
48412.4	30
48423.4	29
48434.4	29
48445.3	29
48456.3	30
48467.3	30
48478.3	29
48489.2	30
48500.2	29
48511.2	30
48522.1	30
48533.1	29
48544.1	28
48555	29
48566	30
48577	30
48587.9	30
48598.9	30
48609.9	30
48620.8	30
48631.8	30
48642.8	29
48653.7	30
48664.7	30
48675.7	29
48686.6	29
48697.6	29
48708.6	29
48719.5	29
48730.5	29
48741.5	29
48752.4	30
48763.4	30
48774.4	31
48785.4	35
48796.3	35
48807.3	35
48818.3	35
48829.2	35
48840.2	35
48851.2	36
48862.1	35
48873.1	34
48884.1	36
48895	36
48906	36
48917	36
48927.9	36
48938.9	36
48949.9	35
48960.8	36
48971.8	36
48982.8	35
48993.7	35
49004.7	36
49015.7	35
49026.6	36
49037.6	36
49048.6	36
49059.6	36
49070.5	36
49081.5	34
49092.5	35
49103.4	35
49114.4	34
49125.4	36
49136.3	36
49147.3	35
49158.3	36
49169.2	35
49180.2	36
49191.2	36
49202.1	35
49213.1	35
49224.1	36
49235	35
49246	35
49257	35
49267.9	36
49278.9	35
49289.9	36
49300.8	35
49311.8	36
49322.8	36
49333.7	36
49344.7	35
49355.7	35
49366.7	36
49377.6	35
49388.6	35
49399.6	35
49410.5	36
49421.5	35
49432.5	35
49443.4	35
49454.4	36
49465.4	35
49476.3	36
49487.3	35
49498.3	36
49509.2	35
49520.2	35
49531.2	35
49542.1	36
49553.1	35
49564.1	36
49575	36
49586	35
49597	36
49607.9	36
49618.9	36
49629.9	36
49640.9	35
49651.8	36
49662.8	35
49673.8	36
49684.7	36
49695.7	35
49706.7	35
49717.6	36
49728.6	35
49739.6	33
49750.5	35
49761.5	36
49772.5	34
49783.4	35
49794.4	35
49805.4	35
49816.3	35
49827.3	36
49838.3	36
49849.2	36
49860.2	35
49871.2	35
49882.1	36
49893.1	36
49904.1	35
49915	35
49926	30
49937	34
49948	32
49958.9	35
49969.9	36
49980.9	31
49991.8	35
50002.8	31
50013.8	32
50024.7	35
50035.7	36
50046.7	36
50057.6	35
50068.6	36
50079.6	35
50090.5	36
50101.5	35
50112.5	35
50123.4	36
50134.4	35
50145.4	36
50156.3	35
50167.3	35
50178.3	35
50189.2	34
50200.2	35
50211.2	36
50222.2	32
50233.1	35
50244.1	36
50255.1	36
50266	35
50277	36
50288	36
50298.9	35
50309.9	36
50320.9	35
50331.8	36
50342.8	35
50353.8	36
50364.7	36
50375.7	35
50386.7	35
50397.6	37
50408.6	38
50419.6	38
50430.5	37
50441.5	37
50452.5	38
50463.4	37
50474.4	37
50485.4	37
50496.3	37
50507.3	38
50518.3	37
50529.3	37
50540.2	37
50551.2	38
50562.2	38
50573.1	40
50584.1	39
50595.1	35
50606	34
50617	29
50628	33
50638.9	39
50649.9	39
50660.9	39
50671.8	38
50682.8	40
50693.8	39
50704.7	39
50715.7	39
50726.7	39
50737.6	39
50748.6	40
50759.6	39
50770.5	39
50781.5	39
50792.5	39
50803.5	40
50814.4	40
50825.4	39
50836.4	40
50847.3	40
50858.3	40
50869.3	39
50880.2	39
50891.2	40
50902.2	40
50913.1	40
50924.1	37
50935.1	40
50946	39
50957	39
50968	40
50978.9	40
50989.9	39
51000.9	39
51011.8	39
51022.8	39
51033.8	40
51044.7	39
51055.7	39
51066.7	39
51077.7	39
51088.6	40
51099.6	40
51110.6	37
51121.5	38
51132.5	40
51143.5	38
51154.4	31
51165.4	37
51176.4	40
51187.3	40
51198.3	39
51209.3	40
51220.2	37
51231.2	40
51242.2	39
51253.1	40
51264.1	40
51275.1	39
51286	39
51297	39
51308	40
51318.9	40
51329.9	39
51340.9	39
51351.8	39
51362.8	39
51373.8	39
51384.8	39
51395.7	40
51406.7	39
51417.7	40
51428.6	40
51439.6	40
51450.6	40
51461.5	39
51472.5	38
51483.5	37
51494.4	37
51505.4	39
51516.4	39
51527.3	40
51538.3	40
51549.3	40
51560.2	40
51571.2	40
51582.2	39
51593.1	40
51604.1	40
51615.1	40
51626	39
51637	40
51648	40
51659	39
51669.9	40
51680.9	38
51691.9	39
51702.8	40
51713.8	40
51724.8	40
51735.7	39
51746.7	39
51757.7	40
51768.6	40
51779.6	39
51790.6	40
51801.5	40
51812.5	39
51823.5	35
51834.4	40
51845.4	39
51856.4	39
51867.3	40
51878.3	39
51889.3	39
51900.2	40
51911.2	39
51922.2	39
51933.1	40
51944.1	39
51955.1	39
51966.1	40
51977	39
51988	40
51999	40
52009.9	40
52020.9	40
52031.9	39
52042.8	38
52053.8	39
52064.8	39
52075.7	40
52086.7	40
52097.7	39
52108.6	40
52119.6	39
52130.6	40
52141.5	40
52152.5	40
52163.5	39
52174.4	39
52185.4	39
52196.4	40
52207.3	39
52218.3	40
52229.3	39
52240.3	40
52251.2	39
52262.2	40
52273.2	40
52284.1	39
52295.1	40
52306.1	40
52317	39
52328	39
52339	39
52349.9	40
52360.9	39
52371.9	40
52382.8	35
52393.8	36
52404.8	38
52415.7	39
52426.7	39
52437.7	40
52448.6	40
52459.6	40
52470.6	35
52481.5	39
52492.5	40
52503.5	39
52514.4	40
52525.4	39
52536.4	39
52547.4	40
52558.3	40
52569.3	39
52580.3	39
52591.2	40
52602.2	39
52613.2	34
52624.1	39
52635.1	40
52646.1	39
52657	39
52668	39
52679	40
52689.9	39
52700.9	39
52711.9	39
52722.8	39
52733.8	40
52744.8	39
52755.7	39
52766.7	40
52777.7	40
52788.6	39
52799.6	40
52810.6	39
52821.6	40
52832.5	40
52843.5	39
52854.5	40
52865.4	40
52876.4	40
52887.4	40
52898.3	39
52909.3	33
52920.3	30
52931.2	28
52942.2	39
52953.2	40
52964.1	39
52975.1	40
52986.1	39
52997	40
53008	38
53019	38
53029.9	39
53040.9	40
53051.9	40
53062.8	40
53073.8	39
53084.8	39
53095.7	40
53106.7	39
53117.7	39
53128.7	39
53139.6	39
53150.6	39
53161.6	39
53172.5	39
53183.5	40
53194.5	40
53205.4	40
53216.4	39
53227.4	39
53238.3	33
53249.3	40
53260.3	40
53271.2	40
53282.2	39
53293.2	39
53304.1	39
53315.1	40
53326.1	40
53337	39
53348	39
53359	33
53369.9	39
53380.9	39
53391.9	40
53402.9	39
53413.8	40
53424.8	40
53435.8	40
53446.7	40
53457.7	39
53468.7	39
53479.6	40
53490.6	39
53501.6	40
53512.5	38
53523.5	40
53534.5	40
53545.4	40
53556.4	39
53567.4	39
53578.3	40
53589.3	39
53600.3	39
53611.2	39
53622.2	40
53633.2	37
53644.1	39
53655.1	38
53666.1	39
53677	40
53688	33
53699	40
53710	39
53720.9	40
53731.9	39
53742.9	39
53753.8	39
53764.8	38
53775.8	40
53786.7	39
53797.7	39
53808.7	40
53819.6	39
53830.6	33
53841.6	39
53852.5	39
53863.5	39
53874.5	39
53885.4	40
53896.4	40
53907.4	39
53918.3	40
53929.3	40
53940.3	40
53951.2	38
53962.2	38
53973.2	39
53984.2	40
53995.1	39
54006.1	39
54017.1	40
54028	39
54039	39
54050	39
54060.9	37
54071.9	40
54082.9	40
54093.8	39
54104.8	40
54115.8	39
54126.7	40
54137.7	40
54148.7	40
54159.6	38
54170.6	39
54181.6	39
54192.5	40
54203.5	40
54214.5	39
54225.4	39
54236.4	40
54247.4	39
54258.3	40
54269.3	39
54280.3	39
54291.3	39
54302.2	40
54313.2	39
54324.2	39
54335.1	39
54346.1	39
54357.1	39
54368	32
54379	39
54390	40
54400.9	40
54411.9	38
54422.9	39
54433.8	36
54444.8	40
54455.8	40
54466.7	39
54477.7	40
54488.7	40
54499.6	39
54510.6	39
54521.6	40
54532.5	40
54543.5	40
54554.5	39
54565.5	36
54576.4	26
54587.4	40
54598.4	40
54609.3	40
54620.3	40
54631.3	40
54642.2	39
54653.2	39
54664.2	40
54675.1	38
54686.1	39
54697.1	39
54708	38
54719	40
54730	39
54740.9	39
54751.9	39
54762.9	39
54773.8	39
54784.8	39
54795.8	39
54806.7	39
54817.7	40
54828.7	39
54839.7	39
54850.6	40
54861.6	40
54872.6	39
54883.5	40
54894.5	40
54905.5	40
54916.4	39
54927.4	39
54938.4	40
54949.3	40
54960.3	40
54971.3	39
54982.2	40
54993.2	40
55004.2	40
55015.1	39
55026.1	39
55037.1	40
55048	40
55059	39
55070	39
55080.9	40
55091.9	39
55102.9	39
55113.8	38
55124.8	38
55135.8	38
55146.8	38
55157.7	39
55168.7	40
55179.7	39
55190.6	39
55201.6	40
55212.6	39
55223.5	36
55234.5	39
55245.5	39
55256.4	39
55267.4	40
55278.4	39
55289.3	39
55300.3	39
55311.3	38
55322.2	40
55333.2	39
55344.2	38
55355.1	39
55366.1	40
55377.1	40
55388	40
55399	40
55410	39
55421	39
55431.9	39
55442.9	40
55453.9	39
55464.8	40
55475.8	40
55486.8	39
55497.7	40
55508.7	39
55519.7	40
55530.6	39
55541.6	39
55552.6	40
55563.5	40
55574.5	39
55585.5	34
55596.4	40
55607.4	38
55618.4	40
55629.3	39
55640.3	39
55651.3	39
55662.2	40
55673.2	40
55684.2	39
55695.1	39
55706.1	39
55717.1	36
55728.1	33
55739	31
55750	39
55761	39
55771.9	40
55782.9	39
55793.9	39
55804.8	39
55815.8	40
55826.8	40
55837.7	39
55848.7	40
55859.7	40
55870.6	40
55881.6	39
55892.6	40
55903.5	38
55914.5	39
55925.5	38
55936.4	40
55947.4	39
55958.4	39
55969.3	39
55980.3	39
55991.3	40
56002.3	40
56013.2	40
56024.2	36
56035.2	40
56046.1	39
56057.1	40
56068.1	39
56079	40
56090	39
56101	40
56111.9	39
56122.9	40
56133.9	40
56144.8	39
56155.8	38
56166.8	36
56177.7	38
56188.7	40
56199.7	39
56210.6	38
56221.6	40
56232.6	40
56243.5	39
56254.5	40
56265.5	38
56276.4	39
56287.4	39
56298.4	39
56309.4	39
56320.3	40
56331.3	40
56342.3	39
56353.2	39
56364.2	40
56375.2	40
56386.1	39
56397.1	40
56408.1	39
56419	40
56430	40
56441	39
56451.9	39
56462.9	39
56473.9	39
56484.8	38
56495.8	39
56506.8	40
56517.7	40
56528.7	39
56539.7	39
56550.6	40
56561.6	39
56572.6	39
56583.6	40
56594.5	39
56605.5	39
56616.5	36
56627.4	28
56638.4	32
56649.4	29
56660.3	35
56671.3	35
56682.3	35
56693.2	32
56704.2	35
56715.2	30
56726.1	39
56737.1	40
56748.1	40
56759	39
56770	39
56781	33
56791.9	38
56802.9	40
56813.9	39
56824.8	40
56835.8	40
56846.8	39
56857.7	40
56868.7	39
56879.7	40
56890.7	39
56901.6	40
56912.6	40
56923.6	40
56934.5	39
56945.5	39
56956.5	40
56967.4	39
56978.4	39
56989.4	39
57000.3	40
57011.3	40
57022.3	39
57033.2	39
57044.2	39
57055.2	40
57066.1	39
57077.1	39
57088.1	36
57099	40
57110	40
57121	40
57131.9	39
57142.9	40
57153.9	40
57164.9	40
57175.8	40
57186.8	39
57197.8	38
57208.7	40
57219.7	39
57230.7	40
57241.6	35
57252.6	31
57263.6	39
57274.5	40
57285.5	40
57296.5	38
57307.4	39
57318.4	39
57329.4	39
57340.3	39
57351.3	39
57362.3	40
57373.2	40
57384.2	39
57395.2	40
57406.1	40
57417.1	39
57428.1	39
57439	40
57450	40
57461	39
57472	39
57482.9	38
57493.9	38
57504.9	39
57515.8	40
57526.8	40
57537.8	36
57548.7	36
57559.7	40
57570.7	40
57581.6	39
57592.6	39
57603.6	32
57614.5	39
57625.5	39
57636.5	40
57647.4	39
57658.4	40
57669.4	40
57680.3	37
57691.3	40
57702.3	40
57713.2	39
57724.2	39
57735.2	40
57746.2	40
57757.1	39
57768.1	39
57779.1	39
57790	40
57801	39
57812	40
57822.9	40
57833.9	39
57844.9	39
57855.8	40
57866.8	40
57877.8	36
57888.7	40
57899.7	40
57910.7	39
57921.6	40
57932.6	39
57943.6	40
57954.5	40
57965.5	40
57976.5	39
57987.4	39
57998.4	39
58009.4	39
58020.3	40
58031.3	40
58042.3	40
58053.3	40
58064.2	38
58075.2	31
58086.2	39
58097.1	39
58108.1	39
58119.1	39
58130	40
58141	39
58152	39
58162.9	40
58173.9	39
58184.9	39
58195.8	40
58206.8	40
58217.8	40
58228.7	35
58239.7	38
58250.7	39
58261.6	39
58272.6	39
58283.6	39
58294.5	40
58305.5	39
58316.5	40
58327.5	39
58338.4	40
58349.4	39
58360.4	39
58371.3	40
58382.3	40
58393.3	40
58404.2	39
58415.2	40
58426.2	39
58437.1	40
58448.1	39
58459.1	39
58470	40
58481	40
58492	40
58502.9	40
58513.9	40
58524.9	39
58535.8	39
58546.8	39
58557.8	40
58568.7	39
58579.7	39
58590.7	40
58601.6	39
58612.6	40
58623.6	39
58634.6	39
58645.5	40
58656.5	40
58667.5	40
58678.4	39
58689.4	32
58700.4	35
58711.3	37
58722.3	40
58733.3	40
58744.2	40
58755.2	39
58766.2	40
58777.1	40
58788.1	40
58799.1	39
58810	39
58821	39
58832	40
58842.9	40
58853.9	39
58864.9	40
58875.8	40
58886.8	40
58897.8	40
58908.8	39
58919.7	40
58930.7	39
58941.7	40
58952.6	38
58963.6	39
58974.6	40
58985.5	39
58996.5	40
59007.5	39
59018.4	38
59029.4	30
59040.4	37
59051.3	38
59062.3	39
59073.3	40
59084.2	39
59095.2	40
59106.2	39
59117.1	38
59128.1	39
59139.1	40
59150	39
59161	40
59172	40
59183	39
59193.9	39
59204.9	39
59215.9	39
59226.8	39
59237.8	40
59248.8	39
59259.7	39
59270.7	39
59281.7	40
59292.6	39
59303.6	39
59314.6	40
59325.5	40
59336.5	40
59347.5	39
59358.4	40
59369.4	39
59380.4	40
59391.3	40
59402.3	39
59413.3	35
59424.2	28
59435.2	40
59446.2	39
59457.1	39
59468.1	40
59479.1	39
59490.1	39
59501	39
59512	39
59523	39
59533.9	40
59544.9	39
59555.9	36
59566.8	32
59577.8	38
59588.8	39
59599.7	40
59610.7	40
59621.7	39
59632.6	39
59643.6	40
59654.6	40
59665.5	40
59676.5	38
59687.5	33
59698.4	34
59709.4	36
59720.4	35
59731.3	39
59742.3	39
59753.3	39
59764.3	39
59775.2	40
59786.2	40
59797.2	39
59808.1	38
59819.1	40
59830.1	40
59841	39
59852	39
59863	40
59873.9	40
59884.9	39
59895.9	40
59906.8	39
59917.8	40
59928.8	39
59939.7	39
59950.7	39
59961.7	40
59972.6	40
59983.6	39
59994.6	39
60005.5	39
60016.5	39
60027.5	39
60038.4	40
60049.4	39
60060.4	40
60071.4	40
60082.3	40
60093.3	40
60104.3	40
60115.2	39
60126.2	40
60137.2	39
60148.1	38
60159.1	36
60170.1	39
60181	38
60192	40
60203	40
60213.9	40
60224.9	39
60235.9	35
60246.8	40
60257.8	39
60268.8	40
60279.7	38
60290.7	32
60301.7	39
60312.6	39
60323.6	39
60334.6	40
60345.6	39
60356.5	39
60367.5	39
60378.5	40
60389.4	40
60400.4	40
60411.4	40
60422.3	40
60433.3	40
60444.3	40
60455.2	39
60466.2	40
60477.2	40
60488.1	39
60499.1	40
60510.1	39
60521	40
60532	39
60543	40
60553.9	39
60564.9	40
60575.9	39
60586.8	39
60597.8	39
60608.8	38
60619.7	39
60630.7	38
60641.7	39
60652.7	40
60663.6	40
60674.6	39
60685.6	40
60696.5	39
60707.5	40
60718.5	39
60729.4	39
60740.4	40
60751.4	40
60762.3	40
60773.3	40
60784.3	39
60795.2	40
60806.2	40
60817.2	39
60828.1	40
60839.1	39
60850.1	39
60861	40
60872	40
60883	39
60893.9	39
60904.9	40
60915.9	40
60926.9	39
60937.8	39
60948.8	39
60959.8	40
60970.7	40
60981.7	39
60992.7	39
61003.6	39
61014.6	39
61025.6	40
61036.5	38
61047.5	39
61058.5	38
61069.4	40
61080.4	40
61091.4	39
61102.3	38
61113.3	35
61124.3	39
61135.2	39
61146.2	40
61157.2	39
61168.1	39
61179.1	40
61190.1	39
61201	39
61212	39
61223	40
61234	40
61244.9	39
61255.9	40
61266.9	39
61277.8	40
61288.8	33
61299.8	39
61310.7	40
61321.7	39
61332.7	39
61343.6	39
61354.6	40
61365.6	40
61376.5	39
61387.5	33
61398.5	28
61409.4	39
61420.4	39
61431.4	39
61442.3	40
61453.3	39
61464.3	39
61475.2	39
61486.2	39
61497.2	40
61508.2	39
61519.1	40
61530.1	40
61541.1	39
61552	40
61563	39
61574	40
61584.9	38
61595.9	39
61606.9	39
61617.8	39
61628.8	38
61639.8	39
61650.7	40
61661.7	38
61672.7	39
61683.6	40
61694.6	40
61705.6	39
61716.5	39
61727.5	39
61738.5	39
61749.4	40
61760.4	39
61771.4	39
61782.3	39
61793.3	39
61804.3	40
61815.3	37
61826.2	39
61837.2	40
61848.2	39
61859.1	39
61870.1	40
61881.1	39
61892	40
61903	40
61914	40
61924.9	39
61935.9	40
61946.9	40
61957.8	40
61968.8	39
61979.8	40
61990.7	39
62001.7	40
62012.7	40
62023.6	40
62034.6	40
62045.6	38
62056.5	40
62067.5	40
62078.5	40
62089.5	38
62100.4	39
62111.4	39
62122.4	40
62133.3	40
62144.3	40
62155.3	39
62166.2	40
62177.2	40
62188.2	39
62199.1	39
62210.1	39
62221.1	39
62232	40
62243	40
62254	40
62264.9	39
62275.9	40
62286.9	39
62297.8	40
62308.8	40
62319.8	40
62330.7	40
62341.7	39
62352.7	39
62363.6	39
62374.6	39
62385.6	40
62396.6	40
62407.5	39
62418.5	39
62429.5	39
62440.4	39
62451.4	40
62462.4	40
62473.3	39
62484.3	40
62495.3	39
62506.2	40
62517.2	39
62528.2	39
62539.1	40
62550.1	39
62561.1	40
62572	40
62583	38
62594	39
62604.9	39
62615.9	40
62626.9	39
62637.8	39
62648.8	40
62659.8	39
62670.8	39
62681.7	40
62692.7	40
62703.7	40
62714.6	39
62725.6	40
62736.6	40
62747.5	39
62758.5	39
62769.5	39
62780.4	39
62791.4	40
62802.4	39
62813.3	40
62824.3	39
62835.3	39
62846.2	39
62857.2	39
62868.2	39
62879.1	39
62890.1	40
62901.1	40
62912	39
62923	39
62934	39
62945	40
62955.9	40
62966.9	40
62977.9	39
62988.8	38
62999.8	38
63010.8	39
63021.7	39
63032.7	40
63043.7	39
63054.6	40
63065.6	40
63076.6	39
63087.5	40
63098.5	39
63109.5	39
63120.4	39
63131.4	39
63142.4	39
63153.3	39
63164.3	39
63175.3	39
63186.2	39
63197.2	40
63208.2	40
63219.1	40
63230.1	39
63241.1	39
63252.1	40
63263	40
63274	40
63285	39
63295.9	39
63306.9	40
63317.9	39
63328.8	39
63339.8	39
63350.8	39
63361.7	39
63372.7	40
63383.7	39
63394.6	40
63405.6	40
63416.6	40
63427.5	40
63438.5	39
63449.5	39
63460.4	39
63471.4	38
63482.4	39
63493.3	40
63504.3	39
63515.3	39
63526.3	39
63537.2	39
63548.2	40
63559.2	38
63570.1	40
63581.1	40
63592.1	39
63603	39
63614	40
63625	39
63635.9	39
63646.9	40
63657.9	40
63668.8	39
63679.8	39
63690.8	40
63701.7	39
63712.7	40
63723.7	39
63734.6	39
63745.6	40
63756.6	33
63767.5	24
63778.5	39
63789.5	40
63800.4	40
63811.4	39
63822.4	40
63833.4	39
63844.3	39
63855.3	39
63866.3	39
63877.2	40
63888.2	39
63899.2	38
63910.1	39
63921.1	39
63932.1	39
63943	40
63954	39
63965	39
63975.9	39
63986.9	40
63997.9	39
64008.8	39
64019.8	39
64030.8	39
64041.7	37
64052.7	39
64063.7	39
64074.6	39
64085.6	38
64096.6	40
64107.6	39
64118.5	40
64129.5	39
64140.5	39
64151.4	39
64162.4	39
64173.4	40
64184.3	39
64195.3	39
64206.3	40
64217.2	40
64228.2	38
64239.2	40
64250.1	39
64261.1	39
64272.1	39
64283	39
64294	39
64305	39
64315.9	39
64326.9	38
64337.9	39
64348.8	40
64359.8	40
64370.8	38
64381.7	39
64392.7	40
64403.7	39
64414.7	39
64425.6	39
64436.6	39
64447.6	39
64458.5	40
64469.5	39
64480.5	37
64491.4	39
64502.4	39
64513.4	40
64524.3	40
64535.3	39
64546.3	39
64557.2	39
64568.2	40
64579.2	40
64590.1	40
64601.1	39
64612.1	39
64623	39
64634	39
64645	39
64655.9	39
64666.9	40
64677.9	40
64688.9	38
64699.8	40
64710.8	40
64721.8	39
64732.7	38
64743.7	39
64754.7	40
64765.6	39
64776.6	39
64787.6	40
64798.5	40
64809.5	39
64820.5	39
64831.4	39
64842.4	39
64853.4	40
64864.3	40
64875.3	39
64886.3	39
64897.2	40
64908.2	36
64919.2	40
64930.1	40
64941.1	40
64952.1	39
64963	39
64974	40
64985	39
64996	40
65006.9	38
65017.9	40
65028.9	40
65039.8	40
65050.8	39
65061.8	40
65072.7	40
65083.7	40
65094.7	40
65105.6	39
65116.6	39
65127.6	39
65138.5	39
65149.5	39
65160.5	39
65171.4	40
65182.4	39
65193.4	39
65204.3	40
65215.3	38
65226.3	38
65237.2	40
65248.2	39
65259.2	39
65270.2	40
65281.1	40
65292.1	39
65303.1	38
65314	39
65325	40
65336	40
65346.9	39
65357.9	39
65368.9	40
65379.8	40
65390.8	40
65401.8	40
65412.7	40
65423.7	39
65434.7	39
65445.6	39
65456.6	37
65467.6	39
65478.5	40
65489.5	39
65500.5	39
65511.4	39
65522.4	39
65533.4	39
65544.3	40
65555.3	39
65566.3	39
65577.3	39
65588.2	40
65599.2	40
65610.2	39
65621.1	31
65632.1	40
65643.1	39
65654	39
65665	39
65676	38
65686.9	40
65697.9	40
65708.9	40
65719.8	40
65730.8	39
65741.8	40
65752.7	40
65763.7	40
65774.7	39
65785.6	40
65796.6	40
65807.6	40
65818.5	40
65829.5	40
65840.5	39
65851.5	38
65862.4	40
65873.4	39
65884.4	40
65895.3	38
65906.3	39
65917.3	39
65928.2	40
65939.2	39
65950.2	39
65961.1	38
65972.1	40
65983.1	39
65994	40
66005	39
66016	40
66026.9	39
66037.9	37
66048.9	39
66059.8	40
66070.8	39
66081.8	39
66092.7	39
66103.7	39
66114.7	39
66125.6	36
66136.6	39
66147.6	39
66158.6	40
66169.5	40
66180.5	39
66191.5	39
66202.4	38
66213.4	40
66224.4	38
66235.3	38
66246.3	40
66257.3	40
66268.2	39
66279.2	39
66290.2	40
66301.1	40
66312.1	39
66323.1	40
66334	39
66345	40
66356	40
66366.9	40
66377.9	40
66388.9	39
66399.8	39
66410.8	39
66421.8	40
66432.8	40
66443.7	39
66454.7	40
66465.7	38
66476.6	39
66487.6	39
66498.6	40
66509.5	39
66520.5	36
66531.5	39
66542.4	39
66553.4	39
66564.4	39
66575.3	40
66586.3	40
66597.3	35
66608.2	39
66619.2	40
66630.2	39
66641.1	39
66652.1	38
66663.1	39
66674	31
66685	39
66696	39
66707	39
66717.9	39
66728.9	39
66739.9	35
66750.8	36
66761.8	39
66772.8	39
66783.7	40
66794.7	32
66805.7	37
66816.6	39
66827.6	36
66838.6	32
66849.5	39
66860.5	38
66871.5	36
66882.4	36
66893.4	35
66904.4	36
66915.3	39
66926.3	31
66937.3	36
66948.2	34
66959.2	29
66970.2	31
66981.1	32
66992.1	31
67003.1	30
67014.1	35
67025	29
67036	30
67047	25
67057.9	29
67068.9	25
67079.9	27
67090.8	25
67101.8	24
67112.8	20
67123.7	24
67134.7	20
67145.7	20
67156.6	24
67167.6	20
67178.6	25
67189.5	20
67200.5	24
67211.5	20
67222.4	24
67233.4	20
67244.4	24
67255.3	20
67266.3	24
67277.3	20
67288.3	24
67299.2	20
67310.2	24
67321.2	20
67332.1	24
67343.1	20
67354.1	24
67365	20
67376	24
67387	20
67397.9	24
67408.9	21
67419.9	20
67430.8	20
67441.8	20
67452.8	20
67463.7	20
67474.7	20
67485.7	20
67496.6	20
67507.6	20
67518.6	20
67529.5	20
67540.5	19
67551.5	19
67562.4	18
67573.4	18
67584.4	18
67595.4	18
67606.3	17
67617.3	16
67628.3	16
67639.2	15
67650.2	17
67661.2	17
67672.1	16
67683.1	15
67694.1	18
67705	19
67716	20
67727	20
67737.9	20
67748.9	20
67759.9	20
67770.8	20
67781.8	20
67792.8	19
67803.7	18
67814.7	18
67825.7	17
67836.6	16
67847.6	16
67858.6	15
67869.6	18
67880.5	19
67891.5	20
67902.5	19
67913.4	17
67924.4	17
67935.4	16
67946.3	15
67957.3	17
67968.3	16
67979.2	16
67990.2	17
68001.2	16
68012.1	15
68023.1	18
68034.1	19
68045	19
68056	17
68067	16
68077.9	15
68088.9	17
68099.9	17
68110.8	16
68121.8	15
68132.8	17
68143.7	16
68154.7	15
68165.7	17
68176.7	17
68187.6	16
68198.6	15
68209.6	17
68220.5	16
68231.5	15
68242.5	17
68253.4	16
68264.4	15
68275.4	17
68286.3	15
68297.3	15
68308.3	15
68319.2	15
68330.2	15
68341.2	16
68352.1	16
68363.1	15
68374.1	16
68385	16
68396	15
68407	15
68417.9	17
68428.9	16
68439.9	16
68450.9	15
68461.8	15
68472.8	17
68483.8	18
68494.7	19
68505.7	19
68516.7	19
68527.6	19
68538.6	19
68549.6	19
68560.5	19
68571.5	19
68582.5	19
68593.4	19
68604.4	19
68615.4	19
68626.3	19
68637.3	19
68648.3	19
68659.2	19
68670.2	19
68681.2	19
68692.1	19
68703.1	19
68714.1	19
68725	19
68736	19
68747	19
68758	19
68768.9	19
68779.9	19
68790.9	19
68801.8	19
68812.8	19
68823.8	19
68834.7	19
68845.7	19
68856.7	19
68867.6	19
68878.6	19
68889.6	19
68900.5	19
68911.5	19
68922.5	19
68933.4	19
68944.4	19
68955.4	19
68966.3	19
68977.3	19
68988.3	19
68999.2	19
69010.2	19
69021.2	19
69032.2	19
69043.1	19
69054.1	19
69065.1	19
69076	19
69087	19
69098	19
69108.9	19
69119.9	19
69130.9	19
69141.8	19
69152.8	19
69163.8	19
69174.7	19
69185.7	19
69196.7	19
69207.6	19
69218.6	19
69229.6	19
69240.5	19
69251.5	19
69262.5	19
69273.4	19
69284.4	19
69295.4	19
69306.3	19
69317.3	19
69328.3	19
69339.3	19
69350.2	19
69361.2	19
69372.2	19
69383.1	19
69394.1	19
69405.1	19
69416	19
69427	19
69438	19
69448.9	19
69459.9	19
69470.9	19
69481.8	19
69492.8	19
69503.8	19
69514.7	19
69525.7	19
69536.7	19
69547.6	19
69558.6	19
69569.6	19
69580.5	19
69591.5	19
69602.5	19
69613.5	19
69624.4	19
69635.4	19
69646.4	19
69657.3	19
69668.3	19
69679.3	19
69690.2	19
69701.2	19
69712.2	19
69723.1	19
69734.1	19
69745.1	19
69756	19
69767	19
69778	19
69788.9	19
69799.9	19
69810.9	19
69821.8	19
69832.8	19
69843.8	19
69854.7	19
69865.7	19
69876.7	19
69887.6	19
69898.6	19
69909.6	19
69920.6	19
69931.5	19
69942.5	19
69953.5	19
69964.4	19
69975.4	19
69986.4	19
69997.3	19
70008.3	19
70019.3	19
70030.2	19
70041.2	19
70052.2	19
70063.1	19
70074.1	19
70085.1	19
70096	19
70107	19
70118	19
70128.9	19
70139.9	19
70150.9	19
70161.8	19
70172.8	19
70183.8	19
70194.8	19
70205.7	19
70216.7	19
70227.7	19
70238.6	19
70249.6	19
70260.6	19
70271.5	19
70282.5	19
70293.5	19
70304.4	19
70315.4	19
70326.4	19
70337.3	19
70348.3	19
70359.3	19
70370.2	19
70381.2	18
70392.2	12
70403.1	4
70414.1	5
70425.1	11
70436	17
70447	20
70458	20
70469	20
70479.9	20
70490.9	20
70501.9	20
70512.8	20
70523.8	20
70534.8	20
70545.7	20
70556.7	20
70567.7	20
70578.6	20
70589.6	20
70600.6	20
70611.5	20
70622.5	20
70633.5	20
70644.4	20
70655.4	20
70666.4	20
70677.3	20
70688.3	20
70699.3	20
70710.2	20
70721.2	20
70732.2	20
70743.1	20
70754.1	20
70765.1	20
70776.1	20
70787	20
70798	20
70809	20
70819.9	20
70830.9	20
70841.9	20
70852.8	20
70863.8	20
70874.8	20
70885.7	20
70896.7	20
70907.7	20
70918.6	20
70929.6	20
70940.6	20
70951.5	20
70962.5	20
70973.5	20
70984.4	20
70995.4	20
71006.4	20
71017.3	20
71028.3	20
71039.3	20
71050.3	20
71061.2	20
71072.2	20
71083.2	20
71094.1	20
71105.1	20
71116.1	20
71127	20
71138	20
71149	20
71159.9	20
71170.9	20
71181.9	20
71192.8	20
71203.8	20
71214.8	20
71225.7	20
71236.7	20
71247.7	20
71258.6	20
71269.6	20
71280.6	20
71291.5	20
71302.5	20
71313.5	20
71324.4	20
71335.4	20
71346.4	20
71357.4	20
71368.3	20
71379.3	20
71390.3	20
71401.2	20
71412.2	20
71423.2	20
71434.1	20
71445.1	20
71456.1	20
71467	20
71478	20
71489	20
71499.9	20
71510.9	20
71521.9	20
71532.8	20
71543.8	20
71554.8	20
71565.7	20
71576.7	20
71587.7	20
71598.6	20
71609.6	20
71620.6	20
71631.6	20
71642.5	20
71653.5	20
71664.5	20
71675.4	20
71686.4	20
71697.4	20
71708.3	20
71719.3	20
71730.3	20
71741.2	20
71752.2	20
71763.2	20
71774.1	20
71785.1	20
71796.1	20
71807	20
71818	20
71829	20
71839.9	20
71850.9	20
71861.9	20
71872.8	20
71883.8	20
71894.8	20
71905.7	20
71916.7	20
71927.7	20
71938.7	20
71949.6	20
71960.6	20
71971.6	20
71982.5	20
71993.5	20
72004.5	20
72015.4	20
72026.4	20
72037.4	20
72048.3	20
72059.3	20
72070.3	20
72081.2	20
72092.2	20
72103.2	20
72114.1	20
72125.1	20
72136.1	20
72147	20
72158	18
72169	18
72179.9	18
72190.9	17
72201.9	16
72212.9	17
72223.8	20
72234.8	20
72245.8	20
72256.7	20
72267.7	20
72278.7	20
72289.6	20
72300.6	20
72311.6	20
72322.5	20
72333.5	20
72344.5	20
72355.4	20
72366.4	20
72377.4	20
72388.3	20
72399.3	20
72410.3	20
72421.2	20
72432.2	20
72443.2	20
72454.1	20
72465.1	20
72476.1	20
72487	20
72498	20
72509	20
72520	20
72530.9	20
72541.9	20
72552.9	20
72563.8	20
72574.8	20
72585.8	20
72596.7	20
72607.7	20
72618.7	20
72629.6	20
72640.6	20
72651.6	20
72662.5	20
72673.5	20
72684.5	20
72695.4	20
72706.4	20
72717.4	20
72728.3	20
72739.3	20
72750.3	20
72761.2	20
72772.2	20
72783.2	20
72794.2	20
72805.1	20
72816.1	20
72827.1	20
72838	20
72849	20
72860	20
72870.9	20
72881.9	20
72892.9	20
72903.8	20
72914.8	20
72925.8	20
72936.7	20
72947.7	20
72958.7	20
72969.6	20
72980.6	20
72991.6	20
73002.5	20
73013.5	20
73024.5	20
73035.4	20
73046.4	20
73057.4	20
73068.3	20
73079.3	20
73090.3	20
73101.3	20
73112.2	20
73123.2	20
73134.2	20
73145.1	20
73156.1	20
73167.1	20
73178	20
73189	20
73200	20
73210.9	20
73221.9	20
73232.9	20
73243.8	20
73254.8	20
73265.8	20
73276.7	20
73287.7	20
73298.7	20
73309.6	20
73320.6	20
73331.6	20
73342.5	20
73353.5	20
73364.5	20
73375.5	20
73386.4	20
73397.4	20
73408.4	20
73419.3	20
73430.3	20
73441.3	20
73452.2	20
73463.2	20
73474.2	20
73485.1	20
73496.1	20
73507.1	20
73518	20
73529	20
73540	20
73550.9	20
73561.9	20
73572.9	20
73583.8	20
73594.8	20
73605.8	20
73616.7	20
73627.7	20
73638.7	20
73649.6	20
73660.6	20
73671.6	20
73682.6	20
73693.5	20
73704.5	20
73715.5	20
73726.4	20
73737.4	20
73748.4	20
73759.3	20
73770.3	20
73781.3	20
73792.2	20
73803.2	20
73814.2	20
73825.1	20
73836.1	20
73847.1	20
73858	20
73869	20
73880	20
73890.9	20
73901.9	20
73912.9	20
73923.8	20
73934.8	20
73945.8	20
73956.8	20
73967.7	20
73978.7	20
73989.7	20
74000.6	20
74011.6	20
74022.6	20
74033.5	20
74044.5	20
74055.5	20
74066.4	20
74077.4	20
74088.4	20
74099.3	20
74110.3	20
74121.3	4
74132.2	5
74143.2	7
74154.2	7
74165.1	7
74176.1	7
74187.1	7
74198	7
74209	7
74220	7
74231	7
74241.9	7
74252.9	7
74263.9	7
74274.8	7
74285.8	7
74296.8	7
74307.7	7
74318.7	7
74329.7	7
74340.6	7
74351.6	7
74362.6	7
74373.5	7
74384.5	7
74395.5	7
74406.4	7
74417.4	7
74428.4	7
74439.3	7
74450.3	7
74461.3	7
74472.2	7
74483.2	7
74494.2	7
74505.1	7
74516.1	7
74527.1	7
74538.1	7
74549	7
74560	7
74571	7
74581.9	7
74592.9	7
74603.9	7
74614.8	7
74625.8	7
74636.8	7
74647.7	7
74658.7	7
74669.7	7
74680.6	7
74691.6	7
74702.6	7
74713.5	7
74724.5	7
74735.5	7
74746.4	7
74757.4	7
74768.4	7
74779.3	7
74790.3	7
74801.3	7
74812.3	7
74823.2	7
74834.2	7
74845.2	7
74856.1	7
74867.1	7
74878.1	7
74889	7
74900	7
74911	7
74921.9	7
74932.9	7
74943.9	7
74954.8	7
74965.8	7
74976.8	7
74987.7	7
74998.7	7
75009.7	7
75020.6	7
75031.6	7
75042.6	7
75053.5	7
75064.5	7
75075.5	7
75086.4	7
75097.4	7
75108.4	7
75119.4	7
75130.3	7
75141.3	7
75152.3	7
75163.2	7
75174.2	7
75185.2	7
75196.1	7
75207.1	7
75218.1	7
75229	7
75240	7
75251	7
75261.9	7
75272.9	7
75283.9	7
75294.8	7
75305.8	7
75316.8	7
75327.7	7
75338.7	7
75349.7	7
75360.6	7
75371.6	7
75382.6	7
75393.6	7
75404.5	7
75415.5	7
75426.5	7
75437.4	7
75448.4	7
75459.4	7
75470.3	7
75481.3	7
75492.3	7
75503.2	7
75514.2	7
75525.2	7
75536.1	7
75547.1	7
75558.1	7
75569	7
75580	7
75591	7
75601.9	7
75612.9	7
75623.9	7
75634.8	7
75645.8	7
75656.8	7
75667.7	7
75678.7	7
75689.7	7
75700.7	7
75711.6	7
75722.6	7
75733.6	7
75744.5	7
75755.5	7
75766.5	7
75777.4	7
75788.4	7
75799.4	7
75810.3	7
75821.3	7
75832.3	7
75843.2	7
75854.2	7
75865.2	7
75876.1	3
75887.1	4
75898.1	6
75909	7
75920	7
75931	7
75941.9	7
75952.9	7
75963.9	7
75974.9	7
75985.8	7
75996.8	7
76007.8	7
76018.7	7
76029.7	7
76040.7	7
76051.6	7
76062.6	7
76073.6	7
76084.5	7
76095.5	7
76106.5	7
76117.4	7
76128.4	7
76139.4	7
76150.3	7
76161.3	7
76172.3	7
76183.2	7
76194.2	7
76205.2	7
76216.1	7
76227.1	7
76238.1	7
76249	7
76260	7
76271	7
76282	7
76292.9	7
76303.9	7
76314.9	7
76325.8	7
76336.8	7
76347.8	7
76358.7	7
76369.7	7
76380.7	7
76391.6	7
76402.6	7
76413.6	7
76424.5	7
76435.5	7
76446.5	7
76457.4	7
76468.4	7
76479.4	7
76490.3	7
76501.3	7
76512.3	7
76523.2	7
76534.2	7
76545.2	7
76556.2	7
76567.1	7
76578.1	7
76589.1	7
76600	7
76611	7
76622	7
76632.9	7
76643.9	7
76654.9	7
76665.8	7
76676.8	7
76687.8	7
76698.7	7
76709.7	7
76720.7	7
76731.6	7
76742.6	7
76753.6	7
76764.5	7
76775.5	7
76786.5	7
76797.4	7
76808.4	7
76819.4	7
76830.3	7
76841.3	7
76852.3	7
76863.3	7
76874.2	7
76885.2	7
76896.2	7
76907.1	7
76918.1	7
76929.1	7
76940	7
76951	7
76962	7
76972.9	7
76983.9	7
76994.9	7
77005.8	7
77016.8	7
77027.8	7
77038.7	7
77049.7	7
77060.7	7
77071.6	7
77082.6	7
77093.6	7
77104.5	7
77115.5	7
77126.5	7
77137.5	7
77148.4	7
77159.4	7
77170.4	7
77181.3	7
77192.3	7
77203.3	7
77214.2	7
77225.2	7
77236.2	7
77247.1	7
77258.1	7
77269.1	7
77280	7
77291	7
77302	7
77312.9	7
77323.9	7
77334.9	7
77345.8	7
77356.8	7
77367.8	7
77378.7	7
77389.7	7
77400.7	7
77411.6	7
77422.6	7
77433.6	7
77444.6	7
77455.5	7
77466.5	7
77477.5	7
77488.4	7
77499.4	7
77510.4	7
77521.3	7
77532.3	7
77543.3	7
77554.2	7
77565.2	7
77576.2	7
77587.1	7
77598.1	7
77609.1	7
77620	7
77631	7
77642	7
77652.9	7
77663.9	7
77674.9	7
77685.8	7
77696.8	7
77707.8	7
77718.8	7
77729.7	7
77740.7	7
77751.7	7
77762.6	7
77773.6	7
77784.6	7
77795.5	7
77806.5	4
77817.5	4
77828.4	5
77839.4	5
77850.4	5
77861.3	5
77872.3	5
77883.3	5
77894.2	5
77905.2	5
77916.2	5
77927.1	5
77938.1	5
77949.1	5
77960	5
77971	5
77982	5
77993	5
78003.9	5
78014.9	5
78025.9	5
78036.8	5
78047.8	5
78058.8	5
78069.7	5
78080.7	5
78091.7	5
78102.6	5
78113.6	5
78124.6	5
78135.5	5
78146.5	5
78157.5	5
78168.4	5
78179.4	5
78190.4	5
78201.3	5
78212.3	5
78223.3	5
78234.2	5
78245.2	5
78256.2	5
78267.1	5
78278.1	5
78289.1	5
78300.1	5
78311	5
78322	5
78333	5
78343.9	5
78354.9	5
78365.9	5
78376.8	5
78387.8	5
78398.8	5
78409.7	5
78420.7	5
78431.7	5
78442.6	5
78453.6	5
78464.6	5
78475.5	5
78486.5	5
78497.5	5
78508.4	5
78519.4	5
78530.4	5
78541.3	5
78552.3	5
78563.3	5
78574.3	5
78585.2	5
78596.2	5
78607.2	5
78618.1	5
78629.1	5
78640.1	5
78651	5
78662	5
78673	5
78683.9	5
78694.9	5
78705.9	5
78716.8	5
78727.8	5
78738.8	5
78749.7	5
78760.7	5
78771.7	5
78782.6	5
78793.6	5
78804.6	5
78815.5	5
78826.5	5
78837.5	5
78848.4	5
78859.4	5
78870.4	5
78881.4	5
78892.3	5
78903.3	5
78914.3	5
78925.2	5
78936.2	5
78947.2	5
78958.1	5
78969.1	5
78980.1	5
78991	5
79002	5
79013	5
79023.9	5
79034.9	5
79045.9	5
79056.8	5
79067.8	5
79078.8	5
79089.7	5
79100.7	5
79111.7	5
79122.6	5
79133.6	5
79144.6	5
79155.6	5
79166.5	5
79177.5	5
79188.5	5
79199.4	5
79210.4	5
79221.4	5
79232.3	5
79243.3	5
79254.3	5
79265.2	5
79276.2	5
79287.2	5
79298.1	5
79309.1	5
79320.1	5
79331	5
79342	5
79353	5
79363.9	5
79374.9	5
79385.9	5
79396.8	5
79407.8	5
79418.8	5
79429.7	5
79440.7	5
79451.7	5
79462.7	5
79473.6	5
79484.6	5
79495.6	5
79506.5	5
79517.5	5
79528.5	5
79539.4	5
79550.4	5
79561.4	5
79572.3	3
79583.3	2
79594.3	5
79605.2	5
79616.2	5
79627.2	5
79638.1	5
79649.1	5
79660.1	5
79671	5
79682	5
79693	5
79703.9	5
79714.9	5
79725.9	5
79736.9	5
79747.8	5
79758.8	5
79769.8	5
79780.7	5
79791.7	5
79802.7	5
79813.6	5
79824.6	5
79835.6	5
79846.5	5
79857.5	5
79868.5	5
79879.4	5
79890.4	5
79901.4	5
79912.3	5
79923.3	5
79934.3	5
79945.2	5
79956.2	5
79967.2	5
79978.1	5
79989.1	5
80000.1	5
80011	5
80022	5
80033	5
80044	5
80054.9	5
80065.9	5
80076.9	5
80087.8	5
80098.8	5
80109.8	5
80120.7	5
80131.7	5
80142.7	5
80153.6	5
80164.6	5
80175.6	5
80186.5	5
80197.5	5
80208.5	5
80219.4	5
80230.4	5
80241.4	5
80252.3	5
80263.3	5
80274.3	5
80285.2	5
80296.2	5
80307.2	5
80318.2	5
80329.1	5
80340.1	5
80351.1	5
80362	5
80373	5
80384	5
80394.9	5
80405.9	5
80416.9	5
80427.8	5
80438.8	5
80449.8	5
80460.7	5
80471.7	5
80482.7	5
80493.6	5
80504.6	5
80515.6	5
80526.5	5
80537.5	5
80548.5	5
80559.4	5
80570.4	5
80581.4	5
80592.3	5
80603.3	5
80614.3	5
80625.3	5
80636.2	5
80647.2	5
80658.2	5
80669.1	5
80680.1	5
80691.1	5
80702	5
80713	5
80724	5
80734.9	5
80745.9	5
80756.9	5
80767.8	5
80778.8	5
80789.8	5
80800.7	5
80811.7	5
80822.7	5
80833.6	5
80844.6	5
80855.6	5
80866.5	5
80877.5	5
80888.5	5
80899.5	5
80910.4	5
80921.4	5
80932.4	5
80943.3	5
80954.3	5
80965.3	5
80976.2	5
80987.2	5
80998.2	5
81009.1	5
81020.1	5
81031.1	5
81042	5
81053	5
81064	5
81074.9	5
81085.9	5
81096.9	5
81107.8	5
81118.8	5
81129.8	5
81140.7	5
81151.7	5
81162.7	5
81173.6	5
81184.6	5
81195.6	5
81206.6	5
81217.5	5
81228.5	5
81239.5	5
81250.4	5
81261.4	5
81272.4	5
81283.3	5
81294.3	5
81305.3	5
81316.2	5
81327.2	5
81338.2	5
81349.1	5
81360.1	5
81371.1	5
81382	5
81393	5
81404	5
81414.9	5
81425.9	5
81436.9	5
81447.8	5
81458.8	5
81469.8	5
81480.8	5
81491.7	4
81502.7	4
81513.7	5
81524.6	5
81535.6	5
81546.6	5
81557.5	5
81568.5	5
81579.5	5
81590.4	5
81601.4	5
81612.4	5
81623.3	5
81634.3	5
81645.3	5
81656.2	5
81667.2	5
81678.2	5
81689.1	5
81700.1	5
81711.1	5
81722	5
81733	5
81744	5
81755	5
81765.9	5
81776.9	5
81787.9	5
81798.8	5
81809.8	5
81820.8	5
81831.7	5
81842.7	5
81853.7	5
81864.6	5
81875.6	5
81886.6	5
81897.5	5
81908.5	5
81919.5	5
81930.4	5
81941.4	5
81952.4	5
81963.3	5
81974.3	5
81985.3	5
81996.2	5
82007.2	5
82018.2	5
82029.1	5
82040.1	5
82051.1	5
82062.1	5
82073	5
82084	5
82095	5
82105.9	5
82116.9	5
82127.9	5
82138.8	5
82149.8	5
82160.8	5
82171.7	5
82182.7	5
82193.7	5
82204.6	5
82215.6	5
82226.6	5
82237.5	5
82248.5	5
82259.5	5
82270.4	5
82281.4	5
82292.4	5
82303.3	5
82314.3	5
82325.3	5
82336.3	5
82347.2	5
82358.2	5
82369.2	5
82380.1	5
82391.1	5
82402.1	5
82413	5
82424	5
82435	5
82445.9	5
82456.9	5
82467.9	5
82478.8	5
82489.8	5
82500.8	5
82511.7	5
82522.7	5
82533.7	5
82544.6	5
82555.6	5
82566.6	5
82577.5	5
82588.5	5
82599.5	5
82610.4	5
82621.4	5
82632.4	5
82643.4	5
82654.3	5
82665.3	5
82676.3	5
82687.2	5
82698.2	5
82709.2	5
82720.1	5
82731.1	5
82742.1	5
82753	5
82764	5
82775	5
82785.9	5
82796.9	5
82807.9	5
82818.8	5
82829.8	5
82840.8	5
82851.7	5
82862.7	5
82873.7	5
82884.6	5
82895.6	5
82906.6	5
82917.6	5
82928.5	5
82939.5	5
82950.5	5
82961.4	5
82972.4	5
82983.4	5
82994.3	5
83005.3	5
83016.3	5
83027.2	5
83038.2	5
83049.2	5
83060.1	5
83071.1	5
83082.1	5
83093	5
83104	5
83115	5
83125.9	5
83136.9	5
83147.9	5
83158.8	5
83169.8	5
83180.8	5
83191.7	5
83202.7	5
83213.7	5
83224.7	5
83235.6	5
83246.6	2
83257.6	1
83268.5	1
83279.5	1
83290.5	1
83301.4	1
83312.4	1
83323.4	1
83334.3	1
83345.3	1
83356.3	1
83367.2	1
83378.2	1
83389.2	1
83400.1	1
83411.1	1
83422.1	1
83433	1
83444	1
83455	1
83465.9	1
83476.9	1
83487.9	1
83498.9	1
83509.8	1
83520.8	1
83531.8	1
83542.7	1
83553.7	1
83564.7	1
83575.6	1
83586.6	1
83597.6	1
83608.5	1
83619.5	1
83630.5	1
83641.4	1
83652.4	1
83663.4	1
83674.3	1
83685.3	1
83696.3	1
83707.2	1
83718.2	1
83729.2	1
83740.1	1
83751.1	1
83762.1	1
83773	1
83784	1
83795	1
83806	1
83816.9	1
83827.9	1
83838.9	1
83849.8	1
83860.8	1
83871.8	1
83882.7	1
83893.7	1
83904.7	1
83915.6	1
83926.6	1
83937.6	1
83948.5	1
83959.5	1
83970.5	1
83981.4	1
83992.4	1
84003.4	1
84014.3	1
84025.3	1
84036.3	1
84047.2	1
84058.2	1
84069.2	1
84080.2	1
84091.1	1
84102.1	1
84113.1	1
84124	1
84135	1
84146	1
84156.9	1
84167.9	1
84178.9	1
84189.8	1
84200.8	1
84211.8	1
84222.7	1
84233.7	1
84244.7	1
84255.6	1
84266.6	1
84277.6	1
84288.5	1
84299.5	1
84310.5	1
84321.4	1
84332.4	1
84343.4	1
84354.3	1
84365.3	1
84376.3	1
84387.3	1
84398.2	1
84409.2	1
84420.2	1
84431.1	1
84442.1	1
84453.1	1
84464	1
84475	1
84486	1
84496.9	1
84507.9	1
84518.9	1
84529.8	1
84540.8	1
84551.8	1
84562.7	1
84573.7	1
84584.7	1
84595.6	1
84606.6	1
84617.6	1
84628.5	1
84639.5	1
84650.5	1
84661.5	1
84672.4	1
84683.4	1
84694.4	1
84705.3	1
84716.3	1
84727.3	1
84738.2	1
84749.2	1
84760.2	1
84771.1	1
84782.1	1
84793.1	1
84804	1
84815	1
84826	1
84836.9	1
84847.9	1
84858.9	1
84869.8	1
84880.8	1
84891.8	1
84902.7	1
84913.7	1
84924.7	1
84935.6	1
84946.6	1
84957.6	1
84968.6	1
84979.5	1
84990.5	1
85001.5	1
85012.4	1
85023.4	1
85034.4	1
85045.3	1
85056.3	1
85067.3	1
85078.2	1
85089.2	1
85100.2	1
85111.1	1
85122.1	1
85133.1	1
85144	1
85155	1
85166	1
85176.9	
