Swift 0.93 swift-r5483 cog-r3339

RunID: 20120130-1217-63kot916
Progress:  time: Mon, 30 Jan 2012 12:17:12 -0600
multi_loss appCalls=1
multi_loss: entered: ci=0 cj=0 target_innov=58.0 evolve_reruns=100 x=[0.0,0.0,4.0,50.0,-1.0]
multi_annealing: AR: i=1 ....T = [1;35m2.0[0m
multi_loss: i=1 calling evolve, args=[0,0,4,50,-1,58,40000,20,100,2,1,2.,0.01,2,0.3,2.3,1,1,0,0,0,m,4,1234567]
Progress:  time: Mon, 30 Jan 2012 12:17:16 -0600  Checking status:1
multi_annealing: AR: initial: 124.861101 +- 3.21017
multi_loss: returning: ci=0 cj=0 r.loss=124.861101 r.sdev=3.21017
multi_loss appCalls=1
multi_annealing: AR: [1;30;47m4.017889129124014[0m [1;1;37m2[0m
multi_loss: entered: ci=1 cj=2 target_innov=58.0 evolve_reruns=100 x=[0.0,0.0,4.017889129124014,50.0,-1.0]
multi_loss: i=1 calling evolve, args=[0,0,4.017889129124014,50,-1,58,40000,20,100,2,1,2.,0.01,2,0.3,2.3,1,1,0,0,0,m,4,1234567]
Progress:  time: Mon, 30 Jan 2012 12:17:19 -0600  Checking status:1  Finished successfully:2
multi_annealing: AR: 124.117401 +- 3.306
multi_loss: returning: ci=1 cj=2 r.loss=124.117401 r.sdev=3.306
multi_annealing: AF: best_opt_some.txt: 58.0,124.117401,0.0,0.0,4.017889129124014,50.0,-1.0,3.306
multi_annealing: AR: 0.3916097778073887 vs 1.0
math/min: result=1.0
[1;1;31mmulti_annealing: AF: max_dist.txt - tbd
[0mmulti_annealing: Accepting try_x[j], i=1 j=2
multi_annealing: Accepting try_x[j], i=1 j=2 try_x[j]=4.017889129124014
multi_annealing: AR: [1][2] [1;1;43;34mRejection counts: [0m[1;34m0.0[0m [1;1;33m0.0[0m [1;47;34m0.0[0m [1;1;37m0.0[0m [1;1;31m0.0[0m

multi_annealing: AR: 1 [1;1;43;34m***** Did accept! [0m[1;34m0.0[0m [1;1;33m0.0[0m [1;47;34m4.017889129124014[0m [1;1;37m50.0[0m [1;1;31m-1.0[0m

multi_loss appCalls=1
multi_annealing: AR: [1;30;47m48.711529653164106[0m [1;1;37m3[0m
multi_loss: entered: ci=1 cj=3 target_innov=58.0 evolve_reruns=100 x=[0.0,0.0,4.017889129124014,48.711529653164106,-1.0]
multi_loss: i=1 calling evolve, args=[0,0,4.017889129124014,48.711529653164106,-1,58,40000,20,100,2,1,2.,0.01,2,0.3,2.3,1,1,0,0,0,m,4,1234567]
Progress:  time: Mon, 30 Jan 2012 12:17:22 -0600  Checking status:1  Finished successfully:4
multi_annealing: AR: 125.18271 +- 3.599503
multi_loss: returning: ci=1 cj=3 r.loss=125.18271 r.sdev=3.599503
multi_annealing: AF: best_opt_some.txt: 58.0,125.18271,0.0,0.0,4.017889129124014,48.711529653164106,-1.0,3.599503
[1;1;31mmulti_annealing: AF: max_dist.txt - tbd
[0mmulti_annealing: AR: 0.29338527075939624 vs 0.5870445897168992
math/min: result=0.5870445897168992
multi_annealing: Accepting try_x[j], i=1 j=3 try_x[j]=48.711529653164106
multi_annealing: Accepting try_x[j], i=1 j=3
multi_annealing: AR: 1 [1;1;43;34m***** Did accept! [0m[1;34m0.0[0m [1;1;33m0.0[0m [1;47;34m4.017889129124014[0m [1;1;37m48.711529653164106[0m [1;1;31m-1.0[0m

multi_annealing: AR: [1][3] [1;1;43;34mRejection counts: [0m[1;34m0.0[0m [1;1;33m0.0[0m [1;47;34m0.0[0m [1;1;37m0.0[0m [1;1;31m0.0[0m

multi_loss appCalls=1
multi_annealing: AR: [1;30;47m-0.0033614536445253362[0m [1;1;37m4[0m
multi_loss: entered: ci=1 cj=4 target_innov=58.0 evolve_reruns=100 x=[0.0,0.0,4.017889129124014,48.711529653164106,-0.0033614536445253362]
multi_loss: i=1 calling evolve, args=[0,0,4.017889129124014,48.711529653164106,-0.0033614536445253362,58,40000,20,100,2,1,2.,0.01,2,0.3,2.3,1,1,0,0,0,m,4,1234567]
Progress:  time: Mon, 30 Jan 2012 12:17:26 -0600  Checking status:1  Finished successfully:6
multi_annealing: AR: 125.933179 +- 3.36805
multi_loss: returning: ci=1 cj=4 r.loss=125.933179 r.sdev=3.36805
[1;1;31mmulti_annealing: AF: max_dist.txt - tbd
[0mmulti_annealing: AF: best_opt_some.txt: 58.0,125.933179,0.0,0.0,4.017889129124014,48.711529653164106,-0.0033614536445253362,3.36805
multi_annealing: AR: 0.6647548795660121 vs 0.6871281283507249
math/min: result=0.6871281283507249
multi_annealing: Accepting try_x[j], i=1 j=4
multi_annealing: Accepting try_x[j], i=1 j=4 try_x[j]=-0.0033614536445253362
multi_annealing: AR: 1 [1;1;43;34m***** Did accept! [0m[1;34m0.0[0m [1;1;33m0.0[0m [1;47;34m4.017889129124014[0m [1;1;37m48.711529653164106[0m [1;1;31m-0.0033614536445253362[0m

multi_annealing: AR: [1][4] [1;1;43;34mRejection counts: [0m[1;34m0.0[0m [1;1;33m0.0[0m [1;47;34m0.0[0m [1;1;37m0.0[0m [1;1;31m0.0[0m

multi_annealing: AR: i=2 ....T = [1;35m1.6762121943865207[0m
multi_loss appCalls=1
multi_annealing: AR: [1;30;47m5.284753614883805[0m [1;1;37m2[0m
multi_loss: entered: ci=2 cj=2 target_innov=58.0 evolve_reruns=100 x=[0.0,0.0,5.284753614883805,48.711529653164106,-0.0033614536445253362]
multi_loss: i=1 calling evolve, args=[0,0,5.284753614883805,48.711529653164106,-0.0033614536445253362,58,40000,20,100,2,1,2.,0.01,2,0.3,2.3,1,1,0,0,0,m,4,1234567]
Progress:  time: Mon, 30 Jan 2012 12:17:29 -0600  Checking status:1  Finished successfully:8
multi_annealing: AR: 126.145367 +- 3.119133
multi_loss: returning: ci=2 cj=2 r.loss=126.145367 r.sdev=3.119133
multi_annealing: AF: best_opt_some.txt: 58.0,126.145367,0.0,0.0,5.284753614883805,48.711529653164106,-0.0033614536445253362,3.119133
multi_annealing: AR: 0.8343453829181197 vs 0.8810967932193764
math/min: result=0.8810967932193764
[1;1;31mmulti_annealing: AF: max_dist.txt - tbd
[0mmulti_annealing: Accepting try_x[j], i=2 j=2 try_x[j]=5.284753614883805
multi_annealing: Accepting try_x[j], i=2 j=2
multi_annealing: AR: 2 [1;1;43;34m***** Did accept! [0m[1;34m0.0[0m [1;1;33m0.0[0m [1;47;34m5.284753614883805[0m [1;1;37m48.711529653164106[0m [1;1;31m-0.0033614536445253362[0m

multi_annealing: AR: [2][2] [1;1;43;34mRejection counts: [0m[1;34m0.0[0m [1;1;33m0.0[0m [1;47;34m0.0[0m [1;1;37m0.0[0m [1;1;31m0.0[0m

multi_loss appCalls=1
multi_annealing: AR: [1;30;47m47.49006278600924[0m [1;1;37m3[0m
multi_loss: entered: ci=2 cj=3 target_innov=58.0 evolve_reruns=100 x=[0.0,0.0,5.284753614883805,47.49006278600924,-0.0033614536445253362]
multi_loss: i=1 calling evolve, args=[0,0,5.284753614883805,47.49006278600924,-0.0033614536445253362,58,40000,20,100,2,1,2.,0.01,2,0.3,2.3,1,1,0,0,0,m,4,1234567]
Progress:  time: Mon, 30 Jan 2012 12:17:33 -0600  Checking status:1  Finished successfully:10
multi_annealing: AR: 125.831434 +- 3.344003
multi_loss: returning: ci=2 cj=3 r.loss=125.831434 r.sdev=3.344003
multi_annealing: AF: best_opt_some.txt: 58.0,125.831434,0.0,0.0,5.284753614883805,47.49006278600924,-0.0033614536445253362,3.344003
multi_annealing: AR: 0.7961447191161577 vs 1.0
math/min: result=1.0
[1;1;31mmulti_annealing: AF: max_dist.txt - tbd
[0mmulti_annealing: Accepting try_x[j], i=2 j=3
multi_annealing: Accepting try_x[j], i=2 j=3 try_x[j]=47.49006278600924
multi_annealing: AR: 2 [1;1;43;34m***** Did accept! [0m[1;34m0.0[0m [1;1;33m0.0[0m [1;47;34m5.284753614883805[0m [1;1;37m47.49006278600924[0m [1;1;31m-0.0033614536445253362[0m

multi_annealing: AR: [2][3] [1;1;43;34mRejection counts: [0m[1;34m0.0[0m [1;1;33m0.0[0m [1;47;34m0.0[0m [1;1;37m0.0[0m [1;1;31m0.0[0m

multi_loss appCalls=1
multi_annealing: AR: [1;30;47m0.2830038287653472[0m [1;1;37m4[0m
multi_loss: entered: ci=2 cj=4 target_innov=58.0 evolve_reruns=100 x=[0.0,0.0,5.284753614883805,47.49006278600924,0.2830038287653472]
multi_loss: i=1 calling evolve, args=[0,0,5.284753614883805,47.49006278600924,0.2830038287653472,58,40000,20,100,2,1,2.,0.01,2,0.3,2.3,1,1,0,0,0,m,4,1234567]
Progress:  time: Mon, 30 Jan 2012 12:17:36 -0600  Checking status:1  Finished successfully:12
multi_annealing: AR: 123.989674 +- 3.372759
multi_loss: returning: ci=2 cj=4 r.loss=123.989674 r.sdev=3.372759
multi_annealing: AF: best_opt_some.txt: 58.0,123.989674,0.0,0.0,5.284753614883805,47.49006278600924,0.2830038287653472,3.372759
[1;1;31mmulti_annealing: AF: max_dist.txt - tbd
[0mmulti_annealing: AR: 0.19911890147442235 vs 1.0
math/min: result=1.0
multi_annealing: Accepting try_x[j], i=2 j=4
multi_annealing: Accepting try_x[j], i=2 j=4 try_x[j]=0.2830038287653472
multi_annealing: AR: [2][4] [1;1;43;34mRejection counts: [0m[1;34m0.0[0m [1;1;33m0.0[0m [1;47;34m0.0[0m [1;1;37m0.0[0m [1;1;31m0.0[0m

multi_annealing: AR: 2 [1;1;43;34m***** Did accept! [0m[1;34m0.0[0m [1;1;33m0.0[0m [1;47;34m5.284753614883805[0m [1;1;37m47.49006278600924[0m [1;1;31m0.2830038287653472[0m

multi_annealing: AR: i=3 ....T = [1;35m1.4048436603050374[0m
multi_loss appCalls=1
multi_annealing: AR: [1;30;47m6.751519052449282[0m [1;1;37m2[0m
multi_loss: entered: ci=3 cj=2 target_innov=58.0 evolve_reruns=100 x=[0.0,0.0,6.751519052449282,47.49006278600924,0.2830038287653472]
multi_loss: i=1 calling evolve, args=[0,0,6.751519052449282,47.49006278600924,0.2830038287653472,58,40000,20,100,2,1,2.,0.01,2,0.3,2.3,1,1,0,0,0,m,4,1234567]
Progress:  time: Mon, 30 Jan 2012 12:17:39 -0600  Checking status:1  Finished successfully:14
multi_loss: returning: ci=3 cj=2 r.loss=125.83918 r.sdev=3.276288
multi_annealing: AR: 125.83918 +- 3.276288
multi_annealing: AF: best_opt_some.txt: 58.0,125.83918,0.0,0.0,6.751519052449282,47.49006278600924,0.2830038287653472,3.276288
math/min: result=0.2680663186298088
multi_annealing: AR: 3,2 3 Did not accept: 6.751519052449282 (2)
multi_annealing: AR: 0.6852396383450929 vs 0.2680663186298088
[1;1;31mmulti_annealing: AF: max_dist.txt - tbd
[0mmulti_annealing: AR: 0.0 0.0 6.751519052449282 47.49006278600924 0.2830038287653472
multi_loss appCalls=1
multi_annealing: AR: [1;30;47m49.01109219848105[0m [1;1;37m3[0m
multi_loss: entered: ci=3 cj=3 target_innov=58.0 evolve_reruns=100 x=[0.0,0.0,5.284753614883805,49.01109219848105,0.2830038287653472]
multi_loss: i=1 calling evolve, args=[0,0,5.284753614883805,49.01109219848105,0.2830038287653472,58,40000,20,100,2,1,2.,0.01,2,0.3,2.3,1,1,0,0,0,m,4,1234567]
Progress:  time: Mon, 30 Jan 2012 12:17:42 -0600  Checking status:1  Finished successfully:16
multi_loss: returning: ci=3 cj=3 r.loss=126.260409 r.sdev=3.474799
multi_annealing: AF: best_opt_some.txt: 58.0,126.260409,0.0,0.0,5.284753614883805,49.01109219848105,0.2830038287653472,3.474799
multi_annealing: AR: 126.260409 +- 3.474799
math/min: result=0.1986200941793068
multi_annealing: AR: 0.6989515725257741 vs 0.1986200941793068
[1;1;31mmulti_annealing: AF: max_dist.txt - tbd
[0mmulti_annealing: AR: 3,3 3 Did not accept: 49.01109219848105 (3)
multi_annealing: AR: 0.0 0.0 5.284753614883805 49.01109219848105 0.2830038287653472
multi_loss appCalls=1
multi_annealing: AR: [1;30;47m0.7184988677898592[0m [1;1;37m4[0m
multi_loss: entered: ci=3 cj=4 target_innov=58.0 evolve_reruns=100 x=[0.0,0.0,5.284753614883805,47.49006278600924,0.7184988677898592]
multi_loss: i=1 calling evolve, args=[0,0,5.284753614883805,47.49006278600924,0.7184988677898592,58,40000,20,100,2,1,2.,0.01,2,0.3,2.3,1,1,0,0,0,m,4,1234567]
Progress:  time: Mon, 30 Jan 2012 12:17:45 -0600  Checking status:1  Finished successfully:18
multi_loss: returning: ci=3 cj=4 r.loss=123.593465 r.sdev=3.286319
multi_annealing: AR: 123.593465 +- 3.286319
multi_annealing: AF: best_opt_some.txt: 58.0,123.593465,0.0,0.0,5.284753614883805,47.49006278600924,0.7184988677898592,3.286319
multi_annealing: AR: 0.10970841947076293 vs 1.0
[1;1;31mmulti_annealing: AF: max_dist.txt - tbd
[0mmath/min: result=1.0
multi_annealing: Accepting try_x[j], i=3 j=4
multi_annealing: Accepting try_x[j], i=3 j=4 try_x[j]=0.7184988677898592
multi_annealing: AR: 3 [1;1;43;34m***** Did accept! [0m[1;34m0.0[0m [1;1;33m0.0[0m [1;47;34m5.284753614883805[0m [1;1;37m47.49006278600924[0m [1;1;31m0.7184988677898592[0m

multi_annealing: AR: [3][4] [1;1;43;34mRejection counts: [0m[1;34m0.0[0m [1;1;33m0.0[0m [1;47;34m1.0[0m [1;1;37m1.0[0m [1;1;31m0.0[0m

multi_annealing: AR: i=4 ....T = [1;35m1.1774080373049494[0m
multi_loss appCalls=1
multi_annealing: AR: [1;30;47m4.4255186274220115[0m [1;1;37m2[0m
multi_loss: entered: ci=4 cj=2 target_innov=58.0 evolve_reruns=100 x=[0.0,0.0,4.4255186274220115,47.49006278600924,0.7184988677898592]
multi_loss: i=1 calling evolve, args=[0,0,4.4255186274220115,47.49006278600924,0.7184988677898592,58,40000,20,100,2,1,2.,0.01,2,0.3,2.3,1,1,0,0,0,m,4,1234567]
Progress:  time: Mon, 30 Jan 2012 12:17:49 -0600  Checking status:1  Finished successfully:20
multi_loss: returning: ci=4 cj=2 r.loss=126.444622 r.sdev=3.25147
multi_annealing: AR: 126.444622 +- 3.25147
multi_annealing: AF: best_opt_some.txt: 58.0,126.444622,0.0,0.0,4.4255186274220115,47.49006278600924,0.7184988677898592,3.25147
multi_annealing: AR: 0.9535428038358379 vs 0.08878355131476454
math/min: result=0.08878355131476454
[1;1;31mmulti_annealing: AF: max_dist.txt - tbd
[0mmulti_annealing: AR: 4,2 4 Did not accept: 4.4255186274220115 (2)
multi_annealing: AR: 0.0 0.0 4.4255186274220115 47.49006278600924 0.7184988677898592
multi_loss appCalls=1
multi_annealing: AR: [1;30;47m46.92686166375319[0m [1;1;37m3[0m
multi_loss: entered: ci=4 cj=3 target_innov=58.0 evolve_reruns=100 x=[0.0,0.0,5.284753614883805,46.92686166375319,0.7184988677898592]
multi_loss: i=1 calling evolve, args=[0,0,5.284753614883805,46.92686166375319,0.7184988677898592,58,40000,20,100,2,1,2.,0.01,2,0.3,2.3,1,1,0,0,0,m,4,1234567]
Progress:  time: Mon, 30 Jan 2012 12:17:52 -0600  Checking status:1  Finished successfully:22
multi_annealing: AR: 124.963375 +- 3.41926
multi_loss: returning: ci=4 cj=3 r.loss=124.963375 r.sdev=3.41926
multi_annealing: AF: best_opt_some.txt: 58.0,124.963375,0.0,0.0,5.284753614883805,46.92686166375319,0.7184988677898592,3.41926
multi_annealing: AR: 0.4500207377949753 vs 0.312392025102438
math/min: result=0.312392025102438
multi_annealing: AR: 4,3 4 Did not accept: 46.92686166375319 (3)
multi_annealing: AR: 0.0 0.0 5.284753614883805 46.92686166375319 0.7184988677898592
[1;1;31mmulti_annealing: AF: max_dist.txt - tbd
[0mmulti_loss appCalls=1
multi_annealing: AR: [1;30;47m-0.3320316742658884[0m [1;1;37m4[0m
multi_loss: entered: ci=4 cj=4 target_innov=58.0 evolve_reruns=100 x=[0.0,0.0,5.284753614883805,47.49006278600924,-0.3320316742658884]
multi_loss: i=1 calling evolve, args=[0,0,5.284753614883805,47.49006278600924,-0.3320316742658884,58,40000,20,100,2,1,2.,0.01,2,0.3,2.3,1,1,0,0,0,m,4,1234567]
Progress:  time: Mon, 30 Jan 2012 12:17:55 -0600  Checking status:1  Finished successfully:24
multi_annealing: AR: 125.407828 +- 3.018498
multi_loss: returning: ci=4 cj=4 r.loss=125.407828 r.sdev=3.018498
multi_annealing: AF: best_opt_some.txt: 58.0,125.407828,0.0,0.0,5.284753614883805,47.49006278600924,-0.3320316742658884,3.018498
multi_annealing: AR: 0.8555641933973892 vs 0.21417097212905944
math/min: result=0.21417097212905944
[1;1;31mmulti_annealing: AF: max_dist.txt - tbd
[0mmulti_annealing: AR: 0.0 0.0 5.284753614883805 47.49006278600924 -0.3320316742658884
multi_annealing: AR: 4,4 4 Did not accept: -0.3320316742658884 (4)
multi_annealing: AR: i=5 ....T = [1;35m0.9867928549496278[0m
multi_loss appCalls=1
multi_annealing: AR: [1;30;47m6.833327620921641[0m [1;1;37m2[0m
multi_loss: entered: ci=5 cj=2 target_innov=58.0 evolve_reruns=100 x=[0.0,0.0,6.833327620921641,47.49006278600924,0.7184988677898592]
multi_loss: i=1 calling evolve, args=[0,0,6.833327620921641,47.49006278600924,0.7184988677898592,58,40000,20,100,2,1,2.,0.01,2,0.3,2.3,1,1,0,0,0,m,4,1234567]
Progress:  time: Mon, 30 Jan 2012 12:17:58 -0600  Checking status:1  Finished successfully:26
multi_annealing: AR: 125.250487 +- 3.078819
multi_loss: returning: ci=5 cj=2 r.loss=125.250487 r.sdev=3.078819
multi_annealing: AF: best_opt_some.txt: 58.0,125.250487,0.0,0.0,6.833327620921641,47.49006278600924,0.7184988677898592,3.078819
multi_annealing: AR: 0.44288167684075663 vs 0.18652324111077032
math/min: result=0.18652324111077032
[1;1;31mmulti_annealing: AF: max_dist.txt - tbd
[0mmulti_annealing: AR: 5,2 5 Did not accept: 6.833327620921641 (2)
multi_annealing: AR: 0.0 0.0 6.833327620921641 47.49006278600924 0.7184988677898592
multi_loss appCalls=1
multi_annealing: AR: [1;30;47m46.49027442733761[0m [1;1;37m3[0m
multi_loss: entered: ci=5 cj=3 target_innov=58.0 evolve_reruns=100 x=[0.0,0.0,5.284753614883805,46.49027442733761,0.7184988677898592]
multi_loss: i=1 calling evolve, args=[0,0,5.284753614883805,46.49027442733761,0.7184988677898592,58,40000,20,100,2,1,2.,0.01,2,0.3,2.3,1,1,0,0,0,m,4,1234567]
Progress:  time: Mon, 30 Jan 2012 12:18:01 -0600  Checking status:1  Finished successfully:28
multi_annealing: AR: 124.663101 +- 3.485893
multi_loss: returning: ci=5 cj=3 r.loss=124.663101 r.sdev=3.485893
multi_annealing: AF: best_opt_some.txt: 58.0,124.663101,0.0,0.0,5.284753614883805,46.49027442733761,0.7184988677898592,3.485893
multi_annealing: AR: 0.42913823795768913 vs 0.33825612299835406
math/min: result=0.33825612299835406
multi_annealing: AR: 0.0 0.0 5.284753614883805 46.49027442733761 0.7184988677898592
multi_annealing: AR: 5,3 5 Did not accept: 46.49027442733761 (3)
[1;1;31mmulti_annealing: AF: max_dist.txt - tbd
[0mmulti_loss appCalls=1
multi_annealing: AR: [1;30;47m2.2333217492423234[0m [1;1;37m4[0m
multi_loss: entered: ci=5 cj=4 target_innov=58.0 evolve_reruns=100 x=[0.0,0.0,5.284753614883805,47.49006278600924,2.2333217492423234]
multi_loss: i=1 calling evolve, args=[0,0,5.284753614883805,47.49006278600924,2.2333217492423234,58,40000,20,100,2,1,2.,0.01,2,0.3,2.3,1,1,0,0,0,m,4,1234567]
Progress:  time: Mon, 30 Jan 2012 12:18:05 -0600  Checking status:1  Finished successfully:30
multi_annealing: AR: 125.856136 +- 3.415745
multi_loss: returning: ci=5 cj=4 r.loss=125.856136 r.sdev=3.415745
multi_annealing: AF: best_opt_some.txt: 58.0,125.856136,0.0,0.0,5.284753614883805,47.49006278600924,2.2333217492423234,3.415745
multi_annealing: AR: 0.5684553851797784 vs 0.10096772364295076
math/min: result=0.10096772364295076
multi_annealing: AR: 5,4 5 Did not accept: 2.2333217492423234 (4)
multi_annealing: AR: 0.0 0.0 5.284753614883805 47.49006278600924 2.2333217492423234
[1;1;31mmulti_annealing: AF: max_dist.txt - tbd
[0mmulti_annealing: AR: i=6 ....T = [1;35m0.8270371084000275[0m
multi_loss appCalls=1
multi_annealing: AR: [1;30;47m3.928981105935937[0m [1;1;37m2[0m
multi_loss: entered: ci=6 cj=2 target_innov=58.0 evolve_reruns=100 x=[0.0,0.0,3.928981105935937,47.49006278600924,0.7184988677898592]
multi_loss: i=1 calling evolve, args=[0,0,3.928981105935937,47.49006278600924,0.7184988677898592,58,40000,20,100,2,1,2.,0.01,2,0.3,2.3,1,1,0,0,0,m,4,1234567]
Progress:  time: Mon, 30 Jan 2012 12:18:08 -0600  Checking status:1  Finished successfully:32
multi_annealing: AR: 125.944813 +- 3.343539
multi_loss: returning: ci=6 cj=2 r.loss=125.944813 r.sdev=3.343539
[1;1;31mmulti_annealing: AF: max_dist.txt - tbd
[0mmulti_annealing: AR: 0.0737231873586417 vs 0.05824491156028037
multi_annealing: AF: best_opt_some.txt: 58.0,125.944813,0.0,0.0,3.928981105935937,47.49006278600924,0.7184988677898592,3.343539
multi_annealing: AR: 6,2 6 Did not accept: 3.928981105935937 (2)
math/min: result=0.05824491156028037
multi_annealing: AR: 0.0 0.0 3.928981105935937 47.49006278600924 0.7184988677898592
multi_loss appCalls=1
multi_annealing: AR: [1;30;47m47.456980868107266[0m [1;1;37m3[0m
multi_loss: entered: ci=6 cj=3 target_innov=58.0 evolve_reruns=100 x=[0.0,0.0,5.284753614883805,47.456980868107266,0.7184988677898592]
multi_loss: i=1 calling evolve, args=[0,0,5.284753614883805,47.456980868107266,0.7184988677898592,58,40000,20,100,2,1,2.,0.01,2,0.3,2.3,1,1,0,0,0,m,4,1234567]
Progress:  time: Mon, 30 Jan 2012 12:18:11 -0600  Checking status:1  Finished successfully:34
multi_annealing: AR: 126.604462 +- 3.183016
multi_loss: returning: ci=6 cj=3 r.loss=126.604462 r.sdev=3.183016
multi_annealing: AR: 0.5487345599809303 vs 0.02623387861162342
math/min: result=0.02623387861162342
[1;1;31mmulti_annealing: AF: max_dist.txt - tbd
[0mmulti_annealing: AF: best_opt_some.txt: 58.0,126.604462,0.0,0.0,5.284753614883805,47.456980868107266,0.7184988677898592,3.183016
multi_annealing: AR: 6,3 6 Did not accept: 47.456980868107266 (3)
multi_annealing: AR: 0.0 0.0 5.284753614883805 47.456980868107266 0.7184988677898592
multi_loss appCalls=1
multi_loss: entered: ci=6 cj=4 target_innov=58.0 evolve_reruns=100 x=[0.0,0.0,5.284753614883805,47.49006278600924,-1.5302000464747076]
multi_annealing: AR: [1;30;47m-1.5302000464747076[0m [1;1;37m4[0m
multi_loss: i=1 calling evolve, args=[0,0,5.284753614883805,47.49006278600924,-1.5302000464747076,58,40000,20,100,2,1,2.,0.01,2,0.3,2.3,1,1,0,0,0,m,4,1234567]
Progress:  time: Mon, 30 Jan 2012 12:18:12 -0600  Active:1  Finished successfully:36
Progress:  time: Mon, 30 Jan 2012 12:18:14 -0600  Checking status:1  Finished successfully:36
multi_loss: returning: ci=6 cj=4 r.loss=125.062511 r.sdev=3.22833
multi_annealing: AR: 125.062511 +- 3.22833
multi_annealing: AF: best_opt_some.txt: 58.0,125.062511,0.0,0.0,5.284753614883805,47.49006278600924,-1.5302000464747076,3.22833
multi_annealing: AR: 0.4295446121391554 vs 0.16926736066405584
[1;1;31mmulti_annealing: AF: max_dist.txt - tbd
[0mmath/min: result=0.16926736066405584
multi_annealing: AR: 6,4 6 Did not accept: -1.5302000464747076 (4)
multi_annealing: AR: 0.0 0.0 5.284753614883805 47.49006278600924 -1.5302000464747076
multi_annealing: AR: i=7 ....T = [1;35m0.6931448431551464[0m
multi_loss appCalls=1
multi_annealing: AR: [1;30;47m5.698890855198198[0m [1;1;37m2[0m
multi_loss: entered: ci=7 cj=2 target_innov=58.0 evolve_reruns=100 x=[0.0,0.0,5.698890855198198,47.49006278600924,0.7184988677898592]
multi_loss: i=1 calling evolve, args=[0,0,5.698890855198198,47.49006278600924,0.7184988677898592,58,40000,20,100,2,1,2.,0.01,2,0.3,2.3,1,1,0,0,0,m,4,1234567]
Progress:  time: Mon, 30 Jan 2012 12:18:17 -0600  Checking status:1  Finished successfully:38
multi_annealing: AR: 124.92233 +- 3.519439
multi_loss: returning: ci=7 cj=2 r.loss=124.92233 r.sdev=3.519439
multi_annealing: AF: best_opt_some.txt: 58.0,124.92233,0.0,0.0,5.698890855198198,47.49006278600924,0.7184988677898592,3.519439
multi_annealing: AR: 0.26061833782383614 vs 0.14702488652213752
[1;1;31mmulti_annealing: AF: max_dist.txt - tbd
[0mmath/min: result=0.14702488652213752
multi_annealing: AR: 7,2 7 Did not accept: 5.698890855198198 (2)
multi_annealing: AR: 0.0 0.0 5.698890855198198 47.49006278600924 0.7184988677898592
multi_loss appCalls=1
multi_annealing: AR: [1;30;47m48.00451051760781[0m [1;1;37m3[0m
multi_loss: entered: ci=7 cj=3 target_innov=58.0 evolve_reruns=100 x=[0.0,0.0,5.284753614883805,48.00451051760781,0.7184988677898592]
multi_loss: i=1 calling evolve, args=[0,0,5.284753614883805,48.00451051760781,0.7184988677898592,58,40000,20,100,2,1,2.,0.01,2,0.3,2.3,1,1,0,0,0,m,4,1234567]
Progress:  time: Mon, 30 Jan 2012 12:18:21 -0600  Checking status:1  Finished successfully:40
multi_annealing: AR: 123.700997 +- 3.061641
multi_loss: returning: ci=7 cj=3 r.loss=123.700997 r.sdev=3.061641
multi_annealing: AF: best_opt_some.txt: 58.0,123.700997,0.0,0.0,5.284753614883805,48.00451051760781,0.7184988677898592,3.061641
multi_annealing: AR: 0.04383216320955852 vs 0.8562983650405412
math/min: result=0.8562983650405412
[1;1;31mmulti_annealing: AF: max_dist.txt - tbd
[0mmulti_annealing: Accepting try_x[j], i=7 j=3
multi_annealing: Accepting try_x[j], i=7 j=3 try_x[j]=48.00451051760781
multi_annealing: AR: 7 [1;1;43;34m***** Did accept! [0m[1;34m0.0[0m [1;1;33m0.0[0m [1;47;34m5.284753614883805[0m [1;1;37m48.00451051760781[0m [1;1;31m0.7184988677898592[0m

multi_annealing: AR: [7][3] [1;1;43;34mRejection counts: [0m[1;34m0.0[0m [1;1;33m0.0[0m [1;47;34m5.0[0m [1;1;37m4.0[0m [1;1;31m3.0[0m

multi_loss appCalls=1
multi_annealing: AR: [1;30;47m-0.41452399887346414[0m [1;1;37m4[0m
multi_loss: entered: ci=7 cj=4 target_innov=58.0 evolve_reruns=100 x=[0.0,0.0,5.284753614883805,48.00451051760781,-0.41452399887346414]
multi_loss: i=1 calling evolve, args=[0,0,5.284753614883805,48.00451051760781,-0.41452399887346414,58,40000,20,100,2,1,2.,0.01,2,0.3,2.3,1,1,0,0,0,m,4,1234567]
Progress:  time: Mon, 30 Jan 2012 12:18:24 -0600  Checking status:1  Finished successfully:42
multi_annealing: AR: 122.427501 +- 3.484433
multi_loss: returning: ci=7 cj=4 r.loss=122.427501 r.sdev=3.484433
[1;1;31mmulti_annealing: AF: max_dist.txt - tbd
[0mmulti_annealing: AR: 0.6794911655574871 vs 1.0
math/min: result=1.0
multi_annealing: AF: best_opt_some.txt: 58.0,122.427501,0.0,0.0,5.284753614883805,48.00451051760781,-0.41452399887346414,3.484433
multi_annealing: Accepting try_x[j], i=7 j=4
multi_annealing: Accepting try_x[j], i=7 j=4 try_x[j]=-0.41452399887346414
multi_annealing: AR: [7][4] [1;1;43;34mRejection counts: [0m[1;34m0.0[0m [1;1;33m0.0[0m [1;47;34m5.0[0m [1;1;37m4.0[0m [1;1;31m3.0[0m

multi_annealing: AR: 7 [1;1;43;34m***** Did accept! [0m[1;34m0.0[0m [1;1;33m0.0[0m [1;47;34m5.284753614883805[0m [1;1;37m48.00451051760781[0m [1;1;31m-0.41452399887346414[0m

multi_annealing: AR: i=8 ....T = [1;35m0.5809289192863943[0m
multi_loss appCalls=1
multi_annealing: AR: [1;30;47m4.228373615739721[0m [1;1;37m2[0m
multi_loss: entered: ci=8 cj=2 target_innov=58.0 evolve_reruns=100 x=[0.0,0.0,4.228373615739721,48.00451051760781,-0.41452399887346414]
multi_loss: i=1 calling evolve, args=[0,0,4.228373615739721,48.00451051760781,-0.41452399887346414,58,40000,20,100,2,1,2.,0.01,2,0.3,2.3,1,1,0,0,0,m,4,1234567]
Progress:  time: Mon, 30 Jan 2012 12:18:27 -0600  Checking status:1  Finished successfully:44
multi_loss: returning: ci=8 cj=2 r.loss=125.825434 r.sdev=3.06081
multi_annealing: AR: 125.825434 +- 3.06081
multi_annealing: AF: best_opt_some.txt: 58.0,125.825434,0.0,0.0,4.228373615739721,48.00451051760781,-0.41452399887346414,3.06081
multi_annealing: AR: 0.43307949429152304 vs 0.0028823847709179276
math/min: result=0.0028823847709179276
multi_annealing: AR: 0.0 0.0 4.228373615739721 48.00451051760781 -0.41452399887346414
multi_annealing: AR: 8,2 8 Did not accept: 4.228373615739721 (2)
[1;1;31mmulti_annealing: AF: max_dist.txt - tbd
[0mmulti_loss appCalls=1
multi_annealing: AR: [1;30;47m46.894163840589215[0m [1;1;37m3[0m
multi_loss: entered: ci=8 cj=3 target_innov=58.0 evolve_reruns=100 x=[0.0,0.0,5.284753614883805,46.894163840589215,-0.41452399887346414]
multi_loss: i=1 calling evolve, args=[0,0,5.284753614883805,46.894163840589215,-0.41452399887346414,58,40000,20,100,2,1,2.,0.01,2,0.3,2.3,1,1,0,0,0,m,4,1234567]
Progress:  time: Mon, 30 Jan 2012 12:18:30 -0600  Checking status:1  Finished successfully:46
multi_annealing: AR: 124.871719 +- 3.122439
multi_loss: returning: ci=8 cj=3 r.loss=124.871719 r.sdev=3.122439
multi_annealing: AF: best_opt_some.txt: 58.0,124.871719,0.0,0.0,5.284753614883805,46.894163840589215,-0.41452399887346414,3.122439
multi_annealing: AR: 0.34644774801935974 vs 0.014884566500466245
math/min: result=0.014884566500466245
[1;1;31mmulti_annealing: AF: max_dist.txt - tbd
[0mmulti_annealing: AR: 0.0 0.0 5.284753614883805 46.894163840589215 -0.41452399887346414
multi_annealing: AR: 8,3 8 Did not accept: 46.894163840589215 (3)
multi_loss appCalls=1
multi_annealing: AR: [1;30;47m-2.2286308752011443[0m [1;1;37m4[0m
multi_loss: entered: ci=8 cj=4 target_innov=58.0 evolve_reruns=100 x=[0.0,0.0,5.284753614883805,48.00451051760781,-2.2286308752011443]
multi_loss: i=1 calling evolve, args=[0,0,5.284753614883805,48.00451051760781,-2.2286308752011443,58,40000,20,100,2,1,2.,0.01,2,0.3,2.3,1,1,0,0,0,m,4,1234567]
Progress:  time: Mon, 30 Jan 2012 12:18:33 -0600  Checking status:1  Finished successfully:48
multi_annealing: AR: 125.200576 +- 3.137099
multi_loss: returning: ci=8 cj=4 r.loss=125.200576 r.sdev=3.137099
multi_annealing: AF: best_opt_some.txt: 58.0,125.200576,0.0,0.0,5.284753614883805,48.00451051760781,-2.2286308752011443,3.137099
multi_annealing: AR: 0.47163119315783886 vs 0.008450593550370632
math/min: result=0.008450593550370632
[1;1;31mmulti_annealing: AF: max_dist.txt - tbd
[0mmulti_annealing: AR: 8,4 8 Did not accept: -2.2286308752011443 (4)
multi_annealing: AR: 0.0 0.0 5.284753614883805 48.00451051760781 -2.2286308752011443
multi_annealing: AR: i=9 ....T = [1;35m0.48688006928981853[0m
multi_loss appCalls=1
multi_annealing: AR: [1;30;47m5.695013169826046[0m [1;1;37m2[0m
multi_loss: entered: ci=9 cj=2 target_innov=58.0 evolve_reruns=100 x=[0.0,0.0,5.695013169826046,48.00451051760781,-0.41452399887346414]
multi_loss: i=1 calling evolve, args=[0,0,5.695013169826046,48.00451051760781,-0.41452399887346414,58,40000,20,100,2,1,2.,0.01,2,0.3,2.3,1,1,0,0,0,m,4,1234567]
Progress:  time: Mon, 30 Jan 2012 12:18:37 -0600  Checking status:1  Finished successfully:50
multi_annealing: AR: 125.017227 +- 3.237815
multi_loss: returning: ci=9 cj=2 r.loss=125.017227 r.sdev=3.237815
multi_annealing: AF: best_opt_some.txt: 58.0,125.017227,0.0,0.0,5.695013169826046,48.00451051760781,-0.41452399887346414,3.237815
multi_annealing: AR: 0.17076495981302242 vs 0.004897539166396153
math/min: result=0.004897539166396153
[1;1;31mmulti_annealing: AF: max_dist.txt - tbd
[0mmulti_annealing: AR: 9,2 9 Did not accept: 5.695013169826046 (2)
multi_annealing: AR: 0.0 0.0 5.695013169826046 48.00451051760781 -0.41452399887346414
multi_loss appCalls=1
multi_annealing: AR: [1;30;47m48.00679484464189[0m [1;1;37m3[0m
multi_loss: entered: ci=9 cj=3 target_innov=58.0 evolve_reruns=100 x=[0.0,0.0,5.284753614883805,48.00679484464189,-0.41452399887346414]
multi_loss: i=1 calling evolve, args=[0,0,5.284753614883805,48.00679484464189,-0.41452399887346414,58,40000,20,100,2,1,2.,0.01,2,0.3,2.3,1,1,0,0,0,m,4,1234567]
Progress:  time: Mon, 30 Jan 2012 12:18:40 -0600  Checking status:1  Finished successfully:52
multi_annealing: AR: 125.213924 +- 3.333561
multi_loss: returning: ci=9 cj=3 r.loss=125.213924 r.sdev=3.333561
multi_annealing: AF: best_opt_some.txt: 58.0,125.213924,0.0,0.0,5.284753614883805,48.00679484464189,-0.41452399887346414,3.333561
multi_annealing: AR: 0.15928070563724706 vs 0.003269830345111401
math/min: result=0.003269830345111401
[1;1;31mmulti_annealing: AF: max_dist.txt - tbd
[0mmulti_annealing: AR: 0.0 0.0 5.284753614883805 48.00679484464189 -0.41452399887346414
multi_annealing: AR: 9,3 9 Did not accept: 48.00679484464189 (3)
multi_loss appCalls=1
multi_annealing: AR: [1;30;47m-0.7507963173758503[0m [1;1;37m4[0m
multi_loss: entered: ci=9 cj=4 target_innov=58.0 evolve_reruns=100 x=[0.0,0.0,5.284753614883805,48.00451051760781,-0.7507963173758503]
multi_loss: i=1 calling evolve, args=[0,0,5.284753614883805,48.00451051760781,-0.7507963173758503,58,40000,20,100,2,1,2.,0.01,2,0.3,2.3,1,1,0,0,0,m,4,1234567]
Progress:  time: Mon, 30 Jan 2012 12:18:42 -0600  Active:1  Finished successfully:54
multi_loss: returning: ci=9 cj=4 r.loss=125.856406 r.sdev=3.764608
multi_annealing: AR: 125.856406 +- 3.764608
multi_annealing: AF: best_opt_some.txt: 58.0,125.856406,0.0,0.0,5.284753614883805,48.00451051760781,-0.7507963173758503,3.764608
math/min: result=8.738454465360378E-4
multi_annealing: AR: 0.061628429129563234 vs 8.738454465360378E-4
[1;1;31mmulti_annealing: AF: max_dist.txt - tbd
[0mmulti_annealing: AR: 9,4 9 Did not accept: -0.7507963173758503 (4)
multi_annealing: AR: 0.0 0.0 5.284753614883805 48.00451051760781 -0.7507963173758503
multi_annealing: AR: i=10 ....T = [1;35m0.408057154673674[0m
multi_loss appCalls=1
multi_annealing: AR: [1;30;47m3.29267604969456[0m [1;1;37m2[0m
multi_loss: entered: ci=10 cj=2 target_innov=58.0 evolve_reruns=100 x=[0.0,0.0,3.29267604969456,48.00451051760781,-0.41452399887346414]
multi_loss: i=1 calling evolve, args=[0,0,3.29267604969456,48.00451051760781,-0.41452399887346414,58,40000,20,100,2,1,2.,0.01,2,0.3,2.3,1,1,0,0,0,m,4,1234567]
Progress:  time: Mon, 30 Jan 2012 12:18:46 -0600  Checking status:1  Finished successfully:56
multi_annealing: AR: 125.360364 +- 3.317013
multi_loss: returning: ci=10 cj=2 r.loss=125.360364 r.sdev=3.317013
multi_annealing: AF: best_opt_some.txt: 58.0,125.360364,0.0,0.0,3.29267604969456,48.00451051760781,-0.41452399887346414,3.317013
[1;1;31mmulti_annealing: AF: max_dist.txt - tbd
[0mmulti_annealing: AR: 0.27027335203696023 vs 7.56065260977875E-4
math/min: result=7.56065260977875E-4
multi_annealing: AR: 0.0 0.0 3.29267604969456 48.00451051760781 -0.41452399887346414
multi_annealing: AR: 10,2 10 Did not accept: 3.29267604969456 (2)
multi_loss appCalls=1
multi_annealing: AR: [1;30;47m46.275556353155956[0m [1;1;37m3[0m
multi_loss: entered: ci=10 cj=3 target_innov=58.0 evolve_reruns=100 x=[0.0,0.0,5.284753614883805,46.275556353155956,-0.41452399887346414]
multi_loss: i=1 calling evolve, args=[0,0,5.284753614883805,46.275556353155956,-0.41452399887346414,58,40000,20,100,2,1,2.,0.01,2,0.3,2.3,1,1,0,0,0,m,4,1234567]
Progress:  time: Mon, 30 Jan 2012 12:18:49 -0600  Checking status:1  Finished successfully:58
multi_annealing: AR: 126.434478 +- 3.246686
multi_loss: returning: ci=10 cj=3 r.loss=126.434478 r.sdev=3.246686
multi_annealing: AF: best_opt_some.txt: 58.0,126.434478,0.0,0.0,5.284753614883805,46.275556353155956,-0.41452399887346414,3.246686
[1;1;31mmulti_annealing: AF: max_dist.txt - tbd
[0mmulti_annealing: AR: 0.14920802306232583 vs 5.4372803009239825E-5
math/min: result=5.4372803009239825E-5
multi_annealing: AR: 10,3 10 Did not accept: 46.275556353155956 (3)
multi_annealing: AR: 0.0 0.0 5.284753614883805 46.275556353155956 -0.41452399887346414
multi_loss appCalls=1
multi_annealing: AR: [1;30;47m1.5046793086101826[0m [1;1;37m4[0m
multi_loss: entered: ci=10 cj=4 target_innov=58.0 evolve_reruns=100 x=[0.0,0.0,5.284753614883805,48.00451051760781,1.5046793086101826]
multi_loss: i=1 calling evolve, args=[0,0,5.284753614883805,48.00451051760781,1.5046793086101826,58,40000,20,100,2,1,2.,0.01,2,0.3,2.3,1,1,0,0,0,m,4,1234567]
Progress:  time: Mon, 30 Jan 2012 12:18:53 -0600  Checking status:1  Finished successfully:60
multi_loss: returning: ci=10 cj=4 r.loss=125.785376 r.sdev=3.346594
multi_annealing: AR: 125.785376 +- 3.346594
multi_annealing: AF: best_opt_some.txt: 58.0,125.785376,0.0,0.0,5.284753614883805,48.00451051760781,1.5046793086101826,3.346594
multi_annealing: AR: 0.6250655950503741 vs 2.668208671281028E-4
math/min: result=2.668208671281028E-4
[1;1;31mmulti_annealing: AF: max_dist.txt - tbd
[0mmulti_annealing: AR: 0.0 0.0 5.284753614883805 48.00451051760781 1.5046793086101826
multi_annealing: AR: 10,4 10 Did not accept: 1.5046793086101826 (4)
multi_annealing: new cycle at i=11
[1;35mmulti_annealing: AR: New cycle at 11: prev dx[0-4]=[2.3 2.3 2.3 2.3 2.3]
[0mmulti_annealing: AR: i=11 ....T = [1;35m0.34199518933533946[0m
[1;34mmulti_annealing: AR: New cycle at 11: dx[0-4]=[4.6 4.6 0.8624999999999998 0.9857142857142855 1.15]
[0mmulti_loss appCalls=1
multi_annealing: AR: [1;30;47m3.791705563626845[0m [1;1;37m2[0m
multi_loss: entered: ci=11 cj=2 target_innov=58.0 evolve_reruns=100 x=[0.0,0.0,3.791705563626845,48.00451051760781,-0.41452399887346414]
multi_loss: i=1 calling evolve, args=[0,0,3.791705563626845,48.00451051760781,-0.41452399887346414,58,40000,20,100,2,1,2.,0.01,2,0.3,2.3,1,1,0,0,0,m,4,1234567]
Progress:  time: Mon, 30 Jan 2012 12:18:56 -0600  Checking status:1  Finished successfully:62
[1;1;31mmulti_annealing: AF: max_dist.txt - tbd
[0mmulti_loss: returning: ci=11 cj=2 r.loss=124.596526 r.sdev=3.176561
multi_annealing: AR: 124.596526 +- 3.176561
multi_annealing: AF: best_opt_some.txt: 58.0,124.596526,0.0,0.0,3.791705563626845,48.00451051760781,-0.41452399887346414,3.176561
multi_annealing: AR: 0.9715442940965933 vs 0.001760306082349071
math/min: result=0.001760306082349071
multi_annealing: AR: 0.0 0.0 3.791705563626845 48.00451051760781 -0.41452399887346414
multi_annealing: AR: 11,2 11 Did not accept: 3.791705563626845 (2)
multi_loss appCalls=1
multi_annealing: AR: [1;30;47m49.92607616034099[0m [1;1;37m3[0m
multi_loss: entered: ci=11 cj=3 target_innov=58.0 evolve_reruns=100 x=[0.0,0.0,5.284753614883805,49.92607616034099,-0.41452399887346414]
multi_loss: i=1 calling evolve, args=[0,0,5.284753614883805,49.92607616034099,-0.41452399887346414,58,40000,20,100,2,1,2.,0.01,2,0.3,2.3,1,1,0,0,0,m,4,1234567]
Progress:  time: Mon, 30 Jan 2012 12:18:59 -0600  Checking status:1  Finished successfully:64
multi_annealing: AR: 124.00716 +- 3.111738
multi_loss: returning: ci=11 cj=3 r.loss=124.00716 r.sdev=3.111738
multi_annealing: AF: best_opt_some.txt: 58.0,124.00716,0.0,0.0,5.284753614883805,49.92607616034099,-0.41452399887346414,3.111738
multi_annealing: AR: 0.38818246796613753 vs 0.009863137695174688
math/min: result=0.009863137695174688
[1;1;31mmulti_annealing: AF: max_dist.txt - tbd
[0mmulti_annealing: AR: 11,3 11 Did not accept: 49.92607616034099 (3)
multi_annealing: AR: 0.0 0.0 5.284753614883805 49.92607616034099 -0.41452399887346414
multi_loss appCalls=1
multi_annealing: AR: [1;30;47m-0.7771568808805009[0m [1;1;37m4[0m
multi_loss: entered: ci=11 cj=4 target_innov=58.0 evolve_reruns=100 x=[0.0,0.0,5.284753614883805,48.00451051760781,-0.7771568808805009]
multi_loss: i=1 calling evolve, args=[0,0,5.284753614883805,48.00451051760781,-0.7771568808805009,58,40000,20,100,2,1,2.,0.01,2,0.3,2.3,1,1,0,0,0,m,4,1234567]
Progress:  time: Mon, 30 Jan 2012 12:19:02 -0600  Checking status:1  Finished successfully:66
multi_annealing: AR: 123.567412 +- 3.66859
multi_loss: returning: ci=11 cj=4 r.loss=123.567412 r.sdev=3.66859
multi_annealing: AF: best_opt_some.txt: 58.0,123.567412,0.0,0.0,5.284753614883805,48.00451051760781,-0.7771568808805009,3.66859
multi_annealing: AR: 0.5338319788181374 vs 0.03568160518248377
math/min: result=0.03568160518248377
[1;1;31mmulti_annealing: AF: max_dist.txt - tbd
[0mmulti_annealing: AR: 11,4 11 Did not accept: -0.7771568808805009 (4)
multi_annealing: AR: 0.0 0.0 5.284753614883805 48.00451051760781 -0.7771568808805009
Progress:  time: Mon, 30 Jan 2012 12:19:12 -0600  Finished successfully:68
No events in 10s.

Registered futures:
string[] args  Closed, 24 elements, no listeners
string[] args  Closed, 24 elements, no listeners
string[] args  Closed, 24 elements, no listeners
string[] args  Closed, 24 elements, no listeners
----

Waiting threads:
----

No events in 10s.

Registered futures:
string[] args  Closed, 24 elements, no listeners
string[] args  Closed, 24 elements, no listeners
string[] args  Closed, 24 elements, no listeners
string[] args  Closed, 24 elements, no listeners
----

Waiting threads:
----

No events in 10s.

Registered futures:
string[] args  Closed, 24 elements, no listeners
string[] args  Closed, 24 elements, no listeners
string[] args  Closed, 24 elements, no listeners
string[] args  Closed, 24 elements, no listeners
----

Waiting threads:
----

Progress:  time: Mon, 30 Jan 2012 12:19:42 -0600  Finished successfully:68
