beagle    bgl /bin/bash null null null
uc3       uc3 /bin/bash null null null
midway    mid /bin/bash null null null
mcs	  mcs /bin/bash null null null
local  l_bash /bin/bash null null null
ci        pub /bin/bash null null null