{
  "soils": [
    {
      "soil_id": "XY01234567",
      "sl_loc_3": "Generic",
      "soil_long": "-99",
      "smke": "SA001",
      "sldp": "-99",
      "classification": "Eutric Leptosols (LPe)",
      "sldr": "0.250",
      "salb": "0.13",
      "slu1": "9.600",
      "slro": "73.00",
      "slpf": "1.00",
      "soil_name": "HWSD DATABASE, SOIL 11748",
      "slnf": "1.00",
      "sl_loc_1": "Generic",
      "smpx": "SA001",
      "soilLayer": [
        {
          "slbs": "85.00",
          "slrgf": "1.000",
          "sldul": "0.268",
          "slbdm": "1.420",
          "slna": "0.140",
          "caco3": "0.000",
          "slsil": "34.00",
          "slll": "0.138",
          "slcly": "20.00",
          "slcec": "14.00",
          "slcf": "24.00",
          "sloc": "1.130",
          "sksat": "1.820",
          "slphw": "6.300",
          "slsat": "0.440",
          "sllb": "5"
        },
        {
          "slbs": "85.00",
          "slrgf": "1.000",
          "sldul": "0.268",
          "slbdm": "1.420",
          "slna": "0.140",
          "caco3": "0.000",
          "slsil": "34.00",
          "slll": "0.138",
          "slcly": "20.00",
          "slcec": "14.00",
          "slcf": "24.00",
          "sloc": "1.130",
          "sksat": "1.820",
          "slphw": "6.300",
          "slsat": "0.440",
          "sllb": "15"
        },
        {
          "slbs": "85.00",
          "slrgf": "0.941",
          "sldul": "0.268",
          "slbdm": "1.420",
          "slna": "0.140",
          "caco3": "0.000",
          "slsil": "34.00",
          "slll": "0.138",
          "slcly": "20.00",
          "slcec": "14.00",
          "slcf": "24.00",
          "sloc": "1.130",
          "sksat": "1.820",
          "slphw": "6.300",
          "slsat": "0.440",
          "sllb": "30"
        },
        {
          "slbs": "85.00",
          "slrgf": "0.333",
          "sldul": "0.268",
          "slbdm": "1.420",
          "slna": "0.140",
          "caco3": "0.000",
          "slsil": "34.00",
          "slll": "0.138",
          "slcly": "20.00",
          "slcec": "14.00",
          "slcf": "24.00",
          "sloc": "1.130",
          "sksat": "1.820",
          "slphw": "6.300",
          "slsat": "0.440",
          "sllb": "100"
        },
        {
          "slbs": "85.00",
          "slrgf": "0.042",
          "sldul": "0.268",
          "slbdm": "1.420",
          "slna": "0.140",
          "caco3": "0.000",
          "slsil": "34.00",
          "slll": "0.138",
          "slcly": "20.00",
          "slcec": "14.00",
          "slcf": "24.00",
          "sloc": "1.130",
          "sksat": "1.820",
          "slphw": "6.300",
          "slsat": "0.440",
          "sllb": "200"
        }
      ],
      "smhb": "SA001",
      "soil_lat": "-99",
      "sltx": "L",
      "sl_source": "HWSD"
    }
  ]
}