{
  "soils": [
    {
      "soil_id": "XY01234567",
      "sl_loc_3": "Generic",
      "soil_long": "-99",
      "smke": "SA001",
      "sldp": "-99",
      "classification": "Haplic Kastanozem ()",
      "sldr": "0.400",
      "salb": "0.13",
      "slu1": "9.720",
      "slro": "73.00",
      "slpf": "1.00",
      "soil_name": "HWSD DATABASE, SOIL 4774",
      "slnf": "1.00",
      "sl_loc_1": "Generic",
      "smpx": "SA001",
      "soilLayer": [
        {
          "slbs": "100.0",
          "slrgf": "1.000",
          "sldul": "0.250",
          "slbdm": "1.390",
          "slna": "0.210",
          "caco3": "5.400",
          "slsil": "45.00",
          "slll": "0.112",
          "slcly": "21.00",
          "slcec": "21.00",
          "slcf": "8.000",
          "sloc": "1.280",
          "sksat": "3.270",
          "slphw": "7.400",
          "slsat": "0.468",
          "sllb": "5"
        },
        {
          "slbs": "100.0",
          "slrgf": "1.000",
          "sldul": "0.250",
          "slbdm": "1.390",
          "slna": "0.210",
          "caco3": "5.400",
          "slsil": "45.00",
          "slll": "0.112",
          "slcly": "21.00",
          "slcec": "21.00",
          "slcf": "8.000",
          "sloc": "1.280",
          "sksat": "3.270",
          "slphw": "7.400",
          "slsat": "0.468",
          "sllb": "15"
        },
        {
          "slbs": "100.0",
          "slrgf": "0.941",
          "sldul": "0.250",
          "slbdm": "1.390",
          "slna": "0.210",
          "caco3": "5.400",
          "slsil": "45.00",
          "slll": "0.112",
          "slcly": "21.00",
          "slcec": "21.00",
          "slcf": "8.000",
          "sloc": "1.280",
          "sksat": "3.270",
          "slphw": "7.400",
          "slsat": "0.468",
          "sllb": "30"
        },
        {
          "slbs": "100.0",
          "slrgf": "0.333",
          "sldul": "0.268",
          "slbdm": "1.390",
          "slna": "0.570",
          "caco3": "10.40",
          "slsil": "43.00",
          "slll": "0.116",
          "slcly": "21.00",
          "slcec": "19.00",
          "slcf": "5.000",
          "sloc": "0.510",
          "sksat": "5.280",
          "slphw": "7.900",
          "slsat": "0.515",
          "sllb": "100"
        },
        {
          "slbs": "100.0",
          "slrgf": "0.042",
          "sldul": "0.268",
          "slbdm": "1.390",
          "slna": "0.570",
          "caco3": "10.40",
          "slsil": "43.00",
          "slll": "0.116",
          "slcly": "21.00",
          "slcec": "19.00",
          "slcf": "5.000",
          "sloc": "0.510",
          "sksat": "5.280",
          "slphw": "7.900",
          "slsat": "0.515",
          "sllb": "200"
        }
      ],
      "smhb": "SA001",
      "soil_lat": "-99",
      "sltx": "L",
      "sl_source": "HWSD"
    }
  ]
}