{
  "soils": [
    {
      "soil_id": "XY01234567",
      "sl_loc_3": "Generic",
      "soil_long": "-99",
      "smke": "SA001",
      "sldp": "-99",
      "classification": "Cumulic Anthrosols (ATc)",
      "sldr": "0.400",
      "salb": "0.13",
      "slu1": "9.520",
      "slro": "73.00",
      "slpf": "1.00",
      "soil_name": "HWSD DATABASE, SOIL 27852",
      "slnf": "1.00",
      "sl_loc_1": "Generic",
      "smpx": "SA001",
      "soilLayer": [
        {
          "slbs": "100.0",
          "slrgf": "1.000",
          "sldul": "0.272",
          "slbdm": "1.420",
          "slna": "0.220",
          "caco3": "8.400",
          "slsil": "37.00",
          "slll": "0.117",
          "slcly": "19.00",
          "slcec": "11.00",
          "slcf": "1.000",
          "sloc": "0.720",
          "sksat": "1.760",
          "slphw": "8.000",
          "slsat": "0.451",
          "sllb": "5"
        },
        {
          "slbs": "100.0",
          "slrgf": "1.000",
          "sldul": "0.272",
          "slbdm": "1.420",
          "slna": "0.220",
          "caco3": "8.400",
          "slsil": "37.00",
          "slll": "0.117",
          "slcly": "19.00",
          "slcec": "11.00",
          "slcf": "1.000",
          "sloc": "0.720",
          "sksat": "1.760",
          "slphw": "8.000",
          "slsat": "0.451",
          "sllb": "15"
        },
        {
          "slbs": "100.0",
          "slrgf": "0.941",
          "sldul": "0.272",
          "slbdm": "1.420",
          "slna": "0.220",
          "caco3": "8.400",
          "slsil": "37.00",
          "slll": "0.117",
          "slcly": "19.00",
          "slcec": "11.00",
          "slcf": "1.000",
          "sloc": "0.720",
          "sksat": "1.760",
          "slphw": "8.000",
          "slsat": "0.451",
          "sllb": "30"
        },
        {
          "slbs": "100.0",
          "slrgf": "0.333",
          "sldul": "0.234",
          "slbdm": "1.420",
          "slna": "0.180",
          "caco3": "8.900",
          "slsil": "34.00",
          "slll": "0.133",
          "slcly": "19.00",
          "slcec": "9.000",
          "slcf": "1.000",
          "sloc": "0.390",
          "sksat": "1.950",
          "slphw": "8.000",
          "slsat": "0.386",
          "sllb": "100"
        },
        {
          "slbs": "100.0",
          "slrgf": "0.042",
          "sldul": "0.234",
          "slbdm": "1.420",
          "slna": "0.180",
          "caco3": "8.900",
          "slsil": "34.00",
          "slll": "0.133",
          "slcly": "19.00",
          "slcec": "9.000",
          "slcf": "1.000",
          "sloc": "0.390",
          "sksat": "1.950",
          "slphw": "8.000",
          "slsat": "0.386",
          "sllb": "200"
        }
      ],
      "smhb": "SA001",
      "soil_lat": "-99",
      "sltx": "L",
      "sl_source": "HWSD"
    }
  ]
}