{
  "soils": [
    {
      "soil_id": "XY01234567",
      "sl_loc_3": "Generic",
      "soil_long": "-99",
      "smke": "SA001",
      "sldp": "-99",
      "classification": "Calcic Xerosol ()",
      "sldr": "0.400",
      "salb": "0.09",
      "slu1": "11.70",
      "slro": "81.00",
      "slpf": "1.00",
      "soil_name": "HWSD DATABASE, SOIL 3308",
      "slnf": "1.00",
      "sl_loc_1": "Generic",
      "smpx": "SA001",
      "soilLayer": [
        {
          "slbs": "100.0",
          "slrgf": "1.000",
          "sldul": "0.337",
          "slbdm": "1.250",
          "slna": "0.400",
          "caco3": "2.100",
          "slsil": "30.00",
          "slll": "0.205",
          "slcly": "47.00",
          "slcec": "40.00",
          "slcf": "7.000",
          "sloc": "0.990",
          "sksat": "0.738",
          "slphw": "7.800",
          "slsat": "0.478",
          "sllb": "5"
        },
        {
          "slbs": "100.0",
          "slrgf": "1.000",
          "sldul": "0.337",
          "slbdm": "1.250",
          "slna": "0.400",
          "caco3": "2.100",
          "slsil": "30.00",
          "slll": "0.205",
          "slcly": "47.00",
          "slcec": "40.00",
          "slcf": "7.000",
          "sloc": "0.990",
          "sksat": "0.738",
          "slphw": "7.800",
          "slsat": "0.478",
          "sllb": "15"
        },
        {
          "slbs": "100.0",
          "slrgf": "0.941",
          "sldul": "0.337",
          "slbdm": "1.250",
          "slna": "0.400",
          "caco3": "2.100",
          "slsil": "30.00",
          "slll": "0.205",
          "slcly": "47.00",
          "slcec": "40.00",
          "slcf": "7.000",
          "sloc": "0.990",
          "sksat": "0.738",
          "slphw": "7.800",
          "slsat": "0.478",
          "sllb": "30"
        },
        {
          "slbs": "100.0",
          "slrgf": "0.333",
          "sldul": "0.374",
          "slbdm": "1.230",
          "slna": "0.400",
          "caco3": "2.600",
          "slsil": "25.00",
          "slll": "0.240",
          "slcly": "52.00",
          "slcec": "40.00",
          "slcf": "17.00",
          "sloc": "0.400",
          "sksat": "0.305",
          "slphw": "7.800",
          "slsat": "0.470",
          "sllb": "100"
        },
        {
          "slbs": "100.0",
          "slrgf": "0.042",
          "sldul": "0.374",
          "slbdm": "1.230",
          "slna": "0.400",
          "caco3": "2.600",
          "slsil": "25.00",
          "slll": "0.240",
          "slcly": "52.00",
          "slcec": "40.00",
          "slcf": "17.00",
          "sloc": "0.400",
          "sksat": "0.305",
          "slphw": "7.800",
          "slsat": "0.470",
          "sllb": "200"
        }
      ],
      "smhb": "SA001",
      "soil_lat": "-99",
      "sltx": "C",
      "sl_source": "HWSD"
    }
  ]
}