{
  "soils": [
    {
      "soil_id": "XY01234567",
      "sl_loc_3": "Generic",
      "soil_long": "-99",
      "smke": "SA001",
      "sldp": "-99",
      "classification": "Chromic Luvisol ()",
      "sldr": "0.400",
      "salb": "0.09",
      "slu1": "11.80",
      "slro": "81.00",
      "slpf": "1.00",
      "soil_name": "HWSD DATABASE, SOIL 3191",
      "slnf": "1.00",
      "sl_loc_1": "Generic",
      "smpx": "SA001",
      "soilLayer": [
        {
          "slbs": "77.00",
          "slrgf": "1.000",
          "sldul": "0.333",
          "slbdm": "1.250",
          "slna": "0.180",
          "caco3": "0.000",
          "slsil": "27.00",
          "slll": "0.226",
          "slcly": "47.00",
          "slcec": "18.00",
          "slcf": "4.000",
          "sloc": "1.220",
          "sksat": "0.600",
          "slphw": "6.300",
          "slsat": "0.465",
          "sllb": "5"
        },
        {
          "slbs": "77.00",
          "slrgf": "1.000",
          "sldul": "0.333",
          "slbdm": "1.250",
          "slna": "0.180",
          "caco3": "0.000",
          "slsil": "27.00",
          "slll": "0.226",
          "slcly": "47.00",
          "slcec": "18.00",
          "slcf": "4.000",
          "sloc": "1.220",
          "sksat": "0.600",
          "slphw": "6.300",
          "slsat": "0.465",
          "sllb": "15"
        },
        {
          "slbs": "77.00",
          "slrgf": "0.941",
          "sldul": "0.333",
          "slbdm": "1.250",
          "slna": "0.180",
          "caco3": "0.000",
          "slsil": "27.00",
          "slll": "0.226",
          "slcly": "47.00",
          "slcec": "18.00",
          "slcf": "4.000",
          "sloc": "1.220",
          "sksat": "0.600",
          "slphw": "6.300",
          "slsat": "0.465",
          "sllb": "30"
        },
        {
          "slbs": "82.00",
          "slrgf": "0.333",
          "sldul": "0.349",
          "slbdm": "1.220",
          "slna": "0.190",
          "caco3": "0.100",
          "slsil": "25.00",
          "slll": "0.220",
          "slcly": "54.00",
          "slcec": "19.00",
          "slcf": "7.000",
          "sloc": "0.580",
          "sksat": "0.392",
          "slphw": "6.400",
          "slsat": "0.454",
          "sllb": "100"
        },
        {
          "slbs": "82.00",
          "slrgf": "0.042",
          "sldul": "0.349",
          "slbdm": "1.220",
          "slna": "0.190",
          "caco3": "0.100",
          "slsil": "25.00",
          "slll": "0.220",
          "slcly": "54.00",
          "slcec": "19.00",
          "slcf": "7.000",
          "sloc": "0.580",
          "sksat": "0.392",
          "slphw": "6.400",
          "slsat": "0.454",
          "sllb": "200"
        }
      ],
      "smhb": "SA001",
      "soil_lat": "-99",
      "sltx": "C",
      "sl_source": "HWSD"
    }
  ]
}