{
  "soils": [
    {
      "soil_id": "XY01234567",
      "sl_loc_3": "Generic",
      "soil_long": "-99",
      "smke": "SA001",
      "sldp": "-99",
      "classification": "Calcic Cambisol ()",
      "sldr": "0.400",
      "salb": "0.13",
      "slu1": "9.680",
      "slro": "73.00",
      "slpf": "1.00",
      "soil_name": "HWSD DATABASE, SOIL 3026",
      "slnf": "1.00",
      "sl_loc_1": "Generic",
      "smpx": "SA001",
      "soilLayer": [
        {
          "slbs": "100.0",
          "slrgf": "1.000",
          "sldul": "0.288",
          "slbdm": "1.400",
          "slna": "0.160",
          "caco3": "7.000",
          "slsil": "41.00",
          "slll": "0.129",
          "slcly": "21.00",
          "slcec": "16.00",
          "slcf": "10.00",
          "sloc": "0.630",
          "sksat": "0.825",
          "slphw": "8.000",
          "slsat": "0.375",
          "sllb": "5"
        },
        {
          "slbs": "100.0",
          "slrgf": "1.000",
          "sldul": "0.288",
          "slbdm": "1.400",
          "slna": "0.160",
          "caco3": "7.000",
          "slsil": "41.00",
          "slll": "0.129",
          "slcly": "21.00",
          "slcec": "16.00",
          "slcf": "10.00",
          "sloc": "0.630",
          "sksat": "0.825",
          "slphw": "8.000",
          "slsat": "0.375",
          "sllb": "15"
        },
        {
          "slbs": "100.0",
          "slrgf": "0.941",
          "sldul": "0.288",
          "slbdm": "1.400",
          "slna": "0.160",
          "caco3": "7.000",
          "slsil": "41.00",
          "slll": "0.129",
          "slcly": "21.00",
          "slcec": "16.00",
          "slcf": "10.00",
          "sloc": "0.630",
          "sksat": "0.825",
          "slphw": "8.000",
          "slsat": "0.375",
          "sllb": "30"
        },
        {
          "slbs": "100.0",
          "slrgf": "0.333",
          "sldul": "0.259",
          "slbdm": "1.380",
          "slna": "0.170",
          "caco3": "10.00",
          "slsil": "41.00",
          "slll": "0.120",
          "slcly": "23.00",
          "slcec": "17.00",
          "slcf": "10.00",
          "sloc": "0.430",
          "sksat": "1.860",
          "slphw": "8.200",
          "slsat": "0.435",
          "sllb": "100"
        },
        {
          "slbs": "100.0",
          "slrgf": "0.042",
          "sldul": "0.259",
          "slbdm": "1.380",
          "slna": "0.170",
          "caco3": "10.00",
          "slsil": "41.00",
          "slll": "0.120",
          "slcly": "23.00",
          "slcec": "17.00",
          "slcf": "10.00",
          "sloc": "0.430",
          "sksat": "1.860",
          "slphw": "8.200",
          "slsat": "0.435",
          "sllb": "200"
        }
      ],
      "smhb": "SA001",
      "soil_lat": "-99",
      "sltx": "L",
      "sl_source": "HWSD"
    }
  ]
}