{
  "soils": [
    {
      "soil_id": "XY01234567",
      "sl_loc_3": "Generic",
      "soil_long": "-99",
      "smke": "SA001",
      "sldp": "-99",
      "classification": "Haplic Luvisols (LVh)",
      "sldr": "0.400",
      "salb": "0.13",
      "slu1": "9.760",
      "slro": "73.00",
      "slpf": "1.00",
      "soil_name": "HWSD DATABASE, SOIL 9848",
      "slnf": "1.00",
      "sl_loc_1": "Generic",
      "smpx": "SA001",
      "soilLayer": [
        {
          "slbs": "91.00",
          "slrgf": "1.000",
          "sldul": "0.280",
          "slbdm": "1.400",
          "slna": "0.130",
          "caco3": "0.000",
          "slsil": "37.00",
          "slll": "0.119",
          "slcly": "22.00",
          "slcec": "13.00",
          "slcf": "4.000",
          "sloc": "0.740",
          "sksat": "2.170",
          "slphw": "6.500",
          "slsat": "0.468",
          "sllb": "5"
        },
        {
          "slbs": "91.00",
          "slrgf": "1.000",
          "sldul": "0.280",
          "slbdm": "1.400",
          "slna": "0.130",
          "caco3": "0.000",
          "slsil": "37.00",
          "slll": "0.119",
          "slcly": "22.00",
          "slcec": "13.00",
          "slcf": "4.000",
          "sloc": "0.740",
          "sksat": "2.170",
          "slphw": "6.500",
          "slsat": "0.468",
          "sllb": "15"
        },
        {
          "slbs": "91.00",
          "slrgf": "0.941",
          "sldul": "0.280",
          "slbdm": "1.400",
          "slna": "0.130",
          "caco3": "0.000",
          "slsil": "37.00",
          "slll": "0.119",
          "slcly": "22.00",
          "slcec": "13.00",
          "slcf": "4.000",
          "sloc": "0.740",
          "sksat": "2.170",
          "slphw": "6.500",
          "slsat": "0.468",
          "sllb": "30"
        },
        {
          "slbs": "93.00",
          "slrgf": "0.333",
          "sldul": "0.295",
          "slbdm": "1.350",
          "slna": "0.140",
          "caco3": "0.000",
          "slsil": "34.00",
          "slll": "0.163",
          "slcly": "29.00",
          "slcec": "14.00",
          "slcf": "3.000",
          "sloc": "0.360",
          "sksat": "1.130",
          "slphw": "6.700",
          "slsat": "0.458",
          "sllb": "100"
        },
        {
          "slbs": "93.00",
          "slrgf": "0.042",
          "sldul": "0.295",
          "slbdm": "1.350",
          "slna": "0.140",
          "caco3": "0.000",
          "slsil": "34.00",
          "slll": "0.163",
          "slcly": "29.00",
          "slcec": "14.00",
          "slcf": "3.000",
          "sloc": "0.360",
          "sksat": "1.130",
          "slphw": "6.700",
          "slsat": "0.458",
          "sllb": "200"
        }
      ],
      "smhb": "SA001",
      "soil_lat": "-99",
      "sltx": "L",
      "sl_source": "HWSD"
    }
  ]
}