{
  "soils": [
    {
      "soil_id": "XY01234567",
      "sl_loc_3": "Generic",
      "soil_long": "-99",
      "smke": "SA001",
      "sldp": "-99",
      "classification": "Lithic Leptosols (LPq)",
      "sldr": "0.250",
      "salb": "0.13",
      "slu1": "9.920",
      "slro": "73.00",
      "slpf": "1.00",
      "soil_name": "HWSD DATABASE, SOIL 9322",
      "slnf": "1.00",
      "sl_loc_1": "Generic",
      "smpx": "SA001",
      "soilLayer": [
        {
          "slbs": "100.0",
          "slrgf": "1.000",
          "sldul": "0.305",
          "slbdm": "1.380",
          "slna": "0.480",
          "caco3": "3.900",
          "slsil": "34.00",
          "slll": "0.127",
          "slcly": "24.00",
          "slcec": "16.00",
          "slcf": "21.00",
          "sloc": "1.610",
          "sksat": "1.910",
          "slphw": "7.500",
          "slsat": "0.518",
          "sllb": "5"
        },
        {
          "slbs": "100.0",
          "slrgf": "1.000",
          "sldul": "0.305",
          "slbdm": "1.380",
          "slna": "0.480",
          "caco3": "3.900",
          "slsil": "34.00",
          "slll": "0.127",
          "slcly": "24.00",
          "slcec": "16.00",
          "slcf": "21.00",
          "sloc": "1.610",
          "sksat": "1.910",
          "slphw": "7.500",
          "slsat": "0.518",
          "sllb": "15"
        },
        {
          "slbs": "100.0",
          "slrgf": "0.941",
          "sldul": "0.305",
          "slbdm": "1.380",
          "slna": "0.480",
          "caco3": "3.900",
          "slsil": "34.00",
          "slll": "0.127",
          "slcly": "24.00",
          "slcec": "16.00",
          "slcf": "21.00",
          "sloc": "1.610",
          "sksat": "1.910",
          "slphw": "7.500",
          "slsat": "0.518",
          "sllb": "30"
        },
        {
          "slbs": "100.0",
          "slrgf": "0.333",
          "sldul": "0.305",
          "slbdm": "1.380",
          "slna": "0.480",
          "caco3": "3.900",
          "slsil": "34.00",
          "slll": "0.127",
          "slcly": "24.00",
          "slcec": "16.00",
          "slcf": "21.00",
          "sloc": "1.610",
          "sksat": "1.910",
          "slphw": "7.500",
          "slsat": "0.518",
          "sllb": "100"
        },
        {
          "slbs": "100.0",
          "slrgf": "0.042",
          "sldul": "0.305",
          "slbdm": "1.380",
          "slna": "0.480",
          "caco3": "3.900",
          "slsil": "34.00",
          "slll": "0.127",
          "slcly": "24.00",
          "slcec": "16.00",
          "slcf": "21.00",
          "sloc": "1.610",
          "sksat": "1.910",
          "slphw": "7.500",
          "slsat": "0.518",
          "sllb": "200"
        }
      ],
      "smhb": "SA001",
      "soil_lat": "-99",
      "sltx": "L",
      "sl_source": "HWSD"
    }
  ]
}