{
  "soils": [
    {
      "soil_id": "XY01234567",
      "sl_loc_3": "Generic",
      "soil_long": "-99",
      "smke": "SA001",
      "sldp": "-99",
      "classification": "Calcaric Cambisols (CMc)",
      "sldr": "0.400",
      "salb": "0.13",
      "slu1": "9.760",
      "slro": "73.00",
      "slpf": "1.00",
      "soil_name": "HWSD DATABASE, SOIL 11328",
      "slnf": "1.00",
      "sl_loc_1": "Generic",
      "smpx": "SA001",
      "soilLayer": [
        {
          "slbs": "100.0",
          "slrgf": "1.000",
          "sldul": "0.268",
          "slbdm": "1.390",
          "slna": "0.160",
          "caco3": "7.000",
          "slsil": "43.00",
          "slll": "0.116",
          "slcly": "21.00",
          "slcec": "16.00",
          "slcf": "6.000",
          "sloc": "0.650",
          "sksat": "5.280",
          "slphw": "8.000",
          "slsat": "0.515",
          "sllb": "5"
        },
        {
          "slbs": "100.0",
          "slrgf": "1.000",
          "sldul": "0.268",
          "slbdm": "1.390",
          "slna": "0.160",
          "caco3": "7.000",
          "slsil": "43.00",
          "slll": "0.116",
          "slcly": "21.00",
          "slcec": "16.00",
          "slcf": "6.000",
          "sloc": "0.650",
          "sksat": "5.280",
          "slphw": "8.000",
          "slsat": "0.515",
          "sllb": "15"
        },
        {
          "slbs": "100.0",
          "slrgf": "0.941",
          "sldul": "0.268",
          "slbdm": "1.390",
          "slna": "0.160",
          "caco3": "7.000",
          "slsil": "43.00",
          "slll": "0.116",
          "slcly": "21.00",
          "slcec": "16.00",
          "slcf": "6.000",
          "sloc": "0.650",
          "sksat": "5.280",
          "slphw": "8.000",
          "slsat": "0.515",
          "sllb": "30"
        },
        {
          "slbs": "100.0",
          "slrgf": "0.333",
          "sldul": "0.304",
          "slbdm": "1.380",
          "slna": "0.160",
          "caco3": "8.700",
          "slsil": "43.00",
          "slll": "0.147",
          "slcly": "23.00",
          "slcec": "16.00",
          "slcf": "10.00",
          "sloc": "0.430",
          "sksat": "1.060",
          "slphw": "8.100",
          "slsat": "0.455",
          "sllb": "100"
        },
        {
          "slbs": "100.0",
          "slrgf": "0.042",
          "sldul": "0.304",
          "slbdm": "1.380",
          "slna": "0.160",
          "caco3": "8.700",
          "slsil": "43.00",
          "slll": "0.147",
          "slcly": "23.00",
          "slcec": "16.00",
          "slcf": "10.00",
          "sloc": "0.430",
          "sksat": "1.060",
          "slphw": "8.100",
          "slsat": "0.455",
          "sllb": "200"
        }
      ],
      "smhb": "SA001",
      "soil_lat": "-99",
      "sltx": "L",
      "sl_source": "HWSD"
    }
  ]
}