{
  "soils": [
    {
      "soil_id": "XY01234567",
      "sl_loc_3": "Generic",
      "soil_long": "-99",
      "smke": "SA001",
      "sldp": "-99",
      "classification": "Lithosols ()",
      "sldr": "0.250",
      "salb": "0.13",
      "slu1": "9.880",
      "slro": "73.00",
      "slpf": "1.00",
      "soil_name": "HWSD DATABASE, SOIL 4354",
      "slnf": "1.00",
      "sl_loc_1": "Generic",
      "smpx": "SA001",
      "soilLayer": [
        {
          "slbs": "100.0",
          "slrgf": "1.000",
          "sldul": "0.270",
          "slbdm": "1.390",
          "slna": "0.600",
          "caco3": "3.900",
          "slsil": "34.00",
          "slll": "0.131",
          "slcly": "23.00",
          "slcec": "15.00",
          "slcf": "26.00",
          "sloc": "1.400",
          "sksat": "1.510",
          "slphw": "7.600",
          "slsat": "0.433",
          "sllb": "5"
        },
        {
          "slbs": "100.0",
          "slrgf": "1.000",
          "sldul": "0.270",
          "slbdm": "1.390",
          "slna": "0.600",
          "caco3": "3.900",
          "slsil": "34.00",
          "slll": "0.131",
          "slcly": "23.00",
          "slcec": "15.00",
          "slcf": "26.00",
          "sloc": "1.400",
          "sksat": "1.510",
          "slphw": "7.600",
          "slsat": "0.433",
          "sllb": "15"
        },
        {
          "slbs": "100.0",
          "slrgf": "0.941",
          "sldul": "0.270",
          "slbdm": "1.390",
          "slna": "0.600",
          "caco3": "3.900",
          "slsil": "34.00",
          "slll": "0.131",
          "slcly": "23.00",
          "slcec": "15.00",
          "slcf": "26.00",
          "sloc": "1.400",
          "sksat": "1.510",
          "slphw": "7.600",
          "slsat": "0.433",
          "sllb": "30"
        },
        {
          "slbs": "100.0",
          "slrgf": "0.333",
          "sldul": "0.270",
          "slbdm": "1.390",
          "slna": "0.600",
          "caco3": "3.900",
          "slsil": "34.00",
          "slll": "0.131",
          "slcly": "23.00",
          "slcec": "15.00",
          "slcf": "26.00",
          "sloc": "1.400",
          "sksat": "1.510",
          "slphw": "7.600",
          "slsat": "0.433",
          "sllb": "100"
        },
        {
          "slbs": "100.0",
          "slrgf": "0.042",
          "sldul": "0.270",
          "slbdm": "1.390",
          "slna": "0.600",
          "caco3": "3.900",
          "slsil": "34.00",
          "slll": "0.131",
          "slcly": "23.00",
          "slcec": "15.00",
          "slcf": "26.00",
          "sloc": "1.400",
          "sksat": "1.510",
          "slphw": "7.600",
          "slsat": "0.433",
          "sllb": "200"
        }
      ],
      "smhb": "SA001",
      "soil_lat": "-99",
      "sltx": "L",
      "sl_source": "HWSD"
    }
  ]
}