#FIG 3.2  Produced by xfig version 3.2.5
Landscape
Center
Inches
Letter  
100.00
Single
-2
1200 2
2 1 0 1 0 7 50 -1 -1 0.000 0 0 -1 0 0 2
	 2100 3450 4425 2025
2 1 0 1 0 7 50 -1 -1 0.000 0 0 -1 0 0 2
	 2100 3675 4425 3825
2 4 0 1 0 11 999 -1 20 0.000 0 0 7 0 0 5
	 8850 4800 4200 4800 4200 675 8850 675 8850 4800
2 2 0 1 0 5 50 -1 20 0.000 0 0 -1 0 0 5
	 7425 2025 8400 2025 8400 2775 7425 2775 7425 2025
2 2 0 1 0 5 50 -1 20 0.000 0 0 -1 0 0 5
	 7425 2850 8400 2850 8400 3600 7425 3600 7425 2850
2 2 0 1 0 5 50 -1 20 0.000 0 0 -1 0 0 5
	 7425 3675 8400 3675 8400 4425 7425 4425 7425 3675
2 2 0 1 0 5 50 -1 20 0.000 0 0 -1 0 0 5
	 7425 1200 8400 1200 8400 1950 7425 1950 7425 1200
2 2 0 1 0 6 500 -1 20 0.000 0 0 -1 0 0 5
	 525 3000 2025 3000 2025 4050 525 4050 525 3000
2 2 0 1 0 6 100 -1 20 0.000 0 0 -1 0 0 5
	 4500 1350 6300 1350 6300 2700 4500 2700 4500 1350
2 2 0 1 0 6 100 -1 20 0.000 0 0 -1 0 0 5
	 4500 3225 6375 3225 6375 4425 4500 4425 4500 3225
2 4 0 1 0 11 55 -1 20 0.000 0 0 7 0 0 5
	 8850 5850 4200 5850 4200 5100 8850 5100 8850 5850
2 4 0 1 0 11 55 -1 20 0.000 0 0 7 0 0 5
	 8850 6675 4200 6675 4200 6075 8850 6075 8850 6675
3 0 0 1 0 7 50 -1 -1 0.000 0 0 0 2
	 7350 1575 6375 1950
	 0.000 0.000
3 0 0 1 0 7 50 -1 -1 0.000 0 0 0 2
	 7350 1725 6450 3975
	 0.000 0.000
4 0 0 50 -1 0 12 0.0000 4 150 450 750 3300 Swift\001
4 0 0 50 -1 0 12 0.0000 4 150 1155 750 3555 commandline\001
4 0 0 50 -1 0 12 0.0000 4 150 465 750 3810 client\001
4 0 0 50 -1 0 12 0.0000 4 195 1500 4725 2100 shared filesystem\001
4 0 0 50 -1 0 12 0.0000 4 150 465 4800 3900 LRM\001
4 0 0 50 -1 0 12 0.0000 4 150 1215 7350 900 Worker nodes\001
4 0 0 50 -1 0 12 0.0000 4 150 465 6525 1425 Posix\001
4 0 0 50 -1 0 12 0.0000 4 150 1065 5325 5475 Another site\001
4 0 0 50 -1 0 12 0.0000 4 150 1065 5250 6450 Another site\001
4 0 0 50 -1 0 12 0.0000 4 150 810 2475 2475 remote fs\001
4 0 0 50 -1 0 12 0.0000 4 105 600 2475 2730 access\001
4 0 0 50 -1 0 12 0.0000 4 195 1260 2400 4125 job submission\001
4 0 0 50 -1 0 12 0.0000 4 195 915 2400 4380 eg GRAM\001
4 0 0 50 -1 0 12 0.0000 4 195 1080 3075 3000 eg. GridFTP\001
