2009-03-16 17:29:23,062+0100 INFO  Loader 1032-singlequote.swift: source file is new. Recompiling.
2009-03-16 17:29:23,821+0100 INFO  Karajan Validation of XML intermediate file was successful
2009-03-16 17:29:23,829+0100 INFO  VariableScope New scope 11922340 with no parent.
2009-03-16 17:29:23,847+0100 INFO  VariableScope New scope 13706772 with no parent.
2009-03-16 17:29:23,847+0100 INFO  VariableScope New scope 1766184 with no parent.
2009-03-16 17:29:23,849+0100 INFO  VariableScope Adding variable t of type messagefile to scope 1766184
2009-03-16 17:29:23,925+0100 INFO  VariableScope Adding variable outfile of type messagefile to scope 11922340
2009-03-16 17:29:23,929+0100 INFO  VariableScope thats the declaration for outfile
2009-03-16 17:29:24,958+0100 INFO  unknown Using sites file: /Users/benc/work/cog/modules/swift/dist/swift-svn/bin/../etc/sites.xml
2009-03-16 17:29:24,958+0100 INFO  unknown Using tc.data: ./tc.data
2009-03-16 17:29:25,168+0100 INFO  AbstractScheduler Setting resources to: {localhost=localhost}
2009-03-16 17:29:25,717+0100 INFO  unknown Swift svn swift-r2522 (swift modified locally) cog-r2325

2009-03-16 17:29:25,719+0100 INFO  unknown RUNID id=tag:benc@ci.uchicago.edu,2007:swift:run:20090316-1729-qyfzb5a1
2009-03-16 17:29:25,750+0100 INFO  AbstractDataNode closed org.griphyn.vdl.mapping.RootDataNode identifier tag:benc@ci.uchicago.edu,2008:swift:dataset:20090316-1729-v1qrjor0:720000000001 type string value=testing 'quotes' in swift dataset=unnamed SwiftScript value (closed)
2009-03-16 17:29:25,750+0100 INFO  AbstractDataNode ROOTPATH dataset=tag:benc@ci.uchicago.edu,2008:swift:dataset:20090316-1729-v1qrjor0:720000000001 path=$
2009-03-16 17:29:25,750+0100 INFO  AbstractDataNode VALUE dataset=tag:benc@ci.uchicago.edu,2008:swift:dataset:20090316-1729-v1qrjor0:720000000001 VALUE=testing 'quotes' in swift
2009-03-16 17:29:25,763+0100 INFO  New NEW id=tag:benc@ci.uchicago.edu,2008:swift:dataset:20090316-1729-v1qrjor0:720000000001
2009-03-16 17:29:25,805+0100 INFO  New NEW id=tag:benc@ci.uchicago.edu,2008:swift:dataset:20090316-1729-v1qrjor0:720000000002
2009-03-16 17:29:25,825+0100 INFO  greeting PROCEDURE thread=0 name=greeting
2009-03-16 17:29:25,826+0100 INFO  vdl:parameterlog PARAM thread=0 direction=output variable=t provenanceid=tag:benc@ci.uchicago.edu,2008:swift:dataset:20090316-1729-v1qrjor0:720000000002
2009-03-16 17:29:25,832+0100 INFO  AbstractDataNode closed org.griphyn.vdl.mapping.RootDataNode identifier tag:benc@ci.uchicago.edu,2008:swift:dataset:20090316-1729-v1qrjor0:720000000003 type string value=1032-singlequote.out dataset=unnamed SwiftScript value (closed)
2009-03-16 17:29:25,832+0100 INFO  AbstractDataNode ROOTPATH dataset=tag:benc@ci.uchicago.edu,2008:swift:dataset:20090316-1729-v1qrjor0:720000000003 path=$
2009-03-16 17:29:25,832+0100 INFO  AbstractDataNode VALUE dataset=tag:benc@ci.uchicago.edu,2008:swift:dataset:20090316-1729-v1qrjor0:720000000003 VALUE=1032-singlequote.out
2009-03-16 17:29:25,838+0100 INFO  vdl:execute START thread=0 tr=echo
2009-03-16 17:29:25,857+0100 INFO  WeightedHostScoreScheduler Sorted: [localhost:0.000(1.000):0/1 overload: 0]
2009-03-16 17:29:25,857+0100 DEBUG WeightedHostScoreScheduler Rand: 0.056784921185455306, sum: 1.0
2009-03-16 17:29:25,857+0100 DEBUG WeightedHostScoreScheduler Next contact: localhost:0.000(1.000):0/1 overload: 0
2009-03-16 17:29:25,860+0100 INFO  vdl:initshareddir START host=localhost - Initializing shared directory
2009-03-16 17:29:25,862+0100 DEBUG WeightedHostScoreScheduler multiplyScore(localhost:0.000(1.000):1/1 overload: 0, -0.01)
2009-03-16 17:29:25,862+0100 DEBUG WeightedHostScoreScheduler Old score: 0.000, new score: -0.010
2009-03-16 17:29:25,865+0100 INFO  GlobalSubmitQueue No global submit throttle set. Using default (100)
2009-03-16 17:29:25,905+0100 DEBUG TaskImpl Task(type=FILE_OPERATION, identity=urn:0-1-1237220965807) setting status to Submitting
2009-03-16 17:29:25,906+0100 DEBUG TaskImpl Task(type=FILE_OPERATION, identity=urn:0-1-1237220965807) setting status to Submitted
2009-03-16 17:29:25,906+0100 DEBUG TaskImpl Task(type=FILE_OPERATION, identity=urn:0-1-1237220965807) setting status to Active
2009-03-16 17:29:25,907+0100 DEBUG TaskImpl Task(type=FILE_OPERATION, identity=urn:0-1-1237220965807) setting status to Completed
2009-03-16 17:29:25,907+0100 DEBUG WeightedHostScoreScheduler multiplyScore(localhost:-0.010(0.994):1/1 overload: -51, 0.01)
2009-03-16 17:29:25,907+0100 DEBUG WeightedHostScoreScheduler Old score: -0.010, new score: 0.000
2009-03-16 17:29:25,907+0100 DEBUG WeightedHostScoreScheduler multiplyScore(localhost:0.000(1.000):1/1 overload: 0, 0.1)
2009-03-16 17:29:25,907+0100 DEBUG WeightedHostScoreScheduler Old score: 0.000, new score: 0.100
2009-03-16 17:29:25,907+0100 INFO  LateBindingScheduler Task(type=FILE_OPERATION, identity=urn:0-1-1237220965807) Completed. Waiting: 0, Running: 0. Heap size: 10M, Heap free: 1M, Max heap: 254M
2009-03-16 17:29:25,914+0100 DEBUG WeightedHostScoreScheduler multiplyScore(localhost:0.100(1.060):1/1 overload: 0, -0.2)
2009-03-16 17:29:25,915+0100 DEBUG WeightedHostScoreScheduler Old score: 0.100, new score: -0.100
2009-03-16 17:29:25,931+0100 DEBUG TaskImpl Task(type=FILE_TRANSFER, identity=urn:0-1-1237220965810) setting status to Submitting
2009-03-16 17:29:25,931+0100 DEBUG TaskImpl Task(type=FILE_TRANSFER, identity=urn:0-1-1237220965810) setting status to Submitted
2009-03-16 17:29:25,932+0100 DEBUG TaskImpl Task(type=FILE_TRANSFER, identity=urn:0-1-1237220965810) setting status to Active
2009-03-16 17:29:25,933+0100 DEBUG TaskImpl Task(type=FILE_TRANSFER, identity=urn:0-1-1237220965810) setting status to Completed
2009-03-16 17:29:25,933+0100 DEBUG WeightedHostScoreScheduler multiplyScore(localhost:-0.100(0.943):1/1 overload: -32, 0.2)
2009-03-16 17:29:25,933+0100 DEBUG WeightedHostScoreScheduler Old score: -0.100, new score: 0.100
2009-03-16 17:29:25,933+0100 DEBUG WeightedHostScoreScheduler multiplyScore(localhost:0.100(1.060):1/1 overload: 0, 0.1)
2009-03-16 17:29:25,933+0100 DEBUG WeightedHostScoreScheduler Old score: 0.100, new score: 0.200
2009-03-16 17:29:25,933+0100 INFO  LateBindingScheduler Task(type=FILE_TRANSFER, identity=urn:0-1-1237220965810) Completed. Waiting: 0, Running: 0. Heap size: 10M, Heap free: 1M, Max heap: 254M
2009-03-16 17:29:25,935+0100 DEBUG WeightedHostScoreScheduler multiplyScore(localhost:0.200(1.124):1/1 overload: 0, -0.2)
2009-03-16 17:29:25,935+0100 DEBUG WeightedHostScoreScheduler Old score: 0.200, new score: 0.000
2009-03-16 17:29:25,935+0100 DEBUG TaskImpl Task(type=FILE_TRANSFER, identity=urn:0-1-1237220965813) setting status to Submitting
2009-03-16 17:29:25,935+0100 DEBUG TaskImpl Task(type=FILE_TRANSFER, identity=urn:0-1-1237220965813) setting status to Submitted
2009-03-16 17:29:25,935+0100 DEBUG TaskImpl Task(type=FILE_TRANSFER, identity=urn:0-1-1237220965813) setting status to Active
2009-03-16 17:29:25,936+0100 DEBUG TaskImpl Task(type=FILE_TRANSFER, identity=urn:0-1-1237220965813) setting status to Completed
2009-03-16 17:29:25,936+0100 DEBUG WeightedHostScoreScheduler multiplyScore(localhost:0.000(1.000):1/1 overload: 0, 0.2)
2009-03-16 17:29:25,936+0100 DEBUG WeightedHostScoreScheduler Old score: 0.000, new score: 0.200
2009-03-16 17:29:25,936+0100 DEBUG WeightedHostScoreScheduler multiplyScore(localhost:0.200(1.124):1/1 overload: 0, 0.1)
2009-03-16 17:29:25,937+0100 DEBUG WeightedHostScoreScheduler Old score: 0.200, new score: 0.300
2009-03-16 17:29:25,937+0100 INFO  LateBindingScheduler Task(type=FILE_TRANSFER, identity=urn:0-1-1237220965813) Completed. Waiting: 0, Running: 0. Heap size: 10M, Heap free: 1M, Max heap: 254M
2009-03-16 17:29:25,938+0100 DEBUG WeightedHostScoreScheduler multiplyScore(localhost:0.300(1.192):1/1 overload: 0, -0.01)
2009-03-16 17:29:25,938+0100 DEBUG WeightedHostScoreScheduler Old score: 0.300, new score: 0.290
2009-03-16 17:29:25,938+0100 DEBUG TaskImpl Task(type=FILE_OPERATION, identity=urn:0-1-1237220965816) setting status to Submitting
2009-03-16 17:29:25,938+0100 DEBUG TaskImpl Task(type=FILE_OPERATION, identity=urn:0-1-1237220965816) setting status to Submitted
2009-03-16 17:29:25,938+0100 DEBUG TaskImpl Task(type=FILE_OPERATION, identity=urn:0-1-1237220965816) setting status to Active
2009-03-16 17:29:25,939+0100 DEBUG TaskImpl Task(type=FILE_OPERATION, identity=urn:0-1-1237220965816) setting status to Completed
2009-03-16 17:29:25,939+0100 DEBUG WeightedHostScoreScheduler multiplyScore(localhost:0.290(1.185):1/1 overload: 0, 0.01)
2009-03-16 17:29:25,939+0100 DEBUG WeightedHostScoreScheduler Old score: 0.290, new score: 0.300
2009-03-16 17:29:25,939+0100 DEBUG WeightedHostScoreScheduler multiplyScore(localhost:0.300(1.192):1/1 overload: 0, 0.1)
2009-03-16 17:29:25,939+0100 DEBUG WeightedHostScoreScheduler Old score: 0.300, new score: 0.400
2009-03-16 17:29:25,939+0100 INFO  LateBindingScheduler Task(type=FILE_OPERATION, identity=urn:0-1-1237220965816) Completed. Waiting: 0, Running: 0. Heap size: 10M, Heap free: 1M, Max heap: 254M
2009-03-16 17:29:25,941+0100 DEBUG WeightedHostScoreScheduler multiplyScore(localhost:0.400(1.264):1/1 overload: 0, -0.01)
2009-03-16 17:29:25,941+0100 DEBUG WeightedHostScoreScheduler Old score: 0.400, new score: 0.390
2009-03-16 17:29:25,941+0100 DEBUG TaskImpl Task(type=FILE_OPERATION, identity=urn:0-1-1237220965818) setting status to Submitting
2009-03-16 17:29:25,941+0100 DEBUG TaskImpl Task(type=FILE_OPERATION, identity=urn:0-1-1237220965818) setting status to Submitted
2009-03-16 17:29:25,941+0100 DEBUG TaskImpl Task(type=FILE_OPERATION, identity=urn:0-1-1237220965818) setting status to Active
2009-03-16 17:29:25,941+0100 DEBUG TaskImpl Task(type=FILE_OPERATION, identity=urn:0-1-1237220965818) setting status to Completed
2009-03-16 17:29:25,941+0100 DEBUG WeightedHostScoreScheduler multiplyScore(localhost:0.390(1.256):1/1 overload: 0, 0.01)
2009-03-16 17:29:25,942+0100 DEBUG WeightedHostScoreScheduler Old score: 0.390, new score: 0.400
2009-03-16 17:29:25,942+0100 DEBUG WeightedHostScoreScheduler multiplyScore(localhost:0.400(1.264):1/1 overload: 0, 0.1)
2009-03-16 17:29:25,942+0100 DEBUG WeightedHostScoreScheduler Old score: 0.400, new score: 0.500
2009-03-16 17:29:25,942+0100 INFO  LateBindingScheduler Task(type=FILE_OPERATION, identity=urn:0-1-1237220965818) Completed. Waiting: 0, Running: 0. Heap size: 10M, Heap free: 1M, Max heap: 254M
2009-03-16 17:29:25,943+0100 DEBUG WeightedHostScoreScheduler multiplyScore(localhost:0.500(1.339):1/1 overload: 0, -0.01)
2009-03-16 17:29:25,943+0100 DEBUG WeightedHostScoreScheduler Old score: 0.500, new score: 0.490
2009-03-16 17:29:25,943+0100 DEBUG TaskImpl Task(type=FILE_OPERATION, identity=urn:0-1-1237220965820) setting status to Submitting
2009-03-16 17:29:25,943+0100 DEBUG TaskImpl Task(type=FILE_OPERATION, identity=urn:0-1-1237220965820) setting status to Submitted
2009-03-16 17:29:25,943+0100 DEBUG TaskImpl Task(type=FILE_OPERATION, identity=urn:0-1-1237220965820) setting status to Active
2009-03-16 17:29:25,943+0100 DEBUG TaskImpl Task(type=FILE_OPERATION, identity=urn:0-1-1237220965820) setting status to Completed
2009-03-16 17:29:25,944+0100 DEBUG WeightedHostScoreScheduler multiplyScore(localhost:0.490(1.332):1/1 overload: 0, 0.01)
2009-03-16 17:29:25,944+0100 DEBUG WeightedHostScoreScheduler Old score: 0.490, new score: 0.500
2009-03-16 17:29:25,944+0100 DEBUG WeightedHostScoreScheduler multiplyScore(localhost:0.500(1.339):1/1 overload: 0, 0.1)
2009-03-16 17:29:25,944+0100 DEBUG WeightedHostScoreScheduler Old score: 0.500, new score: 0.600
2009-03-16 17:29:25,944+0100 INFO  LateBindingScheduler Task(type=FILE_OPERATION, identity=urn:0-1-1237220965820) Completed. Waiting: 0, Running: 0. Heap size: 10M, Heap free: 1M, Max heap: 254M
2009-03-16 17:29:25,945+0100 INFO  vdl:initshareddir END host=localhost - Done initializing shared directory
2009-03-16 17:29:25,947+0100 DEBUG vdl:execute2 THREAD_ASSOCIATION jobid=echo-e8mfa18j thread=0-1 host=localhost replicationGroup=d8mfa18j
2009-03-16 17:29:25,953+0100 INFO  vdl:createdirset START jobid=echo-e8mfa18j host=localhost - Initializing directory structure
2009-03-16 17:29:25,955+0100 INFO  vdl:createdirs START path= dir=1032-singlequote-20090316-1729-qyfzb5a1/shared - Creating directory structure
2009-03-16 17:29:25,956+0100 DEBUG WeightedHostScoreScheduler multiplyScore(localhost:0.600(1.419):1/1 overload: 0, -0.01)
2009-03-16 17:29:25,956+0100 DEBUG WeightedHostScoreScheduler Old score: 0.600, new score: 0.590
2009-03-16 17:29:25,957+0100 DEBUG TaskImpl Task(type=FILE_OPERATION, identity=urn:0-1-1237220965822) setting status to Submitting
2009-03-16 17:29:25,957+0100 DEBUG TaskImpl Task(type=FILE_OPERATION, identity=urn:0-1-1237220965822) setting status to Submitted
2009-03-16 17:29:25,957+0100 DEBUG TaskImpl Task(type=FILE_OPERATION, identity=urn:0-1-1237220965822) setting status to Active
2009-03-16 17:29:25,957+0100 DEBUG TaskImpl Task(type=FILE_OPERATION, identity=urn:0-1-1237220965822) setting status to Completed
2009-03-16 17:29:25,957+0100 DEBUG WeightedHostScoreScheduler multiplyScore(localhost:0.590(1.411):1/1 overload: 0, 0.01)
2009-03-16 17:29:25,957+0100 DEBUG WeightedHostScoreScheduler Old score: 0.590, new score: 0.600
2009-03-16 17:29:25,957+0100 DEBUG WeightedHostScoreScheduler multiplyScore(localhost:0.600(1.419):1/1 overload: 0, 0.1)
2009-03-16 17:29:25,958+0100 DEBUG WeightedHostScoreScheduler Old score: 0.600, new score: 0.700
2009-03-16 17:29:25,958+0100 INFO  LateBindingScheduler Task(type=FILE_OPERATION, identity=urn:0-1-1237220965822) Completed. Waiting: 0, Running: 0. Heap size: 10M, Heap free: 1M, Max heap: 254M
2009-03-16 17:29:25,958+0100 INFO  vdl:createdirset END jobid=echo-e8mfa18j - Done initializing directory structure
2009-03-16 17:29:25,959+0100 INFO  vdl:dostagein START jobid=echo-e8mfa18j - Staging in files
2009-03-16 17:29:25,959+0100 INFO  vdl:dostagein END jobid=echo-e8mfa18j - Staging in finished
2009-03-16 17:29:25,962+0100 DEBUG vdl:execute2 JOB_START jobid=echo-e8mfa18j tr=echo arguments=[testing 'quotes' in swift] tmpdir=1032-singlequote-20090316-1729-qyfzb5a1/jobs/e/echo-e8mfa18j host=localhost
2009-03-16 17:29:25,976+0100 INFO  Execute jobid=echo-e8mfa18j task=Task(type=JOB_SUBMISSION, identity=urn:0-1-1237220965824)
2009-03-16 17:29:25,977+0100 DEBUG WeightedHostScoreScheduler multiplyScore(localhost:0.700(1.503):1/1 overload: 0, -0.2)
2009-03-16 17:29:25,977+0100 DEBUG WeightedHostScoreScheduler Old score: 0.700, new score: 0.500
2009-03-16 17:29:25,982+0100 DEBUG TaskImpl Task(type=JOB_SUBMISSION, identity=urn:0-1-1237220965824) setting status to Submitting
2009-03-16 17:29:25,982+0100 INFO  JobSubmissionTaskHandler Submitting task Task(type=JOB_SUBMISSION, identity=urn:0-1-1237220965824)
2009-03-16 17:29:25,982+0100 DEBUG TaskImpl Task(type=JOB_SUBMISSION, identity=urn:0-1-1237220965824) setting status to Submitted
2009-03-16 17:29:25,983+0100 DEBUG WeightedHostScoreScheduler Submission time for Task(type=JOB_SUBMISSION, identity=urn:0-1-1237220965824): 0ms. Score delta: 0.002564102564102564
2009-03-16 17:29:25,983+0100 DEBUG WeightedHostScoreScheduler multiplyScore(localhost:0.500(1.339):1/1 overload: 0, 0.002564102564102564)
2009-03-16 17:29:25,983+0100 DEBUG WeightedHostScoreScheduler Old score: 0.500, new score: 0.503
2009-03-16 17:29:25,996+0100 DEBUG TaskImpl Task(type=JOB_SUBMISSION, identity=urn:0-1-1237220965824) setting status to Active
2009-03-16 17:29:26,111+0100 DEBUG TaskImpl Task(type=JOB_SUBMISSION, identity=urn:0-1-1237220965824) setting status to Completed
2009-03-16 17:29:26,114+0100 DEBUG WeightedHostScoreScheduler multiplyScore(localhost:0.503(1.341):1/1 overload: 0, 0.2)
2009-03-16 17:29:26,115+0100 DEBUG WeightedHostScoreScheduler Old score: 0.503, new score: 0.703
2009-03-16 17:29:26,115+0100 DEBUG WeightedHostScoreScheduler multiplyScore(localhost:0.703(1.506):1/1 overload: 0, 0.1)
2009-03-16 17:29:26,115+0100 DEBUG WeightedHostScoreScheduler Old score: 0.703, new score: 0.803
2009-03-16 17:29:26,115+0100 INFO  LateBindingScheduler Task(type=JOB_SUBMISSION, identity=urn:0-1-1237220965824) Completed. Waiting: 0, Running: 0. Heap size: 10M, Heap free: 1M, Max heap: 254M
2009-03-16 17:29:26,119+0100 DEBUG vdl:checkjobstatus START jobid=echo-e8mfa18j
2009-03-16 17:29:26,120+0100 DEBUG WeightedHostScoreScheduler multiplyScore(localhost:0.803(1.595):1/1 overload: 0, -0.01)
2009-03-16 17:29:26,120+0100 DEBUG WeightedHostScoreScheduler Old score: 0.803, new score: 0.793
2009-03-16 17:29:26,120+0100 DEBUG TaskImpl Task(type=FILE_OPERATION, identity=urn:0-1-1237220965826) setting status to Submitting
2009-03-16 17:29:26,121+0100 DEBUG TaskImpl Task(type=FILE_OPERATION, identity=urn:0-1-1237220965826) setting status to Submitted
2009-03-16 17:29:26,121+0100 DEBUG TaskImpl Task(type=FILE_OPERATION, identity=urn:0-1-1237220965826) setting status to Active
2009-03-16 17:29:26,121+0100 DEBUG TaskImpl Task(type=FILE_OPERATION, identity=urn:0-1-1237220965826) setting status to Completed
2009-03-16 17:29:26,121+0100 DEBUG WeightedHostScoreScheduler multiplyScore(localhost:0.793(1.585):1/1 overload: 0, 0.01)
2009-03-16 17:29:26,121+0100 DEBUG WeightedHostScoreScheduler Old score: 0.793, new score: 0.803
2009-03-16 17:29:26,122+0100 DEBUG WeightedHostScoreScheduler multiplyScore(localhost:0.803(1.595):1/1 overload: 0, 0.1)
2009-03-16 17:29:26,122+0100 DEBUG WeightedHostScoreScheduler Old score: 0.803, new score: 0.903
2009-03-16 17:29:26,122+0100 INFO  LateBindingScheduler Task(type=FILE_OPERATION, identity=urn:0-1-1237220965826) Completed. Waiting: 0, Running: 0. Heap size: 10M, Heap free: 1M, Max heap: 254M
2009-03-16 17:29:26,122+0100 INFO  vdl:checkjobstatus SUCCESS jobid=echo-e8mfa18j - Success file found
2009-03-16 17:29:26,123+0100 DEBUG vdl:execute2 STAGING_OUT jobid=echo-e8mfa18j
2009-03-16 17:29:26,124+0100 INFO  vdl:dostageout START jobid=echo-e8mfa18j - Staging out files
2009-03-16 17:29:26,131+0100 DEBUG vdl:dostageout FILE_STAGE_OUT_START srcname=1032-singlequote.out srcdir=1032-singlequote-20090316-1729-qyfzb5a1/shared/ srchost=localhost destdir= desthost=localhost provider=file
2009-03-16 17:29:26,135+0100 DEBUG TaskImpl Task(type=FILE_OPERATION, identity=urn:0-1-1-1237220965828) setting status to Submitting
2009-03-16 17:29:26,136+0100 DEBUG TaskImpl Task(type=FILE_OPERATION, identity=urn:0-1-1-1237220965828) setting status to Submitted
2009-03-16 17:29:26,137+0100 DEBUG TaskImpl Task(type=FILE_OPERATION, identity=urn:0-1-1-1237220965828) setting status to Active
2009-03-16 17:29:26,137+0100 DEBUG TaskImpl Task(type=FILE_OPERATION, identity=urn:0-1-1-1237220965828) setting status to Completed
2009-03-16 17:29:26,137+0100 INFO  LateBindingScheduler Task(type=FILE_OPERATION, identity=urn:0-1-1-1237220965828) Completed. Waiting: 0, Running: 0. Heap size: 10M, Heap free: 1M, Max heap: 254M
2009-03-16 17:29:26,139+0100 DEBUG WeightedHostScoreScheduler multiplyScore(localhost:0.903(1.688):1/1 overload: 0, -0.2)
2009-03-16 17:29:26,139+0100 DEBUG WeightedHostScoreScheduler Old score: 0.903, new score: 0.703
2009-03-16 17:29:26,139+0100 DEBUG TaskImpl Task(type=FILE_TRANSFER, identity=urn:0-1-1-1237220965831) setting status to Submitting
2009-03-16 17:29:26,139+0100 DEBUG TaskImpl Task(type=FILE_TRANSFER, identity=urn:0-1-1-1237220965831) setting status to Submitted
2009-03-16 17:29:26,139+0100 DEBUG TaskImpl Task(type=FILE_TRANSFER, identity=urn:0-1-1-1237220965831) setting status to Active
2009-03-16 17:29:26,140+0100 DEBUG TaskImpl Task(type=FILE_TRANSFER, identity=urn:0-1-1-1237220965831) setting status to Completed
2009-03-16 17:29:26,141+0100 DEBUG WeightedHostScoreScheduler multiplyScore(localhost:0.703(1.506):1/1 overload: 0, 0.2)
2009-03-16 17:29:26,141+0100 DEBUG WeightedHostScoreScheduler Old score: 0.703, new score: 0.903
2009-03-16 17:29:26,141+0100 DEBUG WeightedHostScoreScheduler multiplyScore(localhost:0.903(1.688):1/1 overload: 0, 0.1)
2009-03-16 17:29:26,141+0100 DEBUG WeightedHostScoreScheduler Old score: 0.903, new score: 1.003
2009-03-16 17:29:26,141+0100 INFO  LateBindingScheduler Task(type=FILE_TRANSFER, identity=urn:0-1-1-1237220965831) Completed. Waiting: 0, Running: 0. Heap size: 10M, Heap free: 1M, Max heap: 254M
2009-03-16 17:29:26,142+0100 DEBUG vdl:dostageout FILE_STAGE_OUT_END srcname=1032-singlequote.out srcdir=1032-singlequote-20090316-1729-qyfzb5a1/shared/ srchost=localhost destdir= desthost=localhost provider=file
2009-03-16 17:29:26,143+0100 DEBUG TaskImpl Task(type=FILE_OPERATION, identity=urn:0-1-1-1237220965834) setting status to Submitting
2009-03-16 17:29:26,143+0100 DEBUG TaskImpl Task(type=FILE_OPERATION, identity=urn:0-1-1-1237220965834) setting status to Submitted
2009-03-16 17:29:26,143+0100 DEBUG TaskImpl Task(type=FILE_OPERATION, identity=urn:0-1-1-1237220965834) setting status to Active
2009-03-16 17:29:26,145+0100 DEBUG TaskImpl Task(type=FILE_OPERATION, identity=urn:0-1-1-1237220965834) setting status to Completed
2009-03-16 17:29:26,146+0100 INFO  LateBindingScheduler Task(type=FILE_OPERATION, identity=urn:0-1-1-1237220965834) Completed. Waiting: 0, Running: 0. Heap size: 10M, Heap free: 1M, Max heap: 254M
2009-03-16 17:29:26,153+0100 INFO  vdl:dostageout END jobid=echo-e8mfa18j - Staging out finished
2009-03-16 17:29:26,157+0100 DEBUG vdl:execute2 JOB_END jobid=echo-e8mfa18j
2009-03-16 17:29:26,157+0100 DEBUG WeightedHostScoreScheduler Releasing contact 2
2009-03-16 17:29:26,158+0100 DEBUG WeightedHostScoreScheduler commitDelayedScore(localhost:1.003(1.786):0/1 overload: 0, 0.1
2009-03-16 17:29:26,160+0100 INFO  vdl:execute END_SUCCESS thread=0 tr=echo
2009-03-16 17:29:26,162+0100 INFO  CloseDataset Closing org.griphyn.vdl.mapping.RootDataNode identifier tag:benc@ci.uchicago.edu,2008:swift:dataset:20090316-1729-v1qrjor0:720000000002 type messagefile with no value at dataset=outfile (not closed)
2009-03-16 17:29:26,162+0100 INFO  AbstractDataNode closed org.griphyn.vdl.mapping.RootDataNode identifier tag:benc@ci.uchicago.edu,2008:swift:dataset:20090316-1729-v1qrjor0:720000000002 type messagefile with no value at dataset=outfile (closed)
2009-03-16 17:29:26,162+0100 INFO  AbstractDataNode ROOTPATH dataset=tag:benc@ci.uchicago.edu,2008:swift:dataset:20090316-1729-v1qrjor0:720000000002 path=$
2009-03-16 17:29:26,162+0100 INFO  AbstractDataNode FILENAME dataset=tag:benc@ci.uchicago.edu,2008:swift:dataset:20090316-1729-v1qrjor0:720000000002 filename=file://localhost/1032-singlequote.out
2009-03-16 17:29:26,163+0100 INFO  CloseDataset Partially closing org.griphyn.vdl.mapping.RootDataNode identifier tag:benc@ci.uchicago.edu,2008:swift:dataset:20090316-1729-v1qrjor0:720000000002 type messagefile with no value at dataset=outfile (closed) for statement 88000
2009-03-16 17:29:26,163+0100 INFO  CloseDataset var is org.griphyn.vdl.mapping.RootDataNode identifier tag:benc@ci.uchicago.edu,2008:swift:dataset:20090316-1729-v1qrjor0:720000000002 type messagefile with no value at dataset=outfile (closed)
2009-03-16 17:29:26,163+0100 INFO  CloseDataset var hash is 7294259
2009-03-16 17:29:26,163+0100 INFO  CloseDataset variable already closed - skipping partial close processing
2009-03-16 17:29:26,175+0100 INFO  vdl:cleanups START cleanups=[[1032-singlequote-20090316-1729-qyfzb5a1, localhost]]
2009-03-16 17:29:26,177+0100 INFO  vdl:cleanup START dir=1032-singlequote-20090316-1729-qyfzb5a1 host=localhost
2009-03-16 17:29:26,179+0100 DEBUG WeightedHostScoreScheduler multiplyScore(localhost:1.103(1.889):0/1 overload: 0, -0.2)
2009-03-16 17:29:26,179+0100 DEBUG WeightedHostScoreScheduler Old score: 1.103, new score: 0.903
2009-03-16 17:29:26,179+0100 DEBUG TaskImpl Task(type=JOB_SUBMISSION, identity=urn:0-1-1237220965836) setting status to Submitting
2009-03-16 17:29:26,181+0100 INFO  JobSubmissionTaskHandler Submitting task Task(type=JOB_SUBMISSION, identity=urn:0-1-1237220965836)
2009-03-16 17:29:26,181+0100 DEBUG TaskImpl Task(type=JOB_SUBMISSION, identity=urn:0-1-1237220965836) setting status to Submitted
2009-03-16 17:29:26,181+0100 DEBUG WeightedHostScoreScheduler Submission time for Task(type=JOB_SUBMISSION, identity=urn:0-1-1237220965836): 2ms. Score delta: 0.002553846153846154
2009-03-16 17:29:26,182+0100 DEBUG WeightedHostScoreScheduler multiplyScore(localhost:0.903(1.688):0/1 overload: 0, 0.002553846153846154)
2009-03-16 17:29:26,182+0100 DEBUG WeightedHostScoreScheduler Old score: 0.903, new score: 0.905
2009-03-16 17:29:26,182+0100 DEBUG TaskImpl Task(type=JOB_SUBMISSION, identity=urn:0-1-1237220965836) setting status to Active
2009-03-16 17:29:26,182+0100 DEBUG TaskImpl Task(type=JOB_SUBMISSION, identity=urn:0-1-1237220965836) setting status to Completed
2009-03-16 17:29:26,182+0100 DEBUG WeightedHostScoreScheduler multiplyScore(localhost:0.905(1.691):0/1 overload: 0, 0.2)
2009-03-16 17:29:26,182+0100 DEBUG WeightedHostScoreScheduler Old score: 0.905, new score: 1.105
2009-03-16 17:29:26,203+0100 DEBUG WeightedHostScoreScheduler multiplyScore(localhost:1.105(1.892):0/1 overload: 0, 0.1)
2009-03-16 17:29:26,206+0100 DEBUG WeightedHostScoreScheduler Old score: 1.105, new score: 1.205
2009-03-16 17:29:26,206+0100 INFO  LateBindingScheduler Task(type=JOB_SUBMISSION, identity=urn:0-1-1237220965836) Completed. Waiting: 0, Running: 0. Heap size: 10M, Heap free: 1M, Max heap: 254M
2009-03-16 17:29:26,218+0100 INFO  vdl:cleanup END dir=1032-singlequote-20090316-1729-qyfzb5a1 host=localhost
2009-03-16 17:29:26,225+0100 DEBUG Loader Swift finished with no errors
