%!PS-Adobe-3.0 EPSF-3.0
%%Creator: (Apache XML Graphics Commons: EPS Generator for Java2D)
%%CreationDate: 2011-01-10T10:25:07
%%Pages: (atend)
%%BoundingBox: 0 0 300 300
%%LanguageLevel: 3
%%EndComments
%%BeginProlog
%%BeginResource: procset (Apache XML Graphics Std ProcSet) 1.0 0
%%Version: 1.0 0
%%Copyright: (Copyright 2001-2003 The Apache Software Foundation. License terms: http://www.apache.org/licenses/LICENSE-2.0)
%%Title: (Basic set of procedures used by the XML Graphics project \(Batik and FOP\))
/bd{bind def}bind def
/ld{load def}bd
/M/moveto ld
/RM/rmoveto ld
/t/show ld
/A/ashow ld
/cp/closepath ld
/re {4 2 roll M
1 index 0 rlineto
0 exch rlineto
neg 0 rlineto
cp } bd
/_ctm matrix def
/_tm matrix def
/BT { _ctm currentmatrix pop matrix _tm copy pop 0 0 moveto } bd
/ET { _ctm setmatrix } bd
/iTm { _ctm setmatrix _tm concat } bd
/Tm { _tm astore pop iTm 0 0 moveto } bd
/ux 0.0 def
/uy 0.0 def
/F {
  /Tp exch def
  /Tf exch def
  Tf findfont Tp scalefont setfont
  /cf Tf def  /cs Tp def  /cw ( ) stringwidth pop def
} bd
/ULS {currentpoint /uy exch def /ux exch def} bd
/ULE {
  /Tcx currentpoint pop def
  gsave
  newpath
  cf findfont cs scalefont dup
  /FontMatrix get 0 get /Ts exch def /FontInfo get dup
  /UnderlinePosition get Ts mul /To exch def
  /UnderlineThickness get Ts mul /Tt exch def
  ux uy To add moveto  Tcx uy To add lineto
  Tt setlinewidth stroke
  grestore
} bd
/OLE {
  /Tcx currentpoint pop def
  gsave
  newpath
  cf findfont cs scalefont dup
  /FontMatrix get 0 get /Ts exch def /FontInfo get dup
  /UnderlinePosition get Ts mul /To exch def
  /UnderlineThickness get Ts mul /Tt exch def
  ux uy To add cs add moveto Tcx uy To add cs add lineto
  Tt setlinewidth stroke
  grestore
} bd
/SOE {
  /Tcx currentpoint pop def
  gsave
  newpath
  cf findfont cs scalefont dup
  /FontMatrix get 0 get /Ts exch def /FontInfo get dup
  /UnderlinePosition get Ts mul /To exch def
  /UnderlineThickness get Ts mul /Tt exch def
  ux uy To add cs 10 mul 26 idiv add moveto Tcx uy To add cs 10 mul 26 idiv add lineto
  Tt setlinewidth stroke
  grestore
} bd
/QUADTO {
/Y22 exch store
/X22 exch store
/Y21 exch store
/X21 exch store
currentpoint
/Y21 load 2 mul add 3 div exch
/X21 load 2 mul add 3 div exch
/X21 load 2 mul /X22 load add 3 div
/Y21 load 2 mul /Y22 load add 3 div
/X22 load /Y22 load curveto
} bd
/SSPD {
dup length /d exch dict def
{
/v exch def
/k exch def
currentpagedevice k known {
/cpdv currentpagedevice k get def
v cpdv ne {
/upd false def
/nullv v type /nulltype eq def
/nullcpdv cpdv type /nulltype eq def
nullv nullcpdv or
{
/upd true def
} {
/sametype v type cpdv type eq def
sametype {
v type /arraytype eq {
/vlen v length def
/cpdvlen cpdv length def
vlen cpdvlen eq {
0 1 vlen 1 sub {
/i exch def
/obj v i get def
/cpdobj cpdv i get def
obj cpdobj ne {
/upd true def
exit
} if
} for
} {
/upd true def
} ifelse
} {
v type /dicttype eq {
v {
/dv exch def
/dk exch def
/cpddv cpdv dk get def
dv cpddv ne {
/upd true def
exit
} if
} forall
} {
/upd true def
} ifelse
} ifelse
} if
} ifelse
upd true eq {
d k v put
} if
} if
} if
} forall
d length 0 gt {
d setpagedevice
} if
} bd
%%EndResource
%%BeginResource: procset (Apache XML Graphics EPS ProcSet) 1.0 0
%%Version: 1.0 0
%%Copyright: (Copyright 2002-2003 The Apache Software Foundation. License terms: http://www.apache.org/licenses/LICENSE-2.0)
%%Title: (EPS procedures used by the Apache XML Graphics project \(Batik and FOP\))
/BeginEPSF { %def
/b4_Inc_state save def         % Save state for cleanup
/dict_count countdictstack def % Count objects on dict stack
/op_count count 1 sub def      % Count objects on operand stack
userdict begin                 % Push userdict on dict stack
/showpage { } def              % Redefine showpage, { } = null proc
0 setgray 0 setlinecap         % Prepare graphics state
1 setlinewidth 0 setlinejoin
10 setmiterlimit [ ] 0 setdash newpath
/languagelevel where           % If level not equal to 1 then
{pop languagelevel             % set strokeadjust and
1 ne                           % overprint to their defaults.
{false setstrokeadjust false setoverprint
} if
} if
} bd
/EndEPSF { %def
count op_count sub {pop} repeat            % Clean up stacks
countdictstack dict_count sub {end} repeat
b4_Inc_state restore
} bd
%%EndResource
%%EndProlog
%%Page: 1 1
%%PageBoundingBox: 0 0 300 300
%%BeginPageSetup
[1 0 0 -1 0 300] concat
%%EndPageSetup
gsave
newpath
0 0 M
300 0 lineto
300 300 lineto
0 300 lineto
0 0 lineto
closepath
clip
1 setgray
newpath
0 0 M
300 0 lineto
300 300 lineto
0 300 lineto
0 0 lineto
closepath
fill
grestore
gsave
newpath
0 0 M
300 0 lineto
300 300 lineto
0 300 lineto
0 0 lineto
closepath
clip
1 setgray
newpath
1 257.074 M
299 257.074 lineto
299 299 lineto
1 299 lineto
1 257.074 lineto
closepath
fill
grestore
gsave
newpath
0 0 M
300 0 lineto
300 300 lineto
0 300 lineto
0 0 lineto
closepath
clip
2 setlinecap
10.0 setmiterlimit
newpath
1.5 257.574 M
298.5 257.574 lineto
stroke
grestore
gsave
newpath
0 0 M
300 0 lineto
300 300 lineto
0 300 lineto
0 0 lineto
closepath
clip
2 setlinecap
10.0 setmiterlimit
newpath
1.5 298.5 M
298.5 298.5 lineto
stroke
grestore
gsave
newpath
0 0 M
300 0 lineto
300 300 lineto
0 300 lineto
0 0 lineto
closepath
clip
2 setlinecap
10.0 setmiterlimit
newpath
1.5 298.5 M
1.5 257.574 lineto
stroke
grestore
gsave
newpath
0 0 M
300 0 lineto
300 300 lineto
0 300 lineto
0 0 lineto
closepath
clip
2 setlinecap
10.0 setmiterlimit
newpath
298.5 298.5 M
298.5 257.574 lineto
stroke
grestore
gsave
newpath
0 0 M
300 0 lineto
300 300 lineto
0 300 lineto
0 0 lineto
closepath
clip
1 0.333 0.333 setrgbcolor
2 setlinecap
2 setlinejoin
2 setlinejoin
newpath
5 268.056 M
19 268.056 lineto
stroke
grestore
gsave
newpath
0 0 M
300 0 lineto
300 300 lineto
0 300 lineto
0 0 lineto
closepath
clip
1 0.333 0.333 setrgbcolor
newpath
9 265.056 M
15 265.056 lineto
15 271.056 lineto
9 271.056 lineto
9 265.056 lineto
closepath
fill
grestore
gsave
newpath
0 0 M
300 0 lineto
300 300 lineto
0 300 lineto
0 0 lineto
closepath
clip
1 0.333 0.333 setrgbcolor
2 setlinecap
10.0 setmiterlimit
newpath
9 265.056 M
15 265.056 lineto
15 271.056 lineto
9 271.056 lineto
9 265.056 lineto
closepath
stroke
grestore
gsave
newpath
0 0 M
300 0 lineto
300 300 lineto
0 300 lineto
0 0 lineto
closepath
clip
0.251 setgray
newpath
28.234 272.477 M
28.234 271.273 lineto
27.531 272.617 26.125 272.617 QUADTO 
24.969 272.617 24.312 271.781 QUADTO 
23.656 270.945 23.656 269.492 QUADTO 
23.656 267.898 24.398 266.938 QUADTO 
25.141 265.977 26.359 265.977 QUADTO 
27.5 265.977 28.234 266.836 QUADTO 
28.234 263.227 lineto
29.406 263.227 lineto
29.406 272.477 lineto
28.234 272.477 lineto
closepath
28.234 267.633 M
27.344 266.836 26.547 266.836 QUADTO 
24.875 266.836 24.875 269.383 QUADTO 
24.875 271.602 26.359 271.602 QUADTO 
27.312 271.602 28.234 270.555 QUADTO 
28.234 267.633 lineto
closepath
34.99 271.664 M
33.959 272.617 32.99 272.617 QUADTO 
32.193 272.617 31.678 272.125 QUADTO 
31.162 271.633 31.162 270.883 QUADTO 
31.162 269.836 32.037 269.273 QUADTO 
32.912 268.711 34.537 268.711 QUADTO 
34.818 268.711 lineto
34.818 267.945 lineto
34.818 266.836 33.678 266.836 QUADTO 
32.771 266.836 31.709 267.398 QUADTO 
31.709 266.445 lineto
32.881 265.977 33.896 265.977 QUADTO 
34.959 265.977 35.467 266.453 QUADTO 
35.975 266.93 35.975 267.945 QUADTO 
35.975 270.836 lineto
35.975 271.82 36.584 271.82 QUADTO 
36.662 271.82 36.803 271.789 QUADTO 
36.881 272.43 lineto
36.49 272.617 36.021 272.617 QUADTO 
35.209 272.617 34.99 271.664 QUADTO 
closepath
34.818 271.039 M
34.818 269.398 lineto
34.428 269.383 lineto
33.49 269.383 32.904 269.742 QUADTO 
32.318 270.102 32.318 270.695 QUADTO 
32.318 271.102 32.607 271.391 QUADTO 
32.896 271.68 33.318 271.68 QUADTO 
34.037 271.68 34.818 271.039 QUADTO 
closepath
40.242 272.617 M
39.367 272.617 38.875 272.117 QUADTO 
38.383 271.617 38.383 270.711 QUADTO 
38.383 266.977 lineto
37.586 266.977 lineto
37.586 266.117 lineto
38.383 266.117 lineto
38.383 264.961 lineto
39.539 264.852 lineto
39.539 266.117 lineto
41.195 266.117 lineto
41.195 266.977 lineto
39.539 266.977 lineto
39.539 270.508 lineto
39.539 271.758 40.617 271.758 QUADTO 
40.836 271.758 41.164 271.68 QUADTO 
41.164 272.477 lineto
40.633 272.617 40.242 272.617 QUADTO 
closepath
46.105 271.664 M
45.074 272.617 44.105 272.617 QUADTO 
43.309 272.617 42.793 272.125 QUADTO 
42.277 271.633 42.277 270.883 QUADTO 
42.277 269.836 43.152 269.273 QUADTO 
44.027 268.711 45.652 268.711 QUADTO 
45.934 268.711 lineto
45.934 267.945 lineto
45.934 266.836 44.793 266.836 QUADTO 
43.887 266.836 42.824 267.398 QUADTO 
42.824 266.445 lineto
43.996 265.977 45.012 265.977 QUADTO 
46.074 265.977 46.582 266.453 QUADTO 
47.09 266.93 47.09 267.945 QUADTO 
47.09 270.836 lineto
47.09 271.82 47.699 271.82 QUADTO 
47.777 271.82 47.918 271.789 QUADTO 
47.996 272.43 lineto
47.605 272.617 47.137 272.617 QUADTO 
46.324 272.617 46.105 271.664 QUADTO 
closepath
45.934 271.039 M
45.934 269.398 lineto
45.543 269.383 lineto
44.605 269.383 44.02 269.742 QUADTO 
43.434 270.102 43.434 270.695 QUADTO 
43.434 271.102 43.723 271.391 QUADTO 
44.012 271.68 44.434 271.68 QUADTO 
45.152 271.68 45.934 271.039 QUADTO 
closepath
54.936 272.617 M
54.139 272.617 53.014 272.258 QUADTO 
53.014 271.195 lineto
54.139 271.758 54.982 271.758 QUADTO 
55.482 271.758 55.811 271.484 QUADTO 
56.139 271.211 56.139 270.805 QUADTO 
56.139 270.227 55.217 269.836 QUADTO 
54.545 269.539 lineto
53.045 268.93 53.045 267.758 QUADTO 
53.045 266.93 53.639 266.453 QUADTO 
54.232 265.977 55.248 265.977 QUADTO 
55.779 265.977 56.576 266.117 QUADTO 
56.811 266.164 lineto
56.811 267.133 lineto
55.842 266.836 55.279 266.836 QUADTO 
54.154 266.836 54.154 267.648 QUADTO 
54.154 268.164 54.998 268.523 QUADTO 
55.561 268.758 lineto
56.498 269.164 56.896 269.602 QUADTO 
57.295 270.039 57.295 270.711 QUADTO 
57.295 271.539 56.631 272.078 QUADTO 
55.967 272.617 54.936 272.617 QUADTO 
closepath
59.365 272.477 M
59.365 266.117 lineto
60.521 266.117 lineto
60.521 272.477 lineto
59.365 272.477 lineto
closepath
59.365 264.961 M
59.365 263.805 lineto
60.521 263.805 lineto
60.521 264.961 lineto
59.365 264.961 lineto
closepath
62.396 272.477 M
62.396 271.602 lineto
66.334 266.977 lineto
62.584 266.977 lineto
62.584 266.117 lineto
67.756 266.117 lineto
67.756 266.977 lineto
63.818 271.602 lineto
67.834 271.602 lineto
67.834 272.477 lineto
62.396 272.477 lineto
closepath
74.369 272.273 M
73.213 272.617 72.385 272.617 QUADTO 
70.979 272.617 70.096 271.688 QUADTO 
69.213 270.758 69.213 269.258 QUADTO 
69.213 267.82 69.994 266.891 QUADTO 
70.775 265.961 71.994 265.961 QUADTO 
73.15 265.961 73.775 266.781 QUADTO 
74.4 267.602 74.4 269.117 QUADTO 
74.4 269.477 lineto
70.385 269.477 lineto
70.635 271.742 72.604 271.742 QUADTO 
73.322 271.742 74.369 271.352 QUADTO 
74.369 272.273 lineto
closepath
70.432 268.602 M
73.244 268.602 lineto
73.244 266.836 71.916 266.836 QUADTO 
70.588 266.836 70.432 268.602 QUADTO 
closepath
76.555 272.477 M
76.555 271.32 lineto
77.711 271.32 lineto
77.711 272.477 lineto
76.555 272.477 lineto
closepath
76.555 267.273 M
76.555 266.117 lineto
77.711 266.117 lineto
77.711 267.273 lineto
76.555 267.273 lineto
closepath
84.648 272.477 M
84.648 271.602 lineto
86.383 271.602 lineto
86.383 264.758 lineto
84.648 265.195 lineto
84.648 264.305 lineto
87.539 263.586 lineto
87.539 271.602 lineto
89.273 271.602 lineto
89.273 272.477 lineto
84.648 272.477 lineto
closepath
94.189 272.695 M
92.846 272.695 92.018 271.43 QUADTO 
91.189 270.164 91.189 268.133 QUADTO 
91.189 266.086 92.025 264.836 QUADTO 
92.861 263.586 94.221 263.586 QUADTO 
95.58 263.586 96.416 264.836 QUADTO 
97.252 266.086 97.252 268.117 QUADTO 
97.252 270.195 96.416 271.445 QUADTO 
95.58 272.695 94.189 272.695 QUADTO 
closepath
94.205 271.82 M
96.033 271.82 96.033 268.102 QUADTO 
96.033 264.461 94.221 264.461 QUADTO 
92.424 264.461 92.424 268.133 QUADTO 
92.424 271.82 94.205 271.82 QUADTO 
closepath
101.777 272.695 M
100.434 272.695 99.605 271.43 QUADTO 
98.777 270.164 98.777 268.133 QUADTO 
98.777 266.086 99.613 264.836 QUADTO 
100.449 263.586 101.809 263.586 QUADTO 
103.168 263.586 104.004 264.836 QUADTO 
104.84 266.086 104.84 268.117 QUADTO 
104.84 270.195 104.004 271.445 QUADTO 
103.168 272.695 101.777 272.695 QUADTO 
closepath
101.793 271.82 M
103.621 271.82 103.621 268.102 QUADTO 
103.621 264.461 101.809 264.461 QUADTO 
100.012 264.461 100.012 268.133 QUADTO 
100.012 271.82 101.793 271.82 QUADTO 
closepath
106.725 272.477 M
106.725 263.805 lineto
108.975 263.805 lineto
110.271 263.805 110.967 264.297 QUADTO 
111.662 264.789 111.662 265.711 QUADTO 
111.662 267.289 109.881 267.961 QUADTO 
112.006 268.602 112.006 270.305 QUADTO 
112.006 271.367 111.303 271.922 QUADTO 
110.6 272.477 109.271 272.477 QUADTO 
106.725 272.477 lineto
closepath
107.943 271.555 M
108.193 271.555 lineto
109.537 271.555 109.943 271.383 QUADTO 
110.709 271.07 110.709 270.195 QUADTO 
110.709 269.414 110.014 268.906 QUADTO 
109.318 268.398 108.287 268.398 QUADTO 
107.943 268.398 lineto
107.943 271.555 lineto
closepath
107.943 267.617 M
108.334 267.617 lineto
109.318 267.617 109.857 267.195 QUADTO 
110.396 266.773 110.396 266.008 QUADTO 
110.396 264.727 108.412 264.727 QUADTO 
107.943 264.727 lineto
107.943 267.617 lineto
closepath
fill
grestore
gsave
newpath
0 0 M
300 0 lineto
300 300 lineto
0 300 lineto
0 0 lineto
closepath
clip
0.333 0.333 1 setrgbcolor
2 setlinecap
2 setlinejoin
2 setlinejoin
newpath
118.502 268.056 M
132.502 268.056 lineto
stroke
grestore
gsave
newpath
0 0 M
300 0 lineto
300 300 lineto
0 300 lineto
0 0 lineto
closepath
clip
0.333 0.333 1 setrgbcolor
newpath
128.502 268.056 M
128.502 269.713 127.159 271.056 125.502 271.056 curveto
123.845 271.056 122.502 269.713 122.502 268.056 curveto
122.502 266.399 123.845 265.056 125.502 265.056 curveto
127.159 265.056 128.502 266.399 128.502 268.056 curveto
closepath
fill
grestore
gsave
newpath
0 0 M
300 0 lineto
300 300 lineto
0 300 lineto
0 0 lineto
closepath
clip
0.333 0.333 1 setrgbcolor
2 setlinecap
10.0 setmiterlimit
newpath
128.502 268.056 M
128.502 269.713 127.159 271.056 125.502 271.056 curveto
123.845 271.056 122.502 269.713 122.502 268.056 curveto
122.502 266.399 123.845 265.056 125.502 265.056 curveto
127.159 265.056 128.502 266.399 128.502 268.056 curveto
closepath
stroke
grestore
gsave
newpath
0 0 M
300 0 lineto
300 300 lineto
0 300 lineto
0 0 lineto
closepath
clip
0.251 setgray
newpath
141.736 272.477 M
141.736 271.273 lineto
141.033 272.617 139.627 272.617 QUADTO 
138.471 272.617 137.814 271.781 QUADTO 
137.158 270.945 137.158 269.492 QUADTO 
137.158 267.898 137.9 266.938 QUADTO 
138.643 265.977 139.861 265.977 QUADTO 
141.002 265.977 141.736 266.836 QUADTO 
141.736 263.227 lineto
142.908 263.227 lineto
142.908 272.477 lineto
141.736 272.477 lineto
closepath
141.736 267.633 M
140.846 266.836 140.049 266.836 QUADTO 
138.377 266.836 138.377 269.383 QUADTO 
138.377 271.602 139.861 271.602 QUADTO 
140.814 271.602 141.736 270.555 QUADTO 
141.736 267.633 lineto
closepath
148.492 271.664 M
147.461 272.617 146.492 272.617 QUADTO 
145.695 272.617 145.18 272.125 QUADTO 
144.664 271.633 144.664 270.883 QUADTO 
144.664 269.836 145.539 269.273 QUADTO 
146.414 268.711 148.039 268.711 QUADTO 
148.32 268.711 lineto
148.32 267.945 lineto
148.32 266.836 147.18 266.836 QUADTO 
146.273 266.836 145.211 267.398 QUADTO 
145.211 266.445 lineto
146.383 265.977 147.398 265.977 QUADTO 
148.461 265.977 148.969 266.453 QUADTO 
149.477 266.93 149.477 267.945 QUADTO 
149.477 270.836 lineto
149.477 271.82 150.086 271.82 QUADTO 
150.164 271.82 150.305 271.789 QUADTO 
150.383 272.43 lineto
149.992 272.617 149.523 272.617 QUADTO 
148.711 272.617 148.492 271.664 QUADTO 
closepath
148.32 271.039 M
148.32 269.398 lineto
147.93 269.383 lineto
146.992 269.383 146.406 269.742 QUADTO 
145.82 270.102 145.82 270.695 QUADTO 
145.82 271.102 146.109 271.391 QUADTO 
146.398 271.68 146.82 271.68 QUADTO 
147.539 271.68 148.32 271.039 QUADTO 
closepath
153.744 272.617 M
152.869 272.617 152.377 272.117 QUADTO 
151.885 271.617 151.885 270.711 QUADTO 
151.885 266.977 lineto
151.088 266.977 lineto
151.088 266.117 lineto
151.885 266.117 lineto
151.885 264.961 lineto
153.041 264.852 lineto
153.041 266.117 lineto
154.697 266.117 lineto
154.697 266.977 lineto
153.041 266.977 lineto
153.041 270.508 lineto
153.041 271.758 154.119 271.758 QUADTO 
154.338 271.758 154.666 271.68 QUADTO 
154.666 272.477 lineto
154.135 272.617 153.744 272.617 QUADTO 
closepath
159.607 271.664 M
158.576 272.617 157.607 272.617 QUADTO 
156.811 272.617 156.295 272.125 QUADTO 
155.779 271.633 155.779 270.883 QUADTO 
155.779 269.836 156.654 269.273 QUADTO 
157.529 268.711 159.154 268.711 QUADTO 
159.436 268.711 lineto
159.436 267.945 lineto
159.436 266.836 158.295 266.836 QUADTO 
157.389 266.836 156.326 267.398 QUADTO 
156.326 266.445 lineto
157.498 265.977 158.514 265.977 QUADTO 
159.576 265.977 160.084 266.453 QUADTO 
160.592 266.93 160.592 267.945 QUADTO 
160.592 270.836 lineto
160.592 271.82 161.201 271.82 QUADTO 
161.279 271.82 161.42 271.789 QUADTO 
161.498 272.43 lineto
161.107 272.617 160.639 272.617 QUADTO 
159.826 272.617 159.607 271.664 QUADTO 
closepath
159.436 271.039 M
159.436 269.398 lineto
159.045 269.383 lineto
158.107 269.383 157.521 269.742 QUADTO 
156.936 270.102 156.936 270.695 QUADTO 
156.936 271.102 157.225 271.391 QUADTO 
157.514 271.68 157.936 271.68 QUADTO 
158.654 271.68 159.436 271.039 QUADTO 
closepath
168.438 272.617 M
167.641 272.617 166.516 272.258 QUADTO 
166.516 271.195 lineto
167.641 271.758 168.484 271.758 QUADTO 
168.984 271.758 169.312 271.484 QUADTO 
169.641 271.211 169.641 270.805 QUADTO 
169.641 270.227 168.719 269.836 QUADTO 
168.047 269.539 lineto
166.547 268.93 166.547 267.758 QUADTO 
166.547 266.93 167.141 266.453 QUADTO 
167.734 265.977 168.75 265.977 QUADTO 
169.281 265.977 170.078 266.117 QUADTO 
170.312 266.164 lineto
170.312 267.133 lineto
169.344 266.836 168.781 266.836 QUADTO 
167.656 266.836 167.656 267.648 QUADTO 
167.656 268.164 168.5 268.523 QUADTO 
169.062 268.758 lineto
170 269.164 170.398 269.602 QUADTO 
170.797 270.039 170.797 270.711 QUADTO 
170.797 271.539 170.133 272.078 QUADTO 
169.469 272.617 168.438 272.617 QUADTO 
closepath
172.867 272.477 M
172.867 266.117 lineto
174.023 266.117 lineto
174.023 272.477 lineto
172.867 272.477 lineto
closepath
172.867 264.961 M
172.867 263.805 lineto
174.023 263.805 lineto
174.023 264.961 lineto
172.867 264.961 lineto
closepath
175.898 272.477 M
175.898 271.602 lineto
179.836 266.977 lineto
176.086 266.977 lineto
176.086 266.117 lineto
181.258 266.117 lineto
181.258 266.977 lineto
177.32 271.602 lineto
181.336 271.602 lineto
181.336 272.477 lineto
175.898 272.477 lineto
closepath
187.871 272.273 M
186.715 272.617 185.887 272.617 QUADTO 
184.48 272.617 183.598 271.688 QUADTO 
182.715 270.758 182.715 269.258 QUADTO 
182.715 267.82 183.496 266.891 QUADTO 
184.277 265.961 185.496 265.961 QUADTO 
186.652 265.961 187.277 266.781 QUADTO 
187.902 267.602 187.902 269.117 QUADTO 
187.902 269.477 lineto
183.887 269.477 lineto
184.137 271.742 186.105 271.742 QUADTO 
186.824 271.742 187.871 271.352 QUADTO 
187.871 272.273 lineto
closepath
183.934 268.602 M
186.746 268.602 lineto
186.746 266.836 185.418 266.836 QUADTO 
184.09 266.836 183.934 268.602 QUADTO 
closepath
190.057 272.477 M
190.057 271.32 lineto
191.213 271.32 lineto
191.213 272.477 lineto
190.057 272.477 lineto
closepath
190.057 267.273 M
190.057 266.117 lineto
191.213 266.117 lineto
191.213 267.273 lineto
190.057 267.273 lineto
closepath
198.15 272.477 M
198.15 271.602 lineto
199.885 271.602 lineto
199.885 264.758 lineto
198.15 265.195 lineto
198.15 264.305 lineto
201.041 263.586 lineto
201.041 271.602 lineto
202.775 271.602 lineto
202.775 272.477 lineto
198.15 272.477 lineto
closepath
207.691 272.695 M
206.348 272.695 205.52 271.43 QUADTO 
204.691 270.164 204.691 268.133 QUADTO 
204.691 266.086 205.527 264.836 QUADTO 
206.363 263.586 207.723 263.586 QUADTO 
209.082 263.586 209.918 264.836 QUADTO 
210.754 266.086 210.754 268.117 QUADTO 
210.754 270.195 209.918 271.445 QUADTO 
209.082 272.695 207.691 272.695 QUADTO 
closepath
207.707 271.82 M
209.535 271.82 209.535 268.102 QUADTO 
209.535 264.461 207.723 264.461 QUADTO 
205.926 264.461 205.926 268.133 QUADTO 
205.926 271.82 207.707 271.82 QUADTO 
closepath
215.279 272.695 M
213.936 272.695 213.107 271.43 QUADTO 
212.279 270.164 212.279 268.133 QUADTO 
212.279 266.086 213.115 264.836 QUADTO 
213.951 263.586 215.311 263.586 QUADTO 
216.67 263.586 217.506 264.836 QUADTO 
218.342 266.086 218.342 268.117 QUADTO 
218.342 270.195 217.506 271.445 QUADTO 
216.67 272.695 215.279 272.695 QUADTO 
closepath
215.295 271.82 M
217.123 271.82 217.123 268.102 QUADTO 
217.123 264.461 215.311 264.461 QUADTO 
213.514 264.461 213.514 268.133 QUADTO 
213.514 271.82 215.295 271.82 QUADTO 
closepath
220.227 272.477 M
220.227 263.805 lineto
221.383 263.805 lineto
221.383 268.07 lineto
224.883 263.805 lineto
226.117 263.805 lineto
222.727 267.945 lineto
226.727 272.477 lineto
225.164 272.477 lineto
221.383 268.086 lineto
221.383 272.477 lineto
220.227 272.477 lineto
closepath
228.061 272.477 M
228.061 263.805 lineto
230.311 263.805 lineto
231.607 263.805 232.303 264.297 QUADTO 
232.998 264.789 232.998 265.711 QUADTO 
232.998 267.289 231.217 267.961 QUADTO 
233.342 268.602 233.342 270.305 QUADTO 
233.342 271.367 232.639 271.922 QUADTO 
231.936 272.477 230.607 272.477 QUADTO 
228.061 272.477 lineto
closepath
229.279 271.555 M
229.529 271.555 lineto
230.873 271.555 231.279 271.383 QUADTO 
232.045 271.07 232.045 270.195 QUADTO 
232.045 269.414 231.35 268.906 QUADTO 
230.654 268.398 229.623 268.398 QUADTO 
229.279 268.398 lineto
229.279 271.555 lineto
closepath
229.279 267.617 M
229.67 267.617 lineto
230.654 267.617 231.193 267.195 QUADTO 
231.732 266.773 231.732 266.008 QUADTO 
231.732 264.727 229.748 264.727 QUADTO 
229.279 264.727 lineto
229.279 267.617 lineto
closepath
fill
grestore
gsave
newpath
0 0 M
300 0 lineto
300 300 lineto
0 300 lineto
0 0 lineto
closepath
clip
0.333 1 0.333 setrgbcolor
2 setlinecap
2 setlinejoin
2 setlinejoin
newpath
5 288.019 M
19 288.019 lineto
stroke
grestore
gsave
newpath
0 0 M
300 0 lineto
300 300 lineto
0 300 lineto
0 0 lineto
closepath
clip
0.333 1 0.333 setrgbcolor
newpath
12 285.019 M
15 291.019 lineto
9 291.019 lineto
closepath
eofill
grestore
gsave
newpath
0 0 M
300 0 lineto
300 300 lineto
0 300 lineto
0 0 lineto
closepath
clip
0.333 1 0.333 setrgbcolor
2 setlinecap
10.0 setmiterlimit
newpath
12 285.019 M
15 291.019 lineto
9 291.019 lineto
closepath
stroke
grestore
gsave
newpath
0 0 M
300 0 lineto
300 300 lineto
0 300 lineto
0 0 lineto
closepath
clip
0.251 setgray
newpath
28.234 292.439 M
28.234 291.236 lineto
27.531 292.58 26.125 292.58 QUADTO 
24.969 292.58 24.312 291.744 QUADTO 
23.656 290.908 23.656 289.455 QUADTO 
23.656 287.861 24.398 286.9 QUADTO 
25.141 285.939 26.359 285.939 QUADTO 
27.5 285.939 28.234 286.799 QUADTO 
28.234 283.189 lineto
29.406 283.189 lineto
29.406 292.439 lineto
28.234 292.439 lineto
closepath
28.234 287.596 M
27.344 286.799 26.547 286.799 QUADTO 
24.875 286.799 24.875 289.346 QUADTO 
24.875 291.564 26.359 291.564 QUADTO 
27.312 291.564 28.234 290.518 QUADTO 
28.234 287.596 lineto
closepath
34.99 291.627 M
33.959 292.58 32.99 292.58 QUADTO 
32.193 292.58 31.678 292.088 QUADTO 
31.162 291.596 31.162 290.846 QUADTO 
31.162 289.799 32.037 289.236 QUADTO 
32.912 288.674 34.537 288.674 QUADTO 
34.818 288.674 lineto
34.818 287.908 lineto
34.818 286.799 33.678 286.799 QUADTO 
32.771 286.799 31.709 287.361 QUADTO 
31.709 286.408 lineto
32.881 285.939 33.896 285.939 QUADTO 
34.959 285.939 35.467 286.416 QUADTO 
35.975 286.893 35.975 287.908 QUADTO 
35.975 290.799 lineto
35.975 291.783 36.584 291.783 QUADTO 
36.662 291.783 36.803 291.752 QUADTO 
36.881 292.393 lineto
36.49 292.58 36.021 292.58 QUADTO 
35.209 292.58 34.99 291.627 QUADTO 
closepath
34.818 291.002 M
34.818 289.361 lineto
34.428 289.346 lineto
33.49 289.346 32.904 289.705 QUADTO 
32.318 290.064 32.318 290.658 QUADTO 
32.318 291.064 32.607 291.354 QUADTO 
32.896 291.643 33.318 291.643 QUADTO 
34.037 291.643 34.818 291.002 QUADTO 
closepath
40.242 292.58 M
39.367 292.58 38.875 292.08 QUADTO 
38.383 291.58 38.383 290.674 QUADTO 
38.383 286.939 lineto
37.586 286.939 lineto
37.586 286.08 lineto
38.383 286.08 lineto
38.383 284.924 lineto
39.539 284.814 lineto
39.539 286.08 lineto
41.195 286.08 lineto
41.195 286.939 lineto
39.539 286.939 lineto
39.539 290.471 lineto
39.539 291.721 40.617 291.721 QUADTO 
40.836 291.721 41.164 291.643 QUADTO 
41.164 292.439 lineto
40.633 292.58 40.242 292.58 QUADTO 
closepath
46.105 291.627 M
45.074 292.58 44.105 292.58 QUADTO 
43.309 292.58 42.793 292.088 QUADTO 
42.277 291.596 42.277 290.846 QUADTO 
42.277 289.799 43.152 289.236 QUADTO 
44.027 288.674 45.652 288.674 QUADTO 
45.934 288.674 lineto
45.934 287.908 lineto
45.934 286.799 44.793 286.799 QUADTO 
43.887 286.799 42.824 287.361 QUADTO 
42.824 286.408 lineto
43.996 285.939 45.012 285.939 QUADTO 
46.074 285.939 46.582 286.416 QUADTO 
47.09 286.893 47.09 287.908 QUADTO 
47.09 290.799 lineto
47.09 291.783 47.699 291.783 QUADTO 
47.777 291.783 47.918 291.752 QUADTO 
47.996 292.393 lineto
47.605 292.58 47.137 292.58 QUADTO 
46.324 292.58 46.105 291.627 QUADTO 
closepath
45.934 291.002 M
45.934 289.361 lineto
45.543 289.346 lineto
44.605 289.346 44.02 289.705 QUADTO 
43.434 290.064 43.434 290.658 QUADTO 
43.434 291.064 43.723 291.354 QUADTO 
44.012 291.643 44.434 291.643 QUADTO 
45.152 291.643 45.934 291.002 QUADTO 
closepath
54.936 292.58 M
54.139 292.58 53.014 292.221 QUADTO 
53.014 291.158 lineto
54.139 291.721 54.982 291.721 QUADTO 
55.482 291.721 55.811 291.447 QUADTO 
56.139 291.174 56.139 290.768 QUADTO 
56.139 290.189 55.217 289.799 QUADTO 
54.545 289.502 lineto
53.045 288.893 53.045 287.721 QUADTO 
53.045 286.893 53.639 286.416 QUADTO 
54.232 285.939 55.248 285.939 QUADTO 
55.779 285.939 56.576 286.08 QUADTO 
56.811 286.127 lineto
56.811 287.096 lineto
55.842 286.799 55.279 286.799 QUADTO 
54.154 286.799 54.154 287.611 QUADTO 
54.154 288.127 54.998 288.486 QUADTO 
55.561 288.721 lineto
56.498 289.127 56.896 289.564 QUADTO 
57.295 290.002 57.295 290.674 QUADTO 
57.295 291.502 56.631 292.041 QUADTO 
55.967 292.58 54.936 292.58 QUADTO 
closepath
59.365 292.439 M
59.365 286.08 lineto
60.521 286.08 lineto
60.521 292.439 lineto
59.365 292.439 lineto
closepath
59.365 284.924 M
59.365 283.768 lineto
60.521 283.768 lineto
60.521 284.924 lineto
59.365 284.924 lineto
closepath
62.396 292.439 M
62.396 291.564 lineto
66.334 286.939 lineto
62.584 286.939 lineto
62.584 286.08 lineto
67.756 286.08 lineto
67.756 286.939 lineto
63.818 291.564 lineto
67.834 291.564 lineto
67.834 292.439 lineto
62.396 292.439 lineto
closepath
74.369 292.236 M
73.213 292.58 72.385 292.58 QUADTO 
70.979 292.58 70.096 291.65 QUADTO 
69.213 290.721 69.213 289.221 QUADTO 
69.213 287.783 69.994 286.854 QUADTO 
70.775 285.924 71.994 285.924 QUADTO 
73.15 285.924 73.775 286.744 QUADTO 
74.4 287.564 74.4 289.08 QUADTO 
74.4 289.439 lineto
70.385 289.439 lineto
70.635 291.705 72.604 291.705 QUADTO 
73.322 291.705 74.369 291.314 QUADTO 
74.369 292.236 lineto
closepath
70.432 288.564 M
73.244 288.564 lineto
73.244 286.799 71.916 286.799 QUADTO 
70.588 286.799 70.432 288.564 QUADTO 
closepath
76.555 292.439 M
76.555 291.283 lineto
77.711 291.283 lineto
77.711 292.439 lineto
76.555 292.439 lineto
closepath
76.555 287.236 M
76.555 286.08 lineto
77.711 286.08 lineto
77.711 287.236 lineto
76.555 287.236 lineto
closepath
84.648 292.439 M
84.648 291.564 lineto
86.383 291.564 lineto
86.383 284.721 lineto
84.648 285.158 lineto
84.648 284.268 lineto
87.539 283.549 lineto
87.539 291.564 lineto
89.273 291.564 lineto
89.273 292.439 lineto
84.648 292.439 lineto
closepath
94.189 292.658 M
92.846 292.658 92.018 291.393 QUADTO 
91.189 290.127 91.189 288.096 QUADTO 
91.189 286.049 92.025 284.799 QUADTO 
92.861 283.549 94.221 283.549 QUADTO 
95.58 283.549 96.416 284.799 QUADTO 
97.252 286.049 97.252 288.08 QUADTO 
97.252 290.158 96.416 291.408 QUADTO 
95.58 292.658 94.189 292.658 QUADTO 
closepath
94.205 291.783 M
96.033 291.783 96.033 288.064 QUADTO 
96.033 284.424 94.221 284.424 QUADTO 
92.424 284.424 92.424 288.096 QUADTO 
92.424 291.783 94.205 291.783 QUADTO 
closepath
99.137 292.439 M
99.137 283.768 lineto
100.84 283.768 lineto
103.246 290.471 lineto
105.715 283.768 lineto
107.23 283.768 lineto
107.23 292.439 lineto
106.09 292.439 lineto
106.09 285.377 lineto
103.699 291.861 lineto
102.512 291.861 lineto
100.184 285.361 lineto
100.184 292.439 lineto
99.137 292.439 lineto
closepath
109.473 292.439 M
109.473 283.768 lineto
111.723 283.768 lineto
113.02 283.768 113.715 284.26 QUADTO 
114.41 284.752 114.41 285.674 QUADTO 
114.41 287.252 112.629 287.924 QUADTO 
114.754 288.564 114.754 290.268 QUADTO 
114.754 291.33 114.051 291.885 QUADTO 
113.348 292.439 112.02 292.439 QUADTO 
109.473 292.439 lineto
closepath
110.691 291.518 M
110.941 291.518 lineto
112.285 291.518 112.691 291.346 QUADTO 
113.457 291.033 113.457 290.158 QUADTO 
113.457 289.377 112.762 288.869 QUADTO 
112.066 288.361 111.035 288.361 QUADTO 
110.691 288.361 lineto
110.691 291.518 lineto
closepath
110.691 287.58 M
111.082 287.58 lineto
112.066 287.58 112.605 287.158 QUADTO 
113.145 286.736 113.145 285.971 QUADTO 
113.145 284.689 111.16 284.689 QUADTO 
110.691 284.689 lineto
110.691 287.58 lineto
closepath
fill
grestore
gsave
newpath
0 0 M
300 0 lineto
300 300 lineto
0 300 lineto
0 0 lineto
closepath
clip
1 1 0.333 setrgbcolor
2 setlinecap
2 setlinejoin
2 setlinejoin
newpath
121.25 288.019 M
135.25 288.019 lineto
stroke
grestore
gsave
newpath
0 0 M
300 0 lineto
300 300 lineto
0 300 lineto
0 0 lineto
closepath
clip
1 1 0.333 setrgbcolor
newpath
128.25 285.019 M
131.25 288.019 lineto
128.25 291.019 lineto
125.25 288.019 lineto
closepath
eofill
grestore
gsave
newpath
0 0 M
300 0 lineto
300 300 lineto
0 300 lineto
0 0 lineto
closepath
clip
1 1 0.333 setrgbcolor
2 setlinecap
10.0 setmiterlimit
newpath
128.25 285.019 M
131.25 288.019 lineto
128.25 291.019 lineto
125.25 288.019 lineto
closepath
stroke
grestore
gsave
newpath
0 0 M
300 0 lineto
300 300 lineto
0 300 lineto
0 0 lineto
closepath
clip
0.251 setgray
newpath
144.484 292.439 M
144.484 291.236 lineto
143.781 292.58 142.375 292.58 QUADTO 
141.219 292.58 140.562 291.744 QUADTO 
139.906 290.908 139.906 289.455 QUADTO 
139.906 287.861 140.648 286.9 QUADTO 
141.391 285.939 142.609 285.939 QUADTO 
143.75 285.939 144.484 286.799 QUADTO 
144.484 283.189 lineto
145.656 283.189 lineto
145.656 292.439 lineto
144.484 292.439 lineto
closepath
144.484 287.596 M
143.594 286.799 142.797 286.799 QUADTO 
141.125 286.799 141.125 289.346 QUADTO 
141.125 291.564 142.609 291.564 QUADTO 
143.562 291.564 144.484 290.518 QUADTO 
144.484 287.596 lineto
closepath
151.24 291.627 M
150.209 292.58 149.24 292.58 QUADTO 
148.443 292.58 147.928 292.088 QUADTO 
147.412 291.596 147.412 290.846 QUADTO 
147.412 289.799 148.287 289.236 QUADTO 
149.162 288.674 150.787 288.674 QUADTO 
151.068 288.674 lineto
151.068 287.908 lineto
151.068 286.799 149.928 286.799 QUADTO 
149.021 286.799 147.959 287.361 QUADTO 
147.959 286.408 lineto
149.131 285.939 150.146 285.939 QUADTO 
151.209 285.939 151.717 286.416 QUADTO 
152.225 286.893 152.225 287.908 QUADTO 
152.225 290.799 lineto
152.225 291.783 152.834 291.783 QUADTO 
152.912 291.783 153.053 291.752 QUADTO 
153.131 292.393 lineto
152.74 292.58 152.271 292.58 QUADTO 
151.459 292.58 151.24 291.627 QUADTO 
closepath
151.068 291.002 M
151.068 289.361 lineto
150.678 289.346 lineto
149.74 289.346 149.154 289.705 QUADTO 
148.568 290.064 148.568 290.658 QUADTO 
148.568 291.064 148.857 291.354 QUADTO 
149.146 291.643 149.568 291.643 QUADTO 
150.287 291.643 151.068 291.002 QUADTO 
closepath
156.492 292.58 M
155.617 292.58 155.125 292.08 QUADTO 
154.633 291.58 154.633 290.674 QUADTO 
154.633 286.939 lineto
153.836 286.939 lineto
153.836 286.08 lineto
154.633 286.08 lineto
154.633 284.924 lineto
155.789 284.814 lineto
155.789 286.08 lineto
157.445 286.08 lineto
157.445 286.939 lineto
155.789 286.939 lineto
155.789 290.471 lineto
155.789 291.721 156.867 291.721 QUADTO 
157.086 291.721 157.414 291.643 QUADTO 
157.414 292.439 lineto
156.883 292.58 156.492 292.58 QUADTO 
closepath
162.355 291.627 M
161.324 292.58 160.355 292.58 QUADTO 
159.559 292.58 159.043 292.088 QUADTO 
158.527 291.596 158.527 290.846 QUADTO 
158.527 289.799 159.402 289.236 QUADTO 
160.277 288.674 161.902 288.674 QUADTO 
162.184 288.674 lineto
162.184 287.908 lineto
162.184 286.799 161.043 286.799 QUADTO 
160.137 286.799 159.074 287.361 QUADTO 
159.074 286.408 lineto
160.246 285.939 161.262 285.939 QUADTO 
162.324 285.939 162.832 286.416 QUADTO 
163.34 286.893 163.34 287.908 QUADTO 
163.34 290.799 lineto
163.34 291.783 163.949 291.783 QUADTO 
164.027 291.783 164.168 291.752 QUADTO 
164.246 292.393 lineto
163.855 292.58 163.387 292.58 QUADTO 
162.574 292.58 162.355 291.627 QUADTO 
closepath
162.184 291.002 M
162.184 289.361 lineto
161.793 289.346 lineto
160.855 289.346 160.27 289.705 QUADTO 
159.684 290.064 159.684 290.658 QUADTO 
159.684 291.064 159.973 291.354 QUADTO 
160.262 291.643 160.684 291.643 QUADTO 
161.402 291.643 162.184 291.002 QUADTO 
closepath
171.186 292.58 M
170.389 292.58 169.264 292.221 QUADTO 
169.264 291.158 lineto
170.389 291.721 171.232 291.721 QUADTO 
171.732 291.721 172.061 291.447 QUADTO 
172.389 291.174 172.389 290.768 QUADTO 
172.389 290.189 171.467 289.799 QUADTO 
170.795 289.502 lineto
169.295 288.893 169.295 287.721 QUADTO 
169.295 286.893 169.889 286.416 QUADTO 
170.482 285.939 171.498 285.939 QUADTO 
172.029 285.939 172.826 286.08 QUADTO 
173.061 286.127 lineto
173.061 287.096 lineto
172.092 286.799 171.529 286.799 QUADTO 
170.404 286.799 170.404 287.611 QUADTO 
170.404 288.127 171.248 288.486 QUADTO 
171.811 288.721 lineto
172.748 289.127 173.146 289.564 QUADTO 
173.545 290.002 173.545 290.674 QUADTO 
173.545 291.502 172.881 292.041 QUADTO 
172.217 292.58 171.186 292.58 QUADTO 
closepath
175.615 292.439 M
175.615 286.08 lineto
176.771 286.08 lineto
176.771 292.439 lineto
175.615 292.439 lineto
closepath
175.615 284.924 M
175.615 283.768 lineto
176.771 283.768 lineto
176.771 284.924 lineto
175.615 284.924 lineto
closepath
178.646 292.439 M
178.646 291.564 lineto
182.584 286.939 lineto
178.834 286.939 lineto
178.834 286.08 lineto
184.006 286.08 lineto
184.006 286.939 lineto
180.068 291.564 lineto
184.084 291.564 lineto
184.084 292.439 lineto
178.646 292.439 lineto
closepath
190.619 292.236 M
189.463 292.58 188.635 292.58 QUADTO 
187.229 292.58 186.346 291.65 QUADTO 
185.463 290.721 185.463 289.221 QUADTO 
185.463 287.783 186.244 286.854 QUADTO 
187.025 285.924 188.244 285.924 QUADTO 
189.4 285.924 190.025 286.744 QUADTO 
190.65 287.564 190.65 289.08 QUADTO 
190.65 289.439 lineto
186.635 289.439 lineto
186.885 291.705 188.854 291.705 QUADTO 
189.572 291.705 190.619 291.314 QUADTO 
190.619 292.236 lineto
closepath
186.682 288.564 M
189.494 288.564 lineto
189.494 286.799 188.166 286.799 QUADTO 
186.838 286.799 186.682 288.564 QUADTO 
closepath
192.805 292.439 M
192.805 291.283 lineto
193.961 291.283 lineto
193.961 292.439 lineto
192.805 292.439 lineto
closepath
192.805 287.236 M
192.805 286.08 lineto
193.961 286.08 lineto
193.961 287.236 lineto
192.805 287.236 lineto
closepath
200.898 292.439 M
200.898 291.564 lineto
202.633 291.564 lineto
202.633 284.721 lineto
200.898 285.158 lineto
200.898 284.268 lineto
203.789 283.549 lineto
203.789 291.564 lineto
205.523 291.564 lineto
205.523 292.439 lineto
200.898 292.439 lineto
closepath
210.439 292.658 M
209.096 292.658 208.268 291.393 QUADTO 
207.439 290.127 207.439 288.096 QUADTO 
207.439 286.049 208.275 284.799 QUADTO 
209.111 283.549 210.471 283.549 QUADTO 
211.83 283.549 212.666 284.799 QUADTO 
213.502 286.049 213.502 288.08 QUADTO 
213.502 290.158 212.666 291.408 QUADTO 
211.83 292.658 210.439 292.658 QUADTO 
closepath
210.455 291.783 M
212.283 291.783 212.283 288.064 QUADTO 
212.283 284.424 210.471 284.424 QUADTO 
208.674 284.424 208.674 288.096 QUADTO 
208.674 291.783 210.455 291.783 QUADTO 
closepath
215.387 292.439 M
215.387 283.768 lineto
217.09 283.768 lineto
219.496 290.471 lineto
221.965 283.768 lineto
223.48 283.768 lineto
223.48 292.439 lineto
222.34 292.439 lineto
222.34 285.377 lineto
219.949 291.861 lineto
218.762 291.861 lineto
216.434 285.361 lineto
216.434 292.439 lineto
215.387 292.439 lineto
closepath
225.723 292.439 M
225.723 283.768 lineto
227.973 283.768 lineto
229.27 283.768 229.965 284.26 QUADTO 
230.66 284.752 230.66 285.674 QUADTO 
230.66 287.252 228.879 287.924 QUADTO 
231.004 288.564 231.004 290.268 QUADTO 
231.004 291.33 230.301 291.885 QUADTO 
229.598 292.439 228.27 292.439 QUADTO 
225.723 292.439 lineto
closepath
226.941 291.518 M
227.191 291.518 lineto
228.535 291.518 228.941 291.346 QUADTO 
229.707 291.033 229.707 290.158 QUADTO 
229.707 289.377 229.012 288.869 QUADTO 
228.316 288.361 227.285 288.361 QUADTO 
226.941 288.361 lineto
226.941 291.518 lineto
closepath
226.941 287.58 M
227.332 287.58 lineto
228.316 287.58 228.855 287.158 QUADTO 
229.395 286.736 229.395 285.971 QUADTO 
229.395 284.689 227.41 284.689 QUADTO 
226.941 284.689 lineto
226.941 287.58 lineto
closepath
238.766 293.377 M
238.766 294.174 lineto
237.5 293.314 236.758 291.83 QUADTO 
236.016 290.346 236.016 288.674 QUADTO 
236.016 287.002 236.758 285.525 QUADTO 
237.5 284.049 238.766 283.189 QUADTO 
238.766 283.986 lineto
237.906 284.924 237.539 286.002 QUADTO 
237.172 287.08 237.172 288.674 QUADTO 
237.172 290.283 237.539 291.361 QUADTO 
237.906 292.439 238.766 293.377 QUADTO 
closepath
244.434 292.439 M
244.434 291.236 lineto
243.73 292.58 242.324 292.58 QUADTO 
241.168 292.58 240.512 291.744 QUADTO 
239.855 290.908 239.855 289.455 QUADTO 
239.855 287.861 240.598 286.9 QUADTO 
241.34 285.939 242.559 285.939 QUADTO 
243.699 285.939 244.434 286.799 QUADTO 
244.434 283.189 lineto
245.605 283.189 lineto
245.605 292.439 lineto
244.434 292.439 lineto
closepath
244.434 287.596 M
243.543 286.799 242.746 286.799 QUADTO 
241.074 286.799 241.074 289.346 QUADTO 
241.074 291.564 242.559 291.564 QUADTO 
243.512 291.564 244.434 290.518 QUADTO 
244.434 287.596 lineto
closepath
247.908 292.439 M
247.908 286.08 lineto
249.064 286.08 lineto
249.064 292.439 lineto
247.908 292.439 lineto
closepath
247.908 284.924 M
247.908 283.768 lineto
249.064 283.768 lineto
249.064 284.924 lineto
247.908 284.924 lineto
closepath
251.377 292.439 M
251.377 286.08 lineto
252.533 286.08 lineto
252.533 287.268 lineto
253.221 285.939 254.518 285.939 QUADTO 
254.705 285.939 254.893 285.971 QUADTO 
254.893 287.049 lineto
254.596 286.939 254.361 286.939 QUADTO 
253.268 286.939 252.533 288.236 QUADTO 
252.533 292.439 lineto
251.377 292.439 lineto
closepath
260.943 292.236 M
259.787 292.58 258.959 292.58 QUADTO 
257.553 292.58 256.67 291.65 QUADTO 
255.787 290.721 255.787 289.221 QUADTO 
255.787 287.783 256.568 286.854 QUADTO 
257.35 285.924 258.568 285.924 QUADTO 
259.725 285.924 260.35 286.744 QUADTO 
260.975 287.564 260.975 289.08 QUADTO 
260.975 289.439 lineto
256.959 289.439 lineto
257.209 291.705 259.178 291.705 QUADTO 
259.896 291.705 260.943 291.314 QUADTO 
260.943 292.236 lineto
closepath
257.006 288.564 M
259.818 288.564 lineto
259.818 286.799 258.49 286.799 QUADTO 
257.162 286.799 257.006 288.564 QUADTO 
closepath
265.457 292.58 M
264.16 292.58 263.316 291.627 QUADTO 
262.473 290.674 262.473 289.221 QUADTO 
262.473 287.674 263.309 286.807 QUADTO 
264.145 285.939 265.66 285.939 QUADTO 
266.395 285.939 267.316 286.143 QUADTO 
267.316 287.111 lineto
266.348 286.814 265.723 286.814 QUADTO 
264.848 286.814 264.309 287.479 QUADTO 
263.77 288.143 263.77 289.252 QUADTO 
263.77 290.33 264.316 290.994 QUADTO 
264.863 291.658 265.754 291.658 QUADTO 
266.551 291.658 267.395 291.252 QUADTO 
267.395 292.252 lineto
266.27 292.58 265.457 292.58 QUADTO 
closepath
271.025 292.58 M
270.15 292.58 269.658 292.08 QUADTO 
269.166 291.58 269.166 290.674 QUADTO 
269.166 286.939 lineto
268.369 286.939 lineto
268.369 286.08 lineto
269.166 286.08 lineto
269.166 284.924 lineto
270.322 284.814 lineto
270.322 286.08 lineto
271.979 286.08 lineto
271.979 286.939 lineto
270.322 286.939 lineto
270.322 290.471 lineto
270.322 291.721 271.4 291.721 QUADTO 
271.619 291.721 271.947 291.643 QUADTO 
271.947 292.439 lineto
271.416 292.58 271.025 292.58 QUADTO 
closepath
272.982 293.377 M
272.982 294.174 lineto
274.248 293.314 274.99 291.83 QUADTO 
275.732 290.346 275.732 288.674 QUADTO 
275.732 287.002 274.99 285.525 QUADTO 
274.248 284.049 272.982 283.189 QUADTO 
272.982 283.986 lineto
273.842 284.924 274.209 286.002 QUADTO 
274.576 287.08 274.576 288.674 QUADTO 
274.576 290.283 274.209 291.361 QUADTO 
273.842 292.439 272.982 293.377 QUADTO 
closepath
fill
grestore
gsave
newpath
0 0 M
300 0 lineto
300 300 lineto
0 300 lineto
0 0 lineto
closepath
clip
1 setgray
newpath
65.054 10 M
288 10 lineto
288 207.821 lineto
65.054 207.821 lineto
65.054 10 lineto
closepath
fill
grestore
gsave
newpath
0 0 M
300 0 lineto
300 300 lineto
0 300 lineto
0 0 lineto
closepath
clip
0.502 setgray
2 setlinecap
10.0 setmiterlimit
newpath
65.054 211.821 M
288 211.821 lineto
stroke
grestore
gsave
newpath
0 0 M
300 0 lineto
300 300 lineto
0 300 lineto
0 0 lineto
closepath
clip
0.251 setgray
newpath
81.905 227.224 M
81.905 226.349 lineto
83.639 226.349 lineto
83.639 219.505 lineto
81.905 219.942 lineto
81.905 219.052 lineto
84.796 218.333 lineto
84.796 226.349 lineto
86.53 226.349 lineto
86.53 227.224 lineto
81.905 227.224 lineto
closepath
91.446 227.442 M
90.102 227.442 89.274 226.177 QUADTO 
88.446 224.911 88.446 222.88 QUADTO 
88.446 220.833 89.282 219.583 QUADTO 
90.118 218.333 91.477 218.333 QUADTO 
92.837 218.333 93.673 219.583 QUADTO 
94.508 220.833 94.508 222.864 QUADTO 
94.508 224.942 93.673 226.192 QUADTO 
92.837 227.442 91.446 227.442 QUADTO 
closepath
91.462 226.567 M
93.29 226.567 93.29 222.849 QUADTO 
93.29 219.208 91.477 219.208 QUADTO 
89.68 219.208 89.68 222.88 QUADTO 
89.68 226.567 91.462 226.567 QUADTO 
closepath
99.034 227.442 M
97.69 227.442 96.862 226.177 QUADTO 
96.034 224.911 96.034 222.88 QUADTO 
96.034 220.833 96.87 219.583 QUADTO 
97.706 218.333 99.065 218.333 QUADTO 
100.424 218.333 101.26 219.583 QUADTO 
102.096 220.833 102.096 222.864 QUADTO 
102.096 224.942 101.26 226.192 QUADTO 
100.424 227.442 99.034 227.442 QUADTO 
closepath
99.049 226.567 M
100.878 226.567 100.878 222.849 QUADTO 
100.878 219.208 99.065 219.208 QUADTO 
97.268 219.208 97.268 222.88 QUADTO 
97.268 226.567 99.049 226.567 QUADTO 
closepath
fill
grestore
gsave
newpath
0 0 M
300 0 lineto
300 300 lineto
0 300 lineto
0 0 lineto
closepath
clip
0.502 setgray
2 setlinecap
10.0 setmiterlimit
newpath
91.474 213.821 M
91.474 211.821 lineto
stroke
grestore
gsave
newpath
0 0 M
300 0 lineto
300 300 lineto
0 300 lineto
0 0 lineto
closepath
clip
0.251 setgray
newpath
126.333 227.224 M
126.333 226.208 lineto
126.833 225.036 128.364 223.646 QUADTO 
129.036 223.052 lineto
130.302 221.896 130.302 220.755 QUADTO 
130.302 220.036 129.872 219.622 QUADTO 
129.443 219.208 128.677 219.208 QUADTO 
127.771 219.208 126.552 219.896 QUADTO 
126.552 218.88 lineto
127.708 218.333 128.833 218.333 QUADTO 
130.052 218.333 130.794 218.989 QUADTO 
131.536 219.646 131.536 220.724 QUADTO 
131.536 221.505 131.161 222.114 QUADTO 
130.786 222.724 129.771 223.583 QUADTO 
129.333 223.958 lineto
127.943 225.13 127.724 226.208 QUADTO 
131.489 226.208 lineto
131.489 227.224 lineto
126.333 227.224 lineto
closepath
136.687 227.442 M
135.343 227.442 134.515 226.177 QUADTO 
133.687 224.911 133.687 222.88 QUADTO 
133.687 220.833 134.523 219.583 QUADTO 
135.359 218.333 136.718 218.333 QUADTO 
138.077 218.333 138.913 219.583 QUADTO 
139.749 220.833 139.749 222.864 QUADTO 
139.749 224.942 138.913 226.192 QUADTO 
138.077 227.442 136.687 227.442 QUADTO 
closepath
136.702 226.567 M
138.53 226.567 138.53 222.849 QUADTO 
138.53 219.208 136.718 219.208 QUADTO 
134.921 219.208 134.921 222.88 QUADTO 
134.921 226.567 136.702 226.567 QUADTO 
closepath
144.275 227.442 M
142.931 227.442 142.103 226.177 QUADTO 
141.275 224.911 141.275 222.88 QUADTO 
141.275 220.833 142.111 219.583 QUADTO 
142.946 218.333 144.306 218.333 QUADTO 
145.665 218.333 146.501 219.583 QUADTO 
147.337 220.833 147.337 222.864 QUADTO 
147.337 224.942 146.501 226.192 QUADTO 
145.665 227.442 144.275 227.442 QUADTO 
closepath
144.29 226.567 M
146.118 226.567 146.118 222.849 QUADTO 
146.118 219.208 144.306 219.208 QUADTO 
142.509 219.208 142.509 222.88 QUADTO 
142.509 226.567 144.29 226.567 QUADTO 
closepath
fill
grestore
gsave
newpath
0 0 M
300 0 lineto
300 300 lineto
0 300 lineto
0 0 lineto
closepath
clip
0.502 setgray
2 setlinecap
10.0 setmiterlimit
newpath
136.715 213.821 M
136.715 211.821 lineto
stroke
grestore
gsave
newpath
0 0 M
300 0 lineto
300 300 lineto
0 300 lineto
0 0 lineto
closepath
clip
0.251 setgray
newpath
171.793 227.161 M
171.793 226.083 lineto
173.043 226.567 173.746 226.567 QUADTO 
174.574 226.567 175.097 226.083 QUADTO 
175.621 225.599 175.621 224.833 QUADTO 
175.621 223.005 173.058 223.005 QUADTO 
172.59 223.005 lineto
172.59 222.224 lineto
172.996 222.224 lineto
175.402 222.224 175.402 220.536 QUADTO 
175.402 219.208 173.824 219.208 QUADTO 
172.949 219.208 171.918 219.692 QUADTO 
171.918 218.677 lineto
172.933 218.333 173.902 218.333 QUADTO 
176.558 218.333 176.558 220.349 QUADTO 
176.558 221.88 174.746 222.521 QUADTO 
176.855 223.005 176.855 224.817 QUADTO 
176.855 226.052 176.043 226.747 QUADTO 
175.23 227.442 173.824 227.442 QUADTO 
173.011 227.442 171.793 227.161 QUADTO 
closepath
181.927 227.442 M
180.584 227.442 179.756 226.177 QUADTO 
178.927 224.911 178.927 222.88 QUADTO 
178.927 220.833 179.763 219.583 QUADTO 
180.599 218.333 181.959 218.333 QUADTO 
183.318 218.333 184.154 219.583 QUADTO 
184.99 220.833 184.99 222.864 QUADTO 
184.99 224.942 184.154 226.192 QUADTO 
183.318 227.442 181.927 227.442 QUADTO 
closepath
181.943 226.567 M
183.771 226.567 183.771 222.849 QUADTO 
183.771 219.208 181.959 219.208 QUADTO 
180.162 219.208 180.162 222.88 QUADTO 
180.162 226.567 181.943 226.567 QUADTO 
closepath
189.515 227.442 M
188.172 227.442 187.343 226.177 QUADTO 
186.515 224.911 186.515 222.88 QUADTO 
186.515 220.833 187.351 219.583 QUADTO 
188.187 218.333 189.547 218.333 QUADTO 
190.906 218.333 191.742 219.583 QUADTO 
192.578 220.833 192.578 222.864 QUADTO 
192.578 224.942 191.742 226.192 QUADTO 
190.906 227.442 189.515 227.442 QUADTO 
closepath
189.531 226.567 M
191.359 226.567 191.359 222.849 QUADTO 
191.359 219.208 189.547 219.208 QUADTO 
187.75 219.208 187.75 222.88 QUADTO 
187.75 226.567 189.531 226.567 QUADTO 
closepath
fill
grestore
gsave
newpath
0 0 M
300 0 lineto
300 300 lineto
0 300 lineto
0 0 lineto
closepath
clip
0.502 setgray
2 setlinecap
10.0 setmiterlimit
newpath
181.956 213.821 M
181.956 211.821 lineto
stroke
grestore
gsave
newpath
0 0 M
300 0 lineto
300 300 lineto
0 300 lineto
0 0 lineto
closepath
clip
0.251 setgray
newpath
220.33 227.224 M
220.33 224.771 lineto
216.424 224.771 lineto
216.424 223.896 lineto
220.33 218.552 lineto
221.424 218.552 lineto
221.424 223.817 lineto
222.58 223.817 lineto
222.58 224.771 lineto
221.424 224.771 lineto
221.424 227.224 lineto
220.33 227.224 lineto
closepath
217.565 223.817 M
220.408 223.817 lineto
220.408 219.974 lineto
217.565 223.817 lineto
closepath
227.168 227.442 M
225.824 227.442 224.996 226.177 QUADTO 
224.168 224.911 224.168 222.88 QUADTO 
224.168 220.833 225.004 219.583 QUADTO 
225.84 218.333 227.199 218.333 QUADTO 
228.559 218.333 229.395 219.583 QUADTO 
230.231 220.833 230.231 222.864 QUADTO 
230.231 224.942 229.395 226.192 QUADTO 
228.559 227.442 227.168 227.442 QUADTO 
closepath
227.184 226.567 M
229.012 226.567 229.012 222.849 QUADTO 
229.012 219.208 227.199 219.208 QUADTO 
225.403 219.208 225.403 222.88 QUADTO 
225.403 226.567 227.184 226.567 QUADTO 
closepath
234.756 227.442 M
233.412 227.442 232.584 226.177 QUADTO 
231.756 224.911 231.756 222.88 QUADTO 
231.756 220.833 232.592 219.583 QUADTO 
233.428 218.333 234.787 218.333 QUADTO 
236.147 218.333 236.983 219.583 QUADTO 
237.819 220.833 237.819 222.864 QUADTO 
237.819 224.942 236.983 226.192 QUADTO 
236.147 227.442 234.756 227.442 QUADTO 
closepath
234.772 226.567 M
236.6 226.567 236.6 222.849 QUADTO 
236.6 219.208 234.787 219.208 QUADTO 
232.99 219.208 232.99 222.88 QUADTO 
232.99 226.567 234.772 226.567 QUADTO 
closepath
fill
grestore
gsave
newpath
0 0 M
300 0 lineto
300 300 lineto
0 300 lineto
0 0 lineto
closepath
clip
0.502 setgray
2 setlinecap
10.0 setmiterlimit
newpath
227.196 213.821 M
227.196 211.821 lineto
stroke
grestore
gsave
newpath
0 0 M
300 0 lineto
300 300 lineto
0 300 lineto
0 0 lineto
closepath
clip
0.251 setgray
newpath
262.508 227.255 M
262.508 226.224 lineto
263.383 226.567 264.149 226.567 QUADTO 
265.008 226.567 265.501 226.067 QUADTO 
265.993 225.567 265.993 224.677 QUADTO 
265.993 222.724 263.305 222.724 QUADTO 
262.993 222.724 262.665 222.771 QUADTO 
262.665 218.552 lineto
267.055 218.552 lineto
267.055 219.552 lineto
263.68 219.552 lineto
263.68 221.849 lineto
265.352 221.849 266.29 222.614 QUADTO 
267.227 223.38 267.227 224.739 QUADTO 
267.227 226.005 266.368 226.724 QUADTO 
265.508 227.442 264.008 227.442 QUADTO 
263.352 227.442 262.508 227.255 QUADTO 
closepath
272.409 227.442 M
271.065 227.442 270.237 226.177 QUADTO 
269.409 224.911 269.409 222.88 QUADTO 
269.409 220.833 270.245 219.583 QUADTO 
271.081 218.333 272.44 218.333 QUADTO 
273.799 218.333 274.635 219.583 QUADTO 
275.471 220.833 275.471 222.864 QUADTO 
275.471 224.942 274.635 226.192 QUADTO 
273.799 227.442 272.409 227.442 QUADTO 
closepath
272.424 226.567 M
274.253 226.567 274.253 222.849 QUADTO 
274.253 219.208 272.44 219.208 QUADTO 
270.643 219.208 270.643 222.88 QUADTO 
270.643 226.567 272.424 226.567 QUADTO 
closepath
279.997 227.442 M
278.653 227.442 277.825 226.177 QUADTO 
276.997 224.911 276.997 222.88 QUADTO 
276.997 220.833 277.833 219.583 QUADTO 
278.669 218.333 280.028 218.333 QUADTO 
281.387 218.333 282.223 219.583 QUADTO 
283.059 220.833 283.059 222.864 QUADTO 
283.059 224.942 282.223 226.192 QUADTO 
281.387 227.442 279.997 227.442 QUADTO 
closepath
280.012 226.567 M
281.841 226.567 281.841 222.849 QUADTO 
281.841 219.208 280.028 219.208 QUADTO 
278.231 219.208 278.231 222.88 QUADTO 
278.231 226.567 280.012 226.567 QUADTO 
closepath
fill
grestore
gsave
newpath
0 0 M
300 0 lineto
300 300 lineto
0 300 lineto
0 0 lineto
closepath
clip
0.502 setgray
2 setlinecap
10.0 setmiterlimit
newpath
272.437 213.821 M
272.437 211.821 lineto
stroke
grestore
gsave
newpath
0 0 M
300 0 lineto
300 300 lineto
0 300 lineto
0 0 lineto
closepath
clip
0.251 setgray
newpath
156.027 246.121 M
156.027 238.621 lineto
158.042 238.621 lineto
158.042 240.027 lineto
159.042 238.449 160.605 238.449 QUADTO 
161.605 238.449 162.191 239.082 QUADTO 
162.777 239.715 162.777 240.809 QUADTO 
162.777 246.121 lineto
160.746 246.121 lineto
160.746 241.309 lineto
160.746 240.043 159.902 240.043 QUADTO 
158.933 240.043 158.042 241.402 QUADTO 
158.042 246.121 lineto
156.027 246.121 lineto
closepath
168.377 246.293 M
166.612 246.293 165.581 245.23 QUADTO 
164.549 244.168 164.549 242.371 QUADTO 
164.549 240.543 165.588 239.496 QUADTO 
166.627 238.449 168.424 238.449 QUADTO 
170.221 238.449 171.26 239.496 QUADTO 
172.299 240.543 172.299 242.355 QUADTO 
172.299 244.199 171.252 245.246 QUADTO 
170.206 246.293 168.377 246.293 QUADTO 
closepath
168.409 245.027 M
170.143 245.027 170.143 242.355 QUADTO 
170.143 241.137 169.682 240.426 QUADTO 
169.221 239.715 168.424 239.715 QUADTO 
167.627 239.715 167.159 240.426 QUADTO 
166.69 241.137 166.69 242.371 QUADTO 
166.69 243.59 167.151 244.309 QUADTO 
167.612 245.027 168.409 245.027 QUADTO 
closepath
178.881 246.121 M
178.881 244.699 lineto
178.1 246.293 176.428 246.293 QUADTO 
175.084 246.293 174.311 245.301 QUADTO 
173.538 244.309 173.538 242.574 QUADTO 
173.538 240.684 174.405 239.566 QUADTO 
175.272 238.449 176.741 238.449 QUADTO 
177.928 238.449 178.881 239.371 QUADTO 
178.881 235.324 lineto
180.913 235.324 lineto
180.913 246.121 lineto
178.881 246.121 lineto
closepath
178.881 240.574 M
178.147 239.762 177.319 239.762 QUADTO 
176.569 239.762 176.131 240.48 QUADTO 
175.694 241.199 175.694 242.402 QUADTO 
175.694 244.699 177.163 244.699 QUADTO 
178.069 244.699 178.881 243.543 QUADTO 
178.881 240.574 lineto
closepath
189.548 245.871 M
188.111 246.293 186.814 246.293 QUADTO 
184.939 246.293 183.853 245.223 QUADTO 
182.767 244.152 182.767 242.309 QUADTO 
182.767 240.574 183.759 239.512 QUADTO 
184.751 238.449 186.392 238.449 QUADTO 
188.033 238.449 188.791 239.488 QUADTO 
189.548 240.527 189.548 242.777 QUADTO 
184.892 242.777 lineto
185.095 244.918 187.251 244.918 QUADTO 
188.267 244.918 189.548 244.449 QUADTO 
189.548 245.871 lineto
closepath
184.861 241.637 M
187.564 241.637 lineto
187.564 239.715 186.33 239.715 QUADTO 
185.064 239.715 184.861 241.637 QUADTO 
closepath
191.439 245.887 M
191.439 244.402 lineto
192.955 245.027 194.017 245.027 QUADTO 
195.251 245.027 195.251 244.184 QUADTO 
195.251 243.637 194.236 243.215 QUADTO 
193.548 242.949 lineto
192.439 242.496 191.955 241.98 QUADTO 
191.47 241.465 191.47 240.699 QUADTO 
191.47 239.621 192.291 239.035 QUADTO 
193.111 238.449 194.564 238.449 QUADTO 
195.486 238.449 196.751 238.715 QUADTO 
196.751 240.137 lineto
195.533 239.715 194.736 239.715 QUADTO 
193.47 239.715 193.47 240.48 QUADTO 
193.47 240.996 194.408 241.355 QUADTO 
194.986 241.574 lineto
196.314 242.074 196.83 242.59 QUADTO 
197.345 243.105 197.345 243.918 QUADTO 
197.345 244.965 196.462 245.629 QUADTO 
195.58 246.293 194.173 246.293 QUADTO 
192.83 246.293 191.439 245.887 QUADTO 
closepath
fill
grestore
gsave
newpath
0 0 M
300 0 lineto
300 300 lineto
0 300 lineto
0 0 lineto
closepath
clip
0.502 setgray
2 setlinecap
10.0 setmiterlimit
newpath
61.054 10 M
61.054 207.821 lineto
stroke
grestore
gsave
newpath
0 0 M
300 0 lineto
300 300 lineto
0 300 lineto
0 0 lineto
closepath
clip
0.251 setgray
newpath
51.231 212.461 M
49.888 212.461 49.06 211.195 QUADTO 
48.231 209.93 48.231 207.898 QUADTO 
48.231 205.852 49.067 204.602 QUADTO 
49.903 203.352 51.263 203.352 QUADTO 
52.622 203.352 53.458 204.602 QUADTO 
54.294 205.852 54.294 207.883 QUADTO 
54.294 209.961 53.458 211.211 QUADTO 
52.622 212.461 51.231 212.461 QUADTO 
closepath
51.247 211.586 M
53.075 211.586 53.075 207.867 QUADTO 
53.075 204.227 51.263 204.227 QUADTO 
49.466 204.227 49.466 207.898 QUADTO 
49.466 211.586 51.247 211.586 QUADTO 
closepath
fill
grestore
gsave
newpath
0 0 M
300 0 lineto
300 300 lineto
0 300 lineto
0 0 lineto
closepath
clip
0.502 setgray
2 setlinecap
10.0 setmiterlimit
newpath
59.054 207.821 M
61.054 207.821 lineto
stroke
grestore
gsave
newpath
0 0 M
300 0 lineto
300 300 lineto
0 300 lineto
0 0 lineto
closepath
clip
0.251 setgray
newpath
41.69 192.46 M
41.69 191.585 lineto
43.425 191.585 lineto
43.425 184.741 lineto
41.69 185.179 lineto
41.69 184.288 lineto
44.581 183.569 lineto
44.581 191.585 lineto
46.315 191.585 lineto
46.315 192.46 lineto
41.69 192.46 lineto
closepath
51.231 192.679 M
49.888 192.679 49.06 191.413 QUADTO 
48.231 190.148 48.231 188.116 QUADTO 
48.231 186.069 49.067 184.819 QUADTO 
49.903 183.569 51.263 183.569 QUADTO 
52.622 183.569 53.458 184.819 QUADTO 
54.294 186.069 54.294 188.101 QUADTO 
54.294 190.179 53.458 191.429 QUADTO 
52.622 192.679 51.231 192.679 QUADTO 
closepath
51.247 191.804 M
53.075 191.804 53.075 188.085 QUADTO 
53.075 184.444 51.263 184.444 QUADTO 
49.466 184.444 49.466 188.116 QUADTO 
49.466 191.804 51.247 191.804 QUADTO 
closepath
fill
grestore
gsave
newpath
0 0 M
300 0 lineto
300 300 lineto
0 300 lineto
0 0 lineto
closepath
clip
0.502 setgray
2 setlinecap
10.0 setmiterlimit
newpath
59.054 188.039 M
61.054 188.039 lineto
stroke
grestore
gsave
newpath
0 0 M
300 0 lineto
300 300 lineto
0 300 lineto
0 0 lineto
closepath
clip
0.251 setgray
newpath
40.878 172.678 M
40.878 171.662 lineto
41.378 170.49 42.909 169.1 QUADTO 
43.581 168.506 lineto
44.847 167.35 44.847 166.209 QUADTO 
44.847 165.49 44.417 165.076 QUADTO 
43.987 164.662 43.222 164.662 QUADTO 
42.315 164.662 41.097 165.35 QUADTO 
41.097 164.334 lineto
42.253 163.787 43.378 163.787 QUADTO 
44.597 163.787 45.339 164.444 QUADTO 
46.081 165.1 46.081 166.178 QUADTO 
46.081 166.959 45.706 167.569 QUADTO 
45.331 168.178 44.315 169.037 QUADTO 
43.878 169.412 lineto
42.487 170.584 42.269 171.662 QUADTO 
46.034 171.662 lineto
46.034 172.678 lineto
40.878 172.678 lineto
closepath
51.231 172.897 M
49.888 172.897 49.06 171.631 QUADTO 
48.231 170.365 48.231 168.334 QUADTO 
48.231 166.287 49.067 165.037 QUADTO 
49.903 163.787 51.263 163.787 QUADTO 
52.622 163.787 53.458 165.037 QUADTO 
54.294 166.287 54.294 168.319 QUADTO 
54.294 170.397 53.458 171.647 QUADTO 
52.622 172.897 51.231 172.897 QUADTO 
closepath
51.247 172.022 M
53.075 172.022 53.075 168.303 QUADTO 
53.075 164.662 51.263 164.662 QUADTO 
49.466 164.662 49.466 168.334 QUADTO 
49.466 172.022 51.247 172.022 QUADTO 
closepath
fill
grestore
gsave
newpath
0 0 M
300 0 lineto
300 300 lineto
0 300 lineto
0 0 lineto
closepath
clip
0.502 setgray
2 setlinecap
10.0 setmiterlimit
newpath
59.054 168.257 M
61.054 168.257 lineto
stroke
grestore
gsave
newpath
0 0 M
300 0 lineto
300 300 lineto
0 300 lineto
0 0 lineto
closepath
clip
0.251 setgray
newpath
41.097 152.833 M
41.097 151.755 lineto
42.347 152.24 43.05 152.24 QUADTO 
43.878 152.24 44.401 151.755 QUADTO 
44.925 151.271 44.925 150.505 QUADTO 
44.925 148.677 42.362 148.677 QUADTO 
41.894 148.677 lineto
41.894 147.896 lineto
42.3 147.896 lineto
44.706 147.896 44.706 146.208 QUADTO 
44.706 144.88 43.128 144.88 QUADTO 
42.253 144.88 41.222 145.365 QUADTO 
41.222 144.349 lineto
42.237 144.005 43.206 144.005 QUADTO 
45.862 144.005 45.862 146.021 QUADTO 
45.862 147.552 44.05 148.193 QUADTO 
46.159 148.677 46.159 150.49 QUADTO 
46.159 151.724 45.347 152.419 QUADTO 
44.534 153.115 43.128 153.115 QUADTO 
42.315 153.115 41.097 152.833 QUADTO 
closepath
51.231 153.115 M
49.888 153.115 49.06 151.849 QUADTO 
48.231 150.583 48.231 148.552 QUADTO 
48.231 146.505 49.067 145.255 QUADTO 
49.903 144.005 51.263 144.005 QUADTO 
52.622 144.005 53.458 145.255 QUADTO 
54.294 146.505 54.294 148.536 QUADTO 
54.294 150.615 53.458 151.865 QUADTO 
52.622 153.115 51.231 153.115 QUADTO 
closepath
51.247 152.24 M
53.075 152.24 53.075 148.521 QUADTO 
53.075 144.88 51.263 144.88 QUADTO 
49.466 144.88 49.466 148.552 QUADTO 
49.466 152.24 51.247 152.24 QUADTO 
closepath
fill
grestore
gsave
newpath
0 0 M
300 0 lineto
300 300 lineto
0 300 lineto
0 0 lineto
closepath
clip
0.502 setgray
2 setlinecap
10.0 setmiterlimit
newpath
59.054 148.475 M
61.054 148.475 lineto
stroke
grestore
gsave
newpath
0 0 M
300 0 lineto
300 300 lineto
0 300 lineto
0 0 lineto
closepath
clip
0.251 setgray
newpath
44.394 133.114 M
44.394 130.661 lineto
40.487 130.661 lineto
40.487 129.786 lineto
44.394 124.442 lineto
45.487 124.442 lineto
45.487 129.707 lineto
46.644 129.707 lineto
46.644 130.661 lineto
45.487 130.661 lineto
45.487 133.114 lineto
44.394 133.114 lineto
closepath
41.628 129.707 M
44.472 129.707 lineto
44.472 125.864 lineto
41.628 129.707 lineto
closepath
51.231 133.332 M
49.888 133.332 49.06 132.067 QUADTO 
48.231 130.801 48.231 128.77 QUADTO 
48.231 126.723 49.067 125.473 QUADTO 
49.903 124.223 51.263 124.223 QUADTO 
52.622 124.223 53.458 125.473 QUADTO 
54.294 126.723 54.294 128.754 QUADTO 
54.294 130.832 53.458 132.082 QUADTO 
52.622 133.332 51.231 133.332 QUADTO 
closepath
51.247 132.457 M
53.075 132.457 53.075 128.739 QUADTO 
53.075 125.098 51.263 125.098 QUADTO 
49.466 125.098 49.466 128.77 QUADTO 
49.466 132.457 51.247 132.457 QUADTO 
closepath
fill
grestore
gsave
newpath
0 0 M
300 0 lineto
300 300 lineto
0 300 lineto
0 0 lineto
closepath
clip
0.502 setgray
2 setlinecap
10.0 setmiterlimit
newpath
59.054 128.693 M
61.054 128.693 lineto
stroke
grestore
gsave
newpath
0 0 M
300 0 lineto
300 300 lineto
0 300 lineto
0 0 lineto
closepath
clip
0.251 setgray
newpath
41.331 113.363 M
41.331 112.332 lineto
42.206 112.675 42.972 112.675 QUADTO 
43.831 112.675 44.323 112.175 QUADTO 
44.815 111.675 44.815 110.785 QUADTO 
44.815 108.832 42.128 108.832 QUADTO 
41.815 108.832 41.487 108.878 QUADTO 
41.487 104.66 lineto
45.878 104.66 lineto
45.878 105.66 lineto
42.503 105.66 lineto
42.503 107.957 lineto
44.175 107.957 45.112 108.722 QUADTO 
46.05 109.488 46.05 110.847 QUADTO 
46.05 112.113 45.19 112.832 QUADTO 
44.331 113.55 42.831 113.55 QUADTO 
42.175 113.55 41.331 113.363 QUADTO 
closepath
51.231 113.55 M
49.888 113.55 49.06 112.285 QUADTO 
48.231 111.019 48.231 108.988 QUADTO 
48.231 106.941 49.067 105.691 QUADTO 
49.903 104.441 51.263 104.441 QUADTO 
52.622 104.441 53.458 105.691 QUADTO 
54.294 106.941 54.294 108.972 QUADTO 
54.294 111.05 53.458 112.3 QUADTO 
52.622 113.55 51.231 113.55 QUADTO 
closepath
51.247 112.675 M
53.075 112.675 53.075 108.957 QUADTO 
53.075 105.316 51.263 105.316 QUADTO 
49.466 105.316 49.466 108.988 QUADTO 
49.466 112.675 51.247 112.675 QUADTO 
closepath
fill
grestore
gsave
newpath
0 0 M
300 0 lineto
300 300 lineto
0 300 lineto
0 0 lineto
closepath
clip
0.502 setgray
2 setlinecap
10.0 setmiterlimit
newpath
59.054 108.911 M
61.054 108.911 lineto
stroke
grestore
gsave
newpath
0 0 M
300 0 lineto
300 300 lineto
0 300 lineto
0 0 lineto
closepath
clip
0.251 setgray
newpath
41.94 89.049 M
42.769 87.987 44.019 87.987 QUADTO 
45.159 87.987 45.886 88.737 QUADTO 
46.612 89.487 46.612 90.659 QUADTO 
46.612 92.018 45.8 92.893 QUADTO 
44.987 93.768 43.737 93.768 QUADTO 
42.3 93.768 41.487 92.612 QUADTO 
40.675 91.456 40.675 89.409 QUADTO 
40.675 87.143 41.604 85.901 QUADTO 
42.534 84.659 44.222 84.659 QUADTO 
45.003 84.659 46.159 84.987 QUADTO 
46.159 85.987 lineto
44.94 85.518 44.159 85.518 QUADTO 
41.94 85.518 41.94 89.049 QUADTO 
closepath
45.44 90.924 M
45.44 89.94 45.003 89.378 QUADTO 
44.565 88.815 43.769 88.815 QUADTO 
43.05 88.815 42.519 89.307 QUADTO 
41.987 89.799 41.987 90.487 QUADTO 
41.987 91.581 42.487 92.237 QUADTO 
42.987 92.893 43.815 92.893 QUADTO 
44.565 92.893 45.003 92.362 QUADTO 
45.44 91.831 45.44 90.924 QUADTO 
closepath
51.231 93.768 M
49.888 93.768 49.06 92.503 QUADTO 
48.231 91.237 48.231 89.206 QUADTO 
48.231 87.159 49.067 85.909 QUADTO 
49.903 84.659 51.263 84.659 QUADTO 
52.622 84.659 53.458 85.909 QUADTO 
54.294 87.159 54.294 89.19 QUADTO 
54.294 91.268 53.458 92.518 QUADTO 
52.622 93.768 51.231 93.768 QUADTO 
closepath
51.247 92.893 M
53.075 92.893 53.075 89.174 QUADTO 
53.075 85.534 51.263 85.534 QUADTO 
49.466 85.534 49.466 89.206 QUADTO 
49.466 92.893 51.247 92.893 QUADTO 
closepath
fill
grestore
gsave
newpath
0 0 M
300 0 lineto
300 300 lineto
0 300 lineto
0 0 lineto
closepath
clip
0.502 setgray
2 setlinecap
10.0 setmiterlimit
newpath
59.054 89.129 M
61.054 89.129 lineto
stroke
grestore
gsave
newpath
0 0 M
300 0 lineto
300 300 lineto
0 300 lineto
0 0 lineto
closepath
clip
0.251 setgray
newpath
41.69 73.767 M
41.847 72.752 42.167 72.017 QUADTO 
42.487 71.283 43.284 69.986 QUADTO 
45.644 66.174 lineto
41.175 66.174 lineto
41.175 65.095 lineto
46.753 65.095 lineto
46.753 66.174 lineto
43.409 71.095 43.019 73.767 QUADTO 
41.69 73.767 lineto
closepath
51.231 73.986 M
49.888 73.986 49.06 72.72 QUADTO 
48.231 71.455 48.231 69.424 QUADTO 
48.231 67.377 49.067 66.127 QUADTO 
49.903 64.877 51.263 64.877 QUADTO 
52.622 64.877 53.458 66.127 QUADTO 
54.294 67.377 54.294 69.408 QUADTO 
54.294 71.486 53.458 72.736 QUADTO 
52.622 73.986 51.231 73.986 QUADTO 
closepath
51.247 73.111 M
53.075 73.111 53.075 69.392 QUADTO 
53.075 65.752 51.263 65.752 QUADTO 
49.466 65.752 49.466 69.424 QUADTO 
49.466 73.111 51.247 73.111 QUADTO 
closepath
fill
grestore
gsave
newpath
0 0 M
300 0 lineto
300 300 lineto
0 300 lineto
0 0 lineto
closepath
clip
0.502 setgray
2 setlinecap
10.0 setmiterlimit
newpath
59.054 69.346 M
61.054 69.346 lineto
stroke
grestore
gsave
newpath
0 0 M
300 0 lineto
300 300 lineto
0 300 lineto
0 0 lineto
closepath
clip
0.251 setgray
newpath
42.644 49.266 M
41.362 48.376 41.362 47.298 QUADTO 
41.362 46.313 42.089 45.704 QUADTO 
42.815 45.095 43.972 45.095 QUADTO 
45.034 45.095 45.706 45.61 QUADTO 
46.378 46.126 46.378 46.97 QUADTO 
46.378 48.22 44.753 49.266 QUADTO 
46.722 50.22 46.722 51.735 QUADTO 
46.722 52.829 45.894 53.516 QUADTO 
45.065 54.204 43.769 54.204 QUADTO 
42.487 54.204 41.698 53.555 QUADTO 
40.909 52.907 40.909 51.845 QUADTO 
40.909 50.298 42.644 49.266 QUADTO 
closepath
44.112 48.891 M
45.315 48.095 45.315 47.126 QUADTO 
45.315 46.595 44.917 46.282 QUADTO 
44.519 45.97 43.847 45.97 QUADTO 
43.206 45.97 42.808 46.282 QUADTO 
42.409 46.595 42.409 47.095 QUADTO 
42.409 47.579 42.776 47.962 QUADTO 
43.144 48.345 44.112 48.891 QUADTO 
closepath
43.269 49.735 M
42.565 50.266 42.315 50.673 QUADTO 
42.065 51.079 42.065 51.673 QUADTO 
42.065 52.407 42.55 52.868 QUADTO 
43.034 53.329 43.815 53.329 QUADTO 
44.565 53.329 45.05 52.938 QUADTO 
45.534 52.548 45.534 51.923 QUADTO 
45.534 51.423 45.237 51.071 QUADTO 
44.94 50.72 44.081 50.22 QUADTO 
43.269 49.735 lineto
closepath
51.231 54.204 M
49.888 54.204 49.06 52.938 QUADTO 
48.231 51.673 48.231 49.641 QUADTO 
48.231 47.595 49.067 46.345 QUADTO 
49.903 45.095 51.263 45.095 QUADTO 
52.622 45.095 53.458 46.345 QUADTO 
54.294 47.595 54.294 49.626 QUADTO 
54.294 51.704 53.458 52.954 QUADTO 
52.622 54.204 51.231 54.204 QUADTO 
closepath
51.247 53.329 M
53.075 53.329 53.075 49.61 QUADTO 
53.075 45.97 51.263 45.97 QUADTO 
49.466 45.97 49.466 49.641 QUADTO 
49.466 53.329 51.247 53.329 QUADTO 
closepath
fill
grestore
gsave
newpath
0 0 M
300 0 lineto
300 300 lineto
0 300 lineto
0 0 lineto
closepath
clip
0.502 setgray
2 setlinecap
10.0 setmiterlimit
newpath
59.054 49.564 M
61.054 49.564 lineto
stroke
grestore
gsave
newpath
0 0 M
300 0 lineto
300 300 lineto
0 300 lineto
0 0 lineto
closepath
clip
0.251 setgray
newpath
41.237 34.156 M
41.237 33.172 lineto
42.347 33.547 43.112 33.547 QUADTO 
44.19 33.547 44.8 32.633 QUADTO 
45.409 31.719 45.409 30.078 QUADTO 
44.534 31.172 43.409 31.172 QUADTO 
42.315 31.172 41.558 30.367 QUADTO 
40.8 29.562 40.8 28.391 QUADTO 
40.8 27.062 41.604 26.187 QUADTO 
42.409 25.312 43.644 25.312 QUADTO 
45.065 25.312 45.878 26.445 QUADTO 
46.69 27.578 46.69 29.547 QUADTO 
46.69 31.781 45.698 33.101 QUADTO 
44.706 34.422 43.003 34.422 QUADTO 
42.331 34.422 41.237 34.156 QUADTO 
closepath
41.94 28.172 M
41.94 29.172 42.394 29.75 QUADTO 
42.847 30.328 43.628 30.328 QUADTO 
44.362 30.328 44.878 29.836 QUADTO 
45.394 29.344 45.394 28.641 QUADTO 
45.394 27.531 44.894 26.851 QUADTO 
44.394 26.172 43.581 26.172 QUADTO 
42.815 26.172 42.378 26.711 QUADTO 
41.94 27.25 41.94 28.172 QUADTO 
closepath
51.231 34.422 M
49.888 34.422 49.06 33.156 QUADTO 
48.231 31.891 48.231 29.859 QUADTO 
48.231 27.812 49.067 26.562 QUADTO 
49.903 25.312 51.263 25.312 QUADTO 
52.622 25.312 53.458 26.562 QUADTO 
54.294 27.812 54.294 29.844 QUADTO 
54.294 31.922 53.458 33.172 QUADTO 
52.622 34.422 51.231 34.422 QUADTO 
closepath
51.247 33.547 M
53.075 33.547 53.075 29.828 QUADTO 
53.075 26.187 51.263 26.187 QUADTO 
49.466 26.187 49.466 29.859 QUADTO 
49.466 33.547 51.247 33.547 QUADTO 
closepath
fill
grestore
gsave
newpath
0 0 M
300 0 lineto
300 300 lineto
0 300 lineto
0 0 lineto
closepath
clip
0.502 setgray
2 setlinecap
10.0 setmiterlimit
newpath
59.054 29.782 M
61.054 29.782 lineto
stroke
grestore
gsave
newpath
0 0 M
300 0 lineto
300 300 lineto
0 300 lineto
0 0 lineto
closepath
clip
0.251 setgray
newpath
34.103 14.421 M
34.103 13.546 lineto
35.837 13.546 lineto
35.837 6.702 lineto
34.103 7.14 lineto
34.103 6.249 lineto
36.993 5.53 lineto
36.993 13.546 lineto
38.728 13.546 lineto
38.728 14.421 lineto
34.103 14.421 lineto
closepath
43.644 14.64 M
42.3 14.64 41.472 13.374 QUADTO 
40.644 12.108 40.644 10.077 QUADTO 
40.644 8.03 41.479 6.78 QUADTO 
42.315 5.53 43.675 5.53 QUADTO 
45.034 5.53 45.87 6.78 QUADTO 
46.706 8.03 46.706 10.062 QUADTO 
46.706 12.14 45.87 13.39 QUADTO 
45.034 14.64 43.644 14.64 QUADTO 
closepath
43.659 13.765 M
45.487 13.765 45.487 10.046 QUADTO 
45.487 6.405 43.675 6.405 QUADTO 
41.878 6.405 41.878 10.077 QUADTO 
41.878 13.765 43.659 13.765 QUADTO 
closepath
51.231 14.64 M
49.888 14.64 49.06 13.374 QUADTO 
48.231 12.108 48.231 10.077 QUADTO 
48.231 8.03 49.067 6.78 QUADTO 
49.903 5.53 51.263 5.53 QUADTO 
52.622 5.53 53.458 6.78 QUADTO 
54.294 8.03 54.294 10.062 QUADTO 
54.294 12.14 53.458 13.39 QUADTO 
52.622 14.64 51.231 14.64 QUADTO 
closepath
51.247 13.765 M
53.075 13.765 53.075 10.046 QUADTO 
53.075 6.405 51.263 6.405 QUADTO 
49.466 6.405 49.466 10.077 QUADTO 
49.466 13.765 51.247 13.765 QUADTO 
closepath
fill
grestore
gsave
newpath
0 0 M
300 0 lineto
300 300 lineto
0 300 lineto
0 0 lineto
closepath
clip
0.502 setgray
2 setlinecap
10.0 setmiterlimit
newpath
59.054 10 M
61.054 10 lineto
stroke
grestore
gsave
[0 -1 1 0 -89.76562 128.05566] concat
newpath
128.056 89.766 M
128.056 389.766 lineto
-171.944 389.766 lineto
-171.944 89.766 lineto
128.056 89.766 lineto
closepath
clip
0.251 setgray
newpath
-8.169 113.853 M
-9.606 114.274 -10.903 114.274 QUADTO 
-12.778 114.274 -13.864 113.204 QUADTO 
-14.95 112.134 -14.95 110.29 QUADTO 
-14.95 108.556 -13.958 107.493 QUADTO 
-12.966 106.431 -11.325 106.431 QUADTO 
-9.685 106.431 -8.927 107.47 QUADTO 
-8.169 108.509 -8.169 110.759 QUADTO 
-12.825 110.759 lineto
-12.622 112.899 -10.466 112.899 QUADTO 
-9.45 112.899 -8.169 112.431 QUADTO 
-8.169 113.853 lineto
closepath
-12.856 109.618 M
-10.153 109.618 lineto
-10.153 107.696 -11.388 107.696 QUADTO 
-12.653 107.696 -12.856 109.618 QUADTO 
closepath
-5.856 114.103 M
-5.856 107.868 lineto
-6.903 107.868 lineto
-6.903 106.603 lineto
-5.856 106.603 lineto
-5.856 106.056 lineto
-5.856 103.134 -3.091 103.134 QUADTO 
-2.2 103.134 -1.247 103.399 QUADTO 
-1.247 104.759 lineto
-2.106 104.399 -2.794 104.399 QUADTO 
-3.841 104.399 -3.841 105.978 QUADTO 
-3.841 106.603 lineto
-1.935 106.603 lineto
-1.935 107.868 lineto
-3.841 107.868 lineto
-3.841 114.103 lineto
-5.856 114.103 lineto
closepath
-0.053 114.103 M
-0.053 107.868 lineto
-1.1 107.868 lineto
-1.1 106.603 lineto
-0.053 106.603 lineto
-0.053 106.056 lineto
-0.053 103.134 2.713 103.134 QUADTO 
3.604 103.134 4.557 103.399 QUADTO 
4.557 104.759 lineto
3.697 104.399 3.01 104.399 QUADTO 
1.963 104.399 1.963 105.978 QUADTO 
1.963 106.603 lineto
3.869 106.603 lineto
3.869 107.868 lineto
1.963 107.868 lineto
1.963 114.103 lineto
-0.053 114.103 lineto
closepath
5.532 114.103 M
5.532 106.603 lineto
7.548 106.603 lineto
7.548 114.103 lineto
5.532 114.103 lineto
closepath
5.532 105.337 M
5.532 103.649 lineto
7.548 103.649 lineto
7.548 105.337 lineto
5.532 105.337 lineto
closepath
15.616 113.931 M
14.366 114.274 13.288 114.274 QUADTO 
11.491 114.274 10.452 113.22 QUADTO 
9.413 112.165 9.413 110.337 QUADTO 
9.413 108.509 10.483 107.47 QUADTO 
11.554 106.431 13.444 106.431 QUADTO 
14.366 106.431 15.554 106.712 QUADTO 
15.554 108.181 lineto
14.319 107.774 13.569 107.774 QUADTO 
12.663 107.774 12.108 108.478 QUADTO 
11.554 109.181 11.554 110.321 QUADTO 
11.554 111.509 12.155 112.22 QUADTO 
12.757 112.931 13.741 112.931 QUADTO 
14.663 112.931 15.616 112.54 QUADTO 
15.616 113.931 lineto
closepath
17.536 114.103 M
17.536 106.603 lineto
19.552 106.603 lineto
19.552 114.103 lineto
17.536 114.103 lineto
closepath
17.536 105.337 M
17.536 103.649 lineto
19.552 103.649 lineto
19.552 105.337 lineto
17.536 105.337 lineto
closepath
28.198 113.853 M
26.761 114.274 25.464 114.274 QUADTO 
23.589 114.274 22.503 113.204 QUADTO 
21.417 112.134 21.417 110.29 QUADTO 
21.417 108.556 22.409 107.493 QUADTO 
23.401 106.431 25.042 106.431 QUADTO 
26.683 106.431 27.44 107.47 QUADTO 
28.198 108.509 28.198 110.759 QUADTO 
23.542 110.759 lineto
23.745 112.899 25.901 112.899 QUADTO 
26.917 112.899 28.198 112.431 QUADTO 
28.198 113.853 lineto
closepath
23.511 109.618 M
26.214 109.618 lineto
26.214 107.696 24.979 107.696 QUADTO 
23.714 107.696 23.511 109.618 QUADTO 
closepath
30.292 114.103 M
30.292 106.603 lineto
32.308 106.603 lineto
32.308 108.009 lineto
33.308 106.431 34.87 106.431 QUADTO 
35.87 106.431 36.456 107.063 QUADTO 
37.042 107.696 37.042 108.79 QUADTO 
37.042 114.103 lineto
35.011 114.103 lineto
35.011 109.29 lineto
35.011 108.024 34.167 108.024 QUADTO 
33.198 108.024 32.308 109.384 QUADTO 
32.308 114.103 lineto
30.292 114.103 lineto
closepath
45.018 113.931 M
43.768 114.274 42.689 114.274 QUADTO 
40.893 114.274 39.854 113.22 QUADTO 
38.814 112.165 38.814 110.337 QUADTO 
38.814 108.509 39.885 107.47 QUADTO 
40.955 106.431 42.846 106.431 QUADTO 
43.768 106.431 44.955 106.712 QUADTO 
44.955 108.181 lineto
43.721 107.774 42.971 107.774 QUADTO 
42.064 107.774 41.51 108.478 QUADTO 
40.955 109.181 40.955 110.321 QUADTO 
40.955 111.509 41.557 112.22 QUADTO 
42.158 112.931 43.143 112.931 QUADTO 
44.064 112.931 45.018 112.54 QUADTO 
45.018 113.931 lineto
closepath
46.969 116.806 M
48.672 114.103 lineto
45.891 106.603 lineto
48.062 106.603 lineto
49.922 111.618 lineto
52.125 106.603 lineto
53.656 106.603 lineto
49.031 116.806 lineto
46.969 116.806 lineto
closepath
fill
grestore
gsave
newpath
65.054 10 M
65.054 207.821 lineto
288 207.821 lineto
288 10 lineto
closepath
clip
1 setgray
[2 2] 0 setdash
2 setlinejoin
2 setlinejoin
0.5 setlinewidth
newpath
91.474 10 M
91.474 207.821 lineto
stroke
grestore
gsave
newpath
65.054 10 M
65.054 207.821 lineto
288 207.821 lineto
288 10 lineto
closepath
clip
1 setgray
[2 2] 0 setdash
2 setlinejoin
2 setlinejoin
0.5 setlinewidth
newpath
136.715 10 M
136.715 207.821 lineto
stroke
grestore
gsave
newpath
65.054 10 M
65.054 207.821 lineto
288 207.821 lineto
288 10 lineto
closepath
clip
1 setgray
[2 2] 0 setdash
2 setlinejoin
2 setlinejoin
0.5 setlinewidth
newpath
181.956 10 M
181.956 207.821 lineto
stroke
grestore
gsave
newpath
65.054 10 M
65.054 207.821 lineto
288 207.821 lineto
288 10 lineto
closepath
clip
1 setgray
[2 2] 0 setdash
2 setlinejoin
2 setlinejoin
0.5 setlinewidth
newpath
227.196 10 M
227.196 207.821 lineto
stroke
grestore
gsave
newpath
65.054 10 M
65.054 207.821 lineto
288 207.821 lineto
288 10 lineto
closepath
clip
1 setgray
[2 2] 0 setdash
2 setlinejoin
2 setlinejoin
0.5 setlinewidth
newpath
272.437 10 M
272.437 207.821 lineto
stroke
grestore
gsave
newpath
65.054 10 M
65.054 207.821 lineto
288 207.821 lineto
288 10 lineto
closepath
clip
1 setgray
[2 2] 0 setdash
2 setlinejoin
2 setlinejoin
0.5 setlinewidth
newpath
65.054 207.821 M
288 207.821 lineto
stroke
grestore
gsave
newpath
65.054 10 M
65.054 207.821 lineto
288 207.821 lineto
288 10 lineto
closepath
clip
1 setgray
[2 2] 0 setdash
2 setlinejoin
2 setlinejoin
0.5 setlinewidth
newpath
65.054 188.039 M
288 188.039 lineto
stroke
grestore
gsave
newpath
65.054 10 M
65.054 207.821 lineto
288 207.821 lineto
288 10 lineto
closepath
clip
1 setgray
[2 2] 0 setdash
2 setlinejoin
2 setlinejoin
0.5 setlinewidth
newpath
65.054 168.257 M
288 168.257 lineto
stroke
grestore
gsave
newpath
65.054 10 M
65.054 207.821 lineto
288 207.821 lineto
288 10 lineto
closepath
clip
1 setgray
[2 2] 0 setdash
2 setlinejoin
2 setlinejoin
0.5 setlinewidth
newpath
65.054 148.475 M
288 148.475 lineto
stroke
grestore
gsave
newpath
65.054 10 M
65.054 207.821 lineto
288 207.821 lineto
288 10 lineto
closepath
clip
1 setgray
[2 2] 0 setdash
2 setlinejoin
2 setlinejoin
0.5 setlinewidth
newpath
65.054 128.693 M
288 128.693 lineto
stroke
grestore
gsave
newpath
65.054 10 M
65.054 207.821 lineto
288 207.821 lineto
288 10 lineto
closepath
clip
1 setgray
[2 2] 0 setdash
2 setlinejoin
2 setlinejoin
0.5 setlinewidth
newpath
65.054 108.911 M
288 108.911 lineto
stroke
grestore
gsave
newpath
65.054 10 M
65.054 207.821 lineto
288 207.821 lineto
288 10 lineto
closepath
clip
1 setgray
[2 2] 0 setdash
2 setlinejoin
2 setlinejoin
0.5 setlinewidth
newpath
65.054 89.129 M
288 89.129 lineto
stroke
grestore
gsave
newpath
65.054 10 M
65.054 207.821 lineto
288 207.821 lineto
288 10 lineto
closepath
clip
1 setgray
[2 2] 0 setdash
2 setlinejoin
2 setlinejoin
0.5 setlinewidth
newpath
65.054 69.346 M
288 69.346 lineto
stroke
grestore
gsave
newpath
65.054 10 M
65.054 207.821 lineto
288 207.821 lineto
288 10 lineto
closepath
clip
1 setgray
[2 2] 0 setdash
2 setlinejoin
2 setlinejoin
0.5 setlinewidth
newpath
65.054 49.564 M
288 49.564 lineto
stroke
grestore
gsave
newpath
65.054 10 M
65.054 207.821 lineto
288 207.821 lineto
288 10 lineto
closepath
clip
1 setgray
[2 2] 0 setdash
2 setlinejoin
2 setlinejoin
0.5 setlinewidth
newpath
65.054 29.782 M
288 29.782 lineto
stroke
grestore
gsave
newpath
65.054 10 M
65.054 207.821 lineto
288 207.821 lineto
288 10 lineto
closepath
clip
1 setgray
[2 2] 0 setdash
2 setlinejoin
2 setlinejoin
0.5 setlinewidth
newpath
65.054 10 M
288 10 lineto
stroke
grestore
gsave
newpath
65.054 10 M
65.054 207.821 lineto
288 207.821 lineto
288 10 lineto
closepath
clip
0.333 0.333 1 setrgbcolor
2 setlinecap
2 setlinejoin
2 setlinejoin
newpath
75.188 83.194 M
277.866 77.259 lineto
stroke
grestore
gsave
newpath
65.054 10 M
65.054 207.821 lineto
288 207.821 lineto
288 10 lineto
closepath
clip
1 0.333 0.333 setrgbcolor
2 setlinecap
2 setlinejoin
2 setlinejoin
newpath
75.188 21.869 M
277.866 51.542 lineto
stroke
grestore
gsave
newpath
65.054 10 M
65.054 207.821 lineto
288 207.821 lineto
288 10 lineto
closepath
clip
1 1 0.333 setrgbcolor
newpath
277.866 107.889 M
280.866 110.889 lineto
277.866 113.889 lineto
274.866 110.889 lineto
closepath
eofill
grestore
gsave
newpath
65.054 10 M
65.054 207.821 lineto
288 207.821 lineto
288 10 lineto
closepath
clip
1 1 0.333 setrgbcolor
2 setlinecap
10.0 setmiterlimit
newpath
277.866 107.889 M
280.866 110.889 lineto
277.866 113.889 lineto
274.866 110.889 lineto
closepath
stroke
grestore
gsave
newpath
65.054 10 M
65.054 207.821 lineto
288 207.821 lineto
288 10 lineto
closepath
clip
0.333 1 0.333 setrgbcolor
newpath
277.866 107.889 M
280.866 113.889 lineto
274.866 113.889 lineto
closepath
eofill
grestore
gsave
newpath
65.054 10 M
65.054 207.821 lineto
288 207.821 lineto
288 10 lineto
closepath
clip
0.333 1 0.333 setrgbcolor
2 setlinecap
10.0 setmiterlimit
newpath
277.866 107.889 M
280.866 113.889 lineto
274.866 113.889 lineto
closepath
stroke
grestore
gsave
newpath
65.054 10 M
65.054 207.821 lineto
288 207.821 lineto
288 10 lineto
closepath
clip
0.333 0.333 1 setrgbcolor
newpath
78.188 83.194 M
78.188 84.851 76.844 86.194 75.188 86.194 curveto
73.531 86.194 72.188 84.851 72.188 83.194 curveto
72.188 81.537 73.531 80.194 75.188 80.194 curveto
76.844 80.194 78.188 81.537 78.188 83.194 curveto
closepath
fill
grestore
gsave
newpath
65.054 10 M
65.054 207.821 lineto
288 207.821 lineto
288 10 lineto
closepath
clip
0.333 0.333 1 setrgbcolor
2 setlinecap
10.0 setmiterlimit
newpath
78.188 83.194 M
78.188 84.851 76.844 86.194 75.188 86.194 curveto
73.531 86.194 72.188 84.851 72.188 83.194 curveto
72.188 81.537 73.531 80.194 75.188 80.194 curveto
76.844 80.194 78.188 81.537 78.188 83.194 curveto
closepath
stroke
grestore
gsave
newpath
65.054 10 M
65.054 207.821 lineto
288 207.821 lineto
288 10 lineto
closepath
clip
0.333 0.333 1 setrgbcolor
newpath
280.866 77.259 M
280.866 78.916 279.523 80.259 277.866 80.259 curveto
276.209 80.259 274.866 78.916 274.866 77.259 curveto
274.866 75.602 276.209 74.259 277.866 74.259 curveto
279.523 74.259 280.866 75.602 280.866 77.259 curveto
closepath
fill
grestore
gsave
newpath
65.054 10 M
65.054 207.821 lineto
288 207.821 lineto
288 10 lineto
closepath
clip
0.333 0.333 1 setrgbcolor
2 setlinecap
10.0 setmiterlimit
newpath
280.866 77.259 M
280.866 78.916 279.523 80.259 277.866 80.259 curveto
276.209 80.259 274.866 78.916 274.866 77.259 curveto
274.866 75.602 276.209 74.259 277.866 74.259 curveto
279.523 74.259 280.866 75.602 280.866 77.259 curveto
closepath
stroke
grestore
gsave
newpath
65.054 10 M
65.054 207.821 lineto
288 207.821 lineto
288 10 lineto
closepath
clip
1 0.333 0.333 setrgbcolor
newpath
72.188 18.869 M
78.188 18.869 lineto
78.188 24.869 lineto
72.188 24.869 lineto
72.188 18.869 lineto
closepath
fill
grestore
gsave
newpath
65.054 10 M
65.054 207.821 lineto
288 207.821 lineto
288 10 lineto
closepath
clip
1 0.333 0.333 setrgbcolor
2 setlinecap
10.0 setmiterlimit
newpath
72.188 18.869 M
78.188 18.869 lineto
78.188 24.869 lineto
72.188 24.869 lineto
72.188 18.869 lineto
closepath
stroke
grestore
gsave
newpath
65.054 10 M
65.054 207.821 lineto
288 207.821 lineto
288 10 lineto
closepath
clip
1 0.333 0.333 setrgbcolor
newpath
274.866 48.542 M
280.866 48.542 lineto
280.866 54.542 lineto
274.866 54.542 lineto
274.866 48.542 lineto
closepath
fill
grestore
gsave
newpath
65.054 10 M
65.054 207.821 lineto
288 207.821 lineto
288 10 lineto
closepath
clip
1 0.333 0.333 setrgbcolor
2 setlinecap
10.0 setmiterlimit
newpath
274.866 48.542 M
280.866 48.542 lineto
280.866 54.542 lineto
274.866 54.542 lineto
274.866 48.542 lineto
closepath
stroke
grestore
gsave
newpath
0 0 M
300 0 lineto
300 300 lineto
0 300 lineto
0 0 lineto
closepath
clip
2 setlinecap
10.0 setmiterlimit
0.5 setlinewidth
newpath
65.054 10 M
288 10 lineto
288 207.821 lineto
65.054 207.821 lineto
65.054 10 lineto
closepath
stroke
grestore
%%Trailer
%%Pages: 1
%%EOF
