%!PS-Adobe-3.0 EPSF-3.0
%%Creator: (Apache XML Graphics Commons: EPS Generator for Java2D)
%%CreationDate: 2011-01-10T10:24:05
%%Pages: (atend)
%%BoundingBox: 0 0 300 300
%%LanguageLevel: 3
%%EndComments
%%BeginProlog
%%BeginResource: procset (Apache XML Graphics Std ProcSet) 1.0 0
%%Version: 1.0 0
%%Copyright: (Copyright 2001-2003 The Apache Software Foundation. License terms: http://www.apache.org/licenses/LICENSE-2.0)
%%Title: (Basic set of procedures used by the XML Graphics project \(Batik and FOP\))
/bd{bind def}bind def
/ld{load def}bd
/M/moveto ld
/RM/rmoveto ld
/t/show ld
/A/ashow ld
/cp/closepath ld
/re {4 2 roll M
1 index 0 rlineto
0 exch rlineto
neg 0 rlineto
cp } bd
/_ctm matrix def
/_tm matrix def
/BT { _ctm currentmatrix pop matrix _tm copy pop 0 0 moveto } bd
/ET { _ctm setmatrix } bd
/iTm { _ctm setmatrix _tm concat } bd
/Tm { _tm astore pop iTm 0 0 moveto } bd
/ux 0.0 def
/uy 0.0 def
/F {
  /Tp exch def
  /Tf exch def
  Tf findfont Tp scalefont setfont
  /cf Tf def  /cs Tp def  /cw ( ) stringwidth pop def
} bd
/ULS {currentpoint /uy exch def /ux exch def} bd
/ULE {
  /Tcx currentpoint pop def
  gsave
  newpath
  cf findfont cs scalefont dup
  /FontMatrix get 0 get /Ts exch def /FontInfo get dup
  /UnderlinePosition get Ts mul /To exch def
  /UnderlineThickness get Ts mul /Tt exch def
  ux uy To add moveto  Tcx uy To add lineto
  Tt setlinewidth stroke
  grestore
} bd
/OLE {
  /Tcx currentpoint pop def
  gsave
  newpath
  cf findfont cs scalefont dup
  /FontMatrix get 0 get /Ts exch def /FontInfo get dup
  /UnderlinePosition get Ts mul /To exch def
  /UnderlineThickness get Ts mul /Tt exch def
  ux uy To add cs add moveto Tcx uy To add cs add lineto
  Tt setlinewidth stroke
  grestore
} bd
/SOE {
  /Tcx currentpoint pop def
  gsave
  newpath
  cf findfont cs scalefont dup
  /FontMatrix get 0 get /Ts exch def /FontInfo get dup
  /UnderlinePosition get Ts mul /To exch def
  /UnderlineThickness get Ts mul /Tt exch def
  ux uy To add cs 10 mul 26 idiv add moveto Tcx uy To add cs 10 mul 26 idiv add lineto
  Tt setlinewidth stroke
  grestore
} bd
/QUADTO {
/Y22 exch store
/X22 exch store
/Y21 exch store
/X21 exch store
currentpoint
/Y21 load 2 mul add 3 div exch
/X21 load 2 mul add 3 div exch
/X21 load 2 mul /X22 load add 3 div
/Y21 load 2 mul /Y22 load add 3 div
/X22 load /Y22 load curveto
} bd
/SSPD {
dup length /d exch dict def
{
/v exch def
/k exch def
currentpagedevice k known {
/cpdv currentpagedevice k get def
v cpdv ne {
/upd false def
/nullv v type /nulltype eq def
/nullcpdv cpdv type /nulltype eq def
nullv nullcpdv or
{
/upd true def
} {
/sametype v type cpdv type eq def
sametype {
v type /arraytype eq {
/vlen v length def
/cpdvlen cpdv length def
vlen cpdvlen eq {
0 1 vlen 1 sub {
/i exch def
/obj v i get def
/cpdobj cpdv i get def
obj cpdobj ne {
/upd true def
exit
} if
} for
} {
/upd true def
} ifelse
} {
v type /dicttype eq {
v {
/dv exch def
/dk exch def
/cpddv cpdv dk get def
dv cpddv ne {
/upd true def
exit
} if
} forall
} {
/upd true def
} ifelse
} ifelse
} if
} ifelse
upd true eq {
d k v put
} if
} if
} if
} forall
d length 0 gt {
d setpagedevice
} if
} bd
%%EndResource
%%BeginResource: procset (Apache XML Graphics EPS ProcSet) 1.0 0
%%Version: 1.0 0
%%Copyright: (Copyright 2002-2003 The Apache Software Foundation. License terms: http://www.apache.org/licenses/LICENSE-2.0)
%%Title: (EPS procedures used by the Apache XML Graphics project \(Batik and FOP\))
/BeginEPSF { %def
/b4_Inc_state save def         % Save state for cleanup
/dict_count countdictstack def % Count objects on dict stack
/op_count count 1 sub def      % Count objects on operand stack
userdict begin                 % Push userdict on dict stack
/showpage { } def              % Redefine showpage, { } = null proc
0 setgray 0 setlinecap         % Prepare graphics state
1 setlinewidth 0 setlinejoin
10 setmiterlimit [ ] 0 setdash newpath
/languagelevel where           % If level not equal to 1 then
{pop languagelevel             % set strokeadjust and
1 ne                           % overprint to their defaults.
{false setstrokeadjust false setoverprint
} if
} if
} bd
/EndEPSF { %def
count op_count sub {pop} repeat            % Clean up stacks
countdictstack dict_count sub {end} repeat
b4_Inc_state restore
} bd
%%EndResource
%%EndProlog
%%Page: 1 1
%%PageBoundingBox: 0 0 300 300
%%BeginPageSetup
[1 0 0 -1 0 300] concat
%%EndPageSetup
gsave
newpath
0 0 M
300 0 lineto
300 300 lineto
0 300 lineto
0 0 lineto
closepath
clip
1 setgray
newpath
0 0 M
300 0 lineto
300 300 lineto
0 300 lineto
0 0 lineto
closepath
fill
grestore
gsave
newpath
0 0 M
300 0 lineto
300 300 lineto
0 300 lineto
0 0 lineto
closepath
clip
1 setgray
newpath
12.778 277.037 M
287.222 277.037 lineto
287.222 299 lineto
12.778 299 lineto
12.778 277.037 lineto
closepath
fill
grestore
gsave
newpath
0 0 M
300 0 lineto
300 300 lineto
0 300 lineto
0 0 lineto
closepath
clip
2 setlinecap
10.0 setmiterlimit
newpath
13.278 277.537 M
286.722 277.537 lineto
stroke
grestore
gsave
newpath
0 0 M
300 0 lineto
300 300 lineto
0 300 lineto
0 0 lineto
closepath
clip
2 setlinecap
10.0 setmiterlimit
newpath
13.278 298.5 M
286.722 298.5 lineto
stroke
grestore
gsave
newpath
0 0 M
300 0 lineto
300 300 lineto
0 300 lineto
0 0 lineto
closepath
clip
2 setlinecap
10.0 setmiterlimit
newpath
13.278 298.5 M
13.278 277.537 lineto
stroke
grestore
gsave
newpath
0 0 M
300 0 lineto
300 300 lineto
0 300 lineto
0 0 lineto
closepath
clip
2 setlinecap
10.0 setmiterlimit
newpath
286.722 298.5 M
286.722 277.537 lineto
stroke
grestore
gsave
newpath
0 0 M
300 0 lineto
300 300 lineto
0 300 lineto
0 0 lineto
closepath
clip
1 0.333 0.333 setrgbcolor
2 setlinecap
2 setlinejoin
2 setlinejoin
newpath
16.778 288.019 M
30.778 288.019 lineto
stroke
grestore
gsave
newpath
0 0 M
300 0 lineto
300 300 lineto
0 300 lineto
0 0 lineto
closepath
clip
1 0.333 0.333 setrgbcolor
newpath
20.778 285.019 M
26.778 285.019 lineto
26.778 291.019 lineto
20.778 291.019 lineto
20.778 285.019 lineto
closepath
fill
grestore
gsave
newpath
0 0 M
300 0 lineto
300 300 lineto
0 300 lineto
0 0 lineto
closepath
clip
1 0.333 0.333 setrgbcolor
2 setlinecap
10.0 setmiterlimit
newpath
20.778 285.019 M
26.778 285.019 lineto
26.778 291.019 lineto
20.778 291.019 lineto
20.778 285.019 lineto
closepath
stroke
grestore
gsave
newpath
0 0 M
300 0 lineto
300 300 lineto
0 300 lineto
0 0 lineto
closepath
clip
0.251 setgray
newpath
40.013 292.439 M
40.013 291.236 lineto
39.31 292.58 37.903 292.58 QUADTO 
36.747 292.58 36.091 291.744 QUADTO 
35.435 290.908 35.435 289.455 QUADTO 
35.435 287.861 36.177 286.9 QUADTO 
36.919 285.939 38.138 285.939 QUADTO 
39.278 285.939 40.013 286.799 QUADTO 
40.013 283.189 lineto
41.185 283.189 lineto
41.185 292.439 lineto
40.013 292.439 lineto
closepath
40.013 287.596 M
39.122 286.799 38.325 286.799 QUADTO 
36.653 286.799 36.653 289.346 QUADTO 
36.653 291.564 38.138 291.564 QUADTO 
39.091 291.564 40.013 290.518 QUADTO 
40.013 287.596 lineto
closepath
47.472 292.439 M
47.472 291.236 lineto
46.55 292.58 45.237 292.58 QUADTO 
44.394 292.58 43.901 292.057 QUADTO 
43.409 291.533 43.409 290.643 QUADTO 
43.409 286.08 lineto
44.565 286.08 lineto
44.565 290.268 lineto
44.565 290.986 44.776 291.291 QUADTO 
44.987 291.596 45.472 291.596 QUADTO 
46.534 291.596 47.472 290.205 QUADTO 
47.472 286.08 lineto
48.612 286.08 lineto
48.612 292.439 lineto
47.472 292.439 lineto
closepath
50.935 292.439 M
50.935 286.08 lineto
52.091 286.08 lineto
52.091 287.268 lineto
52.778 285.939 54.075 285.939 QUADTO 
54.263 285.939 54.45 285.971 QUADTO 
54.45 287.049 lineto
54.153 286.939 53.919 286.939 QUADTO 
52.825 286.939 52.091 288.236 QUADTO 
52.091 292.439 lineto
50.935 292.439 lineto
closepath
59.126 291.627 M
58.095 292.58 57.126 292.58 QUADTO 
56.329 292.58 55.813 292.088 QUADTO 
55.298 291.596 55.298 290.846 QUADTO 
55.298 289.799 56.173 289.236 QUADTO 
57.048 288.674 58.673 288.674 QUADTO 
58.954 288.674 lineto
58.954 287.908 lineto
58.954 286.799 57.813 286.799 QUADTO 
56.907 286.799 55.845 287.361 QUADTO 
55.845 286.408 lineto
57.017 285.939 58.032 285.939 QUADTO 
59.095 285.939 59.603 286.416 QUADTO 
60.11 286.893 60.11 287.908 QUADTO 
60.11 290.799 lineto
60.11 291.783 60.72 291.783 QUADTO 
60.798 291.783 60.938 291.752 QUADTO 
61.017 292.393 lineto
60.626 292.58 60.157 292.58 QUADTO 
59.345 292.58 59.126 291.627 QUADTO 
closepath
58.954 291.002 M
58.954 289.361 lineto
58.563 289.346 lineto
57.626 289.346 57.04 289.705 QUADTO 
56.454 290.064 56.454 290.658 QUADTO 
56.454 291.064 56.743 291.354 QUADTO 
57.032 291.643 57.454 291.643 QUADTO 
58.173 291.643 58.954 291.002 QUADTO 
closepath
64.378 292.58 M
63.503 292.58 63.011 292.08 QUADTO 
62.519 291.58 62.519 290.674 QUADTO 
62.519 286.939 lineto
61.722 286.939 lineto
61.722 286.08 lineto
62.519 286.08 lineto
62.519 284.924 lineto
63.675 284.814 lineto
63.675 286.08 lineto
65.331 286.08 lineto
65.331 286.939 lineto
63.675 286.939 lineto
63.675 290.471 lineto
63.675 291.721 64.753 291.721 QUADTO 
64.972 291.721 65.3 291.643 QUADTO 
65.3 292.439 lineto
64.769 292.58 64.378 292.58 QUADTO 
closepath
66.96 292.439 M
66.96 286.08 lineto
68.116 286.08 lineto
68.116 292.439 lineto
66.96 292.439 lineto
closepath
66.96 284.924 M
66.96 283.768 lineto
68.116 283.768 lineto
68.116 284.924 lineto
66.96 284.924 lineto
closepath
72.913 292.58 M
71.554 292.58 70.741 291.674 QUADTO 
69.929 290.768 69.929 289.252 QUADTO 
69.929 287.721 70.741 286.83 QUADTO 
71.554 285.939 72.96 285.939 QUADTO 
74.366 285.939 75.179 286.83 QUADTO 
75.991 287.721 75.991 289.252 QUADTO 
75.991 290.799 75.171 291.689 QUADTO 
74.351 292.58 72.913 292.58 QUADTO 
closepath
72.929 291.721 M
74.772 291.721 74.772 289.252 QUADTO 
74.772 286.799 72.96 286.799 QUADTO 
71.147 286.799 71.147 289.252 QUADTO 
71.147 291.721 72.929 291.721 QUADTO 
closepath
77.8 292.439 M
77.8 286.08 lineto
78.956 286.08 lineto
78.956 287.268 lineto
79.862 285.939 81.19 285.939 QUADTO 
82.019 285.939 82.511 286.463 QUADTO 
83.003 286.986 83.003 287.861 QUADTO 
83.003 292.439 lineto
81.847 292.439 lineto
81.847 288.236 lineto
81.847 287.533 81.636 287.229 QUADTO 
81.425 286.924 80.956 286.924 QUADTO 
79.894 286.924 78.956 288.314 QUADTO 
78.956 292.439 lineto
77.8 292.439 lineto
closepath
89.7 292.439 M
89.7 291.564 lineto
91.435 291.564 lineto
91.435 284.721 lineto
89.7 285.158 lineto
89.7 284.268 lineto
92.591 283.549 lineto
92.591 291.564 lineto
94.325 291.564 lineto
94.325 292.439 lineto
89.7 292.439 lineto
closepath
98.319 292.58 M
97.522 292.58 96.397 292.221 QUADTO 
96.397 291.158 lineto
97.522 291.721 98.366 291.721 QUADTO 
98.866 291.721 99.194 291.447 QUADTO 
99.522 291.174 99.522 290.768 QUADTO 
99.522 290.189 98.601 289.799 QUADTO 
97.929 289.502 lineto
96.429 288.893 96.429 287.721 QUADTO 
96.429 286.893 97.022 286.416 QUADTO 
97.616 285.939 98.632 285.939 QUADTO 
99.163 285.939 99.96 286.08 QUADTO 
100.194 286.127 lineto
100.194 287.096 lineto
99.226 286.799 98.663 286.799 QUADTO 
97.538 286.799 97.538 287.611 QUADTO 
97.538 288.127 98.382 288.486 QUADTO 
98.944 288.721 lineto
99.882 289.127 100.28 289.564 QUADTO 
100.679 290.002 100.679 290.674 QUADTO 
100.679 291.502 100.015 292.041 QUADTO 
99.351 292.58 98.319 292.58 QUADTO 
closepath
fill
grestore
gsave
newpath
0 0 M
300 0 lineto
300 300 lineto
0 300 lineto
0 0 lineto
closepath
clip
0.333 0.333 1 setrgbcolor
2 setlinecap
2 setlinejoin
2 setlinejoin
newpath
107.593 288.019 M
121.593 288.019 lineto
stroke
grestore
gsave
newpath
0 0 M
300 0 lineto
300 300 lineto
0 300 lineto
0 0 lineto
closepath
clip
0.333 0.333 1 setrgbcolor
newpath
117.593 288.019 M
117.593 289.675 116.25 291.019 114.593 291.019 curveto
112.936 291.019 111.593 289.675 111.593 288.019 curveto
111.593 286.362 112.936 285.019 114.593 285.019 curveto
116.25 285.019 117.593 286.362 117.593 288.019 curveto
closepath
fill
grestore
gsave
newpath
0 0 M
300 0 lineto
300 300 lineto
0 300 lineto
0 0 lineto
closepath
clip
0.333 0.333 1 setrgbcolor
2 setlinecap
10.0 setmiterlimit
newpath
117.593 288.019 M
117.593 289.675 116.25 291.019 114.593 291.019 curveto
112.936 291.019 111.593 289.675 111.593 288.019 curveto
111.593 286.362 112.936 285.019 114.593 285.019 curveto
116.25 285.019 117.593 286.362 117.593 288.019 curveto
closepath
stroke
grestore
gsave
newpath
0 0 M
300 0 lineto
300 300 lineto
0 300 lineto
0 0 lineto
closepath
clip
0.251 setgray
newpath
130.827 292.439 M
130.827 291.236 lineto
130.124 292.58 128.718 292.58 QUADTO 
127.562 292.58 126.905 291.744 QUADTO 
126.249 290.908 126.249 289.455 QUADTO 
126.249 287.861 126.991 286.9 QUADTO 
127.733 285.939 128.952 285.939 QUADTO 
130.093 285.939 130.827 286.799 QUADTO 
130.827 283.189 lineto
131.999 283.189 lineto
131.999 292.439 lineto
130.827 292.439 lineto
closepath
130.827 287.596 M
129.937 286.799 129.14 286.799 QUADTO 
127.468 286.799 127.468 289.346 QUADTO 
127.468 291.564 128.952 291.564 QUADTO 
129.905 291.564 130.827 290.518 QUADTO 
130.827 287.596 lineto
closepath
138.286 292.439 M
138.286 291.236 lineto
137.364 292.58 136.052 292.58 QUADTO 
135.208 292.58 134.716 292.057 QUADTO 
134.224 291.533 134.224 290.643 QUADTO 
134.224 286.08 lineto
135.38 286.08 lineto
135.38 290.268 lineto
135.38 290.986 135.591 291.291 QUADTO 
135.802 291.596 136.286 291.596 QUADTO 
137.349 291.596 138.286 290.205 QUADTO 
138.286 286.08 lineto
139.427 286.08 lineto
139.427 292.439 lineto
138.286 292.439 lineto
closepath
141.749 292.439 M
141.749 286.08 lineto
142.905 286.08 lineto
142.905 287.268 lineto
143.593 285.939 144.89 285.939 QUADTO 
145.077 285.939 145.265 285.971 QUADTO 
145.265 287.049 lineto
144.968 286.939 144.733 286.939 QUADTO 
143.64 286.939 142.905 288.236 QUADTO 
142.905 292.439 lineto
141.749 292.439 lineto
closepath
149.94 291.627 M
148.909 292.58 147.94 292.58 QUADTO 
147.144 292.58 146.628 292.088 QUADTO 
146.112 291.596 146.112 290.846 QUADTO 
146.112 289.799 146.987 289.236 QUADTO 
147.862 288.674 149.487 288.674 QUADTO 
149.769 288.674 lineto
149.769 287.908 lineto
149.769 286.799 148.628 286.799 QUADTO 
147.722 286.799 146.659 287.361 QUADTO 
146.659 286.408 lineto
147.831 285.939 148.847 285.939 QUADTO 
149.909 285.939 150.417 286.416 QUADTO 
150.925 286.893 150.925 287.908 QUADTO 
150.925 290.799 lineto
150.925 291.783 151.534 291.783 QUADTO 
151.612 291.783 151.753 291.752 QUADTO 
151.831 292.393 lineto
151.44 292.58 150.972 292.58 QUADTO 
150.159 292.58 149.94 291.627 QUADTO 
closepath
149.769 291.002 M
149.769 289.361 lineto
149.378 289.346 lineto
148.44 289.346 147.854 289.705 QUADTO 
147.269 290.064 147.269 290.658 QUADTO 
147.269 291.064 147.558 291.354 QUADTO 
147.847 291.643 148.269 291.643 QUADTO 
148.987 291.643 149.769 291.002 QUADTO 
closepath
155.192 292.58 M
154.317 292.58 153.825 292.08 QUADTO 
153.333 291.58 153.333 290.674 QUADTO 
153.333 286.939 lineto
152.536 286.939 lineto
152.536 286.08 lineto
153.333 286.08 lineto
153.333 284.924 lineto
154.489 284.814 lineto
154.489 286.08 lineto
156.146 286.08 lineto
156.146 286.939 lineto
154.489 286.939 lineto
154.489 290.471 lineto
154.489 291.721 155.567 291.721 QUADTO 
155.786 291.721 156.114 291.643 QUADTO 
156.114 292.439 lineto
155.583 292.58 155.192 292.58 QUADTO 
closepath
157.774 292.439 M
157.774 286.08 lineto
158.931 286.08 lineto
158.931 292.439 lineto
157.774 292.439 lineto
closepath
157.774 284.924 M
157.774 283.768 lineto
158.931 283.768 lineto
158.931 284.924 lineto
157.774 284.924 lineto
closepath
163.728 292.58 M
162.368 292.58 161.556 291.674 QUADTO 
160.743 290.768 160.743 289.252 QUADTO 
160.743 287.721 161.556 286.83 QUADTO 
162.368 285.939 163.774 285.939 QUADTO 
165.181 285.939 165.993 286.83 QUADTO 
166.806 287.721 166.806 289.252 QUADTO 
166.806 290.799 165.985 291.689 QUADTO 
165.165 292.58 163.728 292.58 QUADTO 
closepath
163.743 291.721 M
165.587 291.721 165.587 289.252 QUADTO 
165.587 286.799 163.774 286.799 QUADTO 
161.962 286.799 161.962 289.252 QUADTO 
161.962 291.721 163.743 291.721 QUADTO 
closepath
168.614 292.439 M
168.614 286.08 lineto
169.771 286.08 lineto
169.771 287.268 lineto
170.677 285.939 172.005 285.939 QUADTO 
172.833 285.939 173.325 286.463 QUADTO 
173.817 286.986 173.817 287.861 QUADTO 
173.817 292.439 lineto
172.661 292.439 lineto
172.661 288.236 lineto
172.661 287.533 172.45 287.229 QUADTO 
172.239 286.924 171.771 286.924 QUADTO 
170.708 286.924 169.771 288.314 QUADTO 
169.771 292.439 lineto
168.614 292.439 lineto
closepath
179.921 292.377 M
179.921 291.299 lineto
181.171 291.783 181.874 291.783 QUADTO 
182.702 291.783 183.226 291.299 QUADTO 
183.749 290.814 183.749 290.049 QUADTO 
183.749 288.221 181.187 288.221 QUADTO 
180.718 288.221 lineto
180.718 287.439 lineto
181.124 287.439 lineto
183.53 287.439 183.53 285.752 QUADTO 
183.53 284.424 181.952 284.424 QUADTO 
181.077 284.424 180.046 284.908 QUADTO 
180.046 283.893 lineto
181.062 283.549 182.03 283.549 QUADTO 
184.687 283.549 184.687 285.564 QUADTO 
184.687 287.096 182.874 287.736 QUADTO 
184.983 288.221 184.983 290.033 QUADTO 
184.983 291.268 184.171 291.963 QUADTO 
183.358 292.658 181.952 292.658 QUADTO 
181.14 292.658 179.921 292.377 QUADTO 
closepath
189.134 292.58 M
188.337 292.58 187.212 292.221 QUADTO 
187.212 291.158 lineto
188.337 291.721 189.181 291.721 QUADTO 
189.681 291.721 190.009 291.447 QUADTO 
190.337 291.174 190.337 290.768 QUADTO 
190.337 290.189 189.415 289.799 QUADTO 
188.743 289.502 lineto
187.243 288.893 187.243 287.721 QUADTO 
187.243 286.893 187.837 286.416 QUADTO 
188.431 285.939 189.446 285.939 QUADTO 
189.978 285.939 190.774 286.08 QUADTO 
191.009 286.127 lineto
191.009 287.096 lineto
190.04 286.799 189.478 286.799 QUADTO 
188.353 286.799 188.353 287.611 QUADTO 
188.353 288.127 189.196 288.486 QUADTO 
189.759 288.721 lineto
190.696 289.127 191.095 289.564 QUADTO 
191.493 290.002 191.493 290.674 QUADTO 
191.493 291.502 190.829 292.041 QUADTO 
190.165 292.58 189.134 292.58 QUADTO 
closepath
fill
grestore
gsave
newpath
0 0 M
300 0 lineto
300 300 lineto
0 300 lineto
0 0 lineto
closepath
clip
0.333 1 0.333 setrgbcolor
2 setlinecap
2 setlinejoin
2 setlinejoin
newpath
198.407 288.019 M
212.407 288.019 lineto
stroke
grestore
gsave
newpath
0 0 M
300 0 lineto
300 300 lineto
0 300 lineto
0 0 lineto
closepath
clip
0.333 1 0.333 setrgbcolor
newpath
205.407 285.019 M
208.407 291.019 lineto
202.407 291.019 lineto
closepath
eofill
grestore
gsave
newpath
0 0 M
300 0 lineto
300 300 lineto
0 300 lineto
0 0 lineto
closepath
clip
0.333 1 0.333 setrgbcolor
2 setlinecap
10.0 setmiterlimit
newpath
205.407 285.019 M
208.407 291.019 lineto
202.407 291.019 lineto
closepath
stroke
grestore
gsave
newpath
0 0 M
300 0 lineto
300 300 lineto
0 300 lineto
0 0 lineto
closepath
clip
0.251 setgray
newpath
221.642 292.439 M
221.642 291.236 lineto
220.938 292.58 219.532 292.58 QUADTO 
218.376 292.58 217.72 291.744 QUADTO 
217.063 290.908 217.063 289.455 QUADTO 
217.063 287.861 217.806 286.9 QUADTO 
218.548 285.939 219.767 285.939 QUADTO 
220.907 285.939 221.642 286.799 QUADTO 
221.642 283.189 lineto
222.813 283.189 lineto
222.813 292.439 lineto
221.642 292.439 lineto
closepath
221.642 287.596 M
220.751 286.799 219.954 286.799 QUADTO 
218.282 286.799 218.282 289.346 QUADTO 
218.282 291.564 219.767 291.564 QUADTO 
220.72 291.564 221.642 290.518 QUADTO 
221.642 287.596 lineto
closepath
229.101 292.439 M
229.101 291.236 lineto
228.179 292.58 226.866 292.58 QUADTO 
226.022 292.58 225.53 292.057 QUADTO 
225.038 291.533 225.038 290.643 QUADTO 
225.038 286.08 lineto
226.194 286.08 lineto
226.194 290.268 lineto
226.194 290.986 226.405 291.291 QUADTO 
226.616 291.596 227.101 291.596 QUADTO 
228.163 291.596 229.101 290.205 QUADTO 
229.101 286.08 lineto
230.241 286.08 lineto
230.241 292.439 lineto
229.101 292.439 lineto
closepath
232.563 292.439 M
232.563 286.08 lineto
233.72 286.08 lineto
233.72 287.268 lineto
234.407 285.939 235.704 285.939 QUADTO 
235.892 285.939 236.079 285.971 QUADTO 
236.079 287.049 lineto
235.782 286.939 235.548 286.939 QUADTO 
234.454 286.939 233.72 288.236 QUADTO 
233.72 292.439 lineto
232.563 292.439 lineto
closepath
240.755 291.627 M
239.724 292.58 238.755 292.58 QUADTO 
237.958 292.58 237.442 292.088 QUADTO 
236.927 291.596 236.927 290.846 QUADTO 
236.927 289.799 237.802 289.236 QUADTO 
238.677 288.674 240.302 288.674 QUADTO 
240.583 288.674 lineto
240.583 287.908 lineto
240.583 286.799 239.442 286.799 QUADTO 
238.536 286.799 237.474 287.361 QUADTO 
237.474 286.408 lineto
238.646 285.939 239.661 285.939 QUADTO 
240.724 285.939 241.231 286.416 QUADTO 
241.739 286.893 241.739 287.908 QUADTO 
241.739 290.799 lineto
241.739 291.783 242.349 291.783 QUADTO 
242.427 291.783 242.567 291.752 QUADTO 
242.646 292.393 lineto
242.255 292.58 241.786 292.58 QUADTO 
240.974 292.58 240.755 291.627 QUADTO 
closepath
240.583 291.002 M
240.583 289.361 lineto
240.192 289.346 lineto
239.255 289.346 238.669 289.705 QUADTO 
238.083 290.064 238.083 290.658 QUADTO 
238.083 291.064 238.372 291.354 QUADTO 
238.661 291.643 239.083 291.643 QUADTO 
239.802 291.643 240.583 291.002 QUADTO 
closepath
246.007 292.58 M
245.132 292.58 244.64 292.08 QUADTO 
244.147 291.58 244.147 290.674 QUADTO 
244.147 286.939 lineto
243.351 286.939 lineto
243.351 286.08 lineto
244.147 286.08 lineto
244.147 284.924 lineto
245.304 284.814 lineto
245.304 286.08 lineto
246.96 286.08 lineto
246.96 286.939 lineto
245.304 286.939 lineto
245.304 290.471 lineto
245.304 291.721 246.382 291.721 QUADTO 
246.601 291.721 246.929 291.643 QUADTO 
246.929 292.439 lineto
246.397 292.58 246.007 292.58 QUADTO 
closepath
248.589 292.439 M
248.589 286.08 lineto
249.745 286.08 lineto
249.745 292.439 lineto
248.589 292.439 lineto
closepath
248.589 284.924 M
248.589 283.768 lineto
249.745 283.768 lineto
249.745 284.924 lineto
248.589 284.924 lineto
closepath
254.542 292.58 M
253.183 292.58 252.37 291.674 QUADTO 
251.558 290.768 251.558 289.252 QUADTO 
251.558 287.721 252.37 286.83 QUADTO 
253.183 285.939 254.589 285.939 QUADTO 
255.995 285.939 256.808 286.83 QUADTO 
257.62 287.721 257.62 289.252 QUADTO 
257.62 290.799 256.8 291.689 QUADTO 
255.979 292.58 254.542 292.58 QUADTO 
closepath
254.558 291.721 M
256.401 291.721 256.401 289.252 QUADTO 
256.401 286.799 254.589 286.799 QUADTO 
252.776 286.799 252.776 289.252 QUADTO 
252.776 291.721 254.558 291.721 QUADTO 
closepath
259.429 292.439 M
259.429 286.08 lineto
260.585 286.08 lineto
260.585 287.268 lineto
261.491 285.939 262.819 285.939 QUADTO 
263.647 285.939 264.14 286.463 QUADTO 
264.632 286.986 264.632 287.861 QUADTO 
264.632 292.439 lineto
263.476 292.439 lineto
263.476 288.236 lineto
263.476 287.533 263.265 287.229 QUADTO 
263.054 286.924 262.585 286.924 QUADTO 
261.522 286.924 260.585 288.314 QUADTO 
260.585 292.439 lineto
259.429 292.439 lineto
closepath
270.97 292.471 M
270.97 291.439 lineto
271.845 291.783 272.61 291.783 QUADTO 
273.47 291.783 273.962 291.283 QUADTO 
274.454 290.783 274.454 289.893 QUADTO 
274.454 287.939 271.767 287.939 QUADTO 
271.454 287.939 271.126 287.986 QUADTO 
271.126 283.768 lineto
275.517 283.768 lineto
275.517 284.768 lineto
272.142 284.768 lineto
272.142 287.064 lineto
273.813 287.064 274.751 287.83 QUADTO 
275.688 288.596 275.688 289.955 QUADTO 
275.688 291.221 274.829 291.939 QUADTO 
273.97 292.658 272.47 292.658 QUADTO 
271.813 292.658 270.97 292.471 QUADTO 
closepath
279.948 292.58 M
279.151 292.58 278.026 292.221 QUADTO 
278.026 291.158 lineto
279.151 291.721 279.995 291.721 QUADTO 
280.495 291.721 280.823 291.447 QUADTO 
281.151 291.174 281.151 290.768 QUADTO 
281.151 290.189 280.229 289.799 QUADTO 
279.558 289.502 lineto
278.058 288.893 278.058 287.721 QUADTO 
278.058 286.893 278.651 286.416 QUADTO 
279.245 285.939 280.261 285.939 QUADTO 
280.792 285.939 281.589 286.08 QUADTO 
281.823 286.127 lineto
281.823 287.096 lineto
280.854 286.799 280.292 286.799 QUADTO 
279.167 286.799 279.167 287.611 QUADTO 
279.167 288.127 280.011 288.486 QUADTO 
280.573 288.721 lineto
281.511 289.127 281.909 289.564 QUADTO 
282.308 290.002 282.308 290.674 QUADTO 
282.308 291.502 281.644 292.041 QUADTO 
280.979 292.58 279.948 292.58 QUADTO 
closepath
fill
grestore
gsave
newpath
0 0 M
300 0 lineto
300 300 lineto
0 300 lineto
0 0 lineto
closepath
clip
1 setgray
newpath
65.054 10 M
288 10 lineto
288 227.784 lineto
65.054 227.784 lineto
65.054 10 lineto
closepath
fill
grestore
gsave
newpath
0 0 M
300 0 lineto
300 300 lineto
0 300 lineto
0 0 lineto
closepath
clip
0.502 setgray
2 setlinecap
10.0 setmiterlimit
newpath
65.054 231.784 M
288 231.784 lineto
stroke
grestore
gsave
newpath
0 0 M
300 0 lineto
300 300 lineto
0 300 lineto
0 0 lineto
closepath
clip
0.251 setgray
newpath
111.722 247.218 M
111.722 246.187 lineto
112.597 246.53 113.363 246.53 QUADTO 
114.222 246.53 114.714 246.03 QUADTO 
115.206 245.53 115.206 244.64 QUADTO 
115.206 242.687 112.519 242.687 QUADTO 
112.206 242.687 111.878 242.733 QUADTO 
111.878 238.515 lineto
116.269 238.515 lineto
116.269 239.515 lineto
112.894 239.515 lineto
112.894 241.812 lineto
114.566 241.812 115.503 242.577 QUADTO 
116.441 243.343 116.441 244.702 QUADTO 
116.441 245.968 115.581 246.687 QUADTO 
114.722 247.405 113.222 247.405 QUADTO 
112.566 247.405 111.722 247.218 QUADTO 
closepath
121.622 247.405 M
120.279 247.405 119.451 246.14 QUADTO 
118.622 244.874 118.622 242.843 QUADTO 
118.622 240.796 119.458 239.546 QUADTO 
120.294 238.296 121.654 238.296 QUADTO 
123.013 238.296 123.849 239.546 QUADTO 
124.685 240.796 124.685 242.827 QUADTO 
124.685 244.905 123.849 246.155 QUADTO 
123.013 247.405 121.622 247.405 QUADTO 
closepath
121.638 246.53 M
123.466 246.53 123.466 242.812 QUADTO 
123.466 239.171 121.654 239.171 QUADTO 
119.857 239.171 119.857 242.843 QUADTO 
119.857 246.53 121.638 246.53 QUADTO 
closepath
fill
grestore
gsave
newpath
0 0 M
300 0 lineto
300 300 lineto
0 300 lineto
0 0 lineto
closepath
clip
0.502 setgray
2 setlinecap
10.0 setmiterlimit
newpath
117.857 233.784 M
117.857 231.784 lineto
stroke
grestore
gsave
newpath
0 0 M
300 0 lineto
300 300 lineto
0 300 lineto
0 0 lineto
closepath
clip
0.251 setgray
newpath
161.624 247.187 M
161.624 246.312 lineto
163.358 246.312 lineto
163.358 239.468 lineto
161.624 239.905 lineto
161.624 239.015 lineto
164.514 238.296 lineto
164.514 246.312 lineto
166.249 246.312 lineto
166.249 247.187 lineto
161.624 247.187 lineto
closepath
171.165 247.405 M
169.821 247.405 168.993 246.14 QUADTO 
168.165 244.874 168.165 242.843 QUADTO 
168.165 240.796 169.001 239.546 QUADTO 
169.837 238.296 171.196 238.296 QUADTO 
172.556 238.296 173.391 239.546 QUADTO 
174.227 240.796 174.227 242.827 QUADTO 
174.227 244.905 173.391 246.155 QUADTO 
172.556 247.405 171.165 247.405 QUADTO 
closepath
171.181 246.53 M
173.009 246.53 173.009 242.812 QUADTO 
173.009 239.171 171.196 239.171 QUADTO 
169.399 239.171 169.399 242.843 QUADTO 
169.399 246.53 171.181 246.53 QUADTO 
closepath
178.753 247.405 M
177.409 247.405 176.581 246.14 QUADTO 
175.753 244.874 175.753 242.843 QUADTO 
175.753 240.796 176.589 239.546 QUADTO 
177.425 238.296 178.784 238.296 QUADTO 
180.143 238.296 180.979 239.546 QUADTO 
181.815 240.796 181.815 242.827 QUADTO 
181.815 244.905 180.979 246.155 QUADTO 
180.143 247.405 178.753 247.405 QUADTO 
closepath
178.768 246.53 M
180.597 246.53 180.597 242.812 QUADTO 
180.597 239.171 178.784 239.171 QUADTO 
176.987 239.171 176.987 242.843 QUADTO 
176.987 246.53 178.768 246.53 QUADTO 
closepath
fill
grestore
gsave
newpath
0 0 M
300 0 lineto
300 300 lineto
0 300 lineto
0 0 lineto
closepath
clip
0.502 setgray
2 setlinecap
10.0 setmiterlimit
newpath
171.193 233.784 M
171.193 231.784 lineto
stroke
grestore
gsave
newpath
0 0 M
300 0 lineto
300 300 lineto
0 300 lineto
0 0 lineto
closepath
clip
0.251 setgray
newpath
214.96 247.187 M
214.96 246.312 lineto
216.695 246.312 lineto
216.695 239.468 lineto
214.96 239.905 lineto
214.96 239.015 lineto
217.851 238.296 lineto
217.851 246.312 lineto
219.585 246.312 lineto
219.585 247.187 lineto
214.96 247.187 lineto
closepath
222.189 247.218 M
222.189 246.187 lineto
223.064 246.53 223.829 246.53 QUADTO 
224.689 246.53 225.181 246.03 QUADTO 
225.673 245.53 225.673 244.64 QUADTO 
225.673 242.687 222.986 242.687 QUADTO 
222.673 242.687 222.345 242.733 QUADTO 
222.345 238.515 lineto
226.736 238.515 lineto
226.736 239.515 lineto
223.361 239.515 lineto
223.361 241.812 lineto
225.033 241.812 225.97 242.577 QUADTO 
226.908 243.343 226.908 244.702 QUADTO 
226.908 245.968 226.048 246.687 QUADTO 
225.189 247.405 223.689 247.405 QUADTO 
223.033 247.405 222.189 247.218 QUADTO 
closepath
232.089 247.405 M
230.745 247.405 229.917 246.14 QUADTO 
229.089 244.874 229.089 242.843 QUADTO 
229.089 240.796 229.925 239.546 QUADTO 
230.761 238.296 232.12 238.296 QUADTO 
233.48 238.296 234.316 239.546 QUADTO 
235.152 240.796 235.152 242.827 QUADTO 
235.152 244.905 234.316 246.155 QUADTO 
233.48 247.405 232.089 247.405 QUADTO 
closepath
232.105 246.53 M
233.933 246.53 233.933 242.812 QUADTO 
233.933 239.171 232.12 239.171 QUADTO 
230.324 239.171 230.324 242.843 QUADTO 
230.324 246.53 232.105 246.53 QUADTO 
closepath
fill
grestore
gsave
newpath
0 0 M
300 0 lineto
300 300 lineto
0 300 lineto
0 0 lineto
closepath
clip
0.502 setgray
2 setlinecap
10.0 setmiterlimit
newpath
224.53 233.784 M
224.53 231.784 lineto
stroke
grestore
gsave
newpath
0 0 M
300 0 lineto
300 300 lineto
0 300 lineto
0 0 lineto
closepath
clip
0.251 setgray
newpath
267.484 247.187 M
267.484 246.171 lineto
267.984 244.999 269.516 243.608 QUADTO 
270.187 243.015 lineto
271.453 241.858 271.453 240.718 QUADTO 
271.453 239.999 271.023 239.585 QUADTO 
270.594 239.171 269.828 239.171 QUADTO 
268.922 239.171 267.703 239.858 QUADTO 
267.703 238.843 lineto
268.859 238.296 269.984 238.296 QUADTO 
271.203 238.296 271.945 238.952 QUADTO 
272.687 239.608 272.687 240.687 QUADTO 
272.687 241.468 272.312 242.077 QUADTO 
271.937 242.687 270.922 243.546 QUADTO 
270.484 243.921 lineto
269.094 245.093 268.875 246.171 QUADTO 
272.641 246.171 lineto
272.641 247.187 lineto
267.484 247.187 lineto
closepath
277.838 247.405 M
276.494 247.405 275.666 246.14 QUADTO 
274.838 244.874 274.838 242.843 QUADTO 
274.838 240.796 275.674 239.546 QUADTO 
276.51 238.296 277.869 238.296 QUADTO 
279.228 238.296 280.064 239.546 QUADTO 
280.9 240.796 280.9 242.827 QUADTO 
280.9 244.905 280.064 246.155 QUADTO 
279.228 247.405 277.838 247.405 QUADTO 
closepath
277.853 246.53 M
279.682 246.53 279.682 242.812 QUADTO 
279.682 239.171 277.869 239.171 QUADTO 
276.072 239.171 276.072 242.843 QUADTO 
276.072 246.53 277.853 246.53 QUADTO 
closepath
285.426 247.405 M
284.082 247.405 283.254 246.14 QUADTO 
282.426 244.874 282.426 242.843 QUADTO 
282.426 240.796 283.262 239.546 QUADTO 
284.098 238.296 285.457 238.296 QUADTO 
286.816 238.296 287.652 239.546 QUADTO 
288.488 240.796 288.488 242.827 QUADTO 
288.488 244.905 287.652 246.155 QUADTO 
286.816 247.405 285.426 247.405 QUADTO 
closepath
285.441 246.53 M
287.269 246.53 287.269 242.812 QUADTO 
287.269 239.171 285.457 239.171 QUADTO 
283.66 239.171 283.66 242.843 QUADTO 
283.66 246.53 285.441 246.53 QUADTO 
closepath
fill
grestore
gsave
newpath
0 0 M
300 0 lineto
300 300 lineto
0 300 lineto
0 0 lineto
closepath
clip
0.502 setgray
2 setlinecap
10.0 setmiterlimit
newpath
277.866 233.784 M
277.866 231.784 lineto
stroke
grestore
gsave
newpath
0 0 M
300 0 lineto
300 300 lineto
0 300 lineto
0 0 lineto
closepath
clip
0.251 setgray
newpath
141.699 268.787 M
141.699 258.584 lineto
143.714 258.584 lineto
143.714 259.99 lineto
144.496 258.412 146.183 258.412 QUADTO 
147.527 258.412 148.3 259.404 QUADTO 
149.074 260.396 149.074 262.131 QUADTO 
149.074 264.006 148.199 265.131 QUADTO 
147.324 266.256 145.855 266.256 QUADTO 
144.683 266.256 143.714 265.318 QUADTO 
143.714 268.787 lineto
141.699 268.787 lineto
closepath
143.714 264.115 M
144.464 264.943 145.292 264.943 QUADTO 
146.042 264.943 146.488 264.225 QUADTO 
146.933 263.506 146.933 262.303 QUADTO 
146.933 259.99 145.449 259.99 QUADTO 
144.542 259.99 143.714 261.146 QUADTO 
143.714 264.115 lineto
closepath
150.975 266.084 M
150.975 258.584 lineto
152.991 258.584 lineto
152.991 259.99 lineto
153.788 258.412 155.397 258.412 QUADTO 
155.584 258.412 155.772 258.443 QUADTO 
155.772 260.256 lineto
155.334 260.1 154.959 260.1 QUADTO 
153.756 260.1 152.991 261.318 QUADTO 
152.991 266.084 lineto
150.975 266.084 lineto
closepath
160.496 266.256 M
158.73 266.256 157.699 265.193 QUADTO 
156.667 264.131 156.667 262.334 QUADTO 
156.667 260.506 157.707 259.459 QUADTO 
158.746 258.412 160.542 258.412 QUADTO 
162.339 258.412 163.378 259.459 QUADTO 
164.417 260.506 164.417 262.318 QUADTO 
164.417 264.162 163.371 265.209 QUADTO 
162.324 266.256 160.496 266.256 QUADTO 
closepath
160.527 264.99 M
162.261 264.99 162.261 262.318 QUADTO 
162.261 261.1 161.8 260.389 QUADTO 
161.339 259.678 160.542 259.678 QUADTO 
159.746 259.678 159.277 260.389 QUADTO 
158.808 261.1 158.808 262.334 QUADTO 
158.808 263.553 159.269 264.271 QUADTO 
159.73 264.99 160.527 264.99 QUADTO 
closepath
171.812 265.912 M
170.562 266.256 169.484 266.256 QUADTO 
167.687 266.256 166.648 265.201 QUADTO 
165.609 264.146 165.609 262.318 QUADTO 
165.609 260.49 166.679 259.451 QUADTO 
167.75 258.412 169.64 258.412 QUADTO 
170.562 258.412 171.75 258.693 QUADTO 
171.75 260.162 lineto
170.515 259.756 169.765 259.756 QUADTO 
168.859 259.756 168.304 260.459 QUADTO 
167.75 261.162 167.75 262.303 QUADTO 
167.75 263.49 168.351 264.201 QUADTO 
168.953 264.912 169.937 264.912 QUADTO 
170.859 264.912 171.812 264.521 QUADTO 
171.812 265.912 lineto
closepath
179.841 265.834 M
178.404 266.256 177.107 266.256 QUADTO 
175.232 266.256 174.146 265.186 QUADTO 
173.06 264.115 173.06 262.271 QUADTO 
173.06 260.537 174.052 259.475 QUADTO 
175.044 258.412 176.685 258.412 QUADTO 
178.326 258.412 179.083 259.451 QUADTO 
179.841 260.49 179.841 262.74 QUADTO 
175.185 262.74 lineto
175.388 264.881 177.544 264.881 QUADTO 
178.56 264.881 179.841 264.412 QUADTO 
179.841 265.834 lineto
closepath
175.154 261.6 M
177.857 261.6 lineto
177.857 259.678 176.623 259.678 QUADTO 
175.357 259.678 175.154 261.6 QUADTO 
closepath
181.732 265.85 M
181.732 264.365 lineto
183.248 264.99 184.31 264.99 QUADTO 
185.544 264.99 185.544 264.146 QUADTO 
185.544 263.6 184.529 263.178 QUADTO 
183.841 262.912 lineto
182.732 262.459 182.248 261.943 QUADTO 
181.763 261.428 181.763 260.662 QUADTO 
181.763 259.584 182.583 258.998 QUADTO 
183.404 258.412 184.857 258.412 QUADTO 
185.779 258.412 187.044 258.678 QUADTO 
187.044 260.1 lineto
185.826 259.678 185.029 259.678 QUADTO 
183.763 259.678 183.763 260.443 QUADTO 
183.763 260.959 184.701 261.318 QUADTO 
185.279 261.537 lineto
186.607 262.037 187.123 262.553 QUADTO 
187.638 263.068 187.638 263.881 QUADTO 
187.638 264.928 186.755 265.592 QUADTO 
185.873 266.256 184.466 266.256 QUADTO 
183.123 266.256 181.732 265.85 QUADTO 
closepath
189.648 265.85 M
189.648 264.365 lineto
191.164 264.99 192.226 264.99 QUADTO 
193.46 264.99 193.46 264.146 QUADTO 
193.46 263.6 192.445 263.178 QUADTO 
191.757 262.912 lineto
190.648 262.459 190.164 261.943 QUADTO 
189.679 261.428 189.679 260.662 QUADTO 
189.679 259.584 190.5 258.998 QUADTO 
191.32 258.412 192.773 258.412 QUADTO 
193.695 258.412 194.96 258.678 QUADTO 
194.96 260.1 lineto
193.742 259.678 192.945 259.678 QUADTO 
191.679 259.678 191.679 260.443 QUADTO 
191.679 260.959 192.617 261.318 QUADTO 
193.195 261.537 lineto
194.523 262.037 195.039 262.553 QUADTO 
195.554 263.068 195.554 263.881 QUADTO 
195.554 264.928 194.671 265.592 QUADTO 
193.789 266.256 192.382 266.256 QUADTO 
191.039 266.256 189.648 265.85 QUADTO 
closepath
203.876 265.834 M
202.439 266.256 201.142 266.256 QUADTO 
199.267 266.256 198.181 265.186 QUADTO 
197.095 264.115 197.095 262.271 QUADTO 
197.095 260.537 198.087 259.475 QUADTO 
199.08 258.412 200.72 258.412 QUADTO 
202.361 258.412 203.119 259.451 QUADTO 
203.876 260.49 203.876 262.74 QUADTO 
199.22 262.74 lineto
199.423 264.881 201.58 264.881 QUADTO 
202.595 264.881 203.876 264.412 QUADTO 
203.876 265.834 lineto
closepath
199.189 261.6 M
201.892 261.6 lineto
201.892 259.678 200.658 259.678 QUADTO 
199.392 259.678 199.189 261.6 QUADTO 
closepath
205.767 265.85 M
205.767 264.365 lineto
207.283 264.99 208.345 264.99 QUADTO 
209.58 264.99 209.58 264.146 QUADTO 
209.58 263.6 208.564 263.178 QUADTO 
207.876 262.912 lineto
206.767 262.459 206.283 261.943 QUADTO 
205.798 261.428 205.798 260.662 QUADTO 
205.798 259.584 206.619 258.998 QUADTO 
207.439 258.412 208.892 258.412 QUADTO 
209.814 258.412 211.08 258.678 QUADTO 
211.08 260.1 lineto
209.861 259.678 209.064 259.678 QUADTO 
207.798 259.678 207.798 260.443 QUADTO 
207.798 260.959 208.736 261.318 QUADTO 
209.314 261.537 lineto
210.642 262.037 211.158 262.553 QUADTO 
211.673 263.068 211.673 263.881 QUADTO 
211.673 264.928 210.791 265.592 QUADTO 
209.908 266.256 208.501 266.256 QUADTO 
207.158 266.256 205.767 265.85 QUADTO 
closepath
fill
grestore
gsave
newpath
0 0 M
300 0 lineto
300 300 lineto
0 300 lineto
0 0 lineto
closepath
clip
0.502 setgray
2 setlinecap
10.0 setmiterlimit
newpath
61.054 10 M
61.054 227.784 lineto
stroke
grestore
gsave
newpath
0 0 M
300 0 lineto
300 300 lineto
0 300 lineto
0 0 lineto
closepath
clip
0.251 setgray
newpath
51.231 232.424 M
49.888 232.424 49.06 231.158 QUADTO 
48.231 229.893 48.231 227.861 QUADTO 
48.231 225.814 49.067 224.564 QUADTO 
49.903 223.314 51.263 223.314 QUADTO 
52.622 223.314 53.458 224.564 QUADTO 
54.294 225.814 54.294 227.846 QUADTO 
54.294 229.924 53.458 231.174 QUADTO 
52.622 232.424 51.231 232.424 QUADTO 
closepath
51.247 231.549 M
53.075 231.549 53.075 227.83 QUADTO 
53.075 224.189 51.263 224.189 QUADTO 
49.466 224.189 49.466 227.861 QUADTO 
49.466 231.549 51.247 231.549 QUADTO 
closepath
fill
grestore
gsave
newpath
0 0 M
300 0 lineto
300 300 lineto
0 300 lineto
0 0 lineto
closepath
clip
0.502 setgray
2 setlinecap
10.0 setmiterlimit
newpath
59.054 227.784 M
61.054 227.784 lineto
stroke
grestore
gsave
newpath
0 0 M
300 0 lineto
300 300 lineto
0 300 lineto
0 0 lineto
closepath
clip
0.251 setgray
newpath
41.69 210.427 M
41.69 209.552 lineto
43.425 209.552 lineto
43.425 202.708 lineto
41.69 203.145 lineto
41.69 202.255 lineto
44.581 201.536 lineto
44.581 209.552 lineto
46.315 209.552 lineto
46.315 210.427 lineto
41.69 210.427 lineto
closepath
51.231 210.645 M
49.888 210.645 49.06 209.38 QUADTO 
48.231 208.114 48.231 206.083 QUADTO 
48.231 204.036 49.067 202.786 QUADTO 
49.903 201.536 51.263 201.536 QUADTO 
52.622 201.536 53.458 202.786 QUADTO 
54.294 204.036 54.294 206.067 QUADTO 
54.294 208.145 53.458 209.395 QUADTO 
52.622 210.645 51.231 210.645 QUADTO 
closepath
51.247 209.77 M
53.075 209.77 53.075 206.052 QUADTO 
53.075 202.411 51.263 202.411 QUADTO 
49.466 202.411 49.466 206.083 QUADTO 
49.466 209.77 51.247 209.77 QUADTO 
closepath
fill
grestore
gsave
newpath
0 0 M
300 0 lineto
300 300 lineto
0 300 lineto
0 0 lineto
closepath
clip
0.502 setgray
2 setlinecap
10.0 setmiterlimit
newpath
59.054 206.006 M
61.054 206.006 lineto
stroke
grestore
gsave
newpath
0 0 M
300 0 lineto
300 300 lineto
0 300 lineto
0 0 lineto
closepath
clip
0.251 setgray
newpath
40.878 188.648 M
40.878 187.633 lineto
41.378 186.461 42.909 185.07 QUADTO 
43.581 184.476 lineto
44.847 183.32 44.847 182.179 QUADTO 
44.847 181.461 44.417 181.047 QUADTO 
43.987 180.633 43.222 180.633 QUADTO 
42.315 180.633 41.097 181.32 QUADTO 
41.097 180.304 lineto
42.253 179.758 43.378 179.758 QUADTO 
44.597 179.758 45.339 180.414 QUADTO 
46.081 181.07 46.081 182.148 QUADTO 
46.081 182.929 45.706 183.539 QUADTO 
45.331 184.148 44.315 185.008 QUADTO 
43.878 185.383 lineto
42.487 186.554 42.269 187.633 QUADTO 
46.034 187.633 lineto
46.034 188.648 lineto
40.878 188.648 lineto
closepath
51.231 188.867 M
49.888 188.867 49.06 187.601 QUADTO 
48.231 186.336 48.231 184.304 QUADTO 
48.231 182.258 49.067 181.008 QUADTO 
49.903 179.758 51.263 179.758 QUADTO 
52.622 179.758 53.458 181.008 QUADTO 
54.294 182.258 54.294 184.289 QUADTO 
54.294 186.367 53.458 187.617 QUADTO 
52.622 188.867 51.231 188.867 QUADTO 
closepath
51.247 187.992 M
53.075 187.992 53.075 184.273 QUADTO 
53.075 180.633 51.263 180.633 QUADTO 
49.466 180.633 49.466 184.304 QUADTO 
49.466 187.992 51.247 187.992 QUADTO 
closepath
fill
grestore
gsave
newpath
0 0 M
300 0 lineto
300 300 lineto
0 300 lineto
0 0 lineto
closepath
clip
0.502 setgray
2 setlinecap
10.0 setmiterlimit
newpath
59.054 184.227 M
61.054 184.227 lineto
stroke
grestore
gsave
newpath
0 0 M
300 0 lineto
300 300 lineto
0 300 lineto
0 0 lineto
closepath
clip
0.251 setgray
newpath
41.097 166.807 M
41.097 165.729 lineto
42.347 166.214 43.05 166.214 QUADTO 
43.878 166.214 44.401 165.729 QUADTO 
44.925 165.245 44.925 164.479 QUADTO 
44.925 162.651 42.362 162.651 QUADTO 
41.894 162.651 lineto
41.894 161.87 lineto
42.3 161.87 lineto
44.706 161.87 44.706 160.182 QUADTO 
44.706 158.854 43.128 158.854 QUADTO 
42.253 158.854 41.222 159.339 QUADTO 
41.222 158.323 lineto
42.237 157.979 43.206 157.979 QUADTO 
45.862 157.979 45.862 159.995 QUADTO 
45.862 161.526 44.05 162.167 QUADTO 
46.159 162.651 46.159 164.464 QUADTO 
46.159 165.698 45.347 166.393 QUADTO 
44.534 167.089 43.128 167.089 QUADTO 
42.315 167.089 41.097 166.807 QUADTO 
closepath
51.231 167.089 M
49.888 167.089 49.06 165.823 QUADTO 
48.231 164.557 48.231 162.526 QUADTO 
48.231 160.479 49.067 159.229 QUADTO 
49.903 157.979 51.263 157.979 QUADTO 
52.622 157.979 53.458 159.229 QUADTO 
54.294 160.479 54.294 162.51 QUADTO 
54.294 164.589 53.458 165.839 QUADTO 
52.622 167.089 51.231 167.089 QUADTO 
closepath
51.247 166.214 M
53.075 166.214 53.075 162.495 QUADTO 
53.075 158.854 51.263 158.854 QUADTO 
49.466 158.854 49.466 162.526 QUADTO 
49.466 166.214 51.247 166.214 QUADTO 
closepath
fill
grestore
gsave
newpath
0 0 M
300 0 lineto
300 300 lineto
0 300 lineto
0 0 lineto
closepath
clip
0.502 setgray
2 setlinecap
10.0 setmiterlimit
newpath
59.054 162.449 M
61.054 162.449 lineto
stroke
grestore
gsave
newpath
0 0 M
300 0 lineto
300 300 lineto
0 300 lineto
0 0 lineto
closepath
clip
0.251 setgray
newpath
44.394 145.091 M
44.394 142.638 lineto
40.487 142.638 lineto
40.487 141.763 lineto
44.394 136.42 lineto
45.487 136.42 lineto
45.487 141.685 lineto
46.644 141.685 lineto
46.644 142.638 lineto
45.487 142.638 lineto
45.487 145.091 lineto
44.394 145.091 lineto
closepath
41.628 141.685 M
44.472 141.685 lineto
44.472 137.841 lineto
41.628 141.685 lineto
closepath
51.231 145.31 M
49.888 145.31 49.06 144.045 QUADTO 
48.231 142.779 48.231 140.748 QUADTO 
48.231 138.701 49.067 137.451 QUADTO 
49.903 136.201 51.263 136.201 QUADTO 
52.622 136.201 53.458 137.451 QUADTO 
54.294 138.701 54.294 140.732 QUADTO 
54.294 142.81 53.458 144.06 QUADTO 
52.622 145.31 51.231 145.31 QUADTO 
closepath
51.247 144.435 M
53.075 144.435 53.075 140.716 QUADTO 
53.075 137.076 51.263 137.076 QUADTO 
49.466 137.076 49.466 140.748 QUADTO 
49.466 144.435 51.247 144.435 QUADTO 
closepath
fill
grestore
gsave
newpath
0 0 M
300 0 lineto
300 300 lineto
0 300 lineto
0 0 lineto
closepath
clip
0.502 setgray
2 setlinecap
10.0 setmiterlimit
newpath
59.054 140.671 M
61.054 140.671 lineto
stroke
grestore
gsave
newpath
0 0 M
300 0 lineto
300 300 lineto
0 300 lineto
0 0 lineto
closepath
clip
0.251 setgray
newpath
41.331 123.344 M
41.331 122.313 lineto
42.206 122.657 42.972 122.657 QUADTO 
43.831 122.657 44.323 122.157 QUADTO 
44.815 121.657 44.815 120.766 QUADTO 
44.815 118.813 42.128 118.813 QUADTO 
41.815 118.813 41.487 118.86 QUADTO 
41.487 114.641 lineto
45.878 114.641 lineto
45.878 115.641 lineto
42.503 115.641 lineto
42.503 117.938 lineto
44.175 117.938 45.112 118.704 QUADTO 
46.05 119.469 46.05 120.829 QUADTO 
46.05 122.094 45.19 122.813 QUADTO 
44.331 123.532 42.831 123.532 QUADTO 
42.175 123.532 41.331 123.344 QUADTO 
closepath
51.231 123.532 M
49.888 123.532 49.06 122.266 QUADTO 
48.231 121 48.231 118.969 QUADTO 
48.231 116.922 49.067 115.672 QUADTO 
49.903 114.422 51.263 114.422 QUADTO 
52.622 114.422 53.458 115.672 QUADTO 
54.294 116.922 54.294 118.954 QUADTO 
54.294 121.032 53.458 122.282 QUADTO 
52.622 123.532 51.231 123.532 QUADTO 
closepath
51.247 122.657 M
53.075 122.657 53.075 118.938 QUADTO 
53.075 115.297 51.263 115.297 QUADTO 
49.466 115.297 49.466 118.969 QUADTO 
49.466 122.657 51.247 122.657 QUADTO 
closepath
fill
grestore
gsave
newpath
0 0 M
300 0 lineto
300 300 lineto
0 300 lineto
0 0 lineto
closepath
clip
0.502 setgray
2 setlinecap
10.0 setmiterlimit
newpath
59.054 118.892 M
61.054 118.892 lineto
stroke
grestore
gsave
newpath
0 0 M
300 0 lineto
300 300 lineto
0 300 lineto
0 0 lineto
closepath
clip
0.251 setgray
newpath
41.94 97.035 M
42.769 95.972 44.019 95.972 QUADTO 
45.159 95.972 45.886 96.722 QUADTO 
46.612 97.472 46.612 98.644 QUADTO 
46.612 100.003 45.8 100.878 QUADTO 
44.987 101.753 43.737 101.753 QUADTO 
42.3 101.753 41.487 100.597 QUADTO 
40.675 99.441 40.675 97.394 QUADTO 
40.675 95.128 41.604 93.886 QUADTO 
42.534 92.644 44.222 92.644 QUADTO 
45.003 92.644 46.159 92.972 QUADTO 
46.159 93.972 lineto
44.94 93.503 44.159 93.503 QUADTO 
41.94 93.503 41.94 97.035 QUADTO 
closepath
45.44 98.91 M
45.44 97.925 45.003 97.363 QUADTO 
44.565 96.8 43.769 96.8 QUADTO 
43.05 96.8 42.519 97.292 QUADTO 
41.987 97.785 41.987 98.472 QUADTO 
41.987 99.566 42.487 100.222 QUADTO 
42.987 100.878 43.815 100.878 QUADTO 
44.565 100.878 45.003 100.347 QUADTO 
45.44 99.816 45.44 98.91 QUADTO 
closepath
51.231 101.753 M
49.888 101.753 49.06 100.488 QUADTO 
48.231 99.222 48.231 97.191 QUADTO 
48.231 95.144 49.067 93.894 QUADTO 
49.903 92.644 51.263 92.644 QUADTO 
52.622 92.644 53.458 93.894 QUADTO 
54.294 95.144 54.294 97.175 QUADTO 
54.294 99.253 53.458 100.503 QUADTO 
52.622 101.753 51.231 101.753 QUADTO 
closepath
51.247 100.878 M
53.075 100.878 53.075 97.16 QUADTO 
53.075 93.519 51.263 93.519 QUADTO 
49.466 93.519 49.466 97.191 QUADTO 
49.466 100.878 51.247 100.878 QUADTO 
closepath
fill
grestore
gsave
newpath
0 0 M
300 0 lineto
300 300 lineto
0 300 lineto
0 0 lineto
closepath
clip
0.502 setgray
2 setlinecap
10.0 setmiterlimit
newpath
59.054 97.114 M
61.054 97.114 lineto
stroke
grestore
gsave
newpath
0 0 M
300 0 lineto
300 300 lineto
0 300 lineto
0 0 lineto
closepath
clip
0.251 setgray
newpath
41.69 79.756 M
41.847 78.741 42.167 78.006 QUADTO 
42.487 77.272 43.284 75.975 QUADTO 
45.644 72.162 lineto
41.175 72.162 lineto
41.175 71.084 lineto
46.753 71.084 lineto
46.753 72.162 lineto
43.409 77.084 43.019 79.756 QUADTO 
41.69 79.756 lineto
closepath
51.231 79.975 M
49.888 79.975 49.06 78.709 QUADTO 
48.231 77.444 48.231 75.412 QUADTO 
48.231 73.366 49.067 72.116 QUADTO 
49.903 70.866 51.263 70.866 QUADTO 
52.622 70.866 53.458 72.116 QUADTO 
54.294 73.366 54.294 75.397 QUADTO 
54.294 77.475 53.458 78.725 QUADTO 
52.622 79.975 51.231 79.975 QUADTO 
closepath
51.247 79.1 M
53.075 79.1 53.075 75.381 QUADTO 
53.075 71.741 51.263 71.741 QUADTO 
49.466 71.741 49.466 75.412 QUADTO 
49.466 79.1 51.247 79.1 QUADTO 
closepath
fill
grestore
gsave
newpath
0 0 M
300 0 lineto
300 300 lineto
0 300 lineto
0 0 lineto
closepath
clip
0.502 setgray
2 setlinecap
10.0 setmiterlimit
newpath
59.054 75.335 M
61.054 75.335 lineto
stroke
grestore
gsave
newpath
0 0 M
300 0 lineto
300 300 lineto
0 300 lineto
0 0 lineto
closepath
clip
0.251 setgray
newpath
42.644 53.259 M
41.362 52.368 41.362 51.29 QUADTO 
41.362 50.306 42.089 49.696 QUADTO 
42.815 49.087 43.972 49.087 QUADTO 
45.034 49.087 45.706 49.603 QUADTO 
46.378 50.118 46.378 50.962 QUADTO 
46.378 52.212 44.753 53.259 QUADTO 
46.722 54.212 46.722 55.728 QUADTO 
46.722 56.821 45.894 57.509 QUADTO 
45.065 58.196 43.769 58.196 QUADTO 
42.487 58.196 41.698 57.548 QUADTO 
40.909 56.9 40.909 55.837 QUADTO 
40.909 54.29 42.644 53.259 QUADTO 
closepath
44.112 52.884 M
45.315 52.087 45.315 51.118 QUADTO 
45.315 50.587 44.917 50.275 QUADTO 
44.519 49.962 43.847 49.962 QUADTO 
43.206 49.962 42.808 50.275 QUADTO 
42.409 50.587 42.409 51.087 QUADTO 
42.409 51.571 42.776 51.954 QUADTO 
43.144 52.337 44.112 52.884 QUADTO 
closepath
43.269 53.728 M
42.565 54.259 42.315 54.665 QUADTO 
42.065 55.071 42.065 55.665 QUADTO 
42.065 56.4 42.55 56.861 QUADTO 
43.034 57.321 43.815 57.321 QUADTO 
44.565 57.321 45.05 56.931 QUADTO 
45.534 56.54 45.534 55.915 QUADTO 
45.534 55.415 45.237 55.064 QUADTO 
44.94 54.712 44.081 54.212 QUADTO 
43.269 53.728 lineto
closepath
51.231 58.196 M
49.888 58.196 49.06 56.931 QUADTO 
48.231 55.665 48.231 53.634 QUADTO 
48.231 51.587 49.067 50.337 QUADTO 
49.903 49.087 51.263 49.087 QUADTO 
52.622 49.087 53.458 50.337 QUADTO 
54.294 51.587 54.294 53.618 QUADTO 
54.294 55.696 53.458 56.946 QUADTO 
52.622 58.196 51.231 58.196 QUADTO 
closepath
51.247 57.321 M
53.075 57.321 53.075 53.603 QUADTO 
53.075 49.962 51.263 49.962 QUADTO 
49.466 49.962 49.466 53.634 QUADTO 
49.466 57.321 51.247 57.321 QUADTO 
closepath
fill
grestore
gsave
newpath
0 0 M
300 0 lineto
300 300 lineto
0 300 lineto
0 0 lineto
closepath
clip
0.502 setgray
2 setlinecap
10.0 setmiterlimit
newpath
59.054 53.557 M
61.054 53.557 lineto
stroke
grestore
gsave
newpath
0 0 M
300 0 lineto
300 300 lineto
0 300 lineto
0 0 lineto
closepath
clip
0.251 setgray
newpath
41.237 36.152 M
41.237 35.168 lineto
42.347 35.543 43.112 35.543 QUADTO 
44.19 35.543 44.8 34.629 QUADTO 
45.409 33.715 45.409 32.074 QUADTO 
44.534 33.168 43.409 33.168 QUADTO 
42.315 33.168 41.558 32.363 QUADTO 
40.8 31.559 40.8 30.387 QUADTO 
40.8 29.059 41.604 28.184 QUADTO 
42.409 27.309 43.644 27.309 QUADTO 
45.065 27.309 45.878 28.442 QUADTO 
46.69 29.574 46.69 31.543 QUADTO 
46.69 33.777 45.698 35.098 QUADTO 
44.706 36.418 43.003 36.418 QUADTO 
42.331 36.418 41.237 36.152 QUADTO 
closepath
41.94 30.168 M
41.94 31.168 42.394 31.746 QUADTO 
42.847 32.324 43.628 32.324 QUADTO 
44.362 32.324 44.878 31.832 QUADTO 
45.394 31.34 45.394 30.637 QUADTO 
45.394 29.527 44.894 28.848 QUADTO 
44.394 28.168 43.581 28.168 QUADTO 
42.815 28.168 42.378 28.707 QUADTO 
41.94 29.246 41.94 30.168 QUADTO 
closepath
51.231 36.418 M
49.888 36.418 49.06 35.152 QUADTO 
48.231 33.887 48.231 31.856 QUADTO 
48.231 29.809 49.067 28.559 QUADTO 
49.903 27.309 51.263 27.309 QUADTO 
52.622 27.309 53.458 28.559 QUADTO 
54.294 29.809 54.294 31.84 QUADTO 
54.294 33.918 53.458 35.168 QUADTO 
52.622 36.418 51.231 36.418 QUADTO 
closepath
51.247 35.543 M
53.075 35.543 53.075 31.824 QUADTO 
53.075 28.184 51.263 28.184 QUADTO 
49.466 28.184 49.466 31.856 QUADTO 
49.466 35.543 51.247 35.543 QUADTO 
closepath
fill
grestore
gsave
newpath
0 0 M
300 0 lineto
300 300 lineto
0 300 lineto
0 0 lineto
closepath
clip
0.502 setgray
2 setlinecap
10.0 setmiterlimit
newpath
59.054 31.778 M
61.054 31.778 lineto
stroke
grestore
gsave
newpath
0 0 M
300 0 lineto
300 300 lineto
0 300 lineto
0 0 lineto
closepath
clip
0.251 setgray
newpath
34.103 14.421 M
34.103 13.546 lineto
35.837 13.546 lineto
35.837 6.702 lineto
34.103 7.14 lineto
34.103 6.249 lineto
36.993 5.53 lineto
36.993 13.546 lineto
38.728 13.546 lineto
38.728 14.421 lineto
34.103 14.421 lineto
closepath
43.644 14.64 M
42.3 14.64 41.472 13.374 QUADTO 
40.644 12.108 40.644 10.077 QUADTO 
40.644 8.03 41.479 6.78 QUADTO 
42.315 5.53 43.675 5.53 QUADTO 
45.034 5.53 45.87 6.78 QUADTO 
46.706 8.03 46.706 10.062 QUADTO 
46.706 12.14 45.87 13.39 QUADTO 
45.034 14.64 43.644 14.64 QUADTO 
closepath
43.659 13.765 M
45.487 13.765 45.487 10.046 QUADTO 
45.487 6.405 43.675 6.405 QUADTO 
41.878 6.405 41.878 10.077 QUADTO 
41.878 13.765 43.659 13.765 QUADTO 
closepath
51.231 14.64 M
49.888 14.64 49.06 13.374 QUADTO 
48.231 12.108 48.231 10.077 QUADTO 
48.231 8.03 49.067 6.78 QUADTO 
49.903 5.53 51.263 5.53 QUADTO 
52.622 5.53 53.458 6.78 QUADTO 
54.294 8.03 54.294 10.062 QUADTO 
54.294 12.14 53.458 13.39 QUADTO 
52.622 14.64 51.231 14.64 QUADTO 
closepath
51.247 13.765 M
53.075 13.765 53.075 10.046 QUADTO 
53.075 6.405 51.263 6.405 QUADTO 
49.466 6.405 49.466 10.077 QUADTO 
49.466 13.765 51.247 13.765 QUADTO 
closepath
fill
grestore
gsave
newpath
0 0 M
300 0 lineto
300 300 lineto
0 300 lineto
0 0 lineto
closepath
clip
0.502 setgray
2 setlinecap
10.0 setmiterlimit
newpath
59.054 10 M
61.054 10 lineto
stroke
grestore
gsave
[0 -1 1 0 -99.74707 138.03711] concat
newpath
138.037 99.747 M
138.037 399.747 lineto
-161.963 399.747 lineto
-161.963 99.747 lineto
138.037 99.747 lineto
closepath
clip
0.251 setgray
newpath
-11.644 124.084 M
-11.644 122.662 lineto
-12.628 124.256 -14.207 124.256 QUADTO 
-15.207 124.256 -15.785 123.623 QUADTO 
-16.363 122.99 -16.363 121.881 QUADTO 
-16.363 116.584 lineto
-14.347 116.584 lineto
-14.347 121.381 lineto
-14.347 122.662 -13.488 122.662 QUADTO 
-12.535 122.662 -11.644 121.303 QUADTO 
-11.644 116.584 lineto
-9.613 116.584 lineto
-9.613 124.084 lineto
-11.644 124.084 lineto
closepath
-3.215 124.037 M
-3.95 124.256 -4.356 124.256 QUADTO 
-6.997 124.256 -6.997 121.787 QUADTO 
-6.997 117.85 lineto
-7.84 117.85 lineto
-7.84 116.584 lineto
-6.997 116.584 lineto
-6.997 115.318 lineto
-4.965 115.084 lineto
-4.965 116.584 lineto
-3.372 116.584 lineto
-3.372 117.85 lineto
-4.965 117.85 lineto
-4.965 121.521 lineto
-4.965 122.912 -3.84 122.912 QUADTO 
-3.59 122.912 -3.215 122.818 QUADTO 
-3.215 124.037 lineto
closepath
-1.417 124.084 M
-1.417 116.584 lineto
0.599 116.584 lineto
0.599 124.084 lineto
-1.417 124.084 lineto
closepath
-1.417 115.318 M
-1.417 113.631 lineto
0.599 113.631 lineto
0.599 115.318 lineto
-1.417 115.318 lineto
closepath
3.136 124.084 M
3.136 113.287 lineto
5.152 113.287 lineto
5.152 124.084 lineto
3.136 124.084 lineto
closepath
7.689 124.084 M
7.689 116.584 lineto
9.705 116.584 lineto
9.705 124.084 lineto
7.689 124.084 lineto
closepath
7.689 115.318 M
7.689 113.631 lineto
9.705 113.631 lineto
9.705 115.318 lineto
7.689 115.318 lineto
closepath
11.82 124.084 M
11.82 122.74 lineto
16.007 117.85 lineto
12.007 117.85 lineto
12.007 116.584 lineto
18.414 116.584 lineto
18.414 117.85 lineto
14.21 122.74 lineto
18.492 122.74 lineto
18.492 124.084 lineto
11.82 124.084 lineto
closepath
24.185 123.271 M
23.185 124.256 22.029 124.256 QUADTO 
21.044 124.256 20.427 123.654 QUADTO 
19.81 123.053 19.81 122.1 QUADTO 
19.81 120.85 20.802 120.178 QUADTO 
21.794 119.506 23.654 119.506 QUADTO 
24.185 119.506 lineto
24.185 118.818 lineto
24.185 117.646 22.857 117.646 QUADTO 
21.669 117.646 20.466 118.318 QUADTO 
20.466 116.928 lineto
21.841 116.412 23.185 116.412 QUADTO 
26.138 116.412 26.138 118.756 QUADTO 
26.138 122.068 lineto
26.138 122.959 26.701 122.959 QUADTO 
26.794 122.959 26.966 122.928 QUADTO 
27.013 124.068 lineto
26.373 124.256 25.873 124.256 QUADTO 
24.638 124.256 24.279 123.271 QUADTO 
24.185 123.271 lineto
closepath
24.185 122.193 M
24.185 120.662 lineto
23.716 120.662 lineto
21.748 120.662 21.748 121.896 QUADTO 
21.748 122.318 22.029 122.6 QUADTO 
22.31 122.881 22.732 122.881 QUADTO 
23.451 122.881 24.185 122.193 QUADTO 
closepath
32.619 124.037 M
31.884 124.256 31.478 124.256 QUADTO 
28.837 124.256 28.837 121.787 QUADTO 
28.837 117.85 lineto
27.994 117.85 lineto
27.994 116.584 lineto
28.837 116.584 lineto
28.837 115.318 lineto
30.869 115.084 lineto
30.869 116.584 lineto
32.462 116.584 lineto
32.462 117.85 lineto
30.869 117.85 lineto
30.869 121.521 lineto
30.869 122.912 31.994 122.912 QUADTO 
32.244 122.912 32.619 122.818 QUADTO 
32.619 124.037 lineto
closepath
34.417 124.084 M
34.417 116.584 lineto
36.433 116.584 lineto
36.433 124.084 lineto
34.417 124.084 lineto
closepath
34.417 115.318 M
34.417 113.631 lineto
36.433 113.631 lineto
36.433 115.318 lineto
34.417 115.318 lineto
closepath
42.126 124.256 M
40.361 124.256 39.33 123.193 QUADTO 
38.298 122.131 38.298 120.334 QUADTO 
38.298 118.506 39.337 117.459 QUADTO 
40.376 116.412 42.173 116.412 QUADTO 
43.97 116.412 45.009 117.459 QUADTO 
46.048 118.506 46.048 120.318 QUADTO 
46.048 122.162 45.001 123.209 QUADTO 
43.955 124.256 42.126 124.256 QUADTO 
closepath
42.158 122.99 M
43.892 122.99 43.892 120.318 QUADTO 
43.892 119.1 43.431 118.389 QUADTO 
42.97 117.678 42.173 117.678 QUADTO 
41.376 117.678 40.908 118.389 QUADTO 
40.439 119.1 40.439 120.334 QUADTO 
40.439 121.553 40.9 122.271 QUADTO 
41.361 122.99 42.158 122.99 QUADTO 
closepath
47.912 124.084 M
47.912 116.584 lineto
49.927 116.584 lineto
49.927 117.99 lineto
50.927 116.412 52.49 116.412 QUADTO 
53.49 116.412 54.076 117.045 QUADTO 
54.662 117.678 54.662 118.771 QUADTO 
54.662 124.084 lineto
52.63 124.084 lineto
52.63 119.271 lineto
52.63 118.006 51.787 118.006 QUADTO 
50.818 118.006 49.927 119.365 QUADTO 
49.927 124.084 lineto
47.912 124.084 lineto
closepath
fill
grestore
gsave
newpath
65.054 10 M
65.054 227.784 lineto
288 227.784 lineto
288 10 lineto
closepath
clip
1 setgray
[2 2] 0 setdash
2 setlinejoin
2 setlinejoin
0.5 setlinewidth
newpath
117.857 10 M
117.857 227.784 lineto
stroke
grestore
gsave
newpath
65.054 10 M
65.054 227.784 lineto
288 227.784 lineto
288 10 lineto
closepath
clip
1 setgray
[2 2] 0 setdash
2 setlinejoin
2 setlinejoin
0.5 setlinewidth
newpath
171.193 10 M
171.193 227.784 lineto
stroke
grestore
gsave
newpath
65.054 10 M
65.054 227.784 lineto
288 227.784 lineto
288 10 lineto
closepath
clip
1 setgray
[2 2] 0 setdash
2 setlinejoin
2 setlinejoin
0.5 setlinewidth
newpath
224.53 10 M
224.53 227.784 lineto
stroke
grestore
gsave
newpath
65.054 10 M
65.054 227.784 lineto
288 227.784 lineto
288 10 lineto
closepath
clip
1 setgray
[2 2] 0 setdash
2 setlinejoin
2 setlinejoin
0.5 setlinewidth
newpath
277.866 10 M
277.866 227.784 lineto
stroke
grestore
gsave
newpath
65.054 10 M
65.054 227.784 lineto
288 227.784 lineto
288 10 lineto
closepath
clip
1 setgray
[2 2] 0 setdash
2 setlinejoin
2 setlinejoin
0.5 setlinewidth
newpath
65.054 227.784 M
288 227.784 lineto
stroke
grestore
gsave
newpath
65.054 10 M
65.054 227.784 lineto
288 227.784 lineto
288 10 lineto
closepath
clip
1 setgray
[2 2] 0 setdash
2 setlinejoin
2 setlinejoin
0.5 setlinewidth
newpath
65.054 206.006 M
288 206.006 lineto
stroke
grestore
gsave
newpath
65.054 10 M
65.054 227.784 lineto
288 227.784 lineto
288 10 lineto
closepath
clip
1 setgray
[2 2] 0 setdash
2 setlinejoin
2 setlinejoin
0.5 setlinewidth
newpath
65.054 184.227 M
288 184.227 lineto
stroke
grestore
gsave
newpath
65.054 10 M
65.054 227.784 lineto
288 227.784 lineto
288 10 lineto
closepath
clip
1 setgray
[2 2] 0 setdash
2 setlinejoin
2 setlinejoin
0.5 setlinewidth
newpath
65.054 162.449 M
288 162.449 lineto
stroke
grestore
gsave
newpath
65.054 10 M
65.054 227.784 lineto
288 227.784 lineto
288 10 lineto
closepath
clip
1 setgray
[2 2] 0 setdash
2 setlinejoin
2 setlinejoin
0.5 setlinewidth
newpath
65.054 140.671 M
288 140.671 lineto
stroke
grestore
gsave
newpath
65.054 10 M
65.054 227.784 lineto
288 227.784 lineto
288 10 lineto
closepath
clip
1 setgray
[2 2] 0 setdash
2 setlinejoin
2 setlinejoin
0.5 setlinewidth
newpath
65.054 118.892 M
288 118.892 lineto
stroke
grestore
gsave
newpath
65.054 10 M
65.054 227.784 lineto
288 227.784 lineto
288 10 lineto
closepath
clip
1 setgray
[2 2] 0 setdash
2 setlinejoin
2 setlinejoin
0.5 setlinewidth
newpath
65.054 97.114 M
288 97.114 lineto
stroke
grestore
gsave
newpath
65.054 10 M
65.054 227.784 lineto
288 227.784 lineto
288 10 lineto
closepath
clip
1 setgray
[2 2] 0 setdash
2 setlinejoin
2 setlinejoin
0.5 setlinewidth
newpath
65.054 75.335 M
288 75.335 lineto
stroke
grestore
gsave
newpath
65.054 10 M
65.054 227.784 lineto
288 227.784 lineto
288 10 lineto
closepath
clip
1 setgray
[2 2] 0 setdash
2 setlinejoin
2 setlinejoin
0.5 setlinewidth
newpath
65.054 53.557 M
288 53.557 lineto
stroke
grestore
gsave
newpath
65.054 10 M
65.054 227.784 lineto
288 227.784 lineto
288 10 lineto
closepath
clip
1 setgray
[2 2] 0 setdash
2 setlinejoin
2 setlinejoin
0.5 setlinewidth
newpath
65.054 31.778 M
288 31.778 lineto
stroke
grestore
gsave
newpath
65.054 10 M
65.054 227.784 lineto
288 227.784 lineto
288 10 lineto
closepath
clip
1 setgray
[2 2] 0 setdash
2 setlinejoin
2 setlinejoin
0.5 setlinewidth
newpath
65.054 10 M
288 10 lineto
stroke
grestore
gsave
newpath
65.054 10 M
65.054 227.784 lineto
288 227.784 lineto
288 10 lineto
closepath
clip
0.333 1 0.333 setrgbcolor
2 setlinecap
2 setlinejoin
2 setlinejoin
newpath
75.188 57.913 M
91.189 42.668 lineto
stroke
grestore
gsave
newpath
65.054 10 M
65.054 227.784 lineto
288 227.784 lineto
288 10 lineto
closepath
clip
0.333 1 0.333 setrgbcolor
2 setlinecap
2 setlinejoin
2 setlinejoin
newpath
91.189 42.668 M
171.193 27.423 lineto
stroke
grestore
gsave
newpath
65.054 10 M
65.054 227.784 lineto
288 227.784 lineto
288 10 lineto
closepath
clip
0.333 1 0.333 setrgbcolor
2 setlinecap
2 setlinejoin
2 setlinejoin
newpath
171.193 27.423 M
277.866 36.134 lineto
stroke
grestore
gsave
newpath
65.054 10 M
65.054 227.784 lineto
288 227.784 lineto
288 10 lineto
closepath
clip
0.333 0.333 1 setrgbcolor
2 setlinecap
2 setlinejoin
2 setlinejoin
newpath
75.188 64.446 M
91.189 23.067 lineto
stroke
grestore
gsave
newpath
65.054 10 M
65.054 227.784 lineto
288 227.784 lineto
288 10 lineto
closepath
clip
0.333 0.333 1 setrgbcolor
2 setlinecap
2 setlinejoin
2 setlinejoin
newpath
91.189 23.067 M
171.193 42.668 lineto
stroke
grestore
gsave
newpath
65.054 10 M
65.054 227.784 lineto
288 227.784 lineto
288 10 lineto
closepath
clip
0.333 0.333 1 setrgbcolor
2 setlinecap
2 setlinejoin
2 setlinejoin
newpath
171.193 42.668 M
277.866 84.047 lineto
stroke
grestore
gsave
newpath
65.054 10 M
65.054 227.784 lineto
288 227.784 lineto
288 10 lineto
closepath
clip
1 0.333 0.333 setrgbcolor
2 setlinecap
2 setlinejoin
2 setlinejoin
newpath
75.188 57.913 M
91.189 60.09 lineto
stroke
grestore
gsave
newpath
65.054 10 M
65.054 227.784 lineto
288 227.784 lineto
288 10 lineto
closepath
clip
1 0.333 0.333 setrgbcolor
2 setlinecap
2 setlinejoin
2 setlinejoin
newpath
91.189 60.09 M
171.193 94.936 lineto
stroke
grestore
gsave
newpath
65.054 10 M
65.054 227.784 lineto
288 227.784 lineto
288 10 lineto
closepath
clip
1 0.333 0.333 setrgbcolor
2 setlinecap
2 setlinejoin
2 setlinejoin
newpath
171.193 94.936 M
277.866 168.982 lineto
stroke
grestore
gsave
newpath
65.054 10 M
65.054 227.784 lineto
288 227.784 lineto
288 10 lineto
closepath
clip
0.333 1 0.333 setrgbcolor
newpath
75.188 54.913 M
78.188 60.913 lineto
72.188 60.913 lineto
closepath
eofill
grestore
gsave
newpath
65.054 10 M
65.054 227.784 lineto
288 227.784 lineto
288 10 lineto
closepath
clip
0.333 1 0.333 setrgbcolor
2 setlinecap
10.0 setmiterlimit
newpath
75.188 54.913 M
78.188 60.913 lineto
72.188 60.913 lineto
closepath
stroke
grestore
gsave
newpath
65.054 10 M
65.054 227.784 lineto
288 227.784 lineto
288 10 lineto
closepath
clip
0.333 1 0.333 setrgbcolor
newpath
91.189 39.668 M
94.189 45.668 lineto
88.189 45.668 lineto
closepath
eofill
grestore
gsave
newpath
65.054 10 M
65.054 227.784 lineto
288 227.784 lineto
288 10 lineto
closepath
clip
0.333 1 0.333 setrgbcolor
2 setlinecap
10.0 setmiterlimit
newpath
91.189 39.668 M
94.189 45.668 lineto
88.189 45.668 lineto
closepath
stroke
grestore
gsave
newpath
65.054 10 M
65.054 227.784 lineto
288 227.784 lineto
288 10 lineto
closepath
clip
0.333 1 0.333 setrgbcolor
newpath
171.193 24.423 M
174.193 30.423 lineto
168.193 30.423 lineto
closepath
eofill
grestore
gsave
newpath
65.054 10 M
65.054 227.784 lineto
288 227.784 lineto
288 10 lineto
closepath
clip
0.333 1 0.333 setrgbcolor
2 setlinecap
10.0 setmiterlimit
newpath
171.193 24.423 M
174.193 30.423 lineto
168.193 30.423 lineto
closepath
stroke
grestore
gsave
newpath
65.054 10 M
65.054 227.784 lineto
288 227.784 lineto
288 10 lineto
closepath
clip
0.333 1 0.333 setrgbcolor
newpath
277.866 33.134 M
280.866 39.134 lineto
274.866 39.134 lineto
closepath
eofill
grestore
gsave
newpath
65.054 10 M
65.054 227.784 lineto
288 227.784 lineto
288 10 lineto
closepath
clip
0.333 1 0.333 setrgbcolor
2 setlinecap
10.0 setmiterlimit
newpath
277.866 33.134 M
280.866 39.134 lineto
274.866 39.134 lineto
closepath
stroke
grestore
gsave
newpath
65.054 10 M
65.054 227.784 lineto
288 227.784 lineto
288 10 lineto
closepath
clip
0.333 0.333 1 setrgbcolor
newpath
78.188 64.446 M
78.188 66.103 76.844 67.446 75.188 67.446 curveto
73.531 67.446 72.188 66.103 72.188 64.446 curveto
72.188 62.789 73.531 61.446 75.188 61.446 curveto
76.844 61.446 78.188 62.789 78.188 64.446 curveto
closepath
fill
grestore
gsave
newpath
65.054 10 M
65.054 227.784 lineto
288 227.784 lineto
288 10 lineto
closepath
clip
0.333 0.333 1 setrgbcolor
2 setlinecap
10.0 setmiterlimit
newpath
78.188 64.446 M
78.188 66.103 76.844 67.446 75.188 67.446 curveto
73.531 67.446 72.188 66.103 72.188 64.446 curveto
72.188 62.789 73.531 61.446 75.188 61.446 curveto
76.844 61.446 78.188 62.789 78.188 64.446 curveto
closepath
stroke
grestore
gsave
newpath
65.054 10 M
65.054 227.784 lineto
288 227.784 lineto
288 10 lineto
closepath
clip
0.333 0.333 1 setrgbcolor
newpath
94.189 23.067 M
94.189 24.724 92.845 26.067 91.189 26.067 curveto
89.532 26.067 88.189 24.724 88.189 23.067 curveto
88.189 21.41 89.532 20.067 91.189 20.067 curveto
92.845 20.067 94.189 21.41 94.189 23.067 curveto
closepath
fill
grestore
gsave
newpath
65.054 10 M
65.054 227.784 lineto
288 227.784 lineto
288 10 lineto
closepath
clip
0.333 0.333 1 setrgbcolor
2 setlinecap
10.0 setmiterlimit
newpath
94.189 23.067 M
94.189 24.724 92.845 26.067 91.189 26.067 curveto
89.532 26.067 88.189 24.724 88.189 23.067 curveto
88.189 21.41 89.532 20.067 91.189 20.067 curveto
92.845 20.067 94.189 21.41 94.189 23.067 curveto
closepath
stroke
grestore
gsave
newpath
65.054 10 M
65.054 227.784 lineto
288 227.784 lineto
288 10 lineto
closepath
clip
0.333 0.333 1 setrgbcolor
newpath
174.193 42.668 M
174.193 44.324 172.85 45.668 171.193 45.668 curveto
169.536 45.668 168.193 44.324 168.193 42.668 curveto
168.193 41.011 169.536 39.668 171.193 39.668 curveto
172.85 39.668 174.193 41.011 174.193 42.668 curveto
closepath
fill
grestore
gsave
newpath
65.054 10 M
65.054 227.784 lineto
288 227.784 lineto
288 10 lineto
closepath
clip
0.333 0.333 1 setrgbcolor
2 setlinecap
10.0 setmiterlimit
newpath
174.193 42.668 M
174.193 44.324 172.85 45.668 171.193 45.668 curveto
169.536 45.668 168.193 44.324 168.193 42.668 curveto
168.193 41.011 169.536 39.668 171.193 39.668 curveto
172.85 39.668 174.193 41.011 174.193 42.668 curveto
closepath
stroke
grestore
gsave
newpath
65.054 10 M
65.054 227.784 lineto
288 227.784 lineto
288 10 lineto
closepath
clip
0.333 0.333 1 setrgbcolor
newpath
280.866 84.047 M
280.866 85.703 279.523 87.047 277.866 87.047 curveto
276.209 87.047 274.866 85.703 274.866 84.047 curveto
274.866 82.39 276.209 81.047 277.866 81.047 curveto
279.523 81.047 280.866 82.39 280.866 84.047 curveto
closepath
fill
grestore
gsave
newpath
65.054 10 M
65.054 227.784 lineto
288 227.784 lineto
288 10 lineto
closepath
clip
0.333 0.333 1 setrgbcolor
2 setlinecap
10.0 setmiterlimit
newpath
280.866 84.047 M
280.866 85.703 279.523 87.047 277.866 87.047 curveto
276.209 87.047 274.866 85.703 274.866 84.047 curveto
274.866 82.39 276.209 81.047 277.866 81.047 curveto
279.523 81.047 280.866 82.39 280.866 84.047 curveto
closepath
stroke
grestore
gsave
newpath
65.054 10 M
65.054 227.784 lineto
288 227.784 lineto
288 10 lineto
closepath
clip
1 0.333 0.333 setrgbcolor
newpath
72.188 54.913 M
78.188 54.913 lineto
78.188 60.913 lineto
72.188 60.913 lineto
72.188 54.913 lineto
closepath
fill
grestore
gsave
newpath
65.054 10 M
65.054 227.784 lineto
288 227.784 lineto
288 10 lineto
closepath
clip
1 0.333 0.333 setrgbcolor
2 setlinecap
10.0 setmiterlimit
newpath
72.188 54.913 M
78.188 54.913 lineto
78.188 60.913 lineto
72.188 60.913 lineto
72.188 54.913 lineto
closepath
stroke
grestore
gsave
newpath
65.054 10 M
65.054 227.784 lineto
288 227.784 lineto
288 10 lineto
closepath
clip
1 0.333 0.333 setrgbcolor
newpath
88.189 57.09 M
94.189 57.09 lineto
94.189 63.09 lineto
88.189 63.09 lineto
88.189 57.09 lineto
closepath
fill
grestore
gsave
newpath
65.054 10 M
65.054 227.784 lineto
288 227.784 lineto
288 10 lineto
closepath
clip
1 0.333 0.333 setrgbcolor
2 setlinecap
10.0 setmiterlimit
newpath
88.189 57.09 M
94.189 57.09 lineto
94.189 63.09 lineto
88.189 63.09 lineto
88.189 57.09 lineto
closepath
stroke
grestore
gsave
newpath
65.054 10 M
65.054 227.784 lineto
288 227.784 lineto
288 10 lineto
closepath
clip
1 0.333 0.333 setrgbcolor
newpath
168.193 91.936 M
174.193 91.936 lineto
174.193 97.936 lineto
168.193 97.936 lineto
168.193 91.936 lineto
closepath
fill
grestore
gsave
newpath
65.054 10 M
65.054 227.784 lineto
288 227.784 lineto
288 10 lineto
closepath
clip
1 0.333 0.333 setrgbcolor
2 setlinecap
10.0 setmiterlimit
newpath
168.193 91.936 M
174.193 91.936 lineto
174.193 97.936 lineto
168.193 97.936 lineto
168.193 91.936 lineto
closepath
stroke
grestore
gsave
newpath
65.054 10 M
65.054 227.784 lineto
288 227.784 lineto
288 10 lineto
closepath
clip
1 0.333 0.333 setrgbcolor
newpath
274.866 165.982 M
280.866 165.982 lineto
280.866 171.982 lineto
274.866 171.982 lineto
274.866 165.982 lineto
closepath
fill
grestore
gsave
newpath
65.054 10 M
65.054 227.784 lineto
288 227.784 lineto
288 10 lineto
closepath
clip
1 0.333 0.333 setrgbcolor
2 setlinecap
10.0 setmiterlimit
newpath
274.866 165.982 M
280.866 165.982 lineto
280.866 171.982 lineto
274.866 171.982 lineto
274.866 165.982 lineto
closepath
stroke
grestore
gsave
newpath
0 0 M
300 0 lineto
300 300 lineto
0 300 lineto
0 0 lineto
closepath
clip
2 setlinecap
10.0 setmiterlimit
0.5 setlinewidth
newpath
65.054 10 M
288 10 lineto
288 227.784 lineto
65.054 227.784 lineto
65.054 10 lineto
closepath
stroke
grestore
%%Trailer
%%Pages: 1
%%EOF
