%!PS-Adobe-3.0 EPSF-3.0
%%Creator: (Apache XML Graphics Commons: EPS Generator for Java2D)
%%CreationDate: 2011-01-10T10:24:10
%%Pages: (atend)
%%BoundingBox: 0 0 300 300
%%LanguageLevel: 3
%%EndComments
%%BeginProlog
%%BeginResource: procset (Apache XML Graphics Std ProcSet) 1.0 0
%%Version: 1.0 0
%%Copyright: (Copyright 2001-2003 The Apache Software Foundation. License terms: http://www.apache.org/licenses/LICENSE-2.0)
%%Title: (Basic set of procedures used by the XML Graphics project \(Batik and FOP\))
/bd{bind def}bind def
/ld{load def}bd
/M/moveto ld
/RM/rmoveto ld
/t/show ld
/A/ashow ld
/cp/closepath ld
/re {4 2 roll M
1 index 0 rlineto
0 exch rlineto
neg 0 rlineto
cp } bd
/_ctm matrix def
/_tm matrix def
/BT { _ctm currentmatrix pop matrix _tm copy pop 0 0 moveto } bd
/ET { _ctm setmatrix } bd
/iTm { _ctm setmatrix _tm concat } bd
/Tm { _tm astore pop iTm 0 0 moveto } bd
/ux 0.0 def
/uy 0.0 def
/F {
  /Tp exch def
  /Tf exch def
  Tf findfont Tp scalefont setfont
  /cf Tf def  /cs Tp def  /cw ( ) stringwidth pop def
} bd
/ULS {currentpoint /uy exch def /ux exch def} bd
/ULE {
  /Tcx currentpoint pop def
  gsave
  newpath
  cf findfont cs scalefont dup
  /FontMatrix get 0 get /Ts exch def /FontInfo get dup
  /UnderlinePosition get Ts mul /To exch def
  /UnderlineThickness get Ts mul /Tt exch def
  ux uy To add moveto  Tcx uy To add lineto
  Tt setlinewidth stroke
  grestore
} bd
/OLE {
  /Tcx currentpoint pop def
  gsave
  newpath
  cf findfont cs scalefont dup
  /FontMatrix get 0 get /Ts exch def /FontInfo get dup
  /UnderlinePosition get Ts mul /To exch def
  /UnderlineThickness get Ts mul /Tt exch def
  ux uy To add cs add moveto Tcx uy To add cs add lineto
  Tt setlinewidth stroke
  grestore
} bd
/SOE {
  /Tcx currentpoint pop def
  gsave
  newpath
  cf findfont cs scalefont dup
  /FontMatrix get 0 get /Ts exch def /FontInfo get dup
  /UnderlinePosition get Ts mul /To exch def
  /UnderlineThickness get Ts mul /Tt exch def
  ux uy To add cs 10 mul 26 idiv add moveto Tcx uy To add cs 10 mul 26 idiv add lineto
  Tt setlinewidth stroke
  grestore
} bd
/QUADTO {
/Y22 exch store
/X22 exch store
/Y21 exch store
/X21 exch store
currentpoint
/Y21 load 2 mul add 3 div exch
/X21 load 2 mul add 3 div exch
/X21 load 2 mul /X22 load add 3 div
/Y21 load 2 mul /Y22 load add 3 div
/X22 load /Y22 load curveto
} bd
/SSPD {
dup length /d exch dict def
{
/v exch def
/k exch def
currentpagedevice k known {
/cpdv currentpagedevice k get def
v cpdv ne {
/upd false def
/nullv v type /nulltype eq def
/nullcpdv cpdv type /nulltype eq def
nullv nullcpdv or
{
/upd true def
} {
/sametype v type cpdv type eq def
sametype {
v type /arraytype eq {
/vlen v length def
/cpdvlen cpdv length def
vlen cpdvlen eq {
0 1 vlen 1 sub {
/i exch def
/obj v i get def
/cpdobj cpdv i get def
obj cpdobj ne {
/upd true def
exit
} if
} for
} {
/upd true def
} ifelse
} {
v type /dicttype eq {
v {
/dv exch def
/dk exch def
/cpddv cpdv dk get def
dv cpddv ne {
/upd true def
exit
} if
} forall
} {
/upd true def
} ifelse
} ifelse
} if
} ifelse
upd true eq {
d k v put
} if
} if
} if
} forall
d length 0 gt {
d setpagedevice
} if
} bd
%%EndResource
%%BeginResource: procset (Apache XML Graphics EPS ProcSet) 1.0 0
%%Version: 1.0 0
%%Copyright: (Copyright 2002-2003 The Apache Software Foundation. License terms: http://www.apache.org/licenses/LICENSE-2.0)
%%Title: (EPS procedures used by the Apache XML Graphics project \(Batik and FOP\))
/BeginEPSF { %def
/b4_Inc_state save def         % Save state for cleanup
/dict_count countdictstack def % Count objects on dict stack
/op_count count 1 sub def      % Count objects on operand stack
userdict begin                 % Push userdict on dict stack
/showpage { } def              % Redefine showpage, { } = null proc
0 setgray 0 setlinecap         % Prepare graphics state
1 setlinewidth 0 setlinejoin
10 setmiterlimit [ ] 0 setdash newpath
/languagelevel where           % If level not equal to 1 then
{pop languagelevel             % set strokeadjust and
1 ne                           % overprint to their defaults.
{false setstrokeadjust false setoverprint
} if
} if
} bd
/EndEPSF { %def
count op_count sub {pop} repeat            % Clean up stacks
countdictstack dict_count sub {end} repeat
b4_Inc_state restore
} bd
%%EndResource
%%EndProlog
%%Page: 1 1
%%PageBoundingBox: 0 0 300 300
%%BeginPageSetup
[1 0 0 -1 0 300] concat
%%EndPageSetup
gsave
newpath
0 0 M
300 0 lineto
300 300 lineto
0 300 lineto
0 0 lineto
closepath
clip
1 setgray
newpath
0 0 M
300 0 lineto
300 300 lineto
0 300 lineto
0 0 lineto
closepath
fill
grestore
gsave
newpath
0 0 M
300 0 lineto
300 300 lineto
0 300 lineto
0 0 lineto
closepath
clip
1 setgray
newpath
1 257.074 M
299 257.074 lineto
299 299 lineto
1 299 lineto
1 257.074 lineto
closepath
fill
grestore
gsave
newpath
0 0 M
300 0 lineto
300 300 lineto
0 300 lineto
0 0 lineto
closepath
clip
2 setlinecap
10.0 setmiterlimit
newpath
1.5 257.574 M
298.5 257.574 lineto
stroke
grestore
gsave
newpath
0 0 M
300 0 lineto
300 300 lineto
0 300 lineto
0 0 lineto
closepath
clip
2 setlinecap
10.0 setmiterlimit
newpath
1.5 298.5 M
298.5 298.5 lineto
stroke
grestore
gsave
newpath
0 0 M
300 0 lineto
300 300 lineto
0 300 lineto
0 0 lineto
closepath
clip
2 setlinecap
10.0 setmiterlimit
newpath
1.5 298.5 M
1.5 257.574 lineto
stroke
grestore
gsave
newpath
0 0 M
300 0 lineto
300 300 lineto
0 300 lineto
0 0 lineto
closepath
clip
2 setlinecap
10.0 setmiterlimit
newpath
298.5 298.5 M
298.5 257.574 lineto
stroke
grestore
gsave
newpath
0 0 M
300 0 lineto
300 300 lineto
0 300 lineto
0 0 lineto
closepath
clip
1 0.333 0.333 setrgbcolor
2 setlinecap
2 setlinejoin
2 setlinejoin
newpath
5 268.056 M
19 268.056 lineto
stroke
grestore
gsave
newpath
0 0 M
300 0 lineto
300 300 lineto
0 300 lineto
0 0 lineto
closepath
clip
1 0.333 0.333 setrgbcolor
newpath
9 265.056 M
15 265.056 lineto
15 271.056 lineto
9 271.056 lineto
9 265.056 lineto
closepath
fill
grestore
gsave
newpath
0 0 M
300 0 lineto
300 300 lineto
0 300 lineto
0 0 lineto
closepath
clip
1 0.333 0.333 setrgbcolor
2 setlinecap
10.0 setmiterlimit
newpath
9 265.056 M
15 265.056 lineto
15 271.056 lineto
9 271.056 lineto
9 265.056 lineto
closepath
stroke
grestore
gsave
newpath
0 0 M
300 0 lineto
300 300 lineto
0 300 lineto
0 0 lineto
closepath
clip
0.251 setgray
newpath
28.234 272.477 M
28.234 271.273 lineto
27.531 272.617 26.125 272.617 QUADTO 
24.969 272.617 24.312 271.781 QUADTO 
23.656 270.945 23.656 269.492 QUADTO 
23.656 267.898 24.398 266.938 QUADTO 
25.141 265.977 26.359 265.977 QUADTO 
27.5 265.977 28.234 266.836 QUADTO 
28.234 263.227 lineto
29.406 263.227 lineto
29.406 272.477 lineto
28.234 272.477 lineto
closepath
28.234 267.633 M
27.344 266.836 26.547 266.836 QUADTO 
24.875 266.836 24.875 269.383 QUADTO 
24.875 271.602 26.359 271.602 QUADTO 
27.312 271.602 28.234 270.555 QUADTO 
28.234 267.633 lineto
closepath
35.693 272.477 M
35.693 271.273 lineto
34.771 272.617 33.459 272.617 QUADTO 
32.615 272.617 32.123 272.094 QUADTO 
31.631 271.57 31.631 270.68 QUADTO 
31.631 266.117 lineto
32.787 266.117 lineto
32.787 270.305 lineto
32.787 271.023 32.998 271.328 QUADTO 
33.209 271.633 33.693 271.633 QUADTO 
34.756 271.633 35.693 270.242 QUADTO 
35.693 266.117 lineto
36.834 266.117 lineto
36.834 272.477 lineto
35.693 272.477 lineto
closepath
39.156 272.477 M
39.156 266.117 lineto
40.312 266.117 lineto
40.312 267.305 lineto
41 265.977 42.297 265.977 QUADTO 
42.484 265.977 42.672 266.008 QUADTO 
42.672 267.086 lineto
42.375 266.977 42.141 266.977 QUADTO 
41.047 266.977 40.312 268.273 QUADTO 
40.312 272.477 lineto
39.156 272.477 lineto
closepath
47.348 271.664 M
46.316 272.617 45.348 272.617 QUADTO 
44.551 272.617 44.035 272.125 QUADTO 
43.52 271.633 43.52 270.883 QUADTO 
43.52 269.836 44.395 269.273 QUADTO 
45.27 268.711 46.895 268.711 QUADTO 
47.176 268.711 lineto
47.176 267.945 lineto
47.176 266.836 46.035 266.836 QUADTO 
45.129 266.836 44.066 267.398 QUADTO 
44.066 266.445 lineto
45.238 265.977 46.254 265.977 QUADTO 
47.316 265.977 47.824 266.453 QUADTO 
48.332 266.93 48.332 267.945 QUADTO 
48.332 270.836 lineto
48.332 271.82 48.941 271.82 QUADTO 
49.02 271.82 49.16 271.789 QUADTO 
49.238 272.43 lineto
48.848 272.617 48.379 272.617 QUADTO 
47.566 272.617 47.348 271.664 QUADTO 
closepath
47.176 271.039 M
47.176 269.398 lineto
46.785 269.383 lineto
45.848 269.383 45.262 269.742 QUADTO 
44.676 270.102 44.676 270.695 QUADTO 
44.676 271.102 44.965 271.391 QUADTO 
45.254 271.68 45.676 271.68 QUADTO 
46.395 271.68 47.176 271.039 QUADTO 
closepath
52.6 272.617 M
51.725 272.617 51.232 272.117 QUADTO 
50.74 271.617 50.74 270.711 QUADTO 
50.74 266.977 lineto
49.943 266.977 lineto
49.943 266.117 lineto
50.74 266.117 lineto
50.74 264.961 lineto
51.896 264.852 lineto
51.896 266.117 lineto
53.553 266.117 lineto
53.553 266.977 lineto
51.896 266.977 lineto
51.896 270.508 lineto
51.896 271.758 52.975 271.758 QUADTO 
53.193 271.758 53.521 271.68 QUADTO 
53.521 272.477 lineto
52.99 272.617 52.6 272.617 QUADTO 
closepath
55.182 272.477 M
55.182 266.117 lineto
56.338 266.117 lineto
56.338 272.477 lineto
55.182 272.477 lineto
closepath
55.182 264.961 M
55.182 263.805 lineto
56.338 263.805 lineto
56.338 264.961 lineto
55.182 264.961 lineto
closepath
61.135 272.617 M
59.775 272.617 58.963 271.711 QUADTO 
58.15 270.805 58.15 269.289 QUADTO 
58.15 267.758 58.963 266.867 QUADTO 
59.775 265.977 61.182 265.977 QUADTO 
62.588 265.977 63.4 266.867 QUADTO 
64.213 267.758 64.213 269.289 QUADTO 
64.213 270.836 63.393 271.727 QUADTO 
62.572 272.617 61.135 272.617 QUADTO 
closepath
61.15 271.758 M
62.994 271.758 62.994 269.289 QUADTO 
62.994 266.836 61.182 266.836 QUADTO 
59.369 266.836 59.369 269.289 QUADTO 
59.369 271.758 61.15 271.758 QUADTO 
closepath
66.021 272.477 M
66.021 266.117 lineto
67.178 266.117 lineto
67.178 267.305 lineto
68.084 265.977 69.412 265.977 QUADTO 
70.24 265.977 70.732 266.5 QUADTO 
71.225 267.023 71.225 267.898 QUADTO 
71.225 272.477 lineto
70.068 272.477 lineto
70.068 268.273 lineto
70.068 267.57 69.857 267.266 QUADTO 
69.646 266.961 69.178 266.961 QUADTO 
68.115 266.961 67.178 268.352 QUADTO 
67.178 272.477 lineto
66.021 272.477 lineto
closepath
77.922 272.477 M
77.922 271.602 lineto
79.656 271.602 lineto
79.656 264.758 lineto
77.922 265.195 lineto
77.922 264.305 lineto
80.812 263.586 lineto
80.812 271.602 lineto
82.547 271.602 lineto
82.547 272.477 lineto
77.922 272.477 lineto
closepath
87.463 272.695 M
86.119 272.695 85.291 271.43 QUADTO 
84.463 270.164 84.463 268.133 QUADTO 
84.463 266.086 85.299 264.836 QUADTO 
86.135 263.586 87.494 263.586 QUADTO 
88.854 263.586 89.689 264.836 QUADTO 
90.525 266.086 90.525 268.117 QUADTO 
90.525 270.195 89.689 271.445 QUADTO 
88.854 272.695 87.463 272.695 QUADTO 
closepath
87.479 271.82 M
89.307 271.82 89.307 268.102 QUADTO 
89.307 264.461 87.494 264.461 QUADTO 
85.697 264.461 85.697 268.133 QUADTO 
85.697 271.82 87.479 271.82 QUADTO 
closepath
94.129 272.617 M
93.332 272.617 92.207 272.258 QUADTO 
92.207 271.195 lineto
93.332 271.758 94.176 271.758 QUADTO 
94.676 271.758 95.004 271.484 QUADTO 
95.332 271.211 95.332 270.805 QUADTO 
95.332 270.227 94.41 269.836 QUADTO 
93.738 269.539 lineto
92.238 268.93 92.238 267.758 QUADTO 
92.238 266.93 92.832 266.453 QUADTO 
93.426 265.977 94.441 265.977 QUADTO 
94.973 265.977 95.77 266.117 QUADTO 
96.004 266.164 lineto
96.004 267.133 lineto
95.035 266.836 94.473 266.836 QUADTO 
93.348 266.836 93.348 267.648 QUADTO 
93.348 268.164 94.191 268.523 QUADTO 
94.754 268.758 lineto
95.691 269.164 96.09 269.602 QUADTO 
96.488 270.039 96.488 270.711 QUADTO 
96.488 271.539 95.824 272.078 QUADTO 
95.16 272.617 94.129 272.617 QUADTO 
closepath
fill
grestore
gsave
newpath
0 0 M
300 0 lineto
300 300 lineto
0 300 lineto
0 0 lineto
closepath
clip
0.333 0.333 1 setrgbcolor
2 setlinecap
2 setlinejoin
2 setlinejoin
newpath
103.402 268.056 M
117.402 268.056 lineto
stroke
grestore
gsave
newpath
0 0 M
300 0 lineto
300 300 lineto
0 300 lineto
0 0 lineto
closepath
clip
0.333 0.333 1 setrgbcolor
newpath
113.402 268.056 M
113.402 269.713 112.059 271.056 110.402 271.056 curveto
108.745 271.056 107.402 269.713 107.402 268.056 curveto
107.402 266.399 108.745 265.056 110.402 265.056 curveto
112.059 265.056 113.402 266.399 113.402 268.056 curveto
closepath
fill
grestore
gsave
newpath
0 0 M
300 0 lineto
300 300 lineto
0 300 lineto
0 0 lineto
closepath
clip
0.333 0.333 1 setrgbcolor
2 setlinecap
10.0 setmiterlimit
newpath
113.402 268.056 M
113.402 269.713 112.059 271.056 110.402 271.056 curveto
108.745 271.056 107.402 269.713 107.402 268.056 curveto
107.402 266.399 108.745 265.056 110.402 265.056 curveto
112.059 265.056 113.402 266.399 113.402 268.056 curveto
closepath
stroke
grestore
gsave
newpath
0 0 M
300 0 lineto
300 300 lineto
0 300 lineto
0 0 lineto
closepath
clip
0.251 setgray
newpath
126.637 272.477 M
126.637 271.273 lineto
125.934 272.617 124.527 272.617 QUADTO 
123.371 272.617 122.715 271.781 QUADTO 
122.059 270.945 122.059 269.492 QUADTO 
122.059 267.898 122.801 266.938 QUADTO 
123.543 265.977 124.762 265.977 QUADTO 
125.902 265.977 126.637 266.836 QUADTO 
126.637 263.227 lineto
127.809 263.227 lineto
127.809 272.477 lineto
126.637 272.477 lineto
closepath
126.637 267.633 M
125.746 266.836 124.949 266.836 QUADTO 
123.277 266.836 123.277 269.383 QUADTO 
123.277 271.602 124.762 271.602 QUADTO 
125.715 271.602 126.637 270.555 QUADTO 
126.637 267.633 lineto
closepath
134.096 272.477 M
134.096 271.273 lineto
133.174 272.617 131.861 272.617 QUADTO 
131.018 272.617 130.525 272.094 QUADTO 
130.033 271.57 130.033 270.68 QUADTO 
130.033 266.117 lineto
131.189 266.117 lineto
131.189 270.305 lineto
131.189 271.023 131.4 271.328 QUADTO 
131.611 271.633 132.096 271.633 QUADTO 
133.158 271.633 134.096 270.242 QUADTO 
134.096 266.117 lineto
135.236 266.117 lineto
135.236 272.477 lineto
134.096 272.477 lineto
closepath
137.559 272.477 M
137.559 266.117 lineto
138.715 266.117 lineto
138.715 267.305 lineto
139.402 265.977 140.699 265.977 QUADTO 
140.887 265.977 141.074 266.008 QUADTO 
141.074 267.086 lineto
140.777 266.977 140.543 266.977 QUADTO 
139.449 266.977 138.715 268.273 QUADTO 
138.715 272.477 lineto
137.559 272.477 lineto
closepath
145.75 271.664 M
144.719 272.617 143.75 272.617 QUADTO 
142.953 272.617 142.438 272.125 QUADTO 
141.922 271.633 141.922 270.883 QUADTO 
141.922 269.836 142.797 269.273 QUADTO 
143.672 268.711 145.297 268.711 QUADTO 
145.578 268.711 lineto
145.578 267.945 lineto
145.578 266.836 144.438 266.836 QUADTO 
143.531 266.836 142.469 267.398 QUADTO 
142.469 266.445 lineto
143.641 265.977 144.656 265.977 QUADTO 
145.719 265.977 146.227 266.453 QUADTO 
146.734 266.93 146.734 267.945 QUADTO 
146.734 270.836 lineto
146.734 271.82 147.344 271.82 QUADTO 
147.422 271.82 147.562 271.789 QUADTO 
147.641 272.43 lineto
147.25 272.617 146.781 272.617 QUADTO 
145.969 272.617 145.75 271.664 QUADTO 
closepath
145.578 271.039 M
145.578 269.398 lineto
145.188 269.383 lineto
144.25 269.383 143.664 269.742 QUADTO 
143.078 270.102 143.078 270.695 QUADTO 
143.078 271.102 143.367 271.391 QUADTO 
143.656 271.68 144.078 271.68 QUADTO 
144.797 271.68 145.578 271.039 QUADTO 
closepath
151.002 272.617 M
150.127 272.617 149.635 272.117 QUADTO 
149.143 271.617 149.143 270.711 QUADTO 
149.143 266.977 lineto
148.346 266.977 lineto
148.346 266.117 lineto
149.143 266.117 lineto
149.143 264.961 lineto
150.299 264.852 lineto
150.299 266.117 lineto
151.955 266.117 lineto
151.955 266.977 lineto
150.299 266.977 lineto
150.299 270.508 lineto
150.299 271.758 151.377 271.758 QUADTO 
151.596 271.758 151.924 271.68 QUADTO 
151.924 272.477 lineto
151.393 272.617 151.002 272.617 QUADTO 
closepath
153.584 272.477 M
153.584 266.117 lineto
154.74 266.117 lineto
154.74 272.477 lineto
153.584 272.477 lineto
closepath
153.584 264.961 M
153.584 263.805 lineto
154.74 263.805 lineto
154.74 264.961 lineto
153.584 264.961 lineto
closepath
159.537 272.617 M
158.178 272.617 157.365 271.711 QUADTO 
156.553 270.805 156.553 269.289 QUADTO 
156.553 267.758 157.365 266.867 QUADTO 
158.178 265.977 159.584 265.977 QUADTO 
160.99 265.977 161.803 266.867 QUADTO 
162.615 267.758 162.615 269.289 QUADTO 
162.615 270.836 161.795 271.727 QUADTO 
160.975 272.617 159.537 272.617 QUADTO 
closepath
159.553 271.758 M
161.396 271.758 161.396 269.289 QUADTO 
161.396 266.836 159.584 266.836 QUADTO 
157.771 266.836 157.771 269.289 QUADTO 
157.771 271.758 159.553 271.758 QUADTO 
closepath
164.424 272.477 M
164.424 266.117 lineto
165.58 266.117 lineto
165.58 267.305 lineto
166.486 265.977 167.814 265.977 QUADTO 
168.643 265.977 169.135 266.5 QUADTO 
169.627 267.023 169.627 267.898 QUADTO 
169.627 272.477 lineto
168.471 272.477 lineto
168.471 268.273 lineto
168.471 267.57 168.26 267.266 QUADTO 
168.049 266.961 167.58 266.961 QUADTO 
166.518 266.961 165.58 268.352 QUADTO 
165.58 272.477 lineto
164.424 272.477 lineto
closepath
175.73 272.414 M
175.73 271.336 lineto
176.98 271.82 177.684 271.82 QUADTO 
178.512 271.82 179.035 271.336 QUADTO 
179.559 270.852 179.559 270.086 QUADTO 
179.559 268.258 176.996 268.258 QUADTO 
176.527 268.258 lineto
176.527 267.477 lineto
176.934 267.477 lineto
179.34 267.477 179.34 265.789 QUADTO 
179.34 264.461 177.762 264.461 QUADTO 
176.887 264.461 175.855 264.945 QUADTO 
175.855 263.93 lineto
176.871 263.586 177.84 263.586 QUADTO 
180.496 263.586 180.496 265.602 QUADTO 
180.496 267.133 178.684 267.773 QUADTO 
180.793 268.258 180.793 270.07 QUADTO 
180.793 271.305 179.98 272 QUADTO 
179.168 272.695 177.762 272.695 QUADTO 
176.949 272.695 175.73 272.414 QUADTO 
closepath
185.865 272.695 M
184.521 272.695 183.693 271.43 QUADTO 
182.865 270.164 182.865 268.133 QUADTO 
182.865 266.086 183.701 264.836 QUADTO 
184.537 263.586 185.896 263.586 QUADTO 
187.256 263.586 188.092 264.836 QUADTO 
188.928 266.086 188.928 268.117 QUADTO 
188.928 270.195 188.092 271.445 QUADTO 
187.256 272.695 185.865 272.695 QUADTO 
closepath
185.881 271.82 M
187.709 271.82 187.709 268.102 QUADTO 
187.709 264.461 185.896 264.461 QUADTO 
184.1 264.461 184.1 268.133 QUADTO 
184.1 271.82 185.881 271.82 QUADTO 
closepath
192.531 272.617 M
191.734 272.617 190.609 272.258 QUADTO 
190.609 271.195 lineto
191.734 271.758 192.578 271.758 QUADTO 
193.078 271.758 193.406 271.484 QUADTO 
193.734 271.211 193.734 270.805 QUADTO 
193.734 270.227 192.812 269.836 QUADTO 
192.141 269.539 lineto
190.641 268.93 190.641 267.758 QUADTO 
190.641 266.93 191.234 266.453 QUADTO 
191.828 265.977 192.844 265.977 QUADTO 
193.375 265.977 194.172 266.117 QUADTO 
194.406 266.164 lineto
194.406 267.133 lineto
193.438 266.836 192.875 266.836 QUADTO 
191.75 266.836 191.75 267.648 QUADTO 
191.75 268.164 192.594 268.523 QUADTO 
193.156 268.758 lineto
194.094 269.164 194.492 269.602 QUADTO 
194.891 270.039 194.891 270.711 QUADTO 
194.891 271.539 194.227 272.078 QUADTO 
193.562 272.617 192.531 272.617 QUADTO 
closepath
fill
grestore
gsave
newpath
0 0 M
300 0 lineto
300 300 lineto
0 300 lineto
0 0 lineto
closepath
clip
0.333 1 0.333 setrgbcolor
2 setlinecap
2 setlinejoin
2 setlinejoin
newpath
5 288.019 M
19 288.019 lineto
stroke
grestore
gsave
newpath
0 0 M
300 0 lineto
300 300 lineto
0 300 lineto
0 0 lineto
closepath
clip
0.333 1 0.333 setrgbcolor
newpath
12 285.019 M
15 291.019 lineto
9 291.019 lineto
closepath
eofill
grestore
gsave
newpath
0 0 M
300 0 lineto
300 300 lineto
0 300 lineto
0 0 lineto
closepath
clip
0.333 1 0.333 setrgbcolor
2 setlinecap
10.0 setmiterlimit
newpath
12 285.019 M
15 291.019 lineto
9 291.019 lineto
closepath
stroke
grestore
gsave
newpath
0 0 M
300 0 lineto
300 300 lineto
0 300 lineto
0 0 lineto
closepath
clip
0.251 setgray
newpath
28.234 292.439 M
28.234 291.236 lineto
27.531 292.58 26.125 292.58 QUADTO 
24.969 292.58 24.312 291.744 QUADTO 
23.656 290.908 23.656 289.455 QUADTO 
23.656 287.861 24.398 286.9 QUADTO 
25.141 285.939 26.359 285.939 QUADTO 
27.5 285.939 28.234 286.799 QUADTO 
28.234 283.189 lineto
29.406 283.189 lineto
29.406 292.439 lineto
28.234 292.439 lineto
closepath
28.234 287.596 M
27.344 286.799 26.547 286.799 QUADTO 
24.875 286.799 24.875 289.346 QUADTO 
24.875 291.564 26.359 291.564 QUADTO 
27.312 291.564 28.234 290.518 QUADTO 
28.234 287.596 lineto
closepath
35.693 292.439 M
35.693 291.236 lineto
34.771 292.58 33.459 292.58 QUADTO 
32.615 292.58 32.123 292.057 QUADTO 
31.631 291.533 31.631 290.643 QUADTO 
31.631 286.08 lineto
32.787 286.08 lineto
32.787 290.268 lineto
32.787 290.986 32.998 291.291 QUADTO 
33.209 291.596 33.693 291.596 QUADTO 
34.756 291.596 35.693 290.205 QUADTO 
35.693 286.08 lineto
36.834 286.08 lineto
36.834 292.439 lineto
35.693 292.439 lineto
closepath
39.156 292.439 M
39.156 286.08 lineto
40.312 286.08 lineto
40.312 287.268 lineto
41 285.939 42.297 285.939 QUADTO 
42.484 285.939 42.672 285.971 QUADTO 
42.672 287.049 lineto
42.375 286.939 42.141 286.939 QUADTO 
41.047 286.939 40.312 288.236 QUADTO 
40.312 292.439 lineto
39.156 292.439 lineto
closepath
47.348 291.627 M
46.316 292.58 45.348 292.58 QUADTO 
44.551 292.58 44.035 292.088 QUADTO 
43.52 291.596 43.52 290.846 QUADTO 
43.52 289.799 44.395 289.236 QUADTO 
45.27 288.674 46.895 288.674 QUADTO 
47.176 288.674 lineto
47.176 287.908 lineto
47.176 286.799 46.035 286.799 QUADTO 
45.129 286.799 44.066 287.361 QUADTO 
44.066 286.408 lineto
45.238 285.939 46.254 285.939 QUADTO 
47.316 285.939 47.824 286.416 QUADTO 
48.332 286.893 48.332 287.908 QUADTO 
48.332 290.799 lineto
48.332 291.783 48.941 291.783 QUADTO 
49.02 291.783 49.16 291.752 QUADTO 
49.238 292.393 lineto
48.848 292.58 48.379 292.58 QUADTO 
47.566 292.58 47.348 291.627 QUADTO 
closepath
47.176 291.002 M
47.176 289.361 lineto
46.785 289.346 lineto
45.848 289.346 45.262 289.705 QUADTO 
44.676 290.064 44.676 290.658 QUADTO 
44.676 291.064 44.965 291.354 QUADTO 
45.254 291.643 45.676 291.643 QUADTO 
46.395 291.643 47.176 291.002 QUADTO 
closepath
52.6 292.58 M
51.725 292.58 51.232 292.08 QUADTO 
50.74 291.58 50.74 290.674 QUADTO 
50.74 286.939 lineto
49.943 286.939 lineto
49.943 286.08 lineto
50.74 286.08 lineto
50.74 284.924 lineto
51.896 284.814 lineto
51.896 286.08 lineto
53.553 286.08 lineto
53.553 286.939 lineto
51.896 286.939 lineto
51.896 290.471 lineto
51.896 291.721 52.975 291.721 QUADTO 
53.193 291.721 53.521 291.643 QUADTO 
53.521 292.439 lineto
52.99 292.58 52.6 292.58 QUADTO 
closepath
55.182 292.439 M
55.182 286.08 lineto
56.338 286.08 lineto
56.338 292.439 lineto
55.182 292.439 lineto
closepath
55.182 284.924 M
55.182 283.768 lineto
56.338 283.768 lineto
56.338 284.924 lineto
55.182 284.924 lineto
closepath
61.135 292.58 M
59.775 292.58 58.963 291.674 QUADTO 
58.15 290.768 58.15 289.252 QUADTO 
58.15 287.721 58.963 286.83 QUADTO 
59.775 285.939 61.182 285.939 QUADTO 
62.588 285.939 63.4 286.83 QUADTO 
64.213 287.721 64.213 289.252 QUADTO 
64.213 290.799 63.393 291.689 QUADTO 
62.572 292.58 61.135 292.58 QUADTO 
closepath
61.15 291.721 M
62.994 291.721 62.994 289.252 QUADTO 
62.994 286.799 61.182 286.799 QUADTO 
59.369 286.799 59.369 289.252 QUADTO 
59.369 291.721 61.15 291.721 QUADTO 
closepath
66.021 292.439 M
66.021 286.08 lineto
67.178 286.08 lineto
67.178 287.268 lineto
68.084 285.939 69.412 285.939 QUADTO 
70.24 285.939 70.732 286.463 QUADTO 
71.225 286.986 71.225 287.861 QUADTO 
71.225 292.439 lineto
70.068 292.439 lineto
70.068 288.236 lineto
70.068 287.533 69.857 287.229 QUADTO 
69.646 286.924 69.178 286.924 QUADTO 
68.115 286.924 67.178 288.314 QUADTO 
67.178 292.439 lineto
66.021 292.439 lineto
closepath
77.922 292.439 M
77.922 291.564 lineto
79.656 291.564 lineto
79.656 284.721 lineto
77.922 285.158 lineto
77.922 284.268 lineto
80.812 283.549 lineto
80.812 291.564 lineto
82.547 291.564 lineto
82.547 292.439 lineto
77.922 292.439 lineto
closepath
87.463 292.658 M
86.119 292.658 85.291 291.393 QUADTO 
84.463 290.127 84.463 288.096 QUADTO 
84.463 286.049 85.299 284.799 QUADTO 
86.135 283.549 87.494 283.549 QUADTO 
88.854 283.549 89.689 284.799 QUADTO 
90.525 286.049 90.525 288.08 QUADTO 
90.525 290.158 89.689 291.408 QUADTO 
88.854 292.658 87.463 292.658 QUADTO 
closepath
87.479 291.783 M
89.307 291.783 89.307 288.064 QUADTO 
89.307 284.424 87.494 284.424 QUADTO 
85.697 284.424 85.697 288.096 QUADTO 
85.697 291.783 87.479 291.783 QUADTO 
closepath
95.051 292.658 M
93.707 292.658 92.879 291.393 QUADTO 
92.051 290.127 92.051 288.096 QUADTO 
92.051 286.049 92.887 284.799 QUADTO 
93.723 283.549 95.082 283.549 QUADTO 
96.441 283.549 97.277 284.799 QUADTO 
98.113 286.049 98.113 288.08 QUADTO 
98.113 290.158 97.277 291.408 QUADTO 
96.441 292.658 95.051 292.658 QUADTO 
closepath
95.066 291.783 M
96.895 291.783 96.895 288.064 QUADTO 
96.895 284.424 95.082 284.424 QUADTO 
93.285 284.424 93.285 288.096 QUADTO 
93.285 291.783 95.066 291.783 QUADTO 
closepath
101.717 292.58 M
100.92 292.58 99.795 292.221 QUADTO 
99.795 291.158 lineto
100.92 291.721 101.764 291.721 QUADTO 
102.264 291.721 102.592 291.447 QUADTO 
102.92 291.174 102.92 290.768 QUADTO 
102.92 290.189 101.998 289.799 QUADTO 
101.326 289.502 lineto
99.826 288.893 99.826 287.721 QUADTO 
99.826 286.893 100.42 286.416 QUADTO 
101.014 285.939 102.029 285.939 QUADTO 
102.561 285.939 103.357 286.08 QUADTO 
103.592 286.127 lineto
103.592 287.096 lineto
102.623 286.799 102.061 286.799 QUADTO 
100.936 286.799 100.936 287.611 QUADTO 
100.936 288.127 101.779 288.486 QUADTO 
102.342 288.721 lineto
103.279 289.127 103.678 289.564 QUADTO 
104.076 290.002 104.076 290.674 QUADTO 
104.076 291.502 103.412 292.041 QUADTO 
102.748 292.58 101.717 292.58 QUADTO 
closepath
fill
grestore
gsave
newpath
0 0 M
300 0 lineto
300 300 lineto
0 300 lineto
0 0 lineto
closepath
clip
1 setgray
newpath
65.054 10 M
288 10 lineto
288 207.821 lineto
65.054 207.821 lineto
65.054 10 lineto
closepath
fill
grestore
gsave
newpath
0 0 M
300 0 lineto
300 300 lineto
0 300 lineto
0 0 lineto
closepath
clip
0.502 setgray
2 setlinecap
10.0 setmiterlimit
newpath
65.054 211.821 M
288 211.821 lineto
stroke
grestore
gsave
newpath
0 0 M
300 0 lineto
300 300 lineto
0 300 lineto
0 0 lineto
closepath
clip
0.251 setgray
newpath
65.025 227.442 M
63.682 227.442 62.854 226.177 QUADTO 
62.025 224.911 62.025 222.88 QUADTO 
62.025 220.833 62.861 219.583 QUADTO 
63.697 218.333 65.057 218.333 QUADTO 
66.416 218.333 67.252 219.583 QUADTO 
68.088 220.833 68.088 222.864 QUADTO 
68.088 224.942 67.252 226.192 QUADTO 
66.416 227.442 65.025 227.442 QUADTO 
closepath
65.041 226.567 M
66.869 226.567 66.869 222.849 QUADTO 
66.869 219.208 65.057 219.208 QUADTO 
63.26 219.208 63.26 222.88 QUADTO 
63.26 226.567 65.041 226.567 QUADTO 
closepath
fill
grestore
gsave
newpath
0 0 M
300 0 lineto
300 300 lineto
0 300 lineto
0 0 lineto
closepath
clip
0.502 setgray
2 setlinecap
10.0 setmiterlimit
newpath
65.054 213.821 M
65.054 211.821 lineto
stroke
grestore
gsave
newpath
0 0 M
300 0 lineto
300 300 lineto
0 300 lineto
0 0 lineto
closepath
clip
0.251 setgray
newpath
107.041 227.255 M
107.041 226.224 lineto
107.916 226.567 108.681 226.567 QUADTO 
109.541 226.567 110.033 226.067 QUADTO 
110.525 225.567 110.525 224.677 QUADTO 
110.525 222.724 107.837 222.724 QUADTO 
107.525 222.724 107.197 222.771 QUADTO 
107.197 218.552 lineto
111.587 218.552 lineto
111.587 219.552 lineto
108.212 219.552 lineto
108.212 221.849 lineto
109.884 221.849 110.822 222.614 QUADTO 
111.759 223.38 111.759 224.739 QUADTO 
111.759 226.005 110.9 226.724 QUADTO 
110.041 227.442 108.541 227.442 QUADTO 
107.884 227.442 107.041 227.255 QUADTO 
closepath
116.941 227.442 M
115.597 227.442 114.769 226.177 QUADTO 
113.941 224.911 113.941 222.88 QUADTO 
113.941 220.833 114.777 219.583 QUADTO 
115.613 218.333 116.972 218.333 QUADTO 
118.332 218.333 119.168 219.583 QUADTO 
120.003 220.833 120.003 222.864 QUADTO 
120.003 224.942 119.168 226.192 QUADTO 
118.332 227.442 116.941 227.442 QUADTO 
closepath
116.957 226.567 M
118.785 226.567 118.785 222.849 QUADTO 
118.785 219.208 116.972 219.208 QUADTO 
115.175 219.208 115.175 222.88 QUADTO 
115.175 226.567 116.957 226.567 QUADTO 
closepath
124.529 227.442 M
123.185 227.442 122.357 226.177 QUADTO 
121.529 224.911 121.529 222.88 QUADTO 
121.529 220.833 122.365 219.583 QUADTO 
123.201 218.333 124.56 218.333 QUADTO 
125.919 218.333 126.755 219.583 QUADTO 
127.591 220.833 127.591 222.864 QUADTO 
127.591 224.942 126.755 226.192 QUADTO 
125.919 227.442 124.529 227.442 QUADTO 
closepath
124.544 226.567 M
126.373 226.567 126.373 222.849 QUADTO 
126.373 219.208 124.56 219.208 QUADTO 
122.763 219.208 122.763 222.88 QUADTO 
122.763 226.567 124.544 226.567 QUADTO 
closepath
fill
grestore
gsave
newpath
0 0 M
300 0 lineto
300 300 lineto
0 300 lineto
0 0 lineto
closepath
clip
0.502 setgray
2 setlinecap
10.0 setmiterlimit
newpath
116.969 213.821 M
116.969 211.821 lineto
stroke
grestore
gsave
newpath
0 0 M
300 0 lineto
300 300 lineto
0 300 lineto
0 0 lineto
closepath
clip
0.251 setgray
newpath
153.623 227.224 M
153.623 226.349 lineto
155.358 226.349 lineto
155.358 219.505 lineto
153.623 219.942 lineto
153.623 219.052 lineto
156.514 218.333 lineto
156.514 226.349 lineto
158.248 226.349 lineto
158.248 227.224 lineto
153.623 227.224 lineto
closepath
160.57 229.099 M
160.57 228.677 lineto
161.133 228.521 161.133 227.349 QUADTO 
161.133 227.224 lineto
160.57 227.224 lineto
160.57 225.771 lineto
162.024 225.771 lineto
162.024 227.036 lineto
162.024 228.958 160.57 229.099 QUADTO 
closepath
166.961 227.442 M
165.617 227.442 164.789 226.177 QUADTO 
163.961 224.911 163.961 222.88 QUADTO 
163.961 220.833 164.797 219.583 QUADTO 
165.633 218.333 166.992 218.333 QUADTO 
168.352 218.333 169.188 219.583 QUADTO 
170.024 220.833 170.024 222.864 QUADTO 
170.024 224.942 169.188 226.192 QUADTO 
168.352 227.442 166.961 227.442 QUADTO 
closepath
166.977 226.567 M
168.805 226.567 168.805 222.849 QUADTO 
168.805 219.208 166.992 219.208 QUADTO 
165.195 219.208 165.195 222.88 QUADTO 
165.195 226.567 166.977 226.567 QUADTO 
closepath
174.549 227.442 M
173.205 227.442 172.377 226.177 QUADTO 
171.549 224.911 171.549 222.88 QUADTO 
171.549 220.833 172.385 219.583 QUADTO 
173.221 218.333 174.58 218.333 QUADTO 
175.94 218.333 176.776 219.583 QUADTO 
177.611 220.833 177.611 222.864 QUADTO 
177.611 224.942 176.776 226.192 QUADTO 
175.94 227.442 174.549 227.442 QUADTO 
closepath
174.565 226.567 M
176.393 226.567 176.393 222.849 QUADTO 
176.393 219.208 174.58 219.208 QUADTO 
172.783 219.208 172.783 222.88 QUADTO 
172.783 226.567 174.565 226.567 QUADTO 
closepath
182.137 227.442 M
180.793 227.442 179.965 226.177 QUADTO 
179.137 224.911 179.137 222.88 QUADTO 
179.137 220.833 179.973 219.583 QUADTO 
180.809 218.333 182.168 218.333 QUADTO 
183.527 218.333 184.363 219.583 QUADTO 
185.199 220.833 185.199 222.864 QUADTO 
185.199 224.942 184.363 226.192 QUADTO 
183.527 227.442 182.137 227.442 QUADTO 
closepath
182.152 226.567 M
183.981 226.567 183.981 222.849 QUADTO 
183.981 219.208 182.168 219.208 QUADTO 
180.371 219.208 180.371 222.88 QUADTO 
180.371 226.567 182.152 226.567 QUADTO 
closepath
fill
grestore
gsave
newpath
0 0 M
300 0 lineto
300 300 lineto
0 300 lineto
0 0 lineto
closepath
clip
0.502 setgray
2 setlinecap
10.0 setmiterlimit
newpath
168.885 213.821 M
168.885 211.821 lineto
stroke
grestore
gsave
newpath
0 0 M
300 0 lineto
300 300 lineto
0 300 lineto
0 0 lineto
closepath
clip
0.251 setgray
newpath
205.539 227.224 M
205.539 226.349 lineto
207.273 226.349 lineto
207.273 219.505 lineto
205.539 219.942 lineto
205.539 219.052 lineto
208.429 218.333 lineto
208.429 226.349 lineto
210.164 226.349 lineto
210.164 227.224 lineto
205.539 227.224 lineto
closepath
212.486 229.099 M
212.486 228.677 lineto
213.049 228.521 213.049 227.349 QUADTO 
213.049 227.224 lineto
212.486 227.224 lineto
212.486 225.771 lineto
213.939 225.771 lineto
213.939 227.036 lineto
213.939 228.958 212.486 229.099 QUADTO 
closepath
216.564 227.255 M
216.564 226.224 lineto
217.439 226.567 218.205 226.567 QUADTO 
219.064 226.567 219.556 226.067 QUADTO 
220.049 225.567 220.049 224.677 QUADTO 
220.049 222.724 217.361 222.724 QUADTO 
217.049 222.724 216.72 222.771 QUADTO 
216.72 218.552 lineto
221.111 218.552 lineto
221.111 219.552 lineto
217.736 219.552 lineto
217.736 221.849 lineto
219.408 221.849 220.345 222.614 QUADTO 
221.283 223.38 221.283 224.739 QUADTO 
221.283 226.005 220.424 226.724 QUADTO 
219.564 227.442 218.064 227.442 QUADTO 
217.408 227.442 216.564 227.255 QUADTO 
closepath
226.465 227.442 M
225.121 227.442 224.293 226.177 QUADTO 
223.465 224.911 223.465 222.88 QUADTO 
223.465 220.833 224.3 219.583 QUADTO 
225.136 218.333 226.496 218.333 QUADTO 
227.855 218.333 228.691 219.583 QUADTO 
229.527 220.833 229.527 222.864 QUADTO 
229.527 224.942 228.691 226.192 QUADTO 
227.855 227.442 226.465 227.442 QUADTO 
closepath
226.48 226.567 M
228.308 226.567 228.308 222.849 QUADTO 
228.308 219.208 226.496 219.208 QUADTO 
224.699 219.208 224.699 222.88 QUADTO 
224.699 226.567 226.48 226.567 QUADTO 
closepath
234.052 227.442 M
232.709 227.442 231.881 226.177 QUADTO 
231.052 224.911 231.052 222.88 QUADTO 
231.052 220.833 231.888 219.583 QUADTO 
232.724 218.333 234.084 218.333 QUADTO 
235.443 218.333 236.279 219.583 QUADTO 
237.115 220.833 237.115 222.864 QUADTO 
237.115 224.942 236.279 226.192 QUADTO 
235.443 227.442 234.052 227.442 QUADTO 
closepath
234.068 226.567 M
235.896 226.567 235.896 222.849 QUADTO 
235.896 219.208 234.084 219.208 QUADTO 
232.287 219.208 232.287 222.88 QUADTO 
232.287 226.567 234.068 226.567 QUADTO 
closepath
fill
grestore
gsave
newpath
0 0 M
300 0 lineto
300 300 lineto
0 300 lineto
0 0 lineto
closepath
clip
0.502 setgray
2 setlinecap
10.0 setmiterlimit
newpath
220.8 213.821 M
220.8 211.821 lineto
stroke
grestore
gsave
newpath
0 0 M
300 0 lineto
300 300 lineto
0 300 lineto
0 0 lineto
closepath
clip
0.251 setgray
newpath
256.642 227.224 M
256.642 226.208 lineto
257.142 225.036 258.673 223.646 QUADTO 
259.345 223.052 lineto
260.611 221.896 260.611 220.755 QUADTO 
260.611 220.036 260.181 219.622 QUADTO 
259.751 219.208 258.986 219.208 QUADTO 
258.079 219.208 256.861 219.896 QUADTO 
256.861 218.88 lineto
258.017 218.333 259.142 218.333 QUADTO 
260.361 218.333 261.103 218.989 QUADTO 
261.845 219.646 261.845 220.724 QUADTO 
261.845 221.505 261.47 222.114 QUADTO 
261.095 222.724 260.079 223.583 QUADTO 
259.642 223.958 lineto
258.251 225.13 258.032 226.208 QUADTO 
261.798 226.208 lineto
261.798 227.224 lineto
256.642 227.224 lineto
closepath
264.402 229.099 M
264.402 228.677 lineto
264.964 228.521 264.964 227.349 QUADTO 
264.964 227.224 lineto
264.402 227.224 lineto
264.402 225.771 lineto
265.855 225.771 lineto
265.855 227.036 lineto
265.855 228.958 264.402 229.099 QUADTO 
closepath
270.792 227.442 M
269.448 227.442 268.62 226.177 QUADTO 
267.792 224.911 267.792 222.88 QUADTO 
267.792 220.833 268.628 219.583 QUADTO 
269.464 218.333 270.823 218.333 QUADTO 
272.183 218.333 273.019 219.583 QUADTO 
273.855 220.833 273.855 222.864 QUADTO 
273.855 224.942 273.019 226.192 QUADTO 
272.183 227.442 270.792 227.442 QUADTO 
closepath
270.808 226.567 M
272.636 226.567 272.636 222.849 QUADTO 
272.636 219.208 270.823 219.208 QUADTO 
269.027 219.208 269.027 222.88 QUADTO 
269.027 226.567 270.808 226.567 QUADTO 
closepath
278.38 227.442 M
277.036 227.442 276.208 226.177 QUADTO 
275.38 224.911 275.38 222.88 QUADTO 
275.38 220.833 276.216 219.583 QUADTO 
277.052 218.333 278.411 218.333 QUADTO 
279.771 218.333 280.607 219.583 QUADTO 
281.443 220.833 281.443 222.864 QUADTO 
281.443 224.942 280.607 226.192 QUADTO 
279.771 227.442 278.38 227.442 QUADTO 
closepath
278.396 226.567 M
280.224 226.567 280.224 222.849 QUADTO 
280.224 219.208 278.411 219.208 QUADTO 
276.615 219.208 276.615 222.88 QUADTO 
276.615 226.567 278.396 226.567 QUADTO 
closepath
285.968 227.442 M
284.624 227.442 283.796 226.177 QUADTO 
282.968 224.911 282.968 222.88 QUADTO 
282.968 220.833 283.804 219.583 QUADTO 
284.64 218.333 285.999 218.333 QUADTO 
287.359 218.333 288.195 219.583 QUADTO 
289.031 220.833 289.031 222.864 QUADTO 
289.031 224.942 288.195 226.192 QUADTO 
287.359 227.442 285.968 227.442 QUADTO 
closepath
285.984 226.567 M
287.812 226.567 287.812 222.849 QUADTO 
287.812 219.208 285.999 219.208 QUADTO 
284.202 219.208 284.202 222.88 QUADTO 
284.202 226.567 285.984 226.567 QUADTO 
closepath
fill
grestore
gsave
newpath
0 0 M
300 0 lineto
300 300 lineto
0 300 lineto
0 0 lineto
closepath
clip
0.502 setgray
2 setlinecap
10.0 setmiterlimit
newpath
272.716 213.821 M
272.716 211.821 lineto
stroke
grestore
gsave
newpath
0 0 M
300 0 lineto
300 300 lineto
0 300 lineto
0 0 lineto
closepath
clip
0.251 setgray
newpath
156.027 246.121 M
156.027 238.621 lineto
158.042 238.621 lineto
158.042 240.027 lineto
159.042 238.449 160.605 238.449 QUADTO 
161.605 238.449 162.191 239.082 QUADTO 
162.777 239.715 162.777 240.809 QUADTO 
162.777 246.121 lineto
160.746 246.121 lineto
160.746 241.309 lineto
160.746 240.043 159.902 240.043 QUADTO 
158.933 240.043 158.042 241.402 QUADTO 
158.042 246.121 lineto
156.027 246.121 lineto
closepath
168.377 246.293 M
166.612 246.293 165.581 245.23 QUADTO 
164.549 244.168 164.549 242.371 QUADTO 
164.549 240.543 165.588 239.496 QUADTO 
166.627 238.449 168.424 238.449 QUADTO 
170.221 238.449 171.26 239.496 QUADTO 
172.299 240.543 172.299 242.355 QUADTO 
172.299 244.199 171.252 245.246 QUADTO 
170.206 246.293 168.377 246.293 QUADTO 
closepath
168.409 245.027 M
170.143 245.027 170.143 242.355 QUADTO 
170.143 241.137 169.682 240.426 QUADTO 
169.221 239.715 168.424 239.715 QUADTO 
167.627 239.715 167.159 240.426 QUADTO 
166.69 241.137 166.69 242.371 QUADTO 
166.69 243.59 167.151 244.309 QUADTO 
167.612 245.027 168.409 245.027 QUADTO 
closepath
178.881 246.121 M
178.881 244.699 lineto
178.1 246.293 176.428 246.293 QUADTO 
175.084 246.293 174.311 245.301 QUADTO 
173.538 244.309 173.538 242.574 QUADTO 
173.538 240.684 174.405 239.566 QUADTO 
175.272 238.449 176.741 238.449 QUADTO 
177.928 238.449 178.881 239.371 QUADTO 
178.881 235.324 lineto
180.913 235.324 lineto
180.913 246.121 lineto
178.881 246.121 lineto
closepath
178.881 240.574 M
178.147 239.762 177.319 239.762 QUADTO 
176.569 239.762 176.131 240.48 QUADTO 
175.694 241.199 175.694 242.402 QUADTO 
175.694 244.699 177.163 244.699 QUADTO 
178.069 244.699 178.881 243.543 QUADTO 
178.881 240.574 lineto
closepath
189.548 245.871 M
188.111 246.293 186.814 246.293 QUADTO 
184.939 246.293 183.853 245.223 QUADTO 
182.767 244.152 182.767 242.309 QUADTO 
182.767 240.574 183.759 239.512 QUADTO 
184.751 238.449 186.392 238.449 QUADTO 
188.033 238.449 188.791 239.488 QUADTO 
189.548 240.527 189.548 242.777 QUADTO 
184.892 242.777 lineto
185.095 244.918 187.251 244.918 QUADTO 
188.267 244.918 189.548 244.449 QUADTO 
189.548 245.871 lineto
closepath
184.861 241.637 M
187.564 241.637 lineto
187.564 239.715 186.33 239.715 QUADTO 
185.064 239.715 184.861 241.637 QUADTO 
closepath
191.439 245.887 M
191.439 244.402 lineto
192.955 245.027 194.017 245.027 QUADTO 
195.251 245.027 195.251 244.184 QUADTO 
195.251 243.637 194.236 243.215 QUADTO 
193.548 242.949 lineto
192.439 242.496 191.955 241.98 QUADTO 
191.47 241.465 191.47 240.699 QUADTO 
191.47 239.621 192.291 239.035 QUADTO 
193.111 238.449 194.564 238.449 QUADTO 
195.486 238.449 196.751 238.715 QUADTO 
196.751 240.137 lineto
195.533 239.715 194.736 239.715 QUADTO 
193.47 239.715 193.47 240.48 QUADTO 
193.47 240.996 194.408 241.355 QUADTO 
194.986 241.574 lineto
196.314 242.074 196.83 242.59 QUADTO 
197.345 243.105 197.345 243.918 QUADTO 
197.345 244.965 196.462 245.629 QUADTO 
195.58 246.293 194.173 246.293 QUADTO 
192.83 246.293 191.439 245.887 QUADTO 
closepath
fill
grestore
gsave
newpath
0 0 M
300 0 lineto
300 300 lineto
0 300 lineto
0 0 lineto
closepath
clip
0.502 setgray
2 setlinecap
10.0 setmiterlimit
newpath
61.054 10 M
61.054 207.821 lineto
stroke
grestore
gsave
newpath
0 0 M
300 0 lineto
300 300 lineto
0 300 lineto
0 0 lineto
closepath
clip
0.251 setgray
newpath
51.231 212.461 M
49.888 212.461 49.06 211.195 QUADTO 
48.231 209.93 48.231 207.898 QUADTO 
48.231 205.852 49.067 204.602 QUADTO 
49.903 203.352 51.263 203.352 QUADTO 
52.622 203.352 53.458 204.602 QUADTO 
54.294 205.852 54.294 207.883 QUADTO 
54.294 209.961 53.458 211.211 QUADTO 
52.622 212.461 51.231 212.461 QUADTO 
closepath
51.247 211.586 M
53.075 211.586 53.075 207.867 QUADTO 
53.075 204.227 51.263 204.227 QUADTO 
49.466 204.227 49.466 207.898 QUADTO 
49.466 211.586 51.247 211.586 QUADTO 
closepath
fill
grestore
gsave
newpath
0 0 M
300 0 lineto
300 300 lineto
0 300 lineto
0 0 lineto
closepath
clip
0.502 setgray
2 setlinecap
10.0 setmiterlimit
newpath
59.054 207.821 M
61.054 207.821 lineto
stroke
grestore
gsave
newpath
0 0 M
300 0 lineto
300 300 lineto
0 300 lineto
0 0 lineto
closepath
clip
0.251 setgray
newpath
41.69 192.46 M
41.69 191.585 lineto
43.425 191.585 lineto
43.425 184.741 lineto
41.69 185.179 lineto
41.69 184.288 lineto
44.581 183.569 lineto
44.581 191.585 lineto
46.315 191.585 lineto
46.315 192.46 lineto
41.69 192.46 lineto
closepath
51.231 192.679 M
49.888 192.679 49.06 191.413 QUADTO 
48.231 190.148 48.231 188.116 QUADTO 
48.231 186.069 49.067 184.819 QUADTO 
49.903 183.569 51.263 183.569 QUADTO 
52.622 183.569 53.458 184.819 QUADTO 
54.294 186.069 54.294 188.101 QUADTO 
54.294 190.179 53.458 191.429 QUADTO 
52.622 192.679 51.231 192.679 QUADTO 
closepath
51.247 191.804 M
53.075 191.804 53.075 188.085 QUADTO 
53.075 184.444 51.263 184.444 QUADTO 
49.466 184.444 49.466 188.116 QUADTO 
49.466 191.804 51.247 191.804 QUADTO 
closepath
fill
grestore
gsave
newpath
0 0 M
300 0 lineto
300 300 lineto
0 300 lineto
0 0 lineto
closepath
clip
0.502 setgray
2 setlinecap
10.0 setmiterlimit
newpath
59.054 188.039 M
61.054 188.039 lineto
stroke
grestore
gsave
newpath
0 0 M
300 0 lineto
300 300 lineto
0 300 lineto
0 0 lineto
closepath
clip
0.251 setgray
newpath
40.878 172.678 M
40.878 171.662 lineto
41.378 170.49 42.909 169.1 QUADTO 
43.581 168.506 lineto
44.847 167.35 44.847 166.209 QUADTO 
44.847 165.49 44.417 165.076 QUADTO 
43.987 164.662 43.222 164.662 QUADTO 
42.315 164.662 41.097 165.35 QUADTO 
41.097 164.334 lineto
42.253 163.787 43.378 163.787 QUADTO 
44.597 163.787 45.339 164.444 QUADTO 
46.081 165.1 46.081 166.178 QUADTO 
46.081 166.959 45.706 167.569 QUADTO 
45.331 168.178 44.315 169.037 QUADTO 
43.878 169.412 lineto
42.487 170.584 42.269 171.662 QUADTO 
46.034 171.662 lineto
46.034 172.678 lineto
40.878 172.678 lineto
closepath
51.231 172.897 M
49.888 172.897 49.06 171.631 QUADTO 
48.231 170.365 48.231 168.334 QUADTO 
48.231 166.287 49.067 165.037 QUADTO 
49.903 163.787 51.263 163.787 QUADTO 
52.622 163.787 53.458 165.037 QUADTO 
54.294 166.287 54.294 168.319 QUADTO 
54.294 170.397 53.458 171.647 QUADTO 
52.622 172.897 51.231 172.897 QUADTO 
closepath
51.247 172.022 M
53.075 172.022 53.075 168.303 QUADTO 
53.075 164.662 51.263 164.662 QUADTO 
49.466 164.662 49.466 168.334 QUADTO 
49.466 172.022 51.247 172.022 QUADTO 
closepath
fill
grestore
gsave
newpath
0 0 M
300 0 lineto
300 300 lineto
0 300 lineto
0 0 lineto
closepath
clip
0.502 setgray
2 setlinecap
10.0 setmiterlimit
newpath
59.054 168.257 M
61.054 168.257 lineto
stroke
grestore
gsave
newpath
0 0 M
300 0 lineto
300 300 lineto
0 300 lineto
0 0 lineto
closepath
clip
0.251 setgray
newpath
41.097 152.833 M
41.097 151.755 lineto
42.347 152.24 43.05 152.24 QUADTO 
43.878 152.24 44.401 151.755 QUADTO 
44.925 151.271 44.925 150.505 QUADTO 
44.925 148.677 42.362 148.677 QUADTO 
41.894 148.677 lineto
41.894 147.896 lineto
42.3 147.896 lineto
44.706 147.896 44.706 146.208 QUADTO 
44.706 144.88 43.128 144.88 QUADTO 
42.253 144.88 41.222 145.365 QUADTO 
41.222 144.349 lineto
42.237 144.005 43.206 144.005 QUADTO 
45.862 144.005 45.862 146.021 QUADTO 
45.862 147.552 44.05 148.193 QUADTO 
46.159 148.677 46.159 150.49 QUADTO 
46.159 151.724 45.347 152.419 QUADTO 
44.534 153.115 43.128 153.115 QUADTO 
42.315 153.115 41.097 152.833 QUADTO 
closepath
51.231 153.115 M
49.888 153.115 49.06 151.849 QUADTO 
48.231 150.583 48.231 148.552 QUADTO 
48.231 146.505 49.067 145.255 QUADTO 
49.903 144.005 51.263 144.005 QUADTO 
52.622 144.005 53.458 145.255 QUADTO 
54.294 146.505 54.294 148.536 QUADTO 
54.294 150.615 53.458 151.865 QUADTO 
52.622 153.115 51.231 153.115 QUADTO 
closepath
51.247 152.24 M
53.075 152.24 53.075 148.521 QUADTO 
53.075 144.88 51.263 144.88 QUADTO 
49.466 144.88 49.466 148.552 QUADTO 
49.466 152.24 51.247 152.24 QUADTO 
closepath
fill
grestore
gsave
newpath
0 0 M
300 0 lineto
300 300 lineto
0 300 lineto
0 0 lineto
closepath
clip
0.502 setgray
2 setlinecap
10.0 setmiterlimit
newpath
59.054 148.475 M
61.054 148.475 lineto
stroke
grestore
gsave
newpath
0 0 M
300 0 lineto
300 300 lineto
0 300 lineto
0 0 lineto
closepath
clip
0.251 setgray
newpath
44.394 133.114 M
44.394 130.661 lineto
40.487 130.661 lineto
40.487 129.786 lineto
44.394 124.442 lineto
45.487 124.442 lineto
45.487 129.707 lineto
46.644 129.707 lineto
46.644 130.661 lineto
45.487 130.661 lineto
45.487 133.114 lineto
44.394 133.114 lineto
closepath
41.628 129.707 M
44.472 129.707 lineto
44.472 125.864 lineto
41.628 129.707 lineto
closepath
51.231 133.332 M
49.888 133.332 49.06 132.067 QUADTO 
48.231 130.801 48.231 128.77 QUADTO 
48.231 126.723 49.067 125.473 QUADTO 
49.903 124.223 51.263 124.223 QUADTO 
52.622 124.223 53.458 125.473 QUADTO 
54.294 126.723 54.294 128.754 QUADTO 
54.294 130.832 53.458 132.082 QUADTO 
52.622 133.332 51.231 133.332 QUADTO 
closepath
51.247 132.457 M
53.075 132.457 53.075 128.739 QUADTO 
53.075 125.098 51.263 125.098 QUADTO 
49.466 125.098 49.466 128.77 QUADTO 
49.466 132.457 51.247 132.457 QUADTO 
closepath
fill
grestore
gsave
newpath
0 0 M
300 0 lineto
300 300 lineto
0 300 lineto
0 0 lineto
closepath
clip
0.502 setgray
2 setlinecap
10.0 setmiterlimit
newpath
59.054 128.693 M
61.054 128.693 lineto
stroke
grestore
gsave
newpath
0 0 M
300 0 lineto
300 300 lineto
0 300 lineto
0 0 lineto
closepath
clip
0.251 setgray
newpath
41.331 113.363 M
41.331 112.332 lineto
42.206 112.675 42.972 112.675 QUADTO 
43.831 112.675 44.323 112.175 QUADTO 
44.815 111.675 44.815 110.785 QUADTO 
44.815 108.832 42.128 108.832 QUADTO 
41.815 108.832 41.487 108.878 QUADTO 
41.487 104.66 lineto
45.878 104.66 lineto
45.878 105.66 lineto
42.503 105.66 lineto
42.503 107.957 lineto
44.175 107.957 45.112 108.722 QUADTO 
46.05 109.488 46.05 110.847 QUADTO 
46.05 112.113 45.19 112.832 QUADTO 
44.331 113.55 42.831 113.55 QUADTO 
42.175 113.55 41.331 113.363 QUADTO 
closepath
51.231 113.55 M
49.888 113.55 49.06 112.285 QUADTO 
48.231 111.019 48.231 108.988 QUADTO 
48.231 106.941 49.067 105.691 QUADTO 
49.903 104.441 51.263 104.441 QUADTO 
52.622 104.441 53.458 105.691 QUADTO 
54.294 106.941 54.294 108.972 QUADTO 
54.294 111.05 53.458 112.3 QUADTO 
52.622 113.55 51.231 113.55 QUADTO 
closepath
51.247 112.675 M
53.075 112.675 53.075 108.957 QUADTO 
53.075 105.316 51.263 105.316 QUADTO 
49.466 105.316 49.466 108.988 QUADTO 
49.466 112.675 51.247 112.675 QUADTO 
closepath
fill
grestore
gsave
newpath
0 0 M
300 0 lineto
300 300 lineto
0 300 lineto
0 0 lineto
closepath
clip
0.502 setgray
2 setlinecap
10.0 setmiterlimit
newpath
59.054 108.911 M
61.054 108.911 lineto
stroke
grestore
gsave
newpath
0 0 M
300 0 lineto
300 300 lineto
0 300 lineto
0 0 lineto
closepath
clip
0.251 setgray
newpath
41.94 89.049 M
42.769 87.987 44.019 87.987 QUADTO 
45.159 87.987 45.886 88.737 QUADTO 
46.612 89.487 46.612 90.659 QUADTO 
46.612 92.018 45.8 92.893 QUADTO 
44.987 93.768 43.737 93.768 QUADTO 
42.3 93.768 41.487 92.612 QUADTO 
40.675 91.456 40.675 89.409 QUADTO 
40.675 87.143 41.604 85.901 QUADTO 
42.534 84.659 44.222 84.659 QUADTO 
45.003 84.659 46.159 84.987 QUADTO 
46.159 85.987 lineto
44.94 85.518 44.159 85.518 QUADTO 
41.94 85.518 41.94 89.049 QUADTO 
closepath
45.44 90.924 M
45.44 89.94 45.003 89.378 QUADTO 
44.565 88.815 43.769 88.815 QUADTO 
43.05 88.815 42.519 89.307 QUADTO 
41.987 89.799 41.987 90.487 QUADTO 
41.987 91.581 42.487 92.237 QUADTO 
42.987 92.893 43.815 92.893 QUADTO 
44.565 92.893 45.003 92.362 QUADTO 
45.44 91.831 45.44 90.924 QUADTO 
closepath
51.231 93.768 M
49.888 93.768 49.06 92.503 QUADTO 
48.231 91.237 48.231 89.206 QUADTO 
48.231 87.159 49.067 85.909 QUADTO 
49.903 84.659 51.263 84.659 QUADTO 
52.622 84.659 53.458 85.909 QUADTO 
54.294 87.159 54.294 89.19 QUADTO 
54.294 91.268 53.458 92.518 QUADTO 
52.622 93.768 51.231 93.768 QUADTO 
closepath
51.247 92.893 M
53.075 92.893 53.075 89.174 QUADTO 
53.075 85.534 51.263 85.534 QUADTO 
49.466 85.534 49.466 89.206 QUADTO 
49.466 92.893 51.247 92.893 QUADTO 
closepath
fill
grestore
gsave
newpath
0 0 M
300 0 lineto
300 300 lineto
0 300 lineto
0 0 lineto
closepath
clip
0.502 setgray
2 setlinecap
10.0 setmiterlimit
newpath
59.054 89.129 M
61.054 89.129 lineto
stroke
grestore
gsave
newpath
0 0 M
300 0 lineto
300 300 lineto
0 300 lineto
0 0 lineto
closepath
clip
0.251 setgray
newpath
41.69 73.767 M
41.847 72.752 42.167 72.017 QUADTO 
42.487 71.283 43.284 69.986 QUADTO 
45.644 66.174 lineto
41.175 66.174 lineto
41.175 65.095 lineto
46.753 65.095 lineto
46.753 66.174 lineto
43.409 71.095 43.019 73.767 QUADTO 
41.69 73.767 lineto
closepath
51.231 73.986 M
49.888 73.986 49.06 72.72 QUADTO 
48.231 71.455 48.231 69.424 QUADTO 
48.231 67.377 49.067 66.127 QUADTO 
49.903 64.877 51.263 64.877 QUADTO 
52.622 64.877 53.458 66.127 QUADTO 
54.294 67.377 54.294 69.408 QUADTO 
54.294 71.486 53.458 72.736 QUADTO 
52.622 73.986 51.231 73.986 QUADTO 
closepath
51.247 73.111 M
53.075 73.111 53.075 69.392 QUADTO 
53.075 65.752 51.263 65.752 QUADTO 
49.466 65.752 49.466 69.424 QUADTO 
49.466 73.111 51.247 73.111 QUADTO 
closepath
fill
grestore
gsave
newpath
0 0 M
300 0 lineto
300 300 lineto
0 300 lineto
0 0 lineto
closepath
clip
0.502 setgray
2 setlinecap
10.0 setmiterlimit
newpath
59.054 69.346 M
61.054 69.346 lineto
stroke
grestore
gsave
newpath
0 0 M
300 0 lineto
300 300 lineto
0 300 lineto
0 0 lineto
closepath
clip
0.251 setgray
newpath
42.644 49.266 M
41.362 48.376 41.362 47.298 QUADTO 
41.362 46.313 42.089 45.704 QUADTO 
42.815 45.095 43.972 45.095 QUADTO 
45.034 45.095 45.706 45.61 QUADTO 
46.378 46.126 46.378 46.97 QUADTO 
46.378 48.22 44.753 49.266 QUADTO 
46.722 50.22 46.722 51.735 QUADTO 
46.722 52.829 45.894 53.516 QUADTO 
45.065 54.204 43.769 54.204 QUADTO 
42.487 54.204 41.698 53.555 QUADTO 
40.909 52.907 40.909 51.845 QUADTO 
40.909 50.298 42.644 49.266 QUADTO 
closepath
44.112 48.891 M
45.315 48.095 45.315 47.126 QUADTO 
45.315 46.595 44.917 46.282 QUADTO 
44.519 45.97 43.847 45.97 QUADTO 
43.206 45.97 42.808 46.282 QUADTO 
42.409 46.595 42.409 47.095 QUADTO 
42.409 47.579 42.776 47.962 QUADTO 
43.144 48.345 44.112 48.891 QUADTO 
closepath
43.269 49.735 M
42.565 50.266 42.315 50.673 QUADTO 
42.065 51.079 42.065 51.673 QUADTO 
42.065 52.407 42.55 52.868 QUADTO 
43.034 53.329 43.815 53.329 QUADTO 
44.565 53.329 45.05 52.938 QUADTO 
45.534 52.548 45.534 51.923 QUADTO 
45.534 51.423 45.237 51.071 QUADTO 
44.94 50.72 44.081 50.22 QUADTO 
43.269 49.735 lineto
closepath
51.231 54.204 M
49.888 54.204 49.06 52.938 QUADTO 
48.231 51.673 48.231 49.641 QUADTO 
48.231 47.595 49.067 46.345 QUADTO 
49.903 45.095 51.263 45.095 QUADTO 
52.622 45.095 53.458 46.345 QUADTO 
54.294 47.595 54.294 49.626 QUADTO 
54.294 51.704 53.458 52.954 QUADTO 
52.622 54.204 51.231 54.204 QUADTO 
closepath
51.247 53.329 M
53.075 53.329 53.075 49.61 QUADTO 
53.075 45.97 51.263 45.97 QUADTO 
49.466 45.97 49.466 49.641 QUADTO 
49.466 53.329 51.247 53.329 QUADTO 
closepath
fill
grestore
gsave
newpath
0 0 M
300 0 lineto
300 300 lineto
0 300 lineto
0 0 lineto
closepath
clip
0.502 setgray
2 setlinecap
10.0 setmiterlimit
newpath
59.054 49.564 M
61.054 49.564 lineto
stroke
grestore
gsave
newpath
0 0 M
300 0 lineto
300 300 lineto
0 300 lineto
0 0 lineto
closepath
clip
0.251 setgray
newpath
41.237 34.156 M
41.237 33.172 lineto
42.347 33.547 43.112 33.547 QUADTO 
44.19 33.547 44.8 32.633 QUADTO 
45.409 31.719 45.409 30.078 QUADTO 
44.534 31.172 43.409 31.172 QUADTO 
42.315 31.172 41.558 30.367 QUADTO 
40.8 29.562 40.8 28.391 QUADTO 
40.8 27.062 41.604 26.187 QUADTO 
42.409 25.312 43.644 25.312 QUADTO 
45.065 25.312 45.878 26.445 QUADTO 
46.69 27.578 46.69 29.547 QUADTO 
46.69 31.781 45.698 33.101 QUADTO 
44.706 34.422 43.003 34.422 QUADTO 
42.331 34.422 41.237 34.156 QUADTO 
closepath
41.94 28.172 M
41.94 29.172 42.394 29.75 QUADTO 
42.847 30.328 43.628 30.328 QUADTO 
44.362 30.328 44.878 29.836 QUADTO 
45.394 29.344 45.394 28.641 QUADTO 
45.394 27.531 44.894 26.851 QUADTO 
44.394 26.172 43.581 26.172 QUADTO 
42.815 26.172 42.378 26.711 QUADTO 
41.94 27.25 41.94 28.172 QUADTO 
closepath
51.231 34.422 M
49.888 34.422 49.06 33.156 QUADTO 
48.231 31.891 48.231 29.859 QUADTO 
48.231 27.812 49.067 26.562 QUADTO 
49.903 25.312 51.263 25.312 QUADTO 
52.622 25.312 53.458 26.562 QUADTO 
54.294 27.812 54.294 29.844 QUADTO 
54.294 31.922 53.458 33.172 QUADTO 
52.622 34.422 51.231 34.422 QUADTO 
closepath
51.247 33.547 M
53.075 33.547 53.075 29.828 QUADTO 
53.075 26.187 51.263 26.187 QUADTO 
49.466 26.187 49.466 29.859 QUADTO 
49.466 33.547 51.247 33.547 QUADTO 
closepath
fill
grestore
gsave
newpath
0 0 M
300 0 lineto
300 300 lineto
0 300 lineto
0 0 lineto
closepath
clip
0.502 setgray
2 setlinecap
10.0 setmiterlimit
newpath
59.054 29.782 M
61.054 29.782 lineto
stroke
grestore
gsave
newpath
0 0 M
300 0 lineto
300 300 lineto
0 300 lineto
0 0 lineto
closepath
clip
0.251 setgray
newpath
34.103 14.421 M
34.103 13.546 lineto
35.837 13.546 lineto
35.837 6.702 lineto
34.103 7.14 lineto
34.103 6.249 lineto
36.993 5.53 lineto
36.993 13.546 lineto
38.728 13.546 lineto
38.728 14.421 lineto
34.103 14.421 lineto
closepath
43.644 14.64 M
42.3 14.64 41.472 13.374 QUADTO 
40.644 12.108 40.644 10.077 QUADTO 
40.644 8.03 41.479 6.78 QUADTO 
42.315 5.53 43.675 5.53 QUADTO 
45.034 5.53 45.87 6.78 QUADTO 
46.706 8.03 46.706 10.062 QUADTO 
46.706 12.14 45.87 13.39 QUADTO 
45.034 14.64 43.644 14.64 QUADTO 
closepath
43.659 13.765 M
45.487 13.765 45.487 10.046 QUADTO 
45.487 6.405 43.675 6.405 QUADTO 
41.878 6.405 41.878 10.077 QUADTO 
41.878 13.765 43.659 13.765 QUADTO 
closepath
51.231 14.64 M
49.888 14.64 49.06 13.374 QUADTO 
48.231 12.108 48.231 10.077 QUADTO 
48.231 8.03 49.067 6.78 QUADTO 
49.903 5.53 51.263 5.53 QUADTO 
52.622 5.53 53.458 6.78 QUADTO 
54.294 8.03 54.294 10.062 QUADTO 
54.294 12.14 53.458 13.39 QUADTO 
52.622 14.64 51.231 14.64 QUADTO 
closepath
51.247 13.765 M
53.075 13.765 53.075 10.046 QUADTO 
53.075 6.405 51.263 6.405 QUADTO 
49.466 6.405 49.466 10.077 QUADTO 
49.466 13.765 51.247 13.765 QUADTO 
closepath
fill
grestore
gsave
newpath
0 0 M
300 0 lineto
300 300 lineto
0 300 lineto
0 0 lineto
closepath
clip
0.502 setgray
2 setlinecap
10.0 setmiterlimit
newpath
59.054 10 M
61.054 10 lineto
stroke
grestore
gsave
[0 -1 1 0 -89.76562 128.05566] concat
newpath
128.056 89.766 M
128.056 389.766 lineto
-171.944 389.766 lineto
-171.944 89.766 lineto
128.056 89.766 lineto
closepath
clip
0.251 setgray
newpath
-11.644 114.103 M
-11.644 112.681 lineto
-12.628 114.274 -14.207 114.274 QUADTO 
-15.207 114.274 -15.785 113.642 QUADTO 
-16.363 113.009 -16.363 111.899 QUADTO 
-16.363 106.603 lineto
-14.347 106.603 lineto
-14.347 111.399 lineto
-14.347 112.681 -13.488 112.681 QUADTO 
-12.535 112.681 -11.644 111.321 QUADTO 
-11.644 106.603 lineto
-9.613 106.603 lineto
-9.613 114.103 lineto
-11.644 114.103 lineto
closepath
-3.215 114.056 M
-3.95 114.274 -4.356 114.274 QUADTO 
-6.997 114.274 -6.997 111.806 QUADTO 
-6.997 107.868 lineto
-7.84 107.868 lineto
-7.84 106.603 lineto
-6.997 106.603 lineto
-6.997 105.337 lineto
-4.965 105.103 lineto
-4.965 106.603 lineto
-3.372 106.603 lineto
-3.372 107.868 lineto
-4.965 107.868 lineto
-4.965 111.54 lineto
-4.965 112.931 -3.84 112.931 QUADTO 
-3.59 112.931 -3.215 112.837 QUADTO 
-3.215 114.056 lineto
closepath
-1.417 114.103 M
-1.417 106.603 lineto
0.599 106.603 lineto
0.599 114.103 lineto
-1.417 114.103 lineto
closepath
-1.417 105.337 M
-1.417 103.649 lineto
0.599 103.649 lineto
0.599 105.337 lineto
-1.417 105.337 lineto
closepath
3.136 114.103 M
3.136 103.306 lineto
5.152 103.306 lineto
5.152 114.103 lineto
3.136 114.103 lineto
closepath
7.689 114.103 M
7.689 106.603 lineto
9.705 106.603 lineto
9.705 114.103 lineto
7.689 114.103 lineto
closepath
7.689 105.337 M
7.689 103.649 lineto
9.705 103.649 lineto
9.705 105.337 lineto
7.689 105.337 lineto
closepath
11.82 114.103 M
11.82 112.759 lineto
16.007 107.868 lineto
12.007 107.868 lineto
12.007 106.603 lineto
18.414 106.603 lineto
18.414 107.868 lineto
14.21 112.759 lineto
18.492 112.759 lineto
18.492 114.103 lineto
11.82 114.103 lineto
closepath
24.185 113.29 M
23.185 114.274 22.029 114.274 QUADTO 
21.044 114.274 20.427 113.673 QUADTO 
19.81 113.071 19.81 112.118 QUADTO 
19.81 110.868 20.802 110.196 QUADTO 
21.794 109.524 23.654 109.524 QUADTO 
24.185 109.524 lineto
24.185 108.837 lineto
24.185 107.665 22.857 107.665 QUADTO 
21.669 107.665 20.466 108.337 QUADTO 
20.466 106.946 lineto
21.841 106.431 23.185 106.431 QUADTO 
26.138 106.431 26.138 108.774 QUADTO 
26.138 112.087 lineto
26.138 112.978 26.701 112.978 QUADTO 
26.794 112.978 26.966 112.946 QUADTO 
27.013 114.087 lineto
26.373 114.274 25.873 114.274 QUADTO 
24.638 114.274 24.279 113.29 QUADTO 
24.185 113.29 lineto
closepath
24.185 112.212 M
24.185 110.681 lineto
23.716 110.681 lineto
21.748 110.681 21.748 111.915 QUADTO 
21.748 112.337 22.029 112.618 QUADTO 
22.31 112.899 22.732 112.899 QUADTO 
23.451 112.899 24.185 112.212 QUADTO 
closepath
32.619 114.056 M
31.884 114.274 31.478 114.274 QUADTO 
28.837 114.274 28.837 111.806 QUADTO 
28.837 107.868 lineto
27.994 107.868 lineto
27.994 106.603 lineto
28.837 106.603 lineto
28.837 105.337 lineto
30.869 105.103 lineto
30.869 106.603 lineto
32.462 106.603 lineto
32.462 107.868 lineto
30.869 107.868 lineto
30.869 111.54 lineto
30.869 112.931 31.994 112.931 QUADTO 
32.244 112.931 32.619 112.837 QUADTO 
32.619 114.056 lineto
closepath
34.417 114.103 M
34.417 106.603 lineto
36.433 106.603 lineto
36.433 114.103 lineto
34.417 114.103 lineto
closepath
34.417 105.337 M
34.417 103.649 lineto
36.433 103.649 lineto
36.433 105.337 lineto
34.417 105.337 lineto
closepath
42.126 114.274 M
40.361 114.274 39.33 113.212 QUADTO 
38.298 112.149 38.298 110.353 QUADTO 
38.298 108.524 39.337 107.478 QUADTO 
40.376 106.431 42.173 106.431 QUADTO 
43.97 106.431 45.009 107.478 QUADTO 
46.048 108.524 46.048 110.337 QUADTO 
46.048 112.181 45.001 113.228 QUADTO 
43.955 114.274 42.126 114.274 QUADTO 
closepath
42.158 113.009 M
43.892 113.009 43.892 110.337 QUADTO 
43.892 109.118 43.431 108.407 QUADTO 
42.97 107.696 42.173 107.696 QUADTO 
41.376 107.696 40.908 108.407 QUADTO 
40.439 109.118 40.439 110.353 QUADTO 
40.439 111.571 40.9 112.29 QUADTO 
41.361 113.009 42.158 113.009 QUADTO 
closepath
47.912 114.103 M
47.912 106.603 lineto
49.927 106.603 lineto
49.927 108.009 lineto
50.927 106.431 52.49 106.431 QUADTO 
53.49 106.431 54.076 107.063 QUADTO 
54.662 107.696 54.662 108.79 QUADTO 
54.662 114.103 lineto
52.63 114.103 lineto
52.63 109.29 lineto
52.63 108.024 51.787 108.024 QUADTO 
50.818 108.024 49.927 109.384 QUADTO 
49.927 114.103 lineto
47.912 114.103 lineto
closepath
fill
grestore
gsave
newpath
65.054 10 M
65.054 207.821 lineto
288 207.821 lineto
288 10 lineto
closepath
clip
1 setgray
[2 2] 0 setdash
2 setlinejoin
2 setlinejoin
0.5 setlinewidth
newpath
65.054 10 M
65.054 207.821 lineto
stroke
grestore
gsave
newpath
65.054 10 M
65.054 207.821 lineto
288 207.821 lineto
288 10 lineto
closepath
clip
1 setgray
[2 2] 0 setdash
2 setlinejoin
2 setlinejoin
0.5 setlinewidth
newpath
116.969 10 M
116.969 207.821 lineto
stroke
grestore
gsave
newpath
65.054 10 M
65.054 207.821 lineto
288 207.821 lineto
288 10 lineto
closepath
clip
1 setgray
[2 2] 0 setdash
2 setlinejoin
2 setlinejoin
0.5 setlinewidth
newpath
168.885 10 M
168.885 207.821 lineto
stroke
grestore
gsave
newpath
65.054 10 M
65.054 207.821 lineto
288 207.821 lineto
288 10 lineto
closepath
clip
1 setgray
[2 2] 0 setdash
2 setlinejoin
2 setlinejoin
0.5 setlinewidth
newpath
220.8 10 M
220.8 207.821 lineto
stroke
grestore
gsave
newpath
65.054 10 M
65.054 207.821 lineto
288 207.821 lineto
288 10 lineto
closepath
clip
1 setgray
[2 2] 0 setdash
2 setlinejoin
2 setlinejoin
0.5 setlinewidth
newpath
272.716 10 M
272.716 207.821 lineto
stroke
grestore
gsave
newpath
65.054 10 M
65.054 207.821 lineto
288 207.821 lineto
288 10 lineto
closepath
clip
1 setgray
[2 2] 0 setdash
2 setlinejoin
2 setlinejoin
0.5 setlinewidth
newpath
65.054 207.821 M
288 207.821 lineto
stroke
grestore
gsave
newpath
65.054 10 M
65.054 207.821 lineto
288 207.821 lineto
288 10 lineto
closepath
clip
1 setgray
[2 2] 0 setdash
2 setlinejoin
2 setlinejoin
0.5 setlinewidth
newpath
65.054 188.039 M
288 188.039 lineto
stroke
grestore
gsave
newpath
65.054 10 M
65.054 207.821 lineto
288 207.821 lineto
288 10 lineto
closepath
clip
1 setgray
[2 2] 0 setdash
2 setlinejoin
2 setlinejoin
0.5 setlinewidth
newpath
65.054 168.257 M
288 168.257 lineto
stroke
grestore
gsave
newpath
65.054 10 M
65.054 207.821 lineto
288 207.821 lineto
288 10 lineto
closepath
clip
1 setgray
[2 2] 0 setdash
2 setlinejoin
2 setlinejoin
0.5 setlinewidth
newpath
65.054 148.475 M
288 148.475 lineto
stroke
grestore
gsave
newpath
65.054 10 M
65.054 207.821 lineto
288 207.821 lineto
288 10 lineto
closepath
clip
1 setgray
[2 2] 0 setdash
2 setlinejoin
2 setlinejoin
0.5 setlinewidth
newpath
65.054 128.693 M
288 128.693 lineto
stroke
grestore
gsave
newpath
65.054 10 M
65.054 207.821 lineto
288 207.821 lineto
288 10 lineto
closepath
clip
1 setgray
[2 2] 0 setdash
2 setlinejoin
2 setlinejoin
0.5 setlinewidth
newpath
65.054 108.911 M
288 108.911 lineto
stroke
grestore
gsave
newpath
65.054 10 M
65.054 207.821 lineto
288 207.821 lineto
288 10 lineto
closepath
clip
1 setgray
[2 2] 0 setdash
2 setlinejoin
2 setlinejoin
0.5 setlinewidth
newpath
65.054 89.129 M
288 89.129 lineto
stroke
grestore
gsave
newpath
65.054 10 M
65.054 207.821 lineto
288 207.821 lineto
288 10 lineto
closepath
clip
1 setgray
[2 2] 0 setdash
2 setlinejoin
2 setlinejoin
0.5 setlinewidth
newpath
65.054 69.346 M
288 69.346 lineto
stroke
grestore
gsave
newpath
65.054 10 M
65.054 207.821 lineto
288 207.821 lineto
288 10 lineto
closepath
clip
1 setgray
[2 2] 0 setdash
2 setlinejoin
2 setlinejoin
0.5 setlinewidth
newpath
65.054 49.564 M
288 49.564 lineto
stroke
grestore
gsave
newpath
65.054 10 M
65.054 207.821 lineto
288 207.821 lineto
288 10 lineto
closepath
clip
1 setgray
[2 2] 0 setdash
2 setlinejoin
2 setlinejoin
0.5 setlinewidth
newpath
65.054 29.782 M
288 29.782 lineto
stroke
grestore
gsave
newpath
65.054 10 M
65.054 207.821 lineto
288 207.821 lineto
288 10 lineto
closepath
clip
1 setgray
[2 2] 0 setdash
2 setlinejoin
2 setlinejoin
0.5 setlinewidth
newpath
65.054 10 M
288 10 lineto
stroke
grestore
gsave
newpath
65.054 10 M
65.054 207.821 lineto
288 207.821 lineto
288 10 lineto
closepath
clip
0.333 1 0.333 setrgbcolor
2 setlinecap
2 setlinejoin
2 setlinejoin
newpath
118.215 15.935 M
171.377 27.804 lineto
stroke
grestore
gsave
newpath
65.054 10 M
65.054 207.821 lineto
288 207.821 lineto
288 10 lineto
closepath
clip
0.333 1 0.333 setrgbcolor
2 setlinecap
2 setlinejoin
2 setlinejoin
newpath
171.377 27.804 M
277.7 21.869 lineto
stroke
grestore
gsave
newpath
65.054 10 M
65.054 207.821 lineto
288 207.821 lineto
288 10 lineto
closepath
clip
0.333 0.333 1 setrgbcolor
2 setlinecap
2 setlinejoin
2 setlinejoin
newpath
118.215 23.847 M
171.377 35.717 lineto
stroke
grestore
gsave
newpath
65.054 10 M
65.054 207.821 lineto
288 207.821 lineto
288 10 lineto
closepath
clip
0.333 0.333 1 setrgbcolor
2 setlinecap
2 setlinejoin
2 setlinejoin
newpath
171.377 35.717 M
277.7 43.63 lineto
stroke
grestore
gsave
newpath
65.054 10 M
65.054 207.821 lineto
288 207.821 lineto
288 10 lineto
closepath
clip
1 0.333 0.333 setrgbcolor
2 setlinecap
2 setlinejoin
2 setlinejoin
newpath
71.699 37.695 M
78.344 35.717 lineto
stroke
grestore
gsave
newpath
65.054 10 M
65.054 207.821 lineto
288 207.821 lineto
288 10 lineto
closepath
clip
1 0.333 0.333 setrgbcolor
2 setlinecap
2 setlinejoin
2 setlinejoin
newpath
78.344 35.717 M
91.634 51.542 lineto
stroke
grestore
gsave
newpath
65.054 10 M
65.054 207.821 lineto
288 207.821 lineto
288 10 lineto
closepath
clip
1 0.333 0.333 setrgbcolor
2 setlinecap
2 setlinejoin
2 setlinejoin
newpath
91.634 51.542 M
118.215 51.542 lineto
stroke
grestore
gsave
newpath
65.054 10 M
65.054 207.821 lineto
288 207.821 lineto
288 10 lineto
closepath
clip
1 0.333 0.333 setrgbcolor
2 setlinecap
2 setlinejoin
2 setlinejoin
newpath
118.215 51.542 M
171.377 57.477 lineto
stroke
grestore
gsave
newpath
65.054 10 M
65.054 207.821 lineto
288 207.821 lineto
288 10 lineto
closepath
clip
1 0.333 0.333 setrgbcolor
2 setlinecap
2 setlinejoin
2 setlinejoin
newpath
171.377 57.477 M
277.7 91.107 lineto
stroke
grestore
gsave
newpath
65.054 10 M
65.054 207.821 lineto
288 207.821 lineto
288 10 lineto
closepath
clip
0.333 1 0.333 setrgbcolor
newpath
118.215 12.935 M
121.215 18.935 lineto
115.215 18.935 lineto
closepath
eofill
grestore
gsave
newpath
65.054 10 M
65.054 207.821 lineto
288 207.821 lineto
288 10 lineto
closepath
clip
0.333 1 0.333 setrgbcolor
2 setlinecap
10.0 setmiterlimit
newpath
118.215 12.935 M
121.215 18.935 lineto
115.215 18.935 lineto
closepath
stroke
grestore
gsave
newpath
65.054 10 M
65.054 207.821 lineto
288 207.821 lineto
288 10 lineto
closepath
clip
0.333 1 0.333 setrgbcolor
newpath
171.377 24.804 M
174.377 30.804 lineto
168.377 30.804 lineto
closepath
eofill
grestore
gsave
newpath
65.054 10 M
65.054 207.821 lineto
288 207.821 lineto
288 10 lineto
closepath
clip
0.333 1 0.333 setrgbcolor
2 setlinecap
10.0 setmiterlimit
newpath
171.377 24.804 M
174.377 30.804 lineto
168.377 30.804 lineto
closepath
stroke
grestore
gsave
newpath
65.054 10 M
65.054 207.821 lineto
288 207.821 lineto
288 10 lineto
closepath
clip
0.333 1 0.333 setrgbcolor
newpath
277.7 18.869 M
280.7 24.869 lineto
274.7 24.869 lineto
closepath
eofill
grestore
gsave
newpath
65.054 10 M
65.054 207.821 lineto
288 207.821 lineto
288 10 lineto
closepath
clip
0.333 1 0.333 setrgbcolor
2 setlinecap
10.0 setmiterlimit
newpath
277.7 18.869 M
280.7 24.869 lineto
274.7 24.869 lineto
closepath
stroke
grestore
gsave
newpath
65.054 10 M
65.054 207.821 lineto
288 207.821 lineto
288 10 lineto
closepath
clip
0.333 0.333 1 setrgbcolor
newpath
121.215 23.847 M
121.215 25.504 119.872 26.847 118.215 26.847 curveto
116.558 26.847 115.215 25.504 115.215 23.847 curveto
115.215 22.191 116.558 20.847 118.215 20.847 curveto
119.872 20.847 121.215 22.191 121.215 23.847 curveto
closepath
fill
grestore
gsave
newpath
65.054 10 M
65.054 207.821 lineto
288 207.821 lineto
288 10 lineto
closepath
clip
0.333 0.333 1 setrgbcolor
2 setlinecap
10.0 setmiterlimit
newpath
121.215 23.847 M
121.215 25.504 119.872 26.847 118.215 26.847 curveto
116.558 26.847 115.215 25.504 115.215 23.847 curveto
115.215 22.191 116.558 20.847 118.215 20.847 curveto
119.872 20.847 121.215 22.191 121.215 23.847 curveto
closepath
stroke
grestore
gsave
newpath
65.054 10 M
65.054 207.821 lineto
288 207.821 lineto
288 10 lineto
closepath
clip
0.333 0.333 1 setrgbcolor
newpath
174.377 35.717 M
174.377 37.374 173.034 38.717 171.377 38.717 curveto
169.72 38.717 168.377 37.374 168.377 35.717 curveto
168.377 34.06 169.72 32.717 171.377 32.717 curveto
173.034 32.717 174.377 34.06 174.377 35.717 curveto
closepath
fill
grestore
gsave
newpath
65.054 10 M
65.054 207.821 lineto
288 207.821 lineto
288 10 lineto
closepath
clip
0.333 0.333 1 setrgbcolor
2 setlinecap
10.0 setmiterlimit
newpath
174.377 35.717 M
174.377 37.374 173.034 38.717 171.377 38.717 curveto
169.72 38.717 168.377 37.374 168.377 35.717 curveto
168.377 34.06 169.72 32.717 171.377 32.717 curveto
173.034 32.717 174.377 34.06 174.377 35.717 curveto
closepath
stroke
grestore
gsave
newpath
65.054 10 M
65.054 207.821 lineto
288 207.821 lineto
288 10 lineto
closepath
clip
0.333 0.333 1 setrgbcolor
newpath
280.7 43.63 M
280.7 45.286 279.357 46.63 277.7 46.63 curveto
276.043 46.63 274.7 45.286 274.7 43.63 curveto
274.7 41.973 276.043 40.63 277.7 40.63 curveto
279.357 40.63 280.7 41.973 280.7 43.63 curveto
closepath
fill
grestore
gsave
newpath
65.054 10 M
65.054 207.821 lineto
288 207.821 lineto
288 10 lineto
closepath
clip
0.333 0.333 1 setrgbcolor
2 setlinecap
10.0 setmiterlimit
newpath
280.7 43.63 M
280.7 45.286 279.357 46.63 277.7 46.63 curveto
276.043 46.63 274.7 45.286 274.7 43.63 curveto
274.7 41.973 276.043 40.63 277.7 40.63 curveto
279.357 40.63 280.7 41.973 280.7 43.63 curveto
closepath
stroke
grestore
gsave
newpath
65.054 10 M
65.054 207.821 lineto
288 207.821 lineto
288 10 lineto
closepath
clip
1 0.333 0.333 setrgbcolor
newpath
68.699 34.695 M
74.699 34.695 lineto
74.699 40.695 lineto
68.699 40.695 lineto
68.699 34.695 lineto
closepath
fill
grestore
gsave
newpath
65.054 10 M
65.054 207.821 lineto
288 207.821 lineto
288 10 lineto
closepath
clip
1 0.333 0.333 setrgbcolor
2 setlinecap
10.0 setmiterlimit
newpath
68.699 34.695 M
74.699 34.695 lineto
74.699 40.695 lineto
68.699 40.695 lineto
68.699 34.695 lineto
closepath
stroke
grestore
gsave
newpath
65.054 10 M
65.054 207.821 lineto
288 207.821 lineto
288 10 lineto
closepath
clip
1 0.333 0.333 setrgbcolor
newpath
75.344 32.717 M
81.344 32.717 lineto
81.344 38.717 lineto
75.344 38.717 lineto
75.344 32.717 lineto
closepath
fill
grestore
gsave
newpath
65.054 10 M
65.054 207.821 lineto
288 207.821 lineto
288 10 lineto
closepath
clip
1 0.333 0.333 setrgbcolor
2 setlinecap
10.0 setmiterlimit
newpath
75.344 32.717 M
81.344 32.717 lineto
81.344 38.717 lineto
75.344 38.717 lineto
75.344 32.717 lineto
closepath
stroke
grestore
gsave
newpath
65.054 10 M
65.054 207.821 lineto
288 207.821 lineto
288 10 lineto
closepath
clip
1 0.333 0.333 setrgbcolor
newpath
88.634 48.542 M
94.634 48.542 lineto
94.634 54.542 lineto
88.634 54.542 lineto
88.634 48.542 lineto
closepath
fill
grestore
gsave
newpath
65.054 10 M
65.054 207.821 lineto
288 207.821 lineto
288 10 lineto
closepath
clip
1 0.333 0.333 setrgbcolor
2 setlinecap
10.0 setmiterlimit
newpath
88.634 48.542 M
94.634 48.542 lineto
94.634 54.542 lineto
88.634 54.542 lineto
88.634 48.542 lineto
closepath
stroke
grestore
gsave
newpath
65.054 10 M
65.054 207.821 lineto
288 207.821 lineto
288 10 lineto
closepath
clip
1 0.333 0.333 setrgbcolor
newpath
115.215 48.542 M
121.215 48.542 lineto
121.215 54.542 lineto
115.215 54.542 lineto
115.215 48.542 lineto
closepath
fill
grestore
gsave
newpath
65.054 10 M
65.054 207.821 lineto
288 207.821 lineto
288 10 lineto
closepath
clip
1 0.333 0.333 setrgbcolor
2 setlinecap
10.0 setmiterlimit
newpath
115.215 48.542 M
121.215 48.542 lineto
121.215 54.542 lineto
115.215 54.542 lineto
115.215 48.542 lineto
closepath
stroke
grestore
gsave
newpath
65.054 10 M
65.054 207.821 lineto
288 207.821 lineto
288 10 lineto
closepath
clip
1 0.333 0.333 setrgbcolor
newpath
168.377 54.477 M
174.377 54.477 lineto
174.377 60.477 lineto
168.377 60.477 lineto
168.377 54.477 lineto
closepath
fill
grestore
gsave
newpath
65.054 10 M
65.054 207.821 lineto
288 207.821 lineto
288 10 lineto
closepath
clip
1 0.333 0.333 setrgbcolor
2 setlinecap
10.0 setmiterlimit
newpath
168.377 54.477 M
174.377 54.477 lineto
174.377 60.477 lineto
168.377 60.477 lineto
168.377 54.477 lineto
closepath
stroke
grestore
gsave
newpath
65.054 10 M
65.054 207.821 lineto
288 207.821 lineto
288 10 lineto
closepath
clip
1 0.333 0.333 setrgbcolor
newpath
274.7 88.107 M
280.7 88.107 lineto
280.7 94.107 lineto
274.7 94.107 lineto
274.7 88.107 lineto
closepath
fill
grestore
gsave
newpath
65.054 10 M
65.054 207.821 lineto
288 207.821 lineto
288 10 lineto
closepath
clip
1 0.333 0.333 setrgbcolor
2 setlinecap
10.0 setmiterlimit
newpath
274.7 88.107 M
280.7 88.107 lineto
280.7 94.107 lineto
274.7 94.107 lineto
274.7 88.107 lineto
closepath
stroke
grestore
gsave
newpath
0 0 M
300 0 lineto
300 300 lineto
0 300 lineto
0 0 lineto
closepath
clip
2 setlinecap
10.0 setmiterlimit
0.5 setlinewidth
newpath
65.054 10 M
288 10 lineto
288 207.821 lineto
65.054 207.821 lineto
65.054 10 lineto
closepath
stroke
grestore
%%Trailer
%%Pages: 1
%%EOF
