beagle       bgl /bin/bash null null null
uc3          uc3 /bin/bash null null null
midway       mid /bin/bash null null null
mcs	         mcs /bin/bash null null null
local     l_bash /bin/bash null null null
ci           pub /bin/bash null null null
fusion       fus /bin/bash null null null
blues        blu /bin/bash null null null
frisbee      fsb /bin/bash null null null
communicado  com /bin/bash null null null
bridled      bri /bin/bash null null null