{
  "soils": [
    {
      "soil_id": "XY01234567",
      "sl_loc_3": "Generic",
      "soil_long": "-99",
      "smke": "SA001",
      "sldp": "-99",
      "classification": "Petric Gypsisols (GYp)",
      "sldr": "0.400",
      "salb": "0.13",
      "slu1": "9.760",
      "slro": "73.00",
      "slpf": "1.00",
      "soil_name": "HWSD DATABASE, SOIL 11314",
      "slnf": "1.00",
      "sl_loc_1": "Generic",
      "smpx": "SA001",
      "soilLayer": [
        {
          "slbs": "100.0",
          "slrgf": "1.000",
          "sldul": "0.350",
          "slbdm": "1.380",
          "slna": "0.720",
          "caco3": "24.60",
          "slsil": "44.00",
          "slll": "0.172",
          "slcly": "22.00",
          "slcec": "12.00",
          "slcf": "2.000",
          "sloc": "0.530",
          "sksat": "1.000",
          "slphw": "7.900",
          "slsat": "0.521",
          "sllb": "5"
        },
        {
          "slbs": "100.0",
          "slrgf": "1.000",
          "sldul": "0.350",
          "slbdm": "1.380",
          "slna": "0.720",
          "caco3": "24.60",
          "slsil": "44.00",
          "slll": "0.172",
          "slcly": "22.00",
          "slcec": "12.00",
          "slcf": "2.000",
          "sloc": "0.530",
          "sksat": "1.000",
          "slphw": "7.900",
          "slsat": "0.521",
          "sllb": "15"
        },
        {
          "slbs": "100.0",
          "slrgf": "0.941",
          "sldul": "0.350",
          "slbdm": "1.380",
          "slna": "0.720",
          "caco3": "24.60",
          "slsil": "44.00",
          "slll": "0.172",
          "slcly": "22.00",
          "slcec": "12.00",
          "slcf": "2.000",
          "sloc": "0.530",
          "sksat": "1.000",
          "slphw": "7.900",
          "slsat": "0.521",
          "sllb": "30"
        },
        {
          "slbs": "100.0",
          "slrgf": "0.333",
          "sldul": "0.302",
          "slbdm": "1.330",
          "slna": "3.410",
          "caco3": "22.10",
          "slsil": "31.00",
          "slll": "0.182",
          "slcly": "33.00",
          "slcec": "11.00",
          "slcf": "3.000",
          "sloc": "0.210",
          "sksat": "0.892",
          "slphw": "7.900",
          "slsat": "0.406",
          "sllb": "100"
        },
        {
          "slbs": "100.0",
          "slrgf": "0.042",
          "sldul": "0.302",
          "slbdm": "1.330",
          "slna": "3.410",
          "caco3": "22.10",
          "slsil": "31.00",
          "slll": "0.182",
          "slcly": "33.00",
          "slcec": "11.00",
          "slcf": "3.000",
          "sloc": "0.210",
          "sksat": "0.892",
          "slphw": "7.900",
          "slsat": "0.406",
          "sllb": "200"
        }
      ],
      "smhb": "SA001",
      "soil_lat": "-99",
      "sltx": "L",
      "sl_source": "HWSD"
    }
  ]
}