67
166
269
366
467
577
683
768
882
985
1082
1168
1280
1374
1476
1572
1672
1772
1975
2066
2160
2260
2373
2472
2563
2665
2861
2960
3056
3153
3361
3452
3560
3660
3763
3870
3954
4070
4155
4263
4368
4464
4557
4657
4761
4858
4958
5062
5159
5258
5358
5459
5552
5661
5759
5855
5957
6153
6258
6454
6551
6650
6759
6859
6954
7059
7151
7250
7350
7452
7550
7651
7750
7856
7960
8056
8145
8242
8351
8446
8544
8649
8751
8851
8948
9049
9142
9240
9342
9445
9559
9660
9760
9850
9948
10043
10143
10253
10353
10451
10549
10651
10748
11044
11146
11246
11346
11443
11543
11648
11749
11849
11942
12048
12245
12344
12444
12540
12645
12746
12846
12951
13047
13143
13250
13349
13445
13538
13632
13753
13842
13944
14048
14150
14252
14349
14452
14540
14747
14834
