{
  "soils": [
    {
      "soil_id": "XY01234567",
      "sl_loc_3": "Generic",
      "soil_long": "-99",
      "smke": "SA001",
      "sldp": "-99",
      "classification": "Eutric Regosols (RGe)",
      "sldr": "0.400",
      "salb": "0.13",
      "slu1": "9.600",
      "slro": "73.00",
      "slpf": "1.00",
      "soil_name": "HWSD DATABASE, SOIL 9742",
      "slnf": "1.00",
      "sl_loc_1": "Generic",
      "smpx": "SA001",
      "soilLayer": [
        {
          "slbs": "78.00",
          "slrgf": "1.000",
          "sldul": "0.234",
          "slbdm": "1.430",
          "slna": "0.120",
          "caco3": "0.000",
          "slsil": "34.00",
          "slll": "0.133",
          "slcly": "19.00",
          "slcec": "12.00",
          "slcf": "25.00",
          "sloc": "0.980",
          "sksat": "1.950",
          "slphw": "6.400",
          "slsat": "0.386",
          "sllb": "5"
        },
        {
          "slbs": "78.00",
          "slrgf": "1.000",
          "sldul": "0.234",
          "slbdm": "1.430",
          "slna": "0.120",
          "caco3": "0.000",
          "slsil": "34.00",
          "slll": "0.133",
          "slcly": "19.00",
          "slcec": "12.00",
          "slcf": "25.00",
          "sloc": "0.980",
          "sksat": "1.950",
          "slphw": "6.400",
          "slsat": "0.386",
          "sllb": "15"
        },
        {
          "slbs": "78.00",
          "slrgf": "0.941",
          "sldul": "0.234",
          "slbdm": "1.430",
          "slna": "0.120",
          "caco3": "0.000",
          "slsil": "34.00",
          "slll": "0.133",
          "slcly": "19.00",
          "slcec": "12.00",
          "slcf": "25.00",
          "sloc": "0.980",
          "sksat": "1.950",
          "slphw": "6.400",
          "slsat": "0.386",
          "sllb": "30"
        },
        {
          "slbs": "89.00",
          "slrgf": "0.333",
          "sldul": "0.231",
          "slbdm": "1.440",
          "slna": "0.220",
          "caco3": "0.000",
          "slsil": "31.00",
          "slll": "0.113",
          "slcly": "18.00",
          "slcec": "11.00",
          "slcf": "28.00",
          "sloc": "0.400",
          "sksat": "4.190",
          "slphw": "6.900",
          "slsat": "0.432",
          "sllb": "100"
        },
        {
          "slbs": "89.00",
          "slrgf": "0.042",
          "sldul": "0.231",
          "slbdm": "1.440",
          "slna": "0.220",
          "caco3": "0.000",
          "slsil": "31.00",
          "slll": "0.113",
          "slcly": "18.00",
          "slcec": "11.00",
          "slcf": "28.00",
          "sloc": "0.400",
          "sksat": "4.190",
          "slphw": "6.900",
          "slsat": "0.432",
          "sllb": "200"
        }
      ],
      "smhb": "SA001",
      "soil_lat": "-99",
      "sltx": "L",
      "sl_source": "HWSD"
    }
  ]
}