{
  "soils": [
    {
      "soil_id": "XY01234567",
      "sl_loc_3": "Generic",
      "soil_long": "-99",
      "smke": "SA001",
      "sldp": "-99",
      "classification": "Eutric Leptosols (LPe)",
      "sldr": "0.250",
      "salb": "0.13",
      "slu1": "9.600",
      "slro": "73.00",
      "slpf": "1.00",
      "soil_name": "HWSD DATABASE, SOIL 27911",
      "slnf": "1.00",
      "sl_loc_1": "Generic",
      "smpx": "SA001",
      "soilLayer": [
        {
          "slbs": "87.00",
          "slrgf": "1.000",
          "sldul": "0.231",
          "slbdm": "1.420",
          "slna": "0.240",
          "caco3": "0.200",
          "slsil": "30.00",
          "slll": "0.094",
          "slcly": "20.00",
          "slcec": "12.00",
          "slcf": "31.00",
          "sloc": "0.720",
          "sksat": "3.740",
          "slphw": "6.500",
          "slsat": "0.439",
          "sllb": "5"
        },
        {
          "slbs": "87.00",
          "slrgf": "1.000",
          "sldul": "0.231",
          "slbdm": "1.420",
          "slna": "0.240",
          "caco3": "0.200",
          "slsil": "30.00",
          "slll": "0.094",
          "slcly": "20.00",
          "slcec": "12.00",
          "slcf": "31.00",
          "sloc": "0.720",
          "sksat": "3.740",
          "slphw": "6.500",
          "slsat": "0.439",
          "sllb": "15"
        },
        {
          "slbs": "87.00",
          "slrgf": "0.941",
          "sldul": "0.231",
          "slbdm": "1.420",
          "slna": "0.240",
          "caco3": "0.200",
          "slsil": "30.00",
          "slll": "0.094",
          "slcly": "20.00",
          "slcec": "12.00",
          "slcf": "31.00",
          "sloc": "0.720",
          "sksat": "3.740",
          "slphw": "6.500",
          "slsat": "0.439",
          "sllb": "30"
        },
        {
          "slbs": "87.00",
          "slrgf": "0.333",
          "sldul": "0.231",
          "slbdm": "1.420",
          "slna": "0.240",
          "caco3": "0.200",
          "slsil": "30.00",
          "slll": "0.094",
          "slcly": "20.00",
          "slcec": "12.00",
          "slcf": "31.00",
          "sloc": "0.720",
          "sksat": "3.740",
          "slphw": "6.500",
          "slsat": "0.439",
          "sllb": "100"
        },
        {
          "slbs": "87.00",
          "slrgf": "0.042",
          "sldul": "0.231",
          "slbdm": "1.420",
          "slna": "0.240",
          "caco3": "0.200",
          "slsil": "30.00",
          "slll": "0.094",
          "slcly": "20.00",
          "slcec": "12.00",
          "slcf": "31.00",
          "sloc": "0.720",
          "sksat": "3.740",
          "slphw": "6.500",
          "slsat": "0.439",
          "sllb": "200"
        }
      ],
      "smhb": "SA001",
      "soil_lat": "-99",
      "sltx": "L",
      "sl_source": "HWSD"
    }
  ]
}