{
  "soils": [
    {
      "soil_id": "XY01234567",
      "sl_loc_3": "Generic",
      "soil_long": "-99",
      "smke": "SA001",
      "sldp": "-99",
      "classification": "Luvic Xerosol ()",
      "sldr": "0.400",
      "salb": "0.13",
      "slu1": "10.00",
      "slro": "73.00",
      "slpf": "1.00",
      "soil_name": "HWSD DATABASE, SOIL 5060",
      "slnf": "1.00",
      "sl_loc_1": "Generic",
      "smpx": "SA001",
      "soilLayer": [
        {
          "slbs": "98.00",
          "slrgf": "1.000",
          "sldul": "0.272",
          "slbdm": "1.420",
          "slna": "0.240",
          "caco3": "3.800",
          "slsil": "18.00",
          "slll": "0.178",
          "slcly": "24.00",
          "slcec": "12.00",
          "slcf": "4.000",
          "sloc": "0.500",
          "sksat": "0.870",
          "slphw": "7.300",
          "slsat": "0.387",
          "sllb": "5"
        },
        {
          "slbs": "98.00",
          "slrgf": "1.000",
          "sldul": "0.272",
          "slbdm": "1.420",
          "slna": "0.240",
          "caco3": "3.800",
          "slsil": "18.00",
          "slll": "0.178",
          "slcly": "24.00",
          "slcec": "12.00",
          "slcf": "4.000",
          "sloc": "0.500",
          "sksat": "0.870",
          "slphw": "7.300",
          "slsat": "0.387",
          "sllb": "15"
        },
        {
          "slbs": "98.00",
          "slrgf": "0.941",
          "sldul": "0.272",
          "slbdm": "1.420",
          "slna": "0.240",
          "caco3": "3.800",
          "slsil": "18.00",
          "slll": "0.178",
          "slcly": "24.00",
          "slcec": "12.00",
          "slcf": "4.000",
          "sloc": "0.500",
          "sksat": "0.870",
          "slphw": "7.300",
          "slsat": "0.387",
          "sllb": "30"
        },
        {
          "slbs": "100.0",
          "slrgf": "0.333",
          "sldul": "0.302",
          "slbdm": "1.380",
          "slna": "0.360",
          "caco3": "9.000",
          "slsil": "17.00",
          "slll": "0.221",
          "slcly": "29.00",
          "slcec": "12.00",
          "slcf": "3.000",
          "sloc": "0.300",
          "sksat": "0.445",
          "slphw": "7.800",
          "slsat": "0.396",
          "sllb": "100"
        },
        {
          "slbs": "100.0",
          "slrgf": "0.042",
          "sldul": "0.302",
          "slbdm": "1.380",
          "slna": "0.360",
          "caco3": "9.000",
          "slsil": "17.00",
          "slll": "0.221",
          "slcly": "29.00",
          "slcec": "12.00",
          "slcf": "3.000",
          "sloc": "0.300",
          "sksat": "0.445",
          "slphw": "7.800",
          "slsat": "0.396",
          "sllb": "200"
        }
      ],
      "smhb": "SA001",
      "soil_lat": "-99",
      "sltx": "SCL",
      "sl_source": "HWSD"
    }
  ]
}