{
  "soils": [
    {
      "soil_id": "XY01234567",
      "sl_loc_3": "Generic",
      "soil_long": "-99",
      "smke": "SA001",
      "sldp": "-99",
      "classification": "Haplic Arenosols (ARh)",
      "sldr": "0.400",
      "salb": "0.15",
      "slu1": "6.650",
      "slro": "73.00",
      "slpf": "1.00",
      "soil_name": "HWSD DATABASE, SOIL 11353",
      "slnf": "1.00",
      "sl_loc_1": "Generic",
      "smpx": "SA001",
      "soilLayer": [
        {
          "slbs": "99.00",
          "slrgf": "1.000",
          "sldul": "0.087",
          "slbdm": "1.700",
          "slna": "0.120",
          "caco3": "0.000",
          "slsil": "6.000",
          "slll": "0.021",
          "slcly": "5.000",
          "slcec": "6.000",
          "slcf": "10.00",
          "sloc": "0.430",
          "sksat": "44.10",
          "slphw": "5.700",
          "slsat": "0.383",
          "sllb": "5"
        },
        {
          "slbs": "99.00",
          "slrgf": "1.000",
          "sldul": "0.087",
          "slbdm": "1.700",
          "slna": "0.120",
          "caco3": "0.000",
          "slsil": "6.000",
          "slll": "0.021",
          "slcly": "5.000",
          "slcec": "6.000",
          "slcf": "10.00",
          "sloc": "0.430",
          "sksat": "44.10",
          "slphw": "5.700",
          "slsat": "0.383",
          "sllb": "15"
        },
        {
          "slbs": "99.00",
          "slrgf": "0.941",
          "sldul": "0.087",
          "slbdm": "1.700",
          "slna": "0.120",
          "caco3": "0.000",
          "slsil": "6.000",
          "slll": "0.021",
          "slcly": "5.000",
          "slcec": "6.000",
          "slcf": "10.00",
          "sloc": "0.430",
          "sksat": "44.10",
          "slphw": "5.700",
          "slsat": "0.383",
          "sllb": "30"
        },
        {
          "slbs": "100.0",
          "slrgf": "0.333",
          "sldul": "0.305",
          "slbdm": "1.680",
          "slna": "0.080",
          "caco3": "0.200",
          "slsil": "5.000",
          "slll": "0.128",
          "slcly": "6.000",
          "slcec": "4.000",
          "slcf": "10.00",
          "sloc": "0.240",
          "sksat": "0.510",
          "slphw": "6.200",
          "slsat": "0.399",
          "sllb": "100"
        },
        {
          "slbs": "100.0",
          "slrgf": "0.042",
          "sldul": "0.305",
          "slbdm": "1.680",
          "slna": "0.080",
          "caco3": "0.200",
          "slsil": "5.000",
          "slll": "0.128",
          "slcly": "6.000",
          "slcec": "4.000",
          "slcf": "10.00",
          "sloc": "0.240",
          "sksat": "0.510",
          "slphw": "6.200",
          "slsat": "0.399",
          "sllb": "200"
        }
      ],
      "smhb": "SA001",
      "soil_lat": "-99",
      "sltx": "S",
      "sl_source": "HWSD"
    }
  ]
}