localhost		queryGIS	/Users/tiberius/workspace/SwiftApps/Econ-LEB/bin/queryGIS.sh	INSTALLED	INTEL32::LINUX null
localhost		xmlXtract	/Users/tiberius/workspace/SwiftApps/Econ-LEB/bin/xmlExtractFeature.py	INSTALLED	INTEL32::LINUX null
localhost		lebInvoke	/Users/tiberius/workspace/SwiftApps/Econ-LEB/bin/lebInvoke.sh	INSTALLED	INTEL32::LINUX null


#UC_32	queryGIS	/home/tstef/local/x32/ECON-LEB/bin/queryGIS.sh	INSTALLED	INTEL32::LINUX null
#UC_32	xmlXtract	/home/tstef/local/x32/ECON-LEB/bin/xmlExtractFeature.py	INSTALLED	INTEL32::LINUX null
#UC_32	lebInvoke	/home/tstef/local/x32/ECON-LEB/bin/lebInvoke-uc32.sh INSTALLED INTEL32::LINUX GLOBUS::host_types=ia32-compute

