{
  "soils": [
    {
      "soil_id": "XY01234567",
      "sl_loc_3": "Generic",
      "soil_long": "-99",
      "smke": "SA001",
      "sldp": "-99",
      "classification": "Luvic Kastanozem ()",
      "sldr": "0.400",
      "salb": "0.13",
      "slu1": "9.840",
      "slro": "73.00",
      "slpf": "1.00",
      "soil_name": "HWSD DATABASE, SOIL 4838",
      "slnf": "1.00",
      "sl_loc_1": "Generic",
      "smpx": "SA001",
      "soilLayer": [
        {
          "slbs": "100.0",
          "slrgf": "1.000",
          "sldul": "0.259",
          "slbdm": "1.380",
          "slna": "0.690",
          "caco3": "4.500",
          "slsil": "41.00",
          "slll": "0.120",
          "slcly": "23.00",
          "slcec": "23.00",
          "slcf": "8.000",
          "sloc": "1.270",
          "sksat": "1.860",
          "slphw": "7.300",
          "slsat": "0.435",
          "sllb": "5"
        },
        {
          "slbs": "100.0",
          "slrgf": "1.000",
          "sldul": "0.259",
          "slbdm": "1.380",
          "slna": "0.690",
          "caco3": "4.500",
          "slsil": "41.00",
          "slll": "0.120",
          "slcly": "23.00",
          "slcec": "23.00",
          "slcf": "8.000",
          "sloc": "1.270",
          "sksat": "1.860",
          "slphw": "7.300",
          "slsat": "0.435",
          "sllb": "15"
        },
        {
          "slbs": "100.0",
          "slrgf": "0.941",
          "sldul": "0.259",
          "slbdm": "1.380",
          "slna": "0.690",
          "caco3": "4.500",
          "slsil": "41.00",
          "slll": "0.120",
          "slcly": "23.00",
          "slcec": "23.00",
          "slcf": "8.000",
          "sloc": "1.270",
          "sksat": "1.860",
          "slphw": "7.300",
          "slsat": "0.435",
          "sllb": "30"
        },
        {
          "slbs": "100.0",
          "slrgf": "0.333",
          "sldul": "0.305",
          "slbdm": "1.330",
          "slna": "0.720",
          "caco3": "10.00",
          "slsil": "42.00",
          "slll": "0.182",
          "slcly": "29.00",
          "slcec": "24.00",
          "slcf": "5.000",
          "sloc": "0.570",
          "sksat": "1.380",
          "slphw": "7.900",
          "slsat": "0.502",
          "sllb": "100"
        },
        {
          "slbs": "100.0",
          "slrgf": "0.042",
          "sldul": "0.305",
          "slbdm": "1.330",
          "slna": "0.720",
          "caco3": "10.00",
          "slsil": "42.00",
          "slll": "0.182",
          "slcly": "29.00",
          "slcec": "24.00",
          "slcf": "5.000",
          "sloc": "0.570",
          "sksat": "1.380",
          "slphw": "7.900",
          "slsat": "0.502",
          "sllb": "200"
        }
      ],
      "smhb": "SA001",
      "soil_lat": "-99",
      "sltx": "L",
      "sl_source": "HWSD"
    }
  ]
}