{
  "soils": [
    {
      "soil_id": "XY01234567",
      "sl_loc_3": "Generic",
      "soil_long": "-99",
      "smke": "SA001",
      "sldp": "-99",
      "classification": "Haplic Podzols (PZh)",
      "sldr": "0.750",
      "salb": "0.13",
      "slu1": "6.950",
      "slro": "61.00",
      "slpf": "1.00",
      "soil_name": "HWSD DATABASE, SOIL 10313",
      "slnf": "1.00",
      "sl_loc_1": "Generic",
      "smpx": "SA001",
      "soilLayer": [
        {
          "slbs": "11.00",
          "slrgf": "1.000",
          "sldul": "0.099",
          "slbdm": "1.730",
          "slna": "0.090",
          "caco3": "0.000",
          "slsil": "9.000",
          "slll": "0.024",
          "slcly": "4.000",
          "slcec": "9.000",
          "slcf": "3.000",
          "sloc": "2.180",
          "sksat": "38.10",
          "slphw": "4.400",
          "slsat": "0.417",
          "sllb": "5"
        },
        {
          "slbs": "11.00",
          "slrgf": "1.000",
          "sldul": "0.099",
          "slbdm": "1.730",
          "slna": "0.090",
          "caco3": "0.000",
          "slsil": "9.000",
          "slll": "0.024",
          "slcly": "4.000",
          "slcec": "9.000",
          "slcf": "3.000",
          "sloc": "2.180",
          "sksat": "38.10",
          "slphw": "4.400",
          "slsat": "0.417",
          "sllb": "15"
        },
        {
          "slbs": "11.00",
          "slrgf": "0.941",
          "sldul": "0.099",
          "slbdm": "1.730",
          "slna": "0.090",
          "caco3": "0.000",
          "slsil": "9.000",
          "slll": "0.024",
          "slcly": "4.000",
          "slcec": "9.000",
          "slcf": "3.000",
          "sloc": "2.180",
          "sksat": "38.10",
          "slphw": "4.400",
          "slsat": "0.417",
          "sllb": "30"
        },
        {
          "slbs": "21.00",
          "slrgf": "0.333",
          "sldul": "0.103",
          "slbdm": "1.740",
          "slna": "0.060",
          "caco3": "0.000",
          "slsil": "8.000",
          "slll": "0.028",
          "slcly": "4.000",
          "slcec": "2.000",
          "slcf": "4.000",
          "sloc": "0.390",
          "sksat": "33.50",
          "slphw": "5.000",
          "slsat": "0.411",
          "sllb": "100"
        },
        {
          "slbs": "21.00",
          "slrgf": "0.042",
          "sldul": "0.103",
          "slbdm": "1.740",
          "slna": "0.060",
          "caco3": "0.000",
          "slsil": "8.000",
          "slll": "0.028",
          "slcly": "4.000",
          "slcec": "2.000",
          "slcf": "4.000",
          "sloc": "0.390",
          "sksat": "33.50",
          "slphw": "5.000",
          "slsat": "0.411",
          "sllb": "200"
        }
      ],
      "smhb": "SA001",
      "soil_lat": "-99",
      "sltx": "LS",
      "sl_source": "HWSD"
    }
  ]
}