{
  "soils": [
    {
      "soil_id": "XY01234567",
      "sl_loc_3": "Generic",
      "soil_long": "-99",
      "smke": "SA001",
      "sldp": "-99",
      "classification": "Cumulic Anthrosols (ATc)",
      "sldr": "0.400",
      "salb": "0.12",
      "slu1": "9.520",
      "slro": "73.00",
      "slpf": "1.00",
      "soil_name": "HWSD DATABASE, SOIL 11698",
      "slnf": "1.00",
      "sl_loc_1": "Generic",
      "smpx": "SA001",
      "soilLayer": [
        {
          "slbs": "100.0",
          "slrgf": "1.000",
          "sldul": "0.270",
          "slbdm": "1.380",
          "slna": "0.110",
          "caco3": "9.300",
          "slsil": "50.00",
          "slll": "0.127",
          "slcly": "21.00",
          "slcec": "11.00",
          "slcf": "10.00",
          "sloc": "1.120",
          "sksat": "0.540",
          "slphw": "7.800",
          "slsat": "0.363",
          "sllb": "5"
        },
        {
          "slbs": "100.0",
          "slrgf": "1.000",
          "sldul": "0.270",
          "slbdm": "1.380",
          "slna": "0.110",
          "caco3": "9.300",
          "slsil": "50.00",
          "slll": "0.127",
          "slcly": "21.00",
          "slcec": "11.00",
          "slcf": "10.00",
          "sloc": "1.120",
          "sksat": "0.540",
          "slphw": "7.800",
          "slsat": "0.363",
          "sllb": "15"
        },
        {
          "slbs": "100.0",
          "slrgf": "0.941",
          "sldul": "0.270",
          "slbdm": "1.380",
          "slna": "0.110",
          "caco3": "9.300",
          "slsil": "50.00",
          "slll": "0.127",
          "slcly": "21.00",
          "slcec": "11.00",
          "slcf": "10.00",
          "sloc": "1.120",
          "sksat": "0.540",
          "slphw": "7.800",
          "slsat": "0.363",
          "sllb": "30"
        },
        {
          "slbs": "100.0",
          "slrgf": "0.333",
          "sldul": "0.250",
          "slbdm": "1.390",
          "slna": "0.130",
          "caco3": "9.400",
          "slsil": "45.00",
          "slll": "0.112",
          "slcly": "21.00",
          "slcec": "13.00",
          "slcf": "10.00",
          "sloc": "0.820",
          "sksat": "3.270",
          "slphw": "7.900",
          "slsat": "0.468",
          "sllb": "100"
        },
        {
          "slbs": "100.0",
          "slrgf": "0.042",
          "sldul": "0.250",
          "slbdm": "1.390",
          "slna": "0.130",
          "caco3": "9.400",
          "slsil": "45.00",
          "slll": "0.112",
          "slcly": "21.00",
          "slcec": "13.00",
          "slcf": "10.00",
          "sloc": "0.820",
          "sksat": "3.270",
          "slphw": "7.900",
          "slsat": "0.468",
          "sllb": "200"
        }
      ],
      "smhb": "SA001",
      "soil_lat": "-99",
      "sltx": "SIL",
      "sl_source": "HWSD"
    }
  ]
}