{
  "soils": [
    {
      "soil_id": "XY01234567",
      "sl_loc_3": "Generic",
      "soil_long": "-99",
      "smke": "SA001",
      "sldp": "-99",
      "classification": "Mollic Leptosols (LPm)",
      "sldr": "0.250",
      "salb": "0.13",
      "slu1": "9.920",
      "slro": "73.00",
      "slpf": "1.00",
      "soil_name": "HWSD DATABASE, SOIL 27909",
      "slnf": "1.00",
      "sl_loc_1": "Generic",
      "smpx": "SA001",
      "soilLayer": [
        {
          "slbs": "99.00",
          "slrgf": "1.000",
          "sldul": "0.290",
          "slbdm": "1.380",
          "slna": "0.220",
          "caco3": "2.700",
          "slsil": "32.00",
          "slll": "0.260",
          "slcly": "24.00",
          "slcec": "22.00",
          "slcf": "27.00",
          "sloc": "1.670",
          "sksat": "0.600",
          "slphw": "7.200",
          "slsat": "0.400",
          "sllb": "5"
        },
        {
          "slbs": "99.00",
          "slrgf": "1.000",
          "sldul": "0.290",
          "slbdm": "1.380",
          "slna": "0.220",
          "caco3": "2.700",
          "slsil": "32.00",
          "slll": "0.260",
          "slcly": "24.00",
          "slcec": "22.00",
          "slcf": "27.00",
          "sloc": "1.670",
          "sksat": "0.600",
          "slphw": "7.200",
          "slsat": "0.400",
          "sllb": "15"
        },
        {
          "slbs": "99.00",
          "slrgf": "0.941",
          "sldul": "0.290",
          "slbdm": "1.380",
          "slna": "0.220",
          "caco3": "2.700",
          "slsil": "32.00",
          "slll": "0.260",
          "slcly": "24.00",
          "slcec": "22.00",
          "slcf": "27.00",
          "sloc": "1.670",
          "sksat": "0.600",
          "slphw": "7.200",
          "slsat": "0.400",
          "sllb": "30"
        },
        {
          "slbs": "99.00",
          "slrgf": "0.333",
          "sldul": "0.290",
          "slbdm": "1.380",
          "slna": "0.220",
          "caco3": "2.700",
          "slsil": "32.00",
          "slll": "0.260",
          "slcly": "24.00",
          "slcec": "22.00",
          "slcf": "27.00",
          "sloc": "1.670",
          "sksat": "0.600",
          "slphw": "7.200",
          "slsat": "0.400",
          "sllb": "100"
        },
        {
          "slbs": "99.00",
          "slrgf": "0.042",
          "sldul": "0.290",
          "slbdm": "1.380",
          "slna": "0.220",
          "caco3": "2.700",
          "slsil": "32.00",
          "slll": "0.260",
          "slcly": "24.00",
          "slcec": "22.00",
          "slcf": "27.00",
          "sloc": "1.670",
          "sksat": "0.600",
          "slphw": "7.200",
          "slsat": "0.400",
          "sllb": "200"
        }
      ],
      "smhb": "SA001",
      "soil_lat": "-99",
      "sltx": "L",
      "sl_source": "HWSD"
    }
  ]
}