
# Utility apps
localhost getsite          /home/aespinosa/workflows/cybershake/getsite.rb          INSTALLED INTEL32::LINUX null
localhost getrupture       /home/aespinosa/workflows/cybershake/getrupture.rb       INSTALLED INTEL32::LINUX null
localhost variation_mapper /home/aespinosa/workflows/cybershake/variation_mapper.rb INSTALLED INTEL32::LINUX null
localhost mkoffset         /home/aespinosa/workflows/cybershake/offset.rb           INSTALLED INTEL32::LINUX null

# PADS
#localhost      extract        /home/ketan/osg-tg-effort/cybershake/apps/JBSim3d/bin/jbsim3d                            INSTALLED INTEL32::LINUX GLOBUS::maxwalltime="00:05:00"
#localhost    seispeak_local /home/aespinosa/Documents/cybershake/post/seispeak.sh            INSTALLED INTEL32::LINUX GLOBUS::maxwalltime="00:10:00"

#jbsim3d on ranger /share/home/01035/tg802895/science/cybershake/pp/JBSim3d/bin/jbsim3d
RANGER     extract   /share/home/01035/tg802895/science/cybershake/pp/JBSim3d/bin/jbsim3d    INSTALLED INTEL32::LINUX GLOBUS::maxwalltime="00:05:00"
RANGER     seispeak_local /work/01739/ketan/scec/seispeak.sh                       INSTALLED INTEL32::LINUX GLOBUS::maxwalltime="00:10:00"

RANGER     seismogram   /share/home/01035/tg802895/science/cybershake/pp/JBSim3d/bin/jbsim3d    INSTALLED INTEL32::LINUX GLOBUS::maxwalltime="00:05:00"
RANGER     seispeak  /work/01739/ketan/scec/seispeak.sh          INSTALLED INTEL32::LINUX GLOBUS::maxwalltime="00:10:00"
RANGER     surfeis_rspectra /share/home/01035/tg802895/science/cybershake/pp/SpectralAcceleration/p2utils/surfseis_rspectra INSTALLED INTEL32::LINUX GLOBUS::maxwalltime="00:05:00"
RANGER     seispeak_agg     /work/01739/ketan/scec/agg_seispeak.sh                INSTALLED INTEL32::LINUX GLOBUS::maxwalltime="04:00:00"


#RANGER getsite          /work/01739/ketan/scec/getsite.rb          INSTALLED INTEL32::LINUX null
#RANGER getrupture       /work/01739/ketan/scec/getrupture.rb       INSTALLED INTEL32::LINUX null
#RANGER variation_mapper /work/01739/ketan/scec/variation_mapper.rb INSTALLED INTEL32::LINUX null
#RANGER mkoffset         /work/01739/ketan/scec/offset.rb           INSTALLED INTEL32::LINUX null


