localhost getsite /scratch/local/ketan/cybershake/getsite.rb
localhost getrupture /scratch/local/ketan/cybershake/getrupture.rb
localhost variation_mapper /scratch/local/ketan/cybershake/variation_mapper.rb
localhost mkoffset /scratch/local/ketan/cybershake/offset.rb
localhost extract /scratch/local/ketan/cybershake/apps/JBSim3d/bin/jbsim3d
localhost seispeak_local /scratch/local/ketan/cybershake/seispeak.sh


AGLT2__gate02.grid.umich.edu seismogram       /atlas/data08/OSG/APP/engage/scec/JBSim3d/bin/jbsim3d                            INSTALLED INTEL32::LINUX GLOBUS::maxwalltime="00:05:00"
AGLT2__gate02.grid.umich.edu surfeis_rspectra /atlas/data08/OSG/APP/engage/scec/SpectralAcceleration/p2utils/surfseis_rspectra INSTALLED INTEL32::LINUX GLOBUS::maxwalltime="00:05:00"
AGLT2__gate02.grid.umich.edu seispeak         /atlas/data08/OSG/APP/engage/scec/seispeak.sh                                    INSTALLED INTEL32::LINUX GLOBUS::maxwalltime="00:10:00"
AGLT2__gate02.grid.umich.edu seispeak_agg     /atlas/data08/OSG/APP/engage/scec/agg_seispeak.sh                                INSTALLED INTEL32::LINUX GLOBUS::maxwalltime="04:00:00"

CIT_CMS_T2__cit-gatekeeper.ultralight.org seismogram       /raid1/osg-app/engage/scec/JBSim3d/bin/jbsim3d                            INSTALLED INTEL32::LINUX GLOBUS::maxwalltime="00:05:00"
CIT_CMS_T2__cit-gatekeeper.ultralight.org surfeis_rspectra /raid1/osg-app/engage/scec/SpectralAcceleration/p2utils/surfseis_rspectra INSTALLED INTEL32::LINUX GLOBUS::maxwalltime="00:05:00"
CIT_CMS_T2__cit-gatekeeper.ultralight.org seispeak         /raid1/osg-app/engage/scec/seispeak.sh                                    INSTALLED INTEL32::LINUX GLOBUS::maxwalltime="00:10:00"
CIT_CMS_T2__cit-gatekeeper.ultralight.org seispeak_agg     /raid1/osg-app/engage/scec/agg_seispeak.sh                                INSTALLED INTEL32::LINUX GLOBUS::maxwalltime="04:00:00"

CIT_CMS_T2__cit-gatekeeper2.ultralight.org seismogram       /raid1/osg-app/engage/scec/JBSim3d/bin/jbsim3d                            INSTALLED INTEL32::LINUX GLOBUS::maxwalltime="00:05:00"
CIT_CMS_T2__cit-gatekeeper2.ultralight.org surfeis_rspectra /raid1/osg-app/engage/scec/SpectralAcceleration/p2utils/surfseis_rspectra INSTALLED INTEL32::LINUX GLOBUS::maxwalltime="00:05:00"
CIT_CMS_T2__cit-gatekeeper2.ultralight.org seispeak         /raid1/osg-app/engage/scec/seispeak.sh                                    INSTALLED INTEL32::LINUX GLOBUS::maxwalltime="00:10:00"
CIT_CMS_T2__cit-gatekeeper2.ultralight.org seispeak_agg     /raid1/osg-app/engage/scec/agg_seispeak.sh                                INSTALLED INTEL32::LINUX GLOBUS::maxwalltime="04:00:00"

Clemson-Palmetto__osg-gw.clemson.edu seismogram       /common1/osg/app/engage/scec/JBSim3d/bin/jbsim3d                            INSTALLED INTEL32::LINUX GLOBUS::maxwalltime="00:05:00"
Clemson-Palmetto__osg-gw.clemson.edu surfeis_rspectra /common1/osg/app/engage/scec/SpectralAcceleration/p2utils/surfseis_rspectra INSTALLED INTEL32::LINUX GLOBUS::maxwalltime="00:05:00"
Clemson-Palmetto__osg-gw.clemson.edu seispeak         /common1/osg/app/engage/scec/seispeak.sh                                    INSTALLED INTEL32::LINUX GLOBUS::maxwalltime="00:10:00"
Clemson-Palmetto__osg-gw.clemson.edu seispeak_agg     /common1/osg/app/engage/scec/agg_seispeak.sh                                INSTALLED INTEL32::LINUX GLOBUS::maxwalltime="04:00:00"

FNAL_FERMIGRID__fermigridosg1.fnal.gov seismogram       /grid/app/engage/scec/JBSim3d/bin/jbsim3d                            INSTALLED INTEL32::LINUX GLOBUS::maxwalltime="00:05:00"
FNAL_FERMIGRID__fermigridosg1.fnal.gov surfeis_rspectra /grid/app/engage/scec/SpectralAcceleration/p2utils/surfseis_rspectra INSTALLED INTEL32::LINUX GLOBUS::maxwalltime="00:05:00"
FNAL_FERMIGRID__fermigridosg1.fnal.gov seispeak         /grid/app/engage/scec/seispeak.sh                                    INSTALLED INTEL32::LINUX GLOBUS::maxwalltime="00:10:00"
FNAL_FERMIGRID__fermigridosg1.fnal.gov seispeak_agg     /grid/app/engage/scec/agg_seispeak.sh                                INSTALLED INTEL32::LINUX GLOBUS::maxwalltime="04:00:00"

FNAL_GPGRID_1__fnpcosg1.fnal.gov seismogram       /grid/app/engage/scec/JBSim3d/bin/jbsim3d                            INSTALLED INTEL32::LINUX GLOBUS::maxwalltime="00:05:00"
FNAL_GPGRID_1__fnpcosg1.fnal.gov surfeis_rspectra /grid/app/engage/scec/SpectralAcceleration/p2utils/surfseis_rspectra INSTALLED INTEL32::LINUX GLOBUS::maxwalltime="00:05:00"
FNAL_GPGRID_1__fnpcosg1.fnal.gov seispeak         /grid/app/engage/scec/seispeak.sh                                    INSTALLED INTEL32::LINUX GLOBUS::maxwalltime="00:10:00"
FNAL_GPGRID_1__fnpcosg1.fnal.gov seispeak_agg     /grid/app/engage/scec/agg_seispeak.sh                                INSTALLED INTEL32::LINUX GLOBUS::maxwalltime="04:00:00"

GridUNESP_CENTRAL__ce.grid.unesp.br seismogram       /osg/app/JBSim3d/bin/jbsim3d                            INSTALLED INTEL32::LINUX GLOBUS::maxwalltime="00:05:00"
GridUNESP_CENTRAL__ce.grid.unesp.br surfeis_rspectra /osg/app/SpectralAcceleration/p2utils/surfseis_rspectra INSTALLED INTEL32::LINUX GLOBUS::maxwalltime="00:05:00"
GridUNESP_CENTRAL__ce.grid.unesp.br seispeak         /osg/app/seispeak.sh                                    INSTALLED INTEL32::LINUX GLOBUS::maxwalltime="00:10:00"
GridUNESP_CENTRAL__ce.grid.unesp.br seispeak_agg     /osg/app/agg_seispeak.sh                                INSTALLED INTEL32::LINUX GLOBUS::maxwalltime="04:00:00"

GridUNESP_SPO__ce.spo.grid.unesp.br seismogram       /osg/app/engage/scec/JBSim3d/bin/jbsim3d                            INSTALLED INTEL32::LINUX GLOBUS::maxwalltime="00:05:00"
GridUNESP_SPO__ce.spo.grid.unesp.br surfeis_rspectra /osg/app/engage/scec/SpectralAcceleration/p2utils/surfseis_rspectra INSTALLED INTEL32::LINUX GLOBUS::maxwalltime="00:05:00"
GridUNESP_SPO__ce.spo.grid.unesp.br seispeak         /osg/app/engage/scec/seispeak.sh                                    INSTALLED INTEL32::LINUX GLOBUS::maxwalltime="00:10:00"
GridUNESP_SPO__ce.spo.grid.unesp.br seispeak_agg     /osg/app/engage/scec/agg_seispeak.sh                                INSTALLED INTEL32::LINUX GLOBUS::maxwalltime="04:00:00"

LIGO_UWM_NEMO__osg-nemo-ce.phys.uwm.edu seismogram       /opt/osg/app/engage/scec/JBSim3d/bin/jbsim3d                            INSTALLED INTEL32::LINUX GLOBUS::maxwalltime="00:05:00"
LIGO_UWM_NEMO__osg-nemo-ce.phys.uwm.edu surfeis_rspectra /opt/osg/app/engage/scec/SpectralAcceleration/p2utils/surfseis_rspectra INSTALLED INTEL32::LINUX GLOBUS::maxwalltime="00:05:00"
LIGO_UWM_NEMO__osg-nemo-ce.phys.uwm.edu seispeak         /opt/osg/app/engage/scec/seispeak.sh                                    INSTALLED INTEL32::LINUX GLOBUS::maxwalltime="00:10:00"
LIGO_UWM_NEMO__osg-nemo-ce.phys.uwm.edu seispeak_agg     /opt/osg/app/engage/scec/agg_seispeak.sh                                INSTALLED INTEL32::LINUX GLOBUS::maxwalltime="04:00:00"

MWT2_UC__uct2-grid6.uchicago.edu seismogram       /osg/app/engage/scec/JBSim3d/bin/jbsim3d                            INSTALLED INTEL32::LINUX GLOBUS::maxwalltime="00:05:00"
MWT2_UC__uct2-grid6.uchicago.edu surfeis_rspectra /osg/app/engage/scec/SpectralAcceleration/p2utils/surfseis_rspectra INSTALLED INTEL32::LINUX GLOBUS::maxwalltime="00:05:00"
MWT2_UC__uct2-grid6.uchicago.edu seispeak         /osg/app/engage/scec/seispeak.sh                                    INSTALLED INTEL32::LINUX GLOBUS::maxwalltime="00:10:00"
MWT2_UC__uct2-grid6.uchicago.edu seispeak_agg     /osg/app/engage/scec/agg_seispeak.sh                                INSTALLED INTEL32::LINUX GLOBUS::maxwalltime="04:00:00"

MWT2__osg-gk.mwt2.org seismogram       /osg/mwt2/app/engage/scec/JBSim3d/bin/jbsim3d                            INSTALLED INTEL32::LINUX GLOBUS::maxwalltime="00:05:00"
MWT2__osg-gk.mwt2.org surfeis_rspectra /osg/mwt2/app/engage/scec/SpectralAcceleration/p2utils/surfseis_rspectra INSTALLED INTEL32::LINUX GLOBUS::maxwalltime="00:05:00"
MWT2__osg-gk.mwt2.org seispeak         /osg/mwt2/app/engage/scec/seispeak.sh                                    INSTALLED INTEL32::LINUX GLOBUS::maxwalltime="00:10:00"
MWT2__osg-gk.mwt2.org seispeak_agg     /osg/mwt2/app/engage/scec/agg_seispeak.sh                                INSTALLED INTEL32::LINUX GLOBUS::maxwalltime="04:00:00"

OU_OSCER_ATLAS__grid1.oscer.ou.edu seismogram       /home/gridapp/engage/scec/JBSim3d/bin/jbsim3d                            INSTALLED INTEL32::LINUX GLOBUS::maxwalltime="00:05:00"
OU_OSCER_ATLAS__grid1.oscer.ou.edu surfeis_rspectra /home/gridapp/engage/scec/SpectralAcceleration/p2utils/surfseis_rspectra INSTALLED INTEL32::LINUX GLOBUS::maxwalltime="00:05:00"
OU_OSCER_ATLAS__grid1.oscer.ou.edu seispeak         /home/gridapp/engage/scec/seispeak.sh                                    INSTALLED INTEL32::LINUX GLOBUS::maxwalltime="00:10:00"
OU_OSCER_ATLAS__grid1.oscer.ou.edu seispeak_agg     /home/gridapp/engage/scec/agg_seispeak.sh                                INSTALLED INTEL32::LINUX GLOBUS::maxwalltime="04:00:00"

Purdue-Rossmann__rossmann-osg.rcac.purdue.edu seismogram       /apps/osg/engage/scec/JBSim3d/bin/jbsim3d                            INSTALLED INTEL32::LINUX GLOBUS::maxwalltime="00:05:00"
Purdue-Rossmann__rossmann-osg.rcac.purdue.edu surfeis_rspectra /apps/osg/engage/scec/SpectralAcceleration/p2utils/surfseis_rspectra INSTALLED INTEL32::LINUX GLOBUS::maxwalltime="00:05:00"
Purdue-Rossmann__rossmann-osg.rcac.purdue.edu seispeak         /apps/osg/engage/scec/seispeak.sh                                    INSTALLED INTEL32::LINUX GLOBUS::maxwalltime="00:10:00"
Purdue-Rossmann__rossmann-osg.rcac.purdue.edu seispeak_agg     /apps/osg/engage/scec/agg_seispeak.sh                                INSTALLED INTEL32::LINUX GLOBUS::maxwalltime="04:00:00"

RENCI-Engagement__belhaven-1.renci.org seismogram       /nfs/osg-app/engage/scec/JBSim3d/bin/jbsim3d                            INSTALLED INTEL32::LINUX GLOBUS::maxwalltime="00:05:00"
RENCI-Engagement__belhaven-1.renci.org surfeis_rspectra /nfs/osg-app/engage/scec/SpectralAcceleration/p2utils/surfseis_rspectra INSTALLED INTEL32::LINUX GLOBUS::maxwalltime="00:05:00"
RENCI-Engagement__belhaven-1.renci.org seispeak         /nfs/osg-app/engage/scec/seispeak.sh                                    INSTALLED INTEL32::LINUX GLOBUS::maxwalltime="00:10:00"
RENCI-Engagement__belhaven-1.renci.org seispeak_agg     /nfs/osg-app/engage/scec/agg_seispeak.sh                                INSTALLED INTEL32::LINUX GLOBUS::maxwalltime="04:00:00"

SPRACE__osg-ce.sprace.org.br seismogram       /osg/app/engage/scec/JBSim3d/bin/jbsim3d                            INSTALLED INTEL32::LINUX GLOBUS::maxwalltime="00:05:00"
SPRACE__osg-ce.sprace.org.br surfeis_rspectra /osg/app/engage/scec/SpectralAcceleration/p2utils/surfseis_rspectra INSTALLED INTEL32::LINUX GLOBUS::maxwalltime="00:05:00"
SPRACE__osg-ce.sprace.org.br seispeak         /osg/app/engage/scec/seispeak.sh                                    INSTALLED INTEL32::LINUX GLOBUS::maxwalltime="00:10:00"
SPRACE__osg-ce.sprace.org.br seispeak_agg     /osg/app/engage/scec/agg_seispeak.sh                                INSTALLED INTEL32::LINUX GLOBUS::maxwalltime="04:00:00"

UMissHEP__umiss001.hep.olemiss.edu seismogram       /osgremote/osg_app/engage/scec/JBSim3d/bin/jbsim3d                            INSTALLED INTEL32::LINUX GLOBUS::maxwalltime="00:05:00"
UMissHEP__umiss001.hep.olemiss.edu surfeis_rspectra /osgremote/osg_app/engage/scec/SpectralAcceleration/p2utils/surfseis_rspectra INSTALLED INTEL32::LINUX GLOBUS::maxwalltime="00:05:00"
UMissHEP__umiss001.hep.olemiss.edu seispeak         /osgremote/osg_app/engage/scec/seispeak.sh                                    INSTALLED INTEL32::LINUX GLOBUS::maxwalltime="00:10:00"
UMissHEP__umiss001.hep.olemiss.edu seispeak_agg     /osgremote/osg_app/engage/scec/agg_seispeak.sh                                INSTALLED INTEL32::LINUX GLOBUS::maxwalltime="04:00:00"

Vanderbilt__ce1.accre.vanderbilt.edu seismogram       /home/grid-app/engage/scec/JBSim3d/bin/jbsim3d                            INSTALLED INTEL32::LINUX GLOBUS::maxwalltime="00:05:00"
Vanderbilt__ce1.accre.vanderbilt.edu surfeis_rspectra /home/grid-app/engage/scec/SpectralAcceleration/p2utils/surfseis_rspectra INSTALLED INTEL32::LINUX GLOBUS::maxwalltime="00:05:00"
Vanderbilt__ce1.accre.vanderbilt.edu seispeak         /home/grid-app/engage/scec/seispeak.sh                                    INSTALLED INTEL32::LINUX GLOBUS::maxwalltime="00:10:00"
Vanderbilt__ce1.accre.vanderbilt.edu seispeak_agg     /home/grid-app/engage/scec/agg_seispeak.sh                                INSTALLED INTEL32::LINUX GLOBUS::maxwalltime="04:00:00"

