{
  "soils": [
    {
      "soil_id": "XY01234567",
      "sl_loc_3": "Generic",
      "soil_long": "-99",
      "smke": "SA001",
      "sldp": "-99",
      "classification": "Calcaric Fluvisols (FLc)",
      "sldr": "0.050",
      "salb": "0.13",
      "slu1": "9.360",
      "slro": "84.00",
      "slpf": "1.00",
      "soil_name": "HWSD DATABASE, SOIL 11476",
      "slnf": "1.00",
      "sl_loc_1": "Generic",
      "smpx": "SA001",
      "soilLayer": [
        {
          "slbs": "100.0",
          "slrgf": "1.000",
          "sldul": "0.327",
          "slbdm": "1.410",
          "slna": "0.420",
          "caco3": "11.70",
          "slsil": "48.00",
          "slll": "0.177",
          "slcly": "18.00",
          "slcec": "14.00",
          "slcf": "15.00",
          "sloc": "0.600",
          "sksat": "2.870",
          "slphw": "8.000",
          "slsat": "0.612",
          "sllb": "5"
        },
        {
          "slbs": "100.0",
          "slrgf": "1.000",
          "sldul": "0.327",
          "slbdm": "1.410",
          "slna": "0.420",
          "caco3": "11.70",
          "slsil": "48.00",
          "slll": "0.177",
          "slcly": "18.00",
          "slcec": "14.00",
          "slcf": "15.00",
          "sloc": "0.600",
          "sksat": "2.870",
          "slphw": "8.000",
          "slsat": "0.612",
          "sllb": "15"
        },
        {
          "slbs": "100.0",
          "slrgf": "0.941",
          "sldul": "0.327",
          "slbdm": "1.410",
          "slna": "0.420",
          "caco3": "11.70",
          "slsil": "48.00",
          "slll": "0.177",
          "slcly": "18.00",
          "slcec": "14.00",
          "slcf": "15.00",
          "sloc": "0.600",
          "sksat": "2.870",
          "slphw": "8.000",
          "slsat": "0.612",
          "sllb": "30"
        },
        {
          "slbs": "100.0",
          "slrgf": "0.333",
          "sldul": "0.248",
          "slbdm": "1.410",
          "slna": "0.390",
          "caco3": "12.20",
          "slsil": "46.00",
          "slll": "0.102",
          "slcly": "18.00",
          "slcec": "13.00",
          "slcf": "10.00",
          "sloc": "0.400",
          "sksat": "2.710",
          "slphw": "8.100",
          "slsat": "0.454",
          "sllb": "100"
        },
        {
          "slbs": "100.0",
          "slrgf": "0.042",
          "sldul": "0.248",
          "slbdm": "1.410",
          "slna": "0.390",
          "caco3": "12.20",
          "slsil": "46.00",
          "slll": "0.102",
          "slcly": "18.00",
          "slcec": "13.00",
          "slcf": "10.00",
          "sloc": "0.400",
          "sksat": "2.710",
          "slphw": "8.100",
          "slsat": "0.454",
          "sllb": "200"
        }
      ],
      "smhb": "SA001",
      "soil_lat": "-99",
      "sltx": "L",
      "sl_source": "HWSD"
    }
  ]
}