{
  "soils": [
    {
      "soil_id": "XY01234567",
      "sl_loc_3": "Generic",
      "soil_long": "-99",
      "smke": "SA001",
      "sldp": "-99",
      "classification": "Haplic Xerosol ()",
      "sldr": "0.400",
      "salb": "0.13",
      "slu1": "9.680",
      "slro": "73.00",
      "slpf": "1.00",
      "soil_name": "HWSD DATABASE, SOIL 3295",
      "slnf": "1.00",
      "sl_loc_1": "Generic",
      "smpx": "SA001",
      "soilLayer": [
        {
          "slbs": "100.0",
          "slrgf": "1.000",
          "sldul": "0.326",
          "slbdm": "1.400",
          "slna": "0.280",
          "caco3": "14.50",
          "slsil": "40.00",
          "slll": "0.146",
          "slcly": "21.00",
          "slcec": "14.00",
          "slcf": "4.000",
          "sloc": "0.700",
          "sksat": "0.030",
          "slphw": "8.200",
          "slsat": "0.342",
          "sllb": "5"
        },
        {
          "slbs": "100.0",
          "slrgf": "1.000",
          "sldul": "0.326",
          "slbdm": "1.400",
          "slna": "0.280",
          "caco3": "14.50",
          "slsil": "40.00",
          "slll": "0.146",
          "slcly": "21.00",
          "slcec": "14.00",
          "slcf": "4.000",
          "sloc": "0.700",
          "sksat": "0.030",
          "slphw": "8.200",
          "slsat": "0.342",
          "sllb": "15"
        },
        {
          "slbs": "100.0",
          "slrgf": "0.941",
          "sldul": "0.326",
          "slbdm": "1.400",
          "slna": "0.280",
          "caco3": "14.50",
          "slsil": "40.00",
          "slll": "0.146",
          "slcly": "21.00",
          "slcec": "14.00",
          "slcf": "4.000",
          "sloc": "0.700",
          "sksat": "0.030",
          "slphw": "8.200",
          "slsat": "0.342",
          "sllb": "30"
        },
        {
          "slbs": "100.0",
          "slrgf": "0.333",
          "sldul": "0.308",
          "slbdm": "1.370",
          "slna": "0.390",
          "caco3": "14.90",
          "slsil": "40.00",
          "slll": "0.147",
          "slcly": "24.00",
          "slcec": "13.00",
          "slcf": "3.000",
          "sloc": "0.290",
          "sksat": "1.300",
          "slphw": "8.300",
          "slsat": "0.467",
          "sllb": "100"
        },
        {
          "slbs": "100.0",
          "slrgf": "0.042",
          "sldul": "0.308",
          "slbdm": "1.370",
          "slna": "0.390",
          "caco3": "14.90",
          "slsil": "40.00",
          "slll": "0.147",
          "slcly": "24.00",
          "slcec": "13.00",
          "slcf": "3.000",
          "sloc": "0.290",
          "sksat": "1.300",
          "slphw": "8.300",
          "slsat": "0.467",
          "sllb": "200"
        }
      ],
      "smhb": "SA001",
      "soil_lat": "-99",
      "sltx": "L",
      "sl_source": "HWSD"
    }
  ]
}