{
  "soils": [
    {
      "soil_id": "XY01234567",
      "sl_loc_3": "Generic",
      "soil_long": "-99",
      "smke": "SA001",
      "sldp": "-99",
      "classification": "Luvic Calcisols (CLl)",
      "sldr": "0.400",
      "salb": "0.13",
      "slu1": "10.00",
      "slro": "73.00",
      "slpf": "1.00",
      "soil_name": "HWSD DATABASE, SOIL 11238",
      "slnf": "1.00",
      "sl_loc_1": "Generic",
      "smpx": "SA001",
      "soilLayer": [
        {
          "slbs": "100.0",
          "slrgf": "1.000",
          "sldul": "0.341",
          "slbdm": "1.380",
          "slna": "1.530",
          "caco3": "9.900",
          "slsil": "29.00",
          "slll": "0.162",
          "slcly": "26.00",
          "slcec": "17.00",
          "slcf": "10.00",
          "sloc": "0.580",
          "sksat": "0.240",
          "slphw": "8.100",
          "slsat": "0.414",
          "sllb": "5"
        },
        {
          "slbs": "100.0",
          "slrgf": "1.000",
          "sldul": "0.341",
          "slbdm": "1.380",
          "slna": "1.530",
          "caco3": "9.900",
          "slsil": "29.00",
          "slll": "0.162",
          "slcly": "26.00",
          "slcec": "17.00",
          "slcf": "10.00",
          "sloc": "0.580",
          "sksat": "0.240",
          "slphw": "8.100",
          "slsat": "0.414",
          "sllb": "15"
        },
        {
          "slbs": "100.0",
          "slrgf": "0.941",
          "sldul": "0.341",
          "slbdm": "1.380",
          "slna": "1.530",
          "caco3": "9.900",
          "slsil": "29.00",
          "slll": "0.162",
          "slcly": "26.00",
          "slcec": "17.00",
          "slcf": "10.00",
          "sloc": "0.580",
          "sksat": "0.240",
          "slphw": "8.100",
          "slsat": "0.414",
          "sllb": "30"
        },
        {
          "slbs": "100.0",
          "slrgf": "0.333",
          "sldul": "0.294",
          "slbdm": "1.330",
          "slna": "0.320",
          "caco3": "15.00",
          "slsil": "29.00",
          "slll": "0.192",
          "slcly": "33.00",
          "slcec": "16.00",
          "slcf": "8.000",
          "sloc": "0.300",
          "sksat": "0.910",
          "slphw": "8.200",
          "slsat": "0.439",
          "sllb": "100"
        },
        {
          "slbs": "100.0",
          "slrgf": "0.042",
          "sldul": "0.294",
          "slbdm": "1.330",
          "slna": "0.320",
          "caco3": "15.00",
          "slsil": "29.00",
          "slll": "0.192",
          "slcly": "33.00",
          "slcec": "16.00",
          "slcf": "8.000",
          "sloc": "0.300",
          "sksat": "0.910",
          "slphw": "8.200",
          "slsat": "0.439",
          "sllb": "200"
        }
      ],
      "smhb": "SA001",
      "soil_lat": "-99",
      "sltx": "L",
      "sl_source": "HWSD"
    }
  ]
}